A53,A7,A1,A768,A166,A47,A1114,A1141,A997,A998,A999,B1458,B166,B1,B1114,B720,B53,B7,B768,B997,B998,B999
24,17,40,28,29,3,7,8,23,0,234,14,26,16,5,43,34,28,26,4,6,211
9,23,53,20,42,10,12,12,18,3,241,22,23,22,18,32,39,19,35,8,0,225
22,39,77,50,52,15,33,11,32,0,435,33,39,22,24,63,44,30,67,15,34,395
31,45,142,155,25,39,45,26,38,61,1048,26,58,148,36,113,61,23,156,31,0,1003
31,45,127,107,19,84,25,10,43,18,930,28,49,153,25,78,69,16,122,84,0,815
87,54,85,106,20,50,47,15,42,0,901,22,60,104,67,45,49,30,123,39,47,821
4,5,41,12,7,2,1,5,4,0,92,6,13,30,0,4,3,3,17,1,0,96
1,17,52,9,23,9,1,4,3,0,139,6,19,22,5,15,5,3,7,10,18,148
16,28,83,70,165,16,26,20,33,47,554,30,138,69,29,64,48,22,85,23,0,550
10,30,73,34,25,26,20,9,18,0,658,16,32,64,20,49,24,24,66,30,16,562
25,38,152,56,33,28,17,21,33,29,635,15,69,106,24,47,45,39,81,30,0,611
22,27,163,31,37,23,30,24,71,0,650,12,61,98,31,59,44,34,33,18,105,583
39,44,131,33,42,26,17,18,36,0,420,21,65,74,36,42,65,34,53,20,14,382
9,31,81,17,19,28,3,6,13,0,443,6,34,43,7,14,31,19,41,21,19,415
20,35,121,30,21,39,13,11,10,0,460,6,27,71,14,29,45,25,57,21,17,448
12,34,119,25,28,20,24,20,22,0,622,12,52,61,29,37,32,51,50,19,30,553
21,61,105,37,13,23,8,20,30,0,544,9,28,65,16,32,43,44,60,19,43,503
16,51,124,19,32,22,21,21,46,0,606,18,62,78,25,51,38,45,50,24,3,564
31,15,134,26,22,20,22,19,36,0,704,11,45,75,23,33,41,31,34,21,91,624
13,31,102,23,38,23,12,10,28,0,652,12,48,68,16,40,30,47,58,13,29,571
29,42,124,48,35,28,31,23,35,0,591,8,53,76,30,42,59,40,76,20,32,550
33,22,106,24,23,20,31,15,27,0,322,11,46,78,24,31,45,26,38,10,5,309
7,30,71,32,30,17,12,18,29,0,545,13,44,46,24,34,24,35,35,19,21,496
28,37,123,30,25,29,20,15,19,0,559,10,38,81,23,52,42,24,38,27,26,524
28,27,160,28,29,22,14,19,48,0,446,20,44,93,18,46,59,27,62,25,26,401
14,15,48,14,7,12,12,6,9,23,246,6,21,33,15,17,19,10,22,7,0,256
11,6,54,10,7,10,16,3,24,5,183,4,29,25,19,17,16,8,21,4,0,186
11,36,94,21,23,14,18,20,27,21,1509,9,19,69,28,30,34,30,43,23,0,1509
17,41,86,30,18,24,26,23,37,0,552,8,50,61,22,33,45,23,58,14,31,509
32,107,103,32,27,19,15,17,34,0,517,26,43,64,13,56,40,38,72,20,18,513
13,41,107,38,37,35,23,15,25,0,489,6,40,70,26,32,27,24,60,13,43,482
16,59,105,49,31,31,12,25,37,0,472,13,60,61,15,33,33,40,76,23,7,476
18,56,108,42,32,44,9,21,15,0,515,8,36,89,32,34,29,42,83,27,23,457
25,40,102,34,39,27,22,15,32,0,620,6,64,59,34,38,51,35,48,20,38,563
3,25,51,77,12,45,9,1,35,23,508,13,25,43,18,43,23,9,54,31,0,530
81,16,110,64,15,12,18,10,36,26,454,12,32,67,28,45,133,7,52,12,0,454
28,61,170,78,14,37,23,14,66,0,1046,13,63,197,37,71,42,21,100,25,41,927
4,10,21,14,0,9,5,0,9,0,100,0,5,15,7,8,2,3,16,3,4,109
0,5,3,2,0,4,1,0,2,8,36,0,2,2,3,3,1,2,13,2,0,33
3,16,3,10,8,6,2,2,6,1,117,1,7,13,2,12,9,12,20,4,0,94
3,0,11,3,0,1,0,2,7,0,40,1,2,5,5,6,6,2,1,2,0,37
15,37,180,22,25,26,14,10,35,0,883,10,58,125,29,48,29,14,48,11,60,815
10,28,128,31,14,18,12,22,27,0,638,26,35,93,19,39,21,20,41,18,23,593
8,47,111,32,15,23,6,27,14,17,728,10,21,106,19,49,24,34,52,24,0,689
38,114,182,126,30,49,66,20,53,0,1357,44,51,169,49,91,45,102,126,40,11,1307
8,38,271,28,16,20,15,14,24,0,674,17,43,176,17,49,22,21,40,25,9,689
38,77,249,39,39,25,52,14,51,15,1203,30,63,92,41,85,75,61,90,27,0,1238
12,27,172,26,73,12,9,17,20,2,618,5,72,156,9,24,23,11,56,16,0,616
11,35,137,30,63,16,19,34,17,0,608,19,52,122,22,45,20,27,52,22,24,565
10,35,176,12,20,12,13,18,18,0,591,18,40,118,25,31,17,13,22,6,11,604
8,26,108,20,26,6,8,17,26,0,670,22,37,96,14,33,21,19,28,12,19,614
24,75,244,93,21,58,32,28,56,6,1004,39,71,232,30,71,44,9,137,37,0,971
15,18,53,43,9,21,11,3,13,24,415,7,16,55,12,32,16,17,52,19,0,399
47,60,212,74,22,41,30,27,64,0,1091,24,65,138,58,93,94,56,105,32,2,1001
12,43,47,60,12,23,10,10,27,10,421,9,20,54,11,41,31,22,77,23,0,387
11,55,103,33,6,26,24,26,88,0,731,6,33,105,18,33,14,27,65,13,63,726
8,55,107,30,10,33,24,49,73,0,625,15,20,110,22,39,19,17,74,22,20,656
10,33,133,22,14,14,21,0,15,7,565,18,65,95,20,46,17,14,42,11,0,506
3,5,21,8,2,1,1,0,4,0,36,0,9,19,1,3,5,0,19,1,0,24
4,8,9,9,1,3,6,2,0,3,76,1,5,11,4,13,0,2,17,4,0,64
2,7,24,13,3,5,0,0,2,2,71,1,5,25,0,7,2,3,9,2,0,75
3,6,33,24,13,6,4,2,4,8,109,5,8,36,1,5,4,1,17,6,0,129
7,50,123,60,16,22,18,4,19,0,644,8,29,112,11,36,18,18,81,19,17,614
10,15,137,44,4,17,8,8,8,12,356,3,16,146,16,15,11,4,36,12,0,360
2,16,62,30,7,9,2,3,12,11,212,12,22,41,5,15,6,5,30,6,0,224
6,20,75,41,5,19,10,3,32,12,300,3,15,89,11,34,10,6,40,17,0,298
0,21,147,25,23,7,4,5,11,9,431,6,39,101,7,33,5,7,36,8,0,441
13,21,71,11,18,12,6,7,16,0,387,4,26,46,7,17,12,4,29,12,13,392
2,4,6,13,0,2,3,0,0,6,69,0,3,12,0,6,0,4,9,1,0,70
0,4,7,10,6,0,3,1,10,0,72,0,4,10,4,7,7,1,8,4,5,63
0,3,20,11,3,6,3,2,13,4,70,2,12,14,3,10,1,4,16,6,0,67
9,5,16,29,2,6,2,1,6,0,120,4,7,14,2,14,9,7,19,4,10,106
0,7,21,21,3,2,7,0,2,2,149,4,10,27,7,11,5,2,25,3,0,120
0,14,25,24,2,5,4,2,11,0,239,3,3,24,6,20,17,5,31,5,10,202
13,21,71,51,4,14,15,3,12,1,362,8,23,82,10,28,15,8,41,11,0,341
10,23,414,36,12,19,22,5,25,36,871,8,51,311,16,62,28,15,48,14,0,920
23,31,143,53,25,14,52,22,54,0,795,31,77,75,56,61,58,27,54,15,0,758
0,3,9,3,1,2,3,1,3,0,55,0,4,7,3,3,0,2,9,3,0,49
11,19,37,40,9,12,8,5,39,0,380,7,25,56,13,25,16,6,29,9,2,372
3,11,98,26,23,12,1,3,14,8,308,9,35,71,9,13,11,2,18,10,0,329
3,17,51,18,4,6,0,5,8,0,152,3,11,34,2,7,17,5,22,7,3,153
12,17,62,25,20,15,17,15,21,1,397,10,31,54,14,31,42,9,28,14,0,369
14,19,114,8,3,4,13,8,13,0,461,2,28,63,9,15,27,15,18,5,21,454
12,19,69,5,3,5,12,27,18,0,395,4,12,71,8,21,29,12,5,3,21,379
21,49,128,28,6,15,12,33,23,0,679,8,32,127,15,42,23,36,35,18,30,628
10,11,57,43,13,10,14,8,25,27,172,4,30,33,8,33,30,10,47,4,0,191
4,12,64,39,9,8,8,0,11,0,301,4,13,37,16,19,10,5,33,12,12,295
0,20,83,20,14,16,12,2,12,0,303,11,37,34,10,23,6,5,26,14,13,303
2,30,65,16,18,23,5,2,20,0,268,8,25,31,17,15,5,18,26,21,33,250
21,34,134,141,22,35,47,14,33,10,950,24,39,124,41,76,46,25,154,25,0,887
19,18,74,16,8,10,17,5,15,0,334,5,20,49,8,28,35,23,30,6,2,310
62,54,219,60,33,29,32,15,53,0,920,30,86,141,31,69,51,30,82,23,7,927
23,39,75,70,18,41,12,41,36,0,611,15,40,75,20,50,44,8,102,16,23,573
23,41,96,91,18,29,11,44,92,15,824,25,69,99,27,94,68,21,140,18,0,723
22,39,47,104,19,32,23,19,66,0,694,27,36,69,28,73,30,19,111,13,64,595
14,24,36,39,14,17,11,23,23,0,334,8,21,50,19,31,10,14,74,6,19,283
19,30,48,69,22,21,21,23,40,4,606,20,38,74,21,79,35,15,93,21,0,507
31,44,60,97,27,33,26,38,69,0,807,13,68,96,22,89,74,19,109,19,15,708
30,28,91,112,26,23,38,25,62,0,1146,20,45,94,26,67,63,8,132,16,41,1069
22,33,58,76,23,26,41,24,57,0,1059,22,50,77,33,109,48,20,101,16,79,864
19,42,67,65,29,24,21,31,48,0,713,14,27,79,28,56,30,15,100,20,44,646
15,52,52,62,20,27,20,30,45,0,709,16,25,56,26,69,33,29,88,16,35,639
30,16,79,73,22,21,21,34,44,11,496,17,36,79,21,56,62,3,91,12,0,470
12,9,49,25,10,4,4,10,11,5,186,9,11,51,8,25,11,5,30,6,0,169
23,23,92,73,34,16,16,42,48,11,475,21,63,106,18,79,46,14,102,8,0,396
29,34,50,55,16,15,17,21,45,0,465,16,42,59,19,49,42,11,64,11,22,412
11,22,92,35,14,14,21,4,20,0,520,10,22,76,12,50,42,10,33,14,2,482
19,11,33,19,8,11,6,8,9,0,141,7,20,23,1,11,11,3,13,10,5,161
5,20,121,5,12,10,10,6,4,0,293,2,11,63,6,19,9,12,23,3,11,327
21,44,68,39,17,19,13,4,21,0,441,14,51,68,8,35,19,24,63,15,0,390
4,16,88,10,8,4,12,3,10,5,263,9,16,55,9,21,2,3,16,4,0,288
31,41,204,62,6,13,20,19,50,0,880,16,41,236,24,65,45,19,96,10,27,747
8,25,112,14,5,9,6,6,11,0,344,3,22,112,10,22,9,3,37,3,26,293
6,40,177,44,64,22,17,16,32,15,747,15,127,172,30,69,29,13,67,15,0,643
12,17,69,50,5,19,19,10,44,0,490,14,29,45,13,46,22,8,76,12,37,433
4,8,32,12,0,3,4,10,3,0,131,1,12,41,2,10,6,5,22,7,5,96
4,26,34,32,4,11,7,8,14,15,265,9,17,34,11,20,17,12,58,12,0,230
5,12,15,45,15,20,4,8,15,5,330,14,1,31,9,15,18,7,59,14,0,306
10,12,44,22,2,4,9,1,12,0,184,3,8,57,13,16,13,1,21,2,9,157
15,29,112,85,23,15,16,21,59,0,810,15,52,128,18,58,52,17,131,21,11,682
11,20,97,64,7,6,17,15,55,0,491,16,25,97,15,55,27,6,75,16,12,439
15,34,37,56,13,30,16,3,23,0,396,9,22,34,12,11,29,21,80,20,19,366
24,23,76,60,12,23,21,8,32,0,520,18,43,64,18,52,51,8,57,26,49,413
11,24,34,49,13,25,24,10,31,0,1189,7,9,26,28,54,24,9,52,16,55,1130
20,30,78,89,5,28,28,7,48,0,426,12,22,75,29,36,32,13,86,16,17,421
8,25,36,82,10,19,30,11,49,0,715,11,27,47,29,64,36,18,70,21,48,614
20,46,91,95,10,41,29,18,48,0,778,20,21,89,32,59,32,27,132,26,62,676
18,27,73,87,23,17,26,12,45,0,760,19,42,99,18,63,50,14,94,26,25,638
8,21,74,71,9,16,29,8,32,0,409,9,17,60,13,34,31,17,63,15,11,407
14,26,35,50,11,25,7,5,33,38,328,13,31,47,11,27,24,13,67,12,0,327
18,29,76,61,8,15,10,7,32,0,310,9,22,66,14,44,29,17,55,14,10,286
46,28,115,99,15,13,26,19,82,23,422,18,44,119,20,69,93,14,97,11,0,403
5,8,25,31,8,8,4,10,18,0,298,6,6,28,8,19,13,4,34,8,6,283
7,12,39,49,7,13,15,7,17,0,302,6,15,27,17,24,17,4,51,13,26,268
5,25,39,51,9,25,15,6,20,0,508,14,8,32,12,25,18,11,59,18,24,482
4,24,46,54,13,19,19,10,17,0,364,13,10,41,17,17,14,6,61,12,28,351
17,31,52,60,6,18,10,9,24,30,388,16,21,52,12,40,32,12,69,12,0,379
9,19,43,46,11,26,10,20,34,0,418,6,20,42,15,34,14,6,65,19,52,363
14,33,36,75,4,12,18,8,45,0,490,13,30,44,10,41,23,9,93,19,35,418
22,26,57,57,8,17,23,4,24,0,491,20,37,50,21,28,44,4,67,16,31,411
5,9,44,6,12,1,10,2,6,6,140,7,23,21,7,8,7,3,11,4,0,150
0,1,25,8,1,2,2,0,5,0,39,3,1,21,3,4,2,0,10,0,1,38
13,7,45,18,10,6,2,2,13,6,205,22,10,45,3,13,27,3,13,5,0,186
23,41,147,23,17,14,16,65,35,0,554,14,46,149,17,34,44,19,46,19,36,511
18,35,174,42,26,28,12,66,34,0,678,8,47,166,10,38,20,17,52,28,57,670
28,81,125,73,22,30,27,27,50,18,931,58,48,105,24,89,52,17,119,24,0,876
37,22,86,68,19,13,19,28,46,12,512,24,50,105,19,64,55,4,63,14,0,464
7,10,91,29,2,10,2,21,7,2,229,3,11,98,7,22,14,5,28,5,0,217
27,21,114,40,14,6,21,17,40,0,577,11,28,117,28,49,40,11,57,10,33,493
31,24,154,66,23,17,18,18,59,0,749,18,49,128,42,69,59,10,85,11,15,673
6,15,101,12,9,11,10,3,14,0,319,7,24,89,7,29,13,4,22,15,11,279
12,36,43,41,6,12,5,25,47,19,400,4,23,59,12,32,30,6,77,12,0,391
23,46,87,57,9,23,27,23,36,11,713,13,27,94,27,71,36,18,110,13,0,646
20,71,84,66,9,20,22,24,43,15,790,22,25,94,25,60,40,15,109,10,0,764
21,77,43,42,5,33,26,25,30,0,591,11,31,65,21,50,21,11,82,13,46,542
8,60,51,41,9,22,20,5,23,0,565,6,16,65,15,22,10,13,84,21,55,497
27,48,163,85,42,13,16,36,37,8,542,80,69,108,14,68,43,28,80,19,0,508
4,13,27,9,7,18,20,12,17,0,159,7,9,20,13,20,7,4,17,13,14,162
4,28,16,20,8,9,12,4,7,0,213,7,15,25,10,10,9,14,33,5,5,188
35,48,52,58,26,32,11,18,47,9,398,14,48,82,7,65,37,29,46,18,0,388
4,29,149,20,41,9,2,1,19,0,351,10,41,102,10,31,4,5,38,10,4,370
4,14,19,18,17,5,1,6,6,0,136,5,8,7,2,6,16,9,13,2,1,157
92,33,79,58,18,14,3,6,28,12,346,35,44,29,18,55,81,19,43,9,0,356
11,45,79,55,128,20,30,22,36,13,623,23,72,107,24,78,37,30,69,26,0,596
10,12,15,10,4,8,1,1,9,7,83,3,7,15,1,4,8,7,20,1,0,94
20,32,74,75,26,23,16,9,33,0,462,25,56,46,32,50,28,25,88,22,1,397
28,10,37,7,6,5,3,4,4,0,85,12,13,19,7,6,8,2,6,5,20,91
16,40,52,39,80,35,13,76,15,0,457,24,43,48,15,44,30,16,83,26,15,479
15,28,41,25,99,27,9,48,26,0,466,24,43,50,13,38,26,21,55,11,10,493
37,28,52,46,100,35,7,72,22,0,610,23,32,62,18,48,45,17,91,26,70,577
30,29,63,44,97,25,9,72,21,0,402,22,44,55,32,51,49,14,95,18,6,406
23,34,66,27,106,22,17,80,9,0,740,28,57,62,13,46,52,22,64,16,56,708
26,23,76,39,39,39,12,80,31,0,495,18,68,65,21,49,41,16,48,18,46,470
47,28,217,50,62,41,24,125,39,0,872,50,168,182,20,75,89,20,73,21,27,780
29,27,104,66,44,24,25,104,27,0,624,42,119,76,24,40,37,18,83,16,37,582
30,45,143,42,55,28,14,98,31,0,575,36,120,134,28,52,36,23,74,25,16,517
29,44,128,50,51,43,15,86,28,0,553,20,123,83,23,40,24,35,87,23,49,520
2,5,91,7,2,10,5,7,9,0,240,5,6,63,8,16,4,4,16,5,25,226
5,11,13,19,2,9,32,6,8,0,128,2,8,18,17,8,6,3,25,12,4,130
9,18,65,32,37,8,24,11,27,0,407,15,35,39,27,41,31,19,40,11,11,369
10,36,22,17,12,10,6,8,14,0,148,5,10,29,9,19,16,12,16,8,5,154
0,6,2,6,2,4,0,0,2,0,33,0,1,2,0,3,0,1,6,4,3,35
9,75,39,17,11,9,5,3,10,17,252,9,24,28,9,9,10,21,27,5,0,305
10,44,25,12,7,6,2,3,8,0,205,15,14,17,2,8,20,17,29,6,7,187
8,10,21,30,24,21,15,3,29,29,184,13,22,27,22,23,26,15,35,11,0,180
5,9,36,21,15,4,3,10,16,6,215,16,14,10,14,27,13,24,28,4,0,190
13,12,12,18,7,24,6,0,7,30,153,3,12,15,10,17,4,25,32,12,0,152
3,9,29,11,2,2,11,4,3,10,123,1,0,24,7,8,4,9,25,1,0,128
9,25,120,14,15,17,9,10,22,3,367,19,41,65,17,31,33,15,41,10,0,339
27,24,71,15,21,4,5,7,14,3,320,7,36,46,15,33,32,19,38,17,0,268
2,30,115,34,21,10,7,13,30,19,422,16,44,133,10,41,29,22,41,4,0,363
19,25,117,73,156,11,4,25,28,30,481,56,71,88,18,76,84,34,87,18,0,437
42,44,128,95,149,29,19,17,46,0,706,46,94,105,32,107,94,46,111,25,17,598
20,43,74,102,134,29,17,22,44,0,468,36,67,49,23,82,60,39,119,12,12,454
33,36,75,62,174,17,14,48,43,39,522,53,93,65,29,93,96,44,91,20,0,479
0,9,16,29,31,5,4,2,14,15,186,7,19,33,7,22,22,3,22,5,0,171
30,40,94,68,139,15,11,22,36,0,484,31,82,90,22,85,87,48,83,18,9,384
17,43,54,40,54,19,12,10,22,0,366,29,40,39,32,61,30,38,59,16,5,288
18,27,55,40,67,9,16,17,26,0,285,21,38,46,15,39,34,26,43,11,19,268
15,34,38,48,100,33,16,13,42,0,566,39,62,35,24,68,53,27,58,21,49,469
15,50,78,53,137,23,20,23,32,0,602,42,77,51,18,87,46,45,115,18,33,501
8,31,47,53,98,26,21,16,33,0,656,26,56,30,26,65,41,24,74,18,31,598
10,36,45,56,75,20,19,13,37,0,334,36,25,44,14,47,41,39,66,12,51,270
12,49,36,34,87,22,22,18,22,0,398,29,41,37,26,58,17,38,75,13,23,343
12,52,42,35,78,27,20,14,28,0,371,32,40,27,22,32,18,31,69,13,54,341
11,35,39,66,99,23,18,13,35,0,377,19,48,37,32,46,33,17,73,10,49,352
18,39,46,56,117,14,17,25,32,0,460,52,50,39,22,65,61,57,90,13,25,350
16,47,77,81,121,27,27,12,30,0,437,56,46,37,27,63,57,54,114,18,51,352
20,26,61,43,92,6,14,30,26,30,360,43,53,59,20,68,50,32,59,15,0,309
5,7,16,5,17,5,5,3,5,0,109,5,9,13,8,9,6,1,9,3,19,95
24,26,58,63,138,13,15,20,18,5,384,32,79,72,12,60,59,20,62,10,0,358
11,58,59,73,97,45,17,18,56,0,476,25,43,80,18,54,31,47,90,25,21,476
29,50,83,77,172,34,36,35,65,53,649,56,103,117,52,97,75,30,97,24,0,632
37,36,81,81,161,21,17,28,37,0,523,28,88,123,23,68,93,44,65,14,32,444
24,49,61,58,91,16,19,14,30,0,475,30,65,49,25,61,44,16,72,13,29,433
6,10,69,36,76,22,7,22,20,0,299,17,53,56,15,57,29,11,41,14,33,241
9,52,32,66,71,27,5,7,20,0,338,14,39,30,8,52,18,27,80,14,47,298
11,32,50,75,149,19,6,15,30,0,425,29,51,44,15,66,50,25,90,15,35,392
14,38,41,70,92,29,12,19,36,0,420,30,49,21,20,44,43,39,97,16,70,342
24,44,49,64,113,27,30,6,36,0,568,30,40,36,22,72,49,39,98,25,39,511
29,36,76,68,100,20,10,18,28,0,376,27,69,50,20,49,49,34,80,17,18,348
18,46,59,57,129,28,16,9,39,47,405,44,52,30,26,67,36,49,127,20,0,402
9,35,31,54,91,28,13,13,33,0,395,24,42,14,14,51,31,42,75,12,60,337
24,46,46,73,118,28,15,8,32,0,430,25,60,25,18,56,46,55,102,14,29,390
29,38,71,61,92,13,28,22,39,0,468,53,51,44,32,80,72,58,77,11,2,381
17,29,36,54,64,20,9,15,15,0,330,18,33,32,9,33,27,30,63,25,36,283
25,39,123,53,217,12,27,33,50,119,661,53,164,101,33,126,108,45,98,11,0,620
7,19,61,44,77,13,14,5,28,19,362,28,49,47,11,75,43,25,48,5,0,318
32,31,123,93,201,27,14,27,49,64,619,83,118,105,35,72,104,63,127,13,0,560
10,30,49,30,49,8,18,17,30,8,275,21,30,29,26,43,39,30,49,15,0,242
11,17,21,20,20,9,5,9,8,1,132,11,12,5,5,20,11,19,34,9,0,127
5,24,71,31,45,15,9,14,17,11,272,28,33,62,7,52,20,26,38,19,0,229
10,38,93,66,75,18,20,26,31,0,449,41,41,69,21,68,22,34,85,20,36,389
18,34,36,49,116,24,14,8,42,0,449,20,58,37,21,85,45,33,77,7,50,357
17,26,44,55,106,26,8,20,43,0,392,25,52,20,25,50,48,32,79,14,64,328
20,43,57,76,120,16,8,15,34,0,416,22,69,32,12,61,59,35,99,17,3,396
14,49,39,66,70,20,12,18,22,0,453,24,39,24,11,50,30,19,79,18,41,428
43,33,66,51,147,28,27,32,60,0,3181,38,89,67,33,89,87,29,77,27,220,2912
15,38,51,90,85,15,11,8,31,0,371,14,40,50,19,47,40,26,83,12,29,355
16,35,66,72,114,11,5,33,25,75,420,40,69,67,9,63,71,41,70,5,0,437
13,18,80,52,88,15,9,24,28,38,373,25,72,61,15,63,58,38,62,8,0,336
19,20,49,61,140,19,34,29,39,13,558,38,88,41,38,91,73,45,67,19,0,481
25,15,43,55,157,21,27,22,38,0,575,40,86,42,32,86,61,53,46,11,34,487
11,19,42,60,123,15,13,22,35,0,706,30,78,35,17,81,45,37,75,12,54,582
11,29,48,36,104,19,8,10,27,13,413,47,64,35,18,50,39,38,74,14,0,339
18,48,43,53,88,32,15,12,32,0,780,30,50,37,44,52,38,33,78,17,25,717
19,15,27,37,69,6,21,20,17,0,231,23,26,23,23,31,31,17,52,4,25,207
22,32,62,49,127,14,20,19,42,0,361,31,54,46,27,65,64,34,79,16,22,310
36,37,83,46,155,12,15,19,34,69,526,44,91,65,28,77,51,44,81,16,0,535
9,40,79,55,121,25,18,20,46,0,598,33,61,51,26,63,31,43,96,14,65,528
9,27,27,50,84,23,11,9,18,0,415,29,24,19,22,44,21,23,70,10,36,375
6,45,30,60,73,16,18,8,22,0,506,32,23,39,20,51,25,38,74,17,35,430
20,35,66,54,90,23,16,13,47,0,496,34,52,65,31,54,34,31,85,14,35,425
10,50,45,69,113,29,12,9,37,0,455,17,58,35,21,52,34,38,103,29,45,397
32,36,79,84,145,23,23,24,73,0,450,50,88,52,32,85,102,45,107,20,5,383
12,40,71,67,120,20,8,17,37,0,518,34,59,41,25,87,40,34,98,19,4,469
33,37,73,73,99,15,14,18,29,0,387,35,64,52,20,59,60,31,92,15,5,345
11,46,67,57,123,32,14,12,26,0,546,41,63,48,13,29,41,43,102,19,32,503
13,52,62,62,134,26,12,31,37,0,485,44,42,74,24,43,40,49,76,22,54,446
6,40,46,31,59,20,18,6,25,0,412,14,18,31,24,30,18,30,65,17,0,416
24,39,69,69,130,28,8,33,44,0,406,34,59,59,37,60,41,38,81,14,31,396
7,38,32,50,114,22,9,15,38,0,415,28,48,39,23,41,33,26,76,15,57,354
15,54,45,58,101,26,16,17,37,0,476,17,41,39,37,62,35,36,83,20,52,423
8,28,30,49,55,15,15,8,21,0,249,19,33,17,19,32,21,18,94,10,24,191
20,35,37,37,138,28,12,9,29,0,245,35,59,40,16,49,37,27,75,14,16,222
12,34,46,34,15,21,13,14,12,0,371,14,17,62,10,34,14,10,58,21,5,327
8,26,39,50,45,21,15,8,17,0,418,17,31,64,22,27,17,31,53,17,25,343
2,36,95,25,16,30,11,8,25,0,400,29,35,60,17,36,15,23,44,27,14,348
0,11,22,6,8,2,3,0,3,0,158,1,10,16,3,4,2,10,20,6,5,136
6,24,21,10,29,4,2,7,1,0,156,1,22,22,7,6,2,7,12,3,13,165
7,122,173,53,26,21,14,25,38,0,799,14,62,127,28,48,28,87,57,12,32,783
16,144,194,57,49,61,26,28,28,0,1049,24,75,148,23,38,32,75,116,29,8,1084
14,83,110,46,40,27,7,14,20,0,841,26,54,88,10,29,23,47,70,15,38,802
2,14,66,30,29,18,3,5,17,4,205,27,23,41,8,32,9,16,47,11,0,179
5,31,38,32,30,16,29,14,20,3,346,17,25,29,30,38,12,20,42,11,0,340
0,5,25,15,7,3,3,4,3,1,99,6,16,13,3,11,2,2,16,1,0,95
5,15,26,18,5,3,8,6,4,0,129,5,14,26,3,5,9,8,20,1,4,124
3,23,124,25,11,10,3,7,18,22,270,22,11,81,8,29,18,15,41,8,0,283
15,26,15,29,30,8,5,12,20,15,273,16,34,25,13,37,29,10,47,6,0,231
2,20,84,18,23,2,4,3,6,0,175,9,21,38,6,16,4,23,20,3,1,196
2,12,37,21,17,7,8,2,7,0,185,16,7,19,4,22,8,14,23,4,4,177
14,21,27,21,14,2,5,5,20,0,211,12,10,13,7,41,26,16,22,6,13,174
30,57,142,102,41,26,28,18,63,0,705,32,61,81,45,59,72,67,110,15,26,644
2,3,34,6,3,0,5,3,5,7,61,12,2,9,1,5,6,7,6,1,0,80
5,22,26,13,8,7,7,2,12,6,165,5,22,11,9,16,12,22,15,2,0,159
11,48,128,90,60,22,26,8,45,0,669,56,73,76,24,69,70,54,73,19,2,591
19,58,78,136,56,57,43,35,47,41,965,22,75,111,55,78,27,23,114,32,0,998
1,10,6,9,2,6,1,0,1,0,39,3,3,2,4,1,0,5,8,3,6,40
18,16,75,23,34,15,13,9,11,9,239,16,44,48,6,60,27,14,53,7,0,187
3,10,25,25,26,8,11,2,26,12,259,9,21,42,18,14,7,10,22,6,0,258
2,15,48,17,47,7,2,1,8,22,218,20,19,24,11,29,15,20,25,12,0,212
2,31,52,33,11,18,6,10,16,0,277,11,25,53,10,14,4,10,45,15,12,257
24,59,127,48,57,21,9,25,60,23,567,40,48,72,19,85,70,134,78,8,0,466
10,55,86,45,51,14,18,18,35,7,441,38,49,38,21,39,48,62,63,15,0,407
5,24,26,3,8,7,2,0,7,0,157,0,11,27,4,11,7,10,15,5,12,137
1,16,25,16,9,13,8,3,8,0,132,6,4,23,19,10,4,3,20,6,4,132
7,38,132,37,39,14,33,3,21,19,400,13,60,78,15,38,26,47,56,12,0,398
8,17,68,16,31,13,3,18,8,0,248,10,33,52,13,14,11,9,38,9,33,208
10,21,43,18,26,9,16,13,21,0,408,11,49,41,19,41,28,14,46,7,7,322
7,14,38,7,5,5,6,3,3,1,96,6,5,38,9,9,7,3,15,2,0,91
4,18,9,14,10,11,2,3,10,0,158,7,7,12,8,12,3,0,21,8,6,155
3,16,13,16,1,7,9,2,6,0,102,1,2,16,11,3,2,2,25,4,4,105
53,72,98,90,34,33,25,27,88,0,684,29,66,75,43,74,63,28,86,18,25,697
29,58,90,59,39,23,25,27,81,0,754,39,79,95,33,59,58,18,93,26,15,670
10,11,21,15,6,2,2,3,17,2,118,7,8,18,6,8,13,4,20,7,0,116
43,53,69,75,56,25,19,22,73,0,678,35,76,56,17,44,53,17,89,29,36,661
70,76,177,72,66,42,26,16,45,0,872,59,83,105,40,84,105,42,120,30,48,746
3,17,28,28,20,13,2,7,21,0,208,1,24,8,10,22,9,27,31,12,5,198
6,25,33,44,22,19,23,10,13,7,314,10,20,49,21,14,8,13,34,11,0,336
13,25,61,37,32,18,10,11,18,13,264,15,39,102,12,22,21,10,18,12,0,251
9,39,38,50,11,33,17,12,20,0,513,15,11,50,30,24,21,10,63,19,18,481
11,56,32,94,17,28,16,14,34,0,784,19,37,67,22,40,26,20,78,26,20,731
26,72,72,95,42,43,25,26,37,0,602,14,44,106,25,64,31,18,86,21,4,627
31,55,33,78,41,37,21,28,33,14,638,15,51,61,25,88,48,25,73,22,0,601
30,57,72,95,37,57,44,35,45,0,673,16,63,111,43,73,43,15,118,32,33,598
24,56,60,111,34,44,22,29,51,0,566,13,65,86,29,74,37,24,72,34,15,548
1,43,96,25,10,15,4,7,13,0,363,3,25,84,4,17,5,26,48,9,11,345
1,64,160,27,20,9,10,8,13,4,764,7,32,107,8,33,5,27,42,5,0,814
4,28,119,12,9,4,7,1,7,9,359,2,18,84,8,16,9,14,40,2,0,366
3,17,37,14,41,10,5,8,10,0,233,15,30,17,6,18,8,9,31,4,7,233
19,56,52,90,79,13,32,26,39,0,491,14,75,79,31,54,46,39,66,11,14,468
10,83,21,89,43,20,12,18,13,0,604,14,57,41,23,46,17,24,95,21,29,546
12,102,37,76,41,47,24,22,39,0,566,14,38,40,41,64,33,64,99,26,19,528
24,89,44,100,65,31,24,25,67,0,622,30,58,57,28,109,44,56,84,16,28,581
14,83,41,84,43,24,30,17,46,0,854,16,42,48,55,67,37,46,69,28,48,780
13,106,56,67,63,38,14,7,46,0,691,21,55,83,45,58,29,60,109,15,34,592
24,97,89,88,63,22,42,15,42,0,657,28,82,92,33,72,27,52,118,16,39,580
11,102,62,90,47,41,43,20,40,0,1483,27,44,78,53,75,43,57,109,27,15,1411
15,66,51,91,48,36,39,17,46,0,946,24,43,63,44,82,30,46,75,21,19,908
12,93,51,97,47,33,33,11,45,0,705,16,32,72,33,64,22,47,103,17,55,666
10,91,50,78,47,36,27,19,33,0,645,21,57,58,28,64,19,41,101,14,45,588
14,80,62,82,51,36,26,21,25,0,519,12,49,43,38,41,19,43,93,25,30,523
23,107,39,82,68,29,20,11,22,0,755,16,55,61,24,59,19,39,103,19,64,697
3,8,43,25,4,16,7,11,7,4,149,14,9,17,7,16,5,13,30,11,0,155
6,21,145,32,27,5,11,15,18,0,372,12,31,85,18,48,10,18,59,13,15,343
9,24,41,45,57,21,17,10,28,27,374,21,57,56,14,60,29,15,53,10,0,338
10,32,94,44,29,13,19,8,21,18,320,15,33,94,8,38,22,8,29,4,0,357
7,27,102,40,30,17,15,8,24,0,315,15,10,57,19,39,20,24,37,8,17,339
6,53,51,19,9,4,6,6,6,0,254,9,16,33,4,25,9,16,43,4,16,239
3,29,18,10,3,5,5,3,8,0,167,7,14,11,7,8,1,11,20,11,9,152
6,80,51,39,19,27,7,4,23,0,428,9,64,39,14,25,9,20,62,17,25,400
14,119,36,31,24,41,13,7,21,0,522,14,55,22,17,42,18,33,66,25,68,468
16,120,41,29,10,26,18,6,14,0,415,20,53,21,15,20,19,35,60,16,49,387
10,141,29,45,14,27,12,7,14,0,386,14,36,21,9,29,14,32,65,21,63,381
19,167,73,39,26,17,17,10,15,0,683,27,92,65,13,46,25,30,58,16,28,666
23,136,86,45,22,18,4,19,22,0,502,39,78,60,8,31,37,29,61,12,3,519
10,28,124,22,29,17,3,7,28,0,186,22,31,64,13,39,33,14,38,12,0,188
24,32,144,67,55,19,19,22,45,0,887,85,55,80,35,101,53,45,76,14,16,754
15,30,113,62,45,12,12,28,33,0,721,51,57,53,21,61,54,40,84,13,29,608
19,43,126,119,43,39,34,56,31,1,882,26,95,152,34,60,26,19,113,28,0,840
5,29,31,24,5,15,5,6,10,10,254,8,20,22,6,17,8,6,33,18,0,256
3,13,13,13,9,7,10,12,14,5,117,6,13,15,5,14,7,5,24,6,0,121
5,44,62,8,16,7,6,2,11,0,214,6,21,48,2,11,8,22,18,8,0,231
35,142,185,58,23,28,11,16,20,0,888,20,50,165,24,47,39,66,110,21,0,864
13,53,41,76,27,26,15,11,33,0,572,20,29,49,39,50,25,28,106,13,13,495
13,43,47,91,39,18,12,7,45,0,825,29,49,74,35,62,21,25,70,14,22,739
7,20,133,62,46,29,13,13,22,0,600,51,47,53,21,41,19,20,70,19,23,581
8,18,10,19,17,10,2,5,10,3,139,3,20,4,12,21,10,12,20,12,0,127
3,50,76,36,134,23,15,7,20,0,629,18,79,60,17,61,18,18,68,20,12,622
5,23,29,4,26,2,1,0,9,6,122,7,22,25,6,7,3,12,19,5,0,121
0,1,21,2,15,3,2,0,2,8,19,0,15,18,0,8,0,1,5,0,0,26
1,12,26,10,16,12,0,2,3,0,121,2,23,14,0,14,0,5,12,4,11,118
6,51,100,34,98,22,13,21,25,0,479,10,83,57,17,36,19,20,62,21,26,498
12,34,97,34,106,13,23,19,19,1,462,15,135,59,15,41,24,18,40,15,0,458
11,28,122,42,76,19,8,14,26,0,761,16,94,55,12,41,20,20,54,6,35,754
14,27,70,18,78,9,10,19,21,0,555,16,92,46,14,34,24,18,34,11,27,505
17,34,69,45,25,25,21,16,11,0,349,18,41,77,11,37,19,12,49,16,8,324
14,39,50,34,51,5,18,14,20,9,405,30,41,26,14,45,28,35,54,13,0,373
38,40,151,77,90,18,15,35,58,70,894,40,96,68,32,104,107,40,86,22,0,891
2,2,14,8,18,2,2,2,23,11,68,6,14,19,5,20,7,6,5,0,0,70
18,54,56,58,65,17,10,14,39,30,592,32,65,41,21,64,52,40,67,17,0,554
38,36,116,87,67,19,15,24,48,51,791,46,86,71,14,93,80,37,74,23,0,768
2,18,47,12,20,12,5,0,7,4,169,3,30,27,5,21,11,11,17,7,0,164
7,44,102,45,76,16,12,14,14,0,598,16,76,87,10,35,22,22,56,10,21,573
3,18,32,8,8,8,12,6,10,11,216,10,17,25,7,33,3,13,35,2,0,187
4,36,175,44,26,15,8,26,26,0,544,46,40,83,16,38,31,16,89,15,7,523
0,34,86,23,113,9,10,2,14,0,383,18,57,48,8,27,7,19,41,5,8,436
1,14,12,10,7,6,3,0,7,4,92,5,8,5,3,15,2,4,20,4,0,90
24,49,44,77,55,29,29,10,58,19,623,47,70,29,33,68,55,49,80,21,0,565
39,54,52,58,24,57,17,13,26,29,576,12,39,78,14,52,56,41,88,28,0,537
5,39,36,13,5,9,12,3,6,4,156,14,11,26,13,14,6,8,31,19,0,146
3,21,17,13,17,6,2,2,9,0,119,1,28,9,9,6,11,9,10,10,4,112
0,9,27,2,11,6,3,1,8,0,73,5,17,8,3,12,5,0,5,1,1,83
2,15,17,8,16,4,3,3,1,0,119,0,17,5,1,7,7,7,7,7,10,120
1,14,16,21,11,7,6,3,0,0,113,1,9,38,0,6,7,3,15,5,1,107
3,5,8,13,12,4,2,6,5,1,65,0,15,17,5,8,3,7,5,8,0,56
1,5,13,13,8,8,1,6,3,0,140,2,9,17,0,16,6,7,7,3,1,130
7,9,16,7,3,11,5,3,9,4,127,2,3,8,3,8,4,12,11,10,0,140
54,72,92,138,58,29,24,17,57,2,822,26,53,31,31,106,65,204,95,32,0,722
64,81,192,153,44,61,27,17,51,0,837,14,24,136,35,76,58,165,114,40,74,791
42,50,69,66,31,31,16,16,48,2,597,15,23,54,25,67,40,118,77,22,0,527
28,41,71,109,46,44,22,8,64,0,551,13,39,30,19,86,38,161,75,34,10,479
46,62,54,110,43,53,28,10,52,0,674,12,40,20,39,83,44,165,82,23,33,591
17,13,14,44,15,7,6,5,25,11,284,8,10,7,19,37,27,24,51,13,0,245
6,21,28,28,4,6,14,4,13,13,202,12,11,11,14,54,16,29,30,10,0,152
9,34,20,28,28,16,8,6,18,0,317,5,14,17,10,39,15,50,21,20,5,288
7,15,10,18,3,5,6,2,4,0,122,2,3,5,7,15,16,20,17,3,5,99
3,7,15,6,4,6,1,1,3,3,78,2,4,13,1,5,3,16,6,5,0,72
29,31,95,71,24,20,24,9,48,0,681,8,37,59,22,61,33,86,42,32,43,609
65,20,46,56,18,33,23,3,48,0,1407,22,32,33,28,81,58,64,72,28,3,1298
26,45,42,75,22,50,22,7,36,0,593,8,21,33,24,48,24,105,68,31,35,521
27,64,42,67,13,75,19,8,46,0,686,15,21,22,17,35,31,96,94,32,72,612
41,61,33,90,21,37,21,8,42,0,620,6,20,15,22,50,30,107,84,22,51,567
25,61,40,87,33,32,27,4,45,0,609,22,21,17,25,58,32,122,83,19,66,498
12,5,17,29,9,7,9,6,8,11,155,5,4,10,15,33,12,16,21,5,0,147
50,66,67,122,43,49,32,16,66,0,814,18,39,42,34,95,51,131,107,37,54,717
33,41,55,72,32,33,27,11,26,0,567,11,34,24,23,68,40,141,63,27,41,425
22,46,51,74,21,56,20,9,30,0,513,7,24,19,30,52,26,89,78,33,20,464
37,55,69,87,27,44,38,7,45,0,689,12,31,22,31,70,35,141,73,37,23,623
41,55,78,113,49,46,25,8,35,46,1000,15,46,29,41,79,62,140,103,29,0,952
36,49,57,71,22,53,33,7,50,0,814,17,41,24,36,66,26,132,82,35,75,658
33,44,53,102,48,42,36,12,49,1,941,24,41,44,29,101,62,123,110,48,0,779
38,62,67,107,50,47,26,12,53,0,815,28,40,41,47,96,47,142,103,40,48,645
0,7,3,15,3,12,5,2,6,0,80,4,3,5,7,7,0,8,10,12,14,63
10,6,14,11,13,12,2,5,4,3,87,3,17,9,4,14,10,16,15,7,0,72
2,14,18,9,5,3,4,0,4,0,149,3,17,13,9,19,1,11,19,10,10,96
1,17,22,20,24,18,4,14,5,11,128,5,17,22,5,20,11,22,21,6,0,135
11,24,33,29,5,15,11,15,21,0,279,8,9,16,17,28,12,35,39,12,26,241
5,13,28,12,0,37,13,4,7,0,182,2,10,19,19,6,11,12,19,23,4,176
20,33,99,65,9,25,8,11,23,8,473,14,31,72,18,25,45,45,66,15,0,443
44,30,39,51,13,15,17,8,28,15,502,4,29,48,24,46,59,22,52,20,0,458
30,31,36,28,5,22,28,8,14,0,376,9,15,33,24,26,34,12,34,25,21,345
6,4,12,5,1,10,0,1,1,0,65,1,1,9,2,1,5,2,9,4,0,71
11,3,12,18,1,3,9,0,6,0,165,1,3,9,5,13,12,4,17,2,8,154
6,8,19,13,6,8,10,2,10,0,180,1,4,14,9,12,9,7,17,10,6,173
59,39,22,42,11,23,24,14,12,0,455,12,22,30,25,34,37,25,51,17,29,419
37,45,28,51,11,30,26,7,33,0,574,10,16,40,22,32,42,19,77,16,28,540
67,26,55,44,2,17,42,11,28,0,726,12,17,38,26,21,46,21,41,12,44,740
22,16,42,53,9,31,30,7,26,0,504,4,13,49,28,25,26,19,61,15,31,469
34,31,37,36,7,19,29,7,25,0,423,4,17,35,26,21,34,21,53,10,16,411
41,23,34,33,9,24,24,6,11,12,335,0,32,47,31,23,47,10,42,15,0,305
63,35,63,39,9,16,25,8,10,0,296,12,23,51,19,16,44,25,43,9,25,297
3,3,13,10,6,9,1,0,5,0,105,1,13,11,3,5,1,8,9,2,0,102
1,25,19,13,12,36,7,0,9,0,239,3,11,15,7,12,6,18,38,31,9,211
2,19,18,29,2,30,12,4,14,4,163,8,28,11,4,9,4,19,48,12,0,154
13,21,31,41,0,39,11,1,26,0,254,8,15,14,16,30,16,23,40,15,7,253
3,16,31,54,2,10,6,0,17,3,215,5,18,18,11,15,9,13,49,11,0,208
6,16,46,20,2,10,5,2,10,0,237,5,25,31,6,14,7,9,24,2,2,229
32,40,76,68,4,41,21,8,52,0,514,18,49,54,23,33,30,29,55,27,19,519
26,69,48,64,15,47,19,3,40,0,531,13,77,33,24,36,20,38,72,36,21,492
9,74,55,63,12,40,26,9,30,0,650,22,55,37,36,43,12,45,75,36,58,549
28,73,68,79,15,50,19,6,71,0,675,37,83,47,37,53,37,59,85,36,22,588
19,54,34,49,10,55,17,4,23,0,361,10,30,23,21,32,17,31,47,30,25,360
19,44,32,40,6,11,17,9,41,0,450,13,45,36,17,28,29,30,33,12,3,423
26,59,76,82,13,44,33,18,75,2,657,31,61,47,27,49,50,52,104,26,0,638
19,47,35,48,7,37,18,5,43,35,848,27,50,26,28,48,18,23,57,24,0,841
18,55,61,63,13,46,15,9,43,0,668,13,58,33,8,37,31,30,76,28,8,669
1,8,32,10,7,11,13,5,4,2,117,5,6,28,15,11,3,8,14,6,0,114
0,8,5,7,3,18,4,2,6,0,71,3,4,4,15,7,0,5,8,14,2,62
33,33,65,47,15,43,29,6,32,0,761,15,11,48,26,36,60,36,84,25,34,689
13,9,39,24,2,10,5,5,13,0,238,7,5,37,12,21,15,5,29,7,9,211
40,54,25,66,15,45,35,12,31,0,775,10,15,24,33,44,69,33,119,24,72,655
37,36,24,64,9,37,19,5,30,0,522,4,18,16,23,33,63,33,68,30,50,445
32,57,54,66,15,41,31,6,15,0,509,9,17,30,26,32,70,34,68,17,10,513
24,45,26,53,8,39,21,5,19,0,521,12,13,8,25,27,50,25,66,21,46,468
40,37,45,75,14,37,28,18,18,0,585,16,27,31,31,43,80,36,88,17,2,526
2,13,37,25,5,7,14,1,12,1,178,4,15,32,12,15,3,9,32,7,0,166
2,33,8,20,3,5,7,1,8,0,100,5,5,6,7,11,4,30,16,4,4,95
29,56,26,108,8,34,35,8,21,0,656,16,18,9,33,44,38,85,104,35,58,541
11,42,11,74,16,45,30,4,28,0,572,9,17,3,26,29,13,67,86,25,39,519
12,55,18,70,12,47,22,2,27,0,724,22,12,6,21,32,25,67,77,37,5,685
32,81,28,85,8,53,23,12,24,0,783,15,16,14,22,37,46,78,73,31,18,779
1,1,11,17,0,0,1,0,6,0,33,2,2,8,0,1,0,2,9,1,9,36
1,5,1,6,0,9,3,1,7,5,47,1,3,3,3,10,6,7,1,1,0,50
6,13,23,29,12,15,11,1,16,0,217,6,22,19,15,17,9,13,39,14,5,184
1,0,1,0,6,5,0,2,1,0,21,0,3,5,2,0,4,1,1,2,3,16
2,7,23,9,5,6,7,2,6,0,98,1,7,12,9,4,5,5,12,7,5,98
4,11,27,24,11,7,19,2,28,17,180,13,27,21,10,25,8,13,26,10,0,177
2,15,16,29,11,13,0,4,11,0,140,8,12,15,9,11,12,30,24,7,4,109
6,21,39,16,10,6,9,3,6,0,139,0,21,39,3,10,2,14,14,5,11,136
1,15,13,19,13,5,3,0,7,0,173,3,18,13,4,6,4,8,15,6,12,160
4,7,3,10,10,15,5,1,5,0,166,2,10,10,6,8,2,2,10,10,13,153
1,11,8,8,12,15,2,2,5,0,103,3,3,12,7,10,1,6,12,7,5,101
14,37,17,26,43,60,12,12,14,0,584,19,27,22,28,40,16,20,41,45,37,524
9,42,42,40,51,41,8,2,23,0,603,7,46,41,8,17,10,20,62,21,22,607
2,8,15,14,2,4,4,2,3,0,73,1,1,12,1,4,4,7,15,1,5,76
21,42,56,44,6,36,14,6,17,21,439,12,17,51,22,27,24,32,57,17,0,443
0,3,2,5,2,6,4,0,3,1,30,1,1,2,2,5,2,2,9,5,0,27
3,13,12,33,4,12,2,0,3,7,129,10,2,17,3,4,6,4,26,11,0,135
15,35,34,77,25,38,10,10,18,0,629,7,29,66,23,34,19,27,59,25,19,583
17,48,50,49,26,23,16,12,34,0,681,16,27,55,25,36,31,25,70,16,8,647
5,11,40,32,8,22,5,0,12,1,261,9,12,16,8,9,6,7,39,19,0,272
7,11,13,51,7,11,7,6,7,6,200,9,7,39,14,19,10,6,42,8,0,172
0,3,6,5,11,0,1,0,2,8,35,4,6,5,3,5,0,3,10,3,0,32
3,20,12,13,57,5,5,2,6,0,201,2,37,17,4,26,4,10,28,10,24,162
3,8,16,23,2,5,4,0,12,0,102,1,9,9,12,4,7,3,17,2,5,106
6,23,32,34,2,13,24,4,32,3,405,4,17,36,17,20,20,14,32,12,0,406
10,13,16,34,12,13,9,3,9,0,257,4,11,24,8,31,12,12,32,10,9,223
10,19,46,15,5,15,4,4,6,0,284,12,12,34,13,10,12,14,38,7,8,248
2,10,17,16,0,9,6,1,4,0,96,0,8,10,4,11,4,10,12,8,10,84
4,17,36,19,6,22,8,2,10,11,202,1,13,28,8,16,4,24,36,20,0,187
6,34,50,43,13,17,13,6,28,38,383,15,24,40,13,35,20,17,71,16,0,380
7,20,37,46,10,6,15,9,22,38,309,7,35,53,14,30,26,5,35,8,0,306
4,7,15,16,4,23,15,2,2,0,219,3,7,7,16,7,4,16,10,26,23,188
33,47,30,57,7,88,25,7,22,4,639,10,29,23,36,40,43,54,69,65,0,590
17,36,70,57,21,33,23,11,23,16,788,16,40,55,29,46,27,51,63,33,0,735
5,13,14,20,11,16,8,1,10,0,206,2,6,13,7,7,12,15,33,6,16,187
1,10,6,8,7,6,4,6,2,0,165,0,15,3,4,7,0,11,10,4,14,147
1,26,24,27,5,12,14,2,10,0,236,10,16,16,7,15,10,14,44,6,11,208
2,13,28,26,2,12,8,0,39,12,236,7,24,19,11,11,9,11,28,9,0,249
1,12,16,16,2,8,8,2,10,0,115,0,10,8,12,9,8,13,13,5,9,103
2,28,11,11,4,14,4,3,6,9,75,1,5,6,8,4,1,14,16,22,0,90
2,22,6,14,1,11,3,0,1,14,96,1,4,7,20,11,1,24,16,6,0,80
8,59,24,19,1,18,11,0,7,0,262,1,7,13,14,13,3,44,31,22,16,245
5,12,14,7,1,12,9,5,8,1,127,1,3,11,7,9,10,15,14,7,0,124
8,15,14,23,6,57,9,3,16,7,240,4,9,29,8,27,7,23,23,45,0,223
8,8,64,17,10,9,9,4,10,0,271,1,17,55,7,24,11,3,25,2,17,248
17,38,37,46,10,22,12,7,19,0,400,16,14,22,27,29,26,19,59,17,8,371
17,42,84,71,11,43,41,11,27,0,636,22,36,69,35,36,30,32,70,20,3,630
2,18,25,30,8,30,9,4,6,0,300,13,15,30,10,21,9,13,31,19,22,249
3,8,12,15,6,6,3,1,14,3,98,4,11,7,2,17,10,12,20,2,0,84
8,8,61,54,10,28,16,10,23,0,529,12,21,48,24,37,16,56,50,31,10,442
5,24,74,42,9,21,7,6,8,0,366,13,19,56,12,18,4,14,56,11,8,351
6,19,40,28,16,26,15,3,24,0,409,8,25,24,22,31,18,24,37,14,22,361
10,32,32,26,6,4,29,2,33,0,325,5,12,27,24,18,13,19,40,8,20,313
10,27,61,32,6,11,15,2,18,0,317,5,22,35,9,30,15,38,44,8,6,287
5,13,29,29,12,16,10,6,10,0,187,4,9,20,9,19,14,24,42,15,4,157
21,22,44,28,7,13,11,6,8,15,346,7,18,28,21,23,29,6,42,6,0,341
3,9,9,9,2,12,5,0,7,4,63,1,7,12,5,5,4,7,13,3,0,66
2,3,5,3,2,2,2,0,1,0,31,1,5,1,5,4,0,1,5,5,0,24
0,8,7,11,4,2,2,0,6,13,71,1,13,7,4,7,0,9,10,4,0,69
8,43,23,33,20,33,10,3,27,0,336,17,23,25,15,32,8,14,53,21,24,304
2,11,11,14,5,1,1,2,6,0,162,3,8,11,2,9,7,6,11,7,8,143
0,7,15,6,14,9,4,1,2,1,70,1,16,14,11,7,0,0,3,4,0,73
0,7,13,10,8,14,5,0,7,0,75,2,6,14,5,5,0,16,21,4,15,51
2,15,5,14,7,13,4,0,14,0,186,2,5,6,13,10,2,15,20,8,14,165
14,7,16,19,8,5,5,5,6,0,140,2,16,10,7,6,15,12,28,3,9,117
0,5,4,15,1,14,5,6,2,0,106,3,0,2,5,9,4,6,8,12,11,98
0,5,1,2,2,3,1,0,12,0,35,0,5,0,7,3,4,1,5,1,0,35
4,6,13,20,3,6,5,0,60,12,150,2,8,14,16,8,1,17,30,11,0,172
5,25,41,19,1,14,10,0,9,0,250,3,9,25,7,11,9,9,23,7,39,232
3,14,38,23,6,9,9,5,10,3,143,1,11,28,8,17,6,5,25,5,0,157
6,25,13,35,4,38,20,6,14,8,421,25,8,14,22,19,14,25,62,34,0,367
1,5,7,20,3,5,12,1,10,0,102,4,7,3,7,3,6,7,19,5,3,102
19,54,31,39,12,43,34,4,31,0,818,11,26,26,19,29,32,55,64,42,37,744
3,6,10,13,8,6,3,2,13,0,80,0,7,10,2,13,3,8,8,7,3,83
5,7,6,11,4,15,2,4,15,0,112,7,13,2,8,21,3,17,7,13,1,89
0,1,6,2,4,5,1,0,10,1,75,1,3,1,1,12,4,7,3,3,0,70
0,5,9,6,0,11,2,0,4,0,95,1,4,6,5,3,1,4,6,9,7,86
23,50,56,55,22,64,24,6,71,0,784,14,47,40,30,50,23,69,91,46,7,738
3,9,10,18,0,11,3,1,5,0,58,1,5,4,5,4,2,9,9,15,13,51
8,8,24,19,1,13,9,4,12,0,290,7,8,21,8,26,7,15,19,14,8,255
15,20,50,64,14,17,12,3,11,0,303,8,21,35,13,18,17,22,43,15,16,301
5,18,53,36,20,15,14,6,17,8,448,20,51,54,14,41,10,15,43,7,0,385
31,21,65,37,36,29,8,85,21,0,378,40,41,55,18,58,46,6,56,30,7,354
46,24,44,43,45,29,8,114,49,167,491,54,80,47,14,76,100,28,79,31,0,551
90,38,69,84,82,32,22,159,69,0,662,63,90,49,17,85,115,39,81,23,204,541
23,12,26,22,31,20,11,36,16,0,286,13,16,31,8,32,59,9,40,14,24,237
63,33,101,31,50,25,5,116,19,0,446,33,65,92,15,47,108,17,64,21,44,383
27,42,40,47,36,36,9,90,31,40,443,45,33,31,11,49,34,31,79,26,0,502
24,38,24,48,29,37,4,74,14,0,482,20,32,35,11,39,28,22,59,31,11,486
23,27,31,35,20,49,11,72,26,0,479,29,26,33,13,29,38,17,70,38,28,452
20,62,51,35,20,41,14,75,19,0,451,32,22,33,9,57,40,40,62,39,12,442
54,45,27,48,35,34,2,76,29,0,500,35,39,23,16,52,59,30,46,25,28,497
48,36,53,40,27,29,11,85,45,51,1212,53,79,45,16,71,64,21,60,28,0,1200
31,36,47,34,26,23,11,51,29,26,350,24,43,34,17,35,48,22,63,22,0,356
36,25,32,38,30,28,17,62,21,0,393,24,38,26,12,44,37,22,51,21,43,364
25,34,44,45,21,37,16,93,18,14,482,29,37,30,19,41,43,14,79,33,0,504
23,27,25,26,25,32,5,73,14,0,424,15,20,30,11,31,35,13,52,18,71,378
38,43,26,47,34,39,13,80,27,0,393,20,53,12,18,44,61,37,85,28,6,376
56,46,46,43,59,33,8,109,31,0,585,33,59,48,11,54,74,25,75,26,27,584
63,39,41,59,32,30,8,87,34,0,388,41,39,33,12,57,66,19,70,26,36,382
24,36,29,37,33,38,12,107,35,0,712,39,34,35,15,58,41,36,54,26,187,538
21,33,18,21,25,44,12,61,25,0,466,20,30,26,14,39,40,22,45,33,43,414
23,31,46,48,22,37,13,111,24,0,715,31,46,39,16,53,50,16,44,26,76,673
32,36,44,20,26,42,5,119,30,0,485,39,45,35,9,45,33,22,68,31,6,506
18,40,23,52,42,31,11,86,16,0,498,17,55,37,19,36,30,28,64,21,6,504
47,32,47,28,38,24,2,50,30,0,463,24,52,31,7,39,51,16,40,18,49,434
16,58,100,76,30,54,30,135,39,0,936,19,143,91,45,85,33,43,108,33,6,868
37,36,86,49,36,23,19,24,14,23,552,10,61,78,17,32,78,14,49,13,0,547
46,26,64,42,40,20,21,44,13,0,536,14,44,45,18,24,54,11,56,12,25,549
10,15,53,14,9,10,5,30,14,10,118,14,28,46,6,16,9,7,23,7,0,132
29,51,111,43,28,44,20,59,84,27,709,23,50,115,31,71,64,21,89,32,0,709
4,9,13,10,3,7,10,12,3,0,42,8,4,8,4,5,21,3,17,7,1,35
8,14,6,1,0,10,6,1,10,0,154,0,4,3,5,4,7,5,7,12,9,154
6,15,8,6,1,15,7,4,7,0,197,3,7,7,12,3,14,4,15,11,4,186
86,76,88,69,21,59,31,54,14,0,600,27,25,66,39,45,121,26,103,35,10,601
61,53,40,27,13,37,15,40,27,0,648,32,19,36,20,31,78,23,54,16,22,630
61,58,64,41,21,51,39,52,23,0,610,38,17,47,27,37,85,23,98,29,56,563
9,17,63,28,8,36,4,151,14,0,342,32,14,60,12,26,15,12,31,29,4,437
33,49,71,36,27,44,2,68,50,0,533,31,53,92,12,37,44,31,67,26,19,501
18,26,89,28,18,28,16,48,56,0,580,19,51,89,17,34,19,20,50,23,25,560
14,41,34,45,12,22,7,58,20,22,408,24,35,31,16,42,37,17,40,22,0,419
13,37,36,36,27,29,12,23,39,7,381,20,36,39,18,38,16,27,47,20,0,379
19,44,36,35,37,29,22,56,26,0,429,34,60,42,38,44,34,27,57,21,1,375
10,15,44,42,19,31,11,77,10,0,570,9,43,56,22,11,27,2,33,15,7,604
29,36,50,52,24,51,20,79,29,0,558,18,32,85,18,40,48,33,88,39,14,513
45,59,78,76,21,48,25,75,39,0,670,33,42,92,33,67,71,28,86,32,24,628
31,30,40,37,46,33,27,11,13,2,396,13,49,54,26,21,11,10,51,15,0,416
3,18,19,23,4,14,13,21,5,0,197,3,19,38,8,12,5,10,15,6,5,196
15,71,135,60,27,20,38,104,34,0,842,27,69,139,22,37,12,8,92,30,33,877
24,48,80,53,14,16,30,79,25,0,779,22,55,102,19,35,35,20,69,15,25,751
11,22,64,28,15,6,14,20,24,0,231,11,11,111,5,17,13,9,39,11,19,189
17,28,88,24,11,43,13,67,31,0,699,24,27,82,17,44,36,7,50,40,16,678
32,49,126,50,12,61,26,110,51,0,822,49,33,112,27,52,40,15,95,46,8,862
34,50,102,57,20,33,18,95,36,0,741,35,46,111,23,40,53,20,96,31,16,715
10,33,34,19,13,26,19,78,9,0,448,22,25,55,24,27,10,14,51,17,1,443
0,2,15,0,2,2,1,0,5,0,8,0,4,10,0,5,1,2,1,1,1,10
10,4,59,15,13,2,1,10,32,0,118,4,21,62,6,7,3,0,12,2,13,134
22,19,69,31,8,10,8,17,119,0,256,30,30,85,19,17,7,13,50,12,12,284
15,44,85,67,18,50,17,76,20,0,420,28,45,99,21,40,24,28,63,24,16,424
28,60,100,95,49,51,17,111,31,0,908,36,80,133,28,66,34,19,122,29,17,886
4,11,10,37,10,36,15,31,11,0,216,4,10,21,13,17,12,8,33,9,6,248
6,2,22,9,5,6,6,1,6,0,66,3,9,18,7,11,8,5,4,3,0,61
16,33,127,61,30,89,10,90,25,4,418,40,36,99,19,66,43,15,82,44,0,459
12,15,16,18,9,36,13,134,16,14,186,39,22,31,7,19,11,10,32,25,0,273
18,51,46,46,23,23,9,21,12,0,537,16,59,62,12,29,19,13,81,15,10,470
22,17,53,47,25,37,14,69,29,0,452,24,33,69,21,33,25,15,65,21,33,426
3,7,18,30,7,16,9,16,11,1,222,6,18,12,4,16,10,1,28,13,0,232
7,28,38,42,32,23,11,88,15,10,497,20,42,57,4,41,24,20,60,7,0,516
0,7,4,8,3,3,4,13,7,11,116,1,4,11,2,13,4,0,7,1,0,133
4,17,16,10,4,23,9,26,49,0,220,13,13,20,6,24,7,6,27,12,6,244
2,1,9,3,0,12,2,11,5,0,64,1,3,7,5,3,3,2,7,3,3,72
13,25,97,53,23,49,11,103,22,17,430,22,37,108,26,37,31,14,57,22,0,489
13,20,83,34,33,16,12,33,22,0,301,37,33,78,8,41,18,15,49,15,2,271
4,17,76,20,12,54,10,40,13,1,409,37,24,67,20,23,11,11,48,42,0,373
35,40,108,43,20,100,21,132,30,0,759,70,84,111,12,52,40,15,81,72,3,748
12,49,32,38,14,41,14,20,63,0,356,82,23,22,15,25,12,25,41,39,31,324
15,55,72,25,38,30,24,65,17,5,592,7,134,69,7,37,39,18,37,25,0,565
23,53,87,31,28,23,22,38,20,0,546,18,101,66,15,19,20,15,42,14,13,548
22,45,101,29,42,17,13,61,14,0,576,22,102,88,12,28,22,11,45,14,16,560
11,17,75,24,16,9,16,28,26,6,378,11,42,68,18,24,32,10,39,15,0,347
9,25,102,26,8,16,8,60,20,0,343,21,26,82,9,21,13,13,48,23,31,330
15,13,65,35,8,51,8,39,14,0,379,19,27,69,10,25,17,13,42,33,11,361
7,8,89,24,12,30,7,58,18,40,337,14,21,74,18,47,23,7,50,27,0,349
28,39,191,47,9,45,8,104,37,0,681,21,49,161,22,59,45,21,93,28,0,690
30,16,117,47,9,37,14,86,34,0,648,20,26,105,18,48,43,13,84,24,42,615
11,11,31,24,15,29,8,31,205,11,343,19,23,47,17,33,19,11,60,26,0,464
7,20,45,38,20,22,16,18,18,0,399,25,47,39,19,22,11,6,47,7,31,349
13,40,104,32,16,56,13,62,22,0,397,44,14,71,17,30,20,14,28,44,18,455
26,28,40,32,55,15,9,95,17,23,358,21,37,24,21,32,29,10,43,14,0,467
33,30,80,33,41,21,10,63,22,0,508,23,77,78,8,29,37,14,59,13,10,493
21,21,59,31,31,28,8,74,11,3,477,25,71,65,6,31,25,13,42,14,0,472
23,39,95,49,36,37,17,106,19,0,449,27,50,81,9,45,37,18,72,40,21,470
18,39,108,47,37,25,26,28,22,12,464,25,66,114,19,47,14,11,67,11,0,452
7,30,21,24,10,26,4,39,14,0,204,19,15,20,9,16,9,5,37,12,21,216
4,8,29,12,4,29,9,36,21,9,175,11,17,22,3,20,12,6,32,20,0,193
8,16,11,27,6,27,10,138,8,0,310,25,28,29,19,14,18,9,32,22,24,341
4,7,0,7,9,13,2,9,8,0,53,8,9,4,3,7,1,4,7,6,6,57
5,30,86,43,8,30,13,27,10,0,421,18,7,70,8,7,5,13,62,23,5,455
9,69,79,44,17,27,13,27,18,0,690,16,16,85,24,27,18,14,45,15,24,709
15,28,116,24,9,20,13,26,7,0,592,5,11,110,15,21,10,14,13,12,30,609
17,31,152,29,11,14,16,32,15,0,777,11,18,166,12,32,15,5,16,19,17,783
2,10,20,11,5,8,4,111,9,0,177,30,10,15,3,15,11,20,30,12,12,199
3,12,4,8,6,12,7,7,3,0,78,5,7,2,3,7,4,4,8,15,4,81
1,34,55,34,254,15,7,19,1,0,488,16,252,66,8,18,7,13,60,11,19,438
10,37,32,42,12,13,16,38,7,16,288,8,40,54,4,25,11,13,44,3,0,309
3,8,27,6,8,16,1,3,5,0,137,6,1,22,3,6,7,6,12,2,19,130
10,26,69,39,65,20,15,23,21,4,387,24,50,57,8,30,20,11,31,7,0,441
21,27,92,35,45,13,9,26,27,0,406,15,37,84,16,24,11,9,48,9,23,425
18,50,163,81,29,72,20,77,32,0,795,31,66,185,27,65,17,33,69,53,13,778
25,37,56,52,25,39,17,69,43,3,591,30,46,76,18,36,23,23,53,37,0,615
0,7,12,9,6,8,6,25,9,3,121,10,7,31,8,5,4,15,11,6,0,109
20,46,74,81,23,24,20,60,23,0,540,17,48,91,28,60,14,23,67,34,4,525
19,52,135,37,20,15,9,30,18,5,558,18,50,135,4,41,32,15,38,16,0,549
22,42,149,38,50,17,7,20,26,0,491,23,46,128,16,41,48,19,59,11,30,441
16,37,101,62,19,14,20,13,18,0,461,13,33,92,19,31,31,17,44,20,24,437
32,88,90,68,29,30,20,30,34,0,544,13,40,90,18,41,35,28,74,24,45,557
29,84,41,60,30,34,14,16,46,0,530,17,31,43,17,40,14,19,102,19,47,535
29,87,57,54,24,22,23,14,38,0,668,20,42,56,16,48,35,27,82,24,55,611
26,66,54,73,29,24,18,17,27,0,611,10,33,35,25,36,22,19,69,24,64,608
24,44,47,36,21,20,9,7,33,0,575,9,28,35,16,27,36,12,43,29,31,550
39,55,69,65,35,24,24,39,37,0,777,13,50,96,30,51,39,34,46,16,60,729
29,75,91,57,31,34,17,35,44,0,617,14,53,113,14,38,40,21,72,19,11,635
42,64,59,50,43,22,15,30,40,0,636,26,66,65,24,48,52,15,60,18,29,598
41,49,81,48,30,32,12,21,52,0,1008,24,56,78,17,58,43,17,59,29,49,944
66,89,80,63,59,41,18,22,35,160,654,19,104,104,23,53,96,27,60,35,0,766
49,63,55,62,34,39,26,29,40,10,568,38,74,64,27,61,63,19,68,27,0,534
19,79,91,53,18,34,21,99,21,0,792,26,36,71,21,59,25,39,82,19,55,794
11,21,29,13,6,19,7,35,11,0,315,14,11,20,7,23,25,15,28,11,7,306
29,56,80,29,18,44,22,64,22,0,544,11,22,53,17,26,30,41,57,20,30,601
15,64,77,44,17,36,28,52,24,0,682,29,25,55,14,41,26,28,71,23,13,714
1,6,19,12,4,6,7,7,8,2,121,4,3,17,2,11,5,5,14,6,0,126
2,16,16,4,2,8,2,8,1,0,100,7,2,25,3,6,5,5,7,5,1,93
10,17,42,17,29,14,12,34,6,0,180,5,35,39,6,19,19,4,36,9,5,184
32,53,139,36,29,63,10,67,31,0,552,42,47,124,11,48,32,33,48,55,68,504
27,24,60,13,8,21,12,21,21,0,263,10,19,55,20,22,24,11,28,8,15,258
228,54,96,35,19,46,19,37,16,0,822,21,76,109,28,84,49,23,61,33,132,756
231,62,97,46,8,24,22,12,22,0,704,17,66,92,27,57,53,14,59,22,25,796
0,2,3,8,1,11,1,0,6,0,96,1,3,1,4,4,2,0,2,2,12,97
26,41,55,48,15,30,31,49,22,0,577,31,31,47,20,26,36,13,54,22,43,571
3,18,48,7,5,18,6,19,9,0,123,6,5,58,7,12,5,15,10,4,2,132
23,58,93,104,35,41,15,109,34,0,847,38,77,87,22,49,38,24,138,34,25,827
2,7,14,5,4,4,2,0,7,0,89,4,1,14,16,6,4,2,1,1,4,81
