A53,A7,A768,A47,A1146,A303,A1138,A997,A998,A999,B1114,B1350,B53,B768,B1450,B997,B998,B999
16,38,36,14,23,11,20,40,28,502,29,48,25,69,33,32,0,492
1,8,5,2,1,0,0,4,0,59,1,4,0,11,0,5,0,59
0,8,11,12,5,1,4,4,0,96,4,6,2,19,4,6,3,97
2,2,6,10,2,2,3,0,8,63,2,3,3,18,5,3,0,64
1,9,8,8,0,0,0,1,1,52,0,5,1,6,1,11,0,56
4,8,16,13,10,1,8,12,16,325,8,7,10,29,11,13,0,335
25,37,84,26,14,28,18,39,0,648,15,45,39,108,60,70,1,581
40,30,125,26,27,44,8,44,32,466,17,95,59,121,97,75,0,378
38,45,82,28,24,42,18,50,0,427,16,50,39,91,73,47,73,365
14,16,49,16,14,23,20,33,0,543,22,52,12,36,45,34,48,479
13,40,84,19,15,15,16,32,0,443,22,44,19,92,53,44,3,400
10,47,70,30,23,19,27,59,0,649,31,60,17,58,57,49,84,578
14,35,96,41,17,31,31,81,0,847,31,75,39,69,72,91,107,709
13,27,51,18,11,13,8,23,0,245,18,34,13,39,35,15,33,222
44,30,66,24,18,32,18,44,0,529,19,78,50,70,60,58,40,430
15,12,35,14,3,13,14,16,23,233,13,24,21,42,22,38,0,218
22,28,83,55,21,40,35,61,53,509,35,80,58,87,86,109,0,452
24,31,84,19,27,30,17,58,156,648,38,111,55,92,97,89,0,612
35,74,116,24,24,23,30,66,0,511,15,81,43,113,84,81,39,447
74,43,89,15,41,60,14,65,0,406,10,104,66,80,134,56,4,353
21,47,95,32,13,33,21,47,0,678,30,67,24,99,76,54,38,599
46,82,141,41,51,58,45,106,293,737,44,186,73,150,198,102,0,847
21,23,56,15,25,17,8,69,3,403,19,73,41,62,71,44,0,330
14,41,79,22,13,36,16,41,0,549,29,53,20,72,58,54,44,481
18,42,78,30,22,21,27,63,0,532,24,72,21,99,52,68,50,447
24,44,95,19,19,36,22,39,0,610,30,76,26,72,59,65,68,512
46,60,117,34,30,43,49,91,92,749,49,133,66,101,110,96,0,756
17,21,26,12,24,25,5,40,0,329,8,50,17,27,76,33,28,260
15,19,26,9,29,65,6,65,0,324,15,63,27,22,106,27,21,277
17,41,82,25,19,25,23,65,0,534,42,72,23,79,60,57,40,458
28,92,136,59,47,55,34,93,0,966,36,136,38,109,113,128,72,878
14,58,93,38,23,15,14,50,0,697,15,59,22,116,55,63,49,623
14,59,81,30,10,21,30,65,0,611,33,57,27,116,74,48,24,542
19,54,116,30,17,39,15,46,0,567,16,63,17,110,92,46,69,490
16,42,98,25,17,26,18,42,0,492,17,51,16,111,43,55,36,447
18,20,23,3,1,10,5,14,0,195,2,26,18,24,30,19,3,167
34,21,65,21,24,42,10,61,0,478,13,69,45,50,102,45,10,422
24,12,23,1,20,49,12,35,0,280,4,46,11,15,81,27,9,263
21,12,42,12,17,20,30,55,21,3679,39,90,32,32,57,59,0,3600
19,31,31,11,19,26,30,40,0,498,20,49,17,24,50,41,61,443
51,42,75,21,17,46,12,73,49,575,13,86,55,94,115,55,0,543
43,56,110,55,31,46,22,70,0,567,24,92,48,102,122,71,23,518
34,25,93,15,36,44,20,97,45,485,26,121,56,82,135,62,0,412
10,14,41,5,22,26,11,41,11,385,14,62,30,33,60,39,0,328
40,32,114,37,27,38,20,52,0,548,23,90,45,102,76,56,12,504
27,51,88,19,14,27,8,57,5,385,14,51,38,86,72,59,0,361
25,57,120,47,38,39,25,59,0,609,26,85,38,118,85,68,39,560
47,38,121,29,49,56,18,85,0,720,21,141,68,98,127,51,26,631
19,28,66,37,21,20,19,35,0,438,20,54,17,72,47,51,40,382
20,32,52,14,6,27,11,29,0,398,14,50,20,59,35,40,33,338
31,48,72,9,17,41,13,39,0,310,7,49,20,64,76,39,50,275
30,38,77,22,29,49,22,60,0,479,15,84,25,83,121,44,54,380
49,34,89,11,38,64,15,79,18,453,14,103,58,62,122,65,0,426
58,24,58,10,42,51,14,97,0,457,19,97,51,52,131,39,47,375
17,50,90,34,26,31,22,76,0,571,22,89,40,107,90,59,25,485
13,32,61,18,18,54,17,56,0,454,16,82,28,55,99,27,19,397
21,24,67,14,17,38,16,53,39,520,20,80,36,56,103,39,0,475
22,32,75,21,21,31,24,50,0,365,12,59,21,67,68,53,36,325
29,47,85,34,26,52,11,86,0,512,13,100,35,84,116,81,48,405
40,33,93,19,40,40,16,95,14,444,27,98,53,76,117,65,0,398
30,39,117,24,26,25,19,115,46,629,25,113,45,103,124,67,0,593
21,39,109,28,15,51,29,89,0,1196,30,135,39,81,111,64,49,1068
18,42,86,27,51,39,14,55,0,696,22,80,25,72,99,59,71,600
14,41,115,20,21,31,11,36,0,598,27,70,20,119,59,48,47,497
30,46,111,33,8,47,22,42,58,681,27,109,48,105,89,59,0,641
35,63,126,47,29,62,26,111,0,859,33,139,42,133,129,104,22,756
10,16,63,6,5,12,12,22,0,234,12,46,14,59,32,21,3,193
46,47,83,23,37,28,27,55,0,536,26,106,48,65,82,62,21,472
2,31,26,10,10,19,6,24,47,125,14,25,7,33,42,34,0,145
19,33,75,20,15,32,13,30,0,344,23,43,31,67,65,45,5,302
28,32,72,25,14,67,4,47,0,326,14,81,40,60,79,45,4,292
37,32,103,22,28,39,26,55,44,657,31,96,66,116,123,69,0,542
27,17,115,23,24,16,10,44,57,637,12,80,29,99,72,50,0,628
6,24,46,4,4,17,10,26,0,244,8,32,9,41,22,32,5,232
22,25,53,27,11,35,9,39,0,334,18,51,29,61,56,29,6,305
28,34,68,23,21,33,15,48,0,404,26,59,23,70,78,46,5,367
32,29,87,15,41,49,14,61,0,534,38,88,33,55,123,51,27,447
42,30,84,33,27,39,37,68,18,679,36,112,45,63,82,81,0,638
22,49,95,38,23,32,15,49,0,714,31,92,24,98,67,78,103,544
23,55,91,35,20,27,11,69,0,558,28,73,32,99,87,58,40,472
40,47,91,34,38,46,19,100,0,574,28,110,59,105,125,76,27,459
37,33,68,11,25,37,20,56,0,441,16,65,45,60,93,41,13,395
25,32,70,23,11,45,14,36,0,462,17,66,26,55,71,38,51,394
29,58,93,32,17,29,26,50,0,543,20,60,24,101,61,60,61,490
16,24,54,17,17,25,10,42,0,314,18,45,19,56,49,38,30,264
19,17,66,19,21,35,15,39,0,425,23,48,20,63,66,34,47,355
35,28,79,20,21,38,18,49,0,348,19,66,29,64,72,40,32,314
20,43,88,29,41,33,27,60,3,626,23,107,47,67,95,77,0,554
50,94,87,38,16,40,26,73,0,603,51,92,45,122,88,83,20,526
31,25,84,26,39,29,14,57,0,559,32,61,37,65,102,62,4,501
28,76,145,61,32,42,46,95,24,1241,41,120,57,142,140,102,0,1188
0,4,4,7,2,1,4,6,2,67,0,7,2,5,2,7,0,74
0,11,5,10,3,2,1,2,14,126,10,14,4,16,7,18,0,105
9,18,21,12,10,5,6,10,7,142,4,27,2,28,9,20,0,150
2,3,9,3,2,0,2,6,0,48,3,5,0,8,1,9,6,43
5,4,11,1,2,18,2,4,0,67,1,10,5,8,18,10,3,59
1,1,14,2,2,9,3,6,0,79,3,9,0,9,7,7,8,74
1,7,4,6,6,3,2,10,0,106,1,10,1,12,13,11,1,96
7,21,55,21,21,19,18,27,10,309,16,56,16,54,30,45,0,291
0,3,8,9,0,3,3,13,9,107,3,13,2,10,3,10,0,114
1,5,4,11,0,1,0,8,0,55,2,7,3,6,2,9,3,53
1,6,4,4,2,5,3,5,0,29,1,2,2,4,8,6,3,33
8,25,24,9,2,30,6,69,0,351,11,34,14,34,72,60,15,284
1,7,1,3,4,12,5,9,0,54,2,3,1,8,17,14,6,45
1,4,5,6,1,9,1,5,1,79,5,9,0,24,5,5,0,64
3,5,8,4,3,8,1,7,0,73,4,15,5,7,7,14,1,59
0,4,6,10,3,1,1,5,0,35,2,5,3,7,8,10,0,30
29,28,76,26,17,17,12,26,15,389,19,42,45,51,44,57,0,377
2,5,6,1,22,1,7,4,7,90,11,15,17,12,3,6,0,81
20,28,50,24,36,18,15,40,17,559,15,59,43,69,23,53,0,545
14,12,39,29,37,7,15,21,0,468,12,41,24,39,13,39,27,447
0,17,14,14,9,7,6,12,9,99,3,16,3,24,22,27,0,92
1,7,33,8,7,3,6,7,0,145,8,14,4,28,20,6,4,133
66,55,146,41,118,59,31,112,41,1053,50,197,117,144,185,95,0,934
0,6,15,9,0,3,1,5,0,91,1,6,1,24,3,8,12,75
3,24,12,20,6,13,7,6,0,139,7,15,1,44,17,19,10,117
4,30,45,25,36,13,18,30,46,539,23,67,11,78,43,66,0,498
9,68,94,38,15,89,29,95,0,842,33,55,17,129,172,69,18,786
12,45,126,61,37,54,27,60,35,770,45,98,35,132,82,96,0,739
12,14,15,6,0,3,2,16,0,155,3,14,3,19,12,16,12,144
23,72,79,70,7,24,36,39,0,899,40,56,33,122,39,85,29,845
19,72,112,60,25,66,22,49,0,1052,32,100,35,173,107,75,7,948
49,65,136,33,33,19,20,74,21,923,46,122,49,125,149,89,0,793
9,17,42,11,14,23,17,22,0,340,22,27,22,48,27,24,28,297
31,28,87,29,85,39,23,46,13,606,30,89,52,131,79,69,0,537
10,33,88,37,80,18,25,51,13,621,33,90,24,138,66,50,0,575
9,29,31,30,16,42,10,85,0,337,18,40,12,60,72,44,11,332
5,25,39,30,9,6,5,62,6,282,14,35,11,45,26,27,0,311
14,17,21,10,19,8,4,26,0,292,4,25,16,29,17,42,22,256
28,35,61,38,26,17,21,69,0,949,32,62,37,82,39,82,20,890
0,4,8,3,5,22,1,3,0,71,4,2,1,12,20,6,4,68
1,15,11,12,12,2,3,23,0,82,5,21,5,15,5,20,6,84
25,47,77,48,43,35,9,100,0,720,19,90,33,96,64,100,11,691
23,58,72,33,24,26,21,52,0,704,18,51,31,87,44,92,66,624
19,37,61,41,10,15,11,28,0,469,9,44,21,69,25,68,32,423
7,6,35,10,21,19,6,16,0,208,2,36,8,43,31,12,6,190
2,8,21,14,6,15,1,9,27,81,2,12,2,19,24,31,0,94
1,10,8,10,10,3,4,11,0,127,3,17,4,16,9,16,16,103
4,14,19,8,7,22,2,37,0,185,1,36,6,30,40,21,8,156
25,74,61,24,36,30,42,65,0,915,31,84,42,106,67,97,59,786
12,19,37,10,10,14,9,35,0,247,10,23,11,59,31,21,7,231
6,4,1,3,4,2,0,6,0,59,1,5,6,4,8,8,9,44
5,6,13,11,12,9,10,9,0,144,10,13,6,14,15,13,1,147
2,9,21,17,16,10,5,13,2,151,8,19,7,43,18,26,0,125
0,21,4,0,1,11,2,14,0,64,3,6,0,8,19,12,2,67
8,23,22,33,5,16,9,23,28,297,14,23,14,49,24,37,0,303
4,7,1,1,2,2,0,6,0,38,1,6,4,2,2,4,4,38
6,29,37,23,18,11,19,10,0,347,10,28,5,82,13,32,15,315
17,29,78,25,29,22,25,32,0,576,13,52,19,76,49,45,20,559
13,38,66,39,39,49,20,79,21,604,28,82,29,96,89,78,0,566
5,10,9,15,1,6,1,10,4,135,5,5,10,14,10,22,0,130
4,8,27,8,10,17,5,20,0,333,6,32,8,31,21,26,52,256
0,5,10,4,18,0,6,3,0,58,3,18,1,11,3,2,7,59
4,14,13,12,45,13,6,7,0,158,9,55,5,39,11,20,7,126
9,32,58,41,84,29,14,31,0,515,18,132,14,103,60,53,11,422
5,13,0,7,0,10,0,1,6,60,1,15,1,7,8,7,0,63
30,33,67,27,22,26,24,77,5,552,21,61,32,64,74,64,0,547
20,34,51,27,44,38,25,34,0,749,10,65,46,75,58,50,6,712
1,18,14,17,15,3,5,4,10,164,10,26,3,33,9,27,0,143
4,9,18,10,10,19,3,9,2,91,0,26,8,25,16,5,0,95
22,62,80,43,76,42,29,50,0,718,23,138,36,77,80,69,33,666
5,21,9,13,17,7,4,6,0,125,2,5,14,19,9,16,11,131
6,21,31,26,5,8,3,10,13,193,6,18,11,39,15,43,0,184
24,61,95,27,19,38,28,69,10,637,44,69,28,107,88,76,0,596
1,14,26,13,6,20,12,7,0,263,20,23,8,29,29,18,6,229
17,37,61,28,14,28,35,53,25,786,44,88,15,84,45,46,0,762
19,57,102,43,25,44,33,53,7,582,28,95,27,110,62,72,0,571
10,21,52,21,5,8,14,20,0,314,11,35,9,61,28,22,17,282
35,111,121,51,15,24,32,61,0,882,42,59,74,144,64,98,25,826
31,99,74,36,14,33,33,28,0,564,35,52,42,93,32,56,18,584
30,66,61,24,8,3,12,35,0,742,28,50,32,97,20,32,68,654
41,62,104,17,11,42,22,70,0,817,22,76,82,96,83,44,51,732
29,55,87,49,20,29,47,39,0,876,38,90,55,95,56,85,39,773
68,98,111,35,25,20,47,49,0,915,43,106,120,117,71,81,22,808
65,54,109,35,13,33,31,58,77,1493,45,103,107,116,73,82,0,1442
22,55,61,31,10,35,18,38,0,435,26,38,31,68,49,63,17,413
5,6,19,6,6,3,2,3,0,107,3,7,3,19,1,12,10,102
3,2,3,4,0,5,3,7,0,48,5,9,2,7,5,2,4,41
0,5,12,11,0,0,11,2,0,39,2,3,1,11,1,8,3,51
11,12,25,20,3,3,9,8,0,171,6,11,21,38,12,7,1,166
66,47,85,32,18,27,36,24,0,796,22,51,106,109,44,43,45,711
21,24,45,10,14,30,7,31,0,391,7,38,26,52,38,30,6,376
6,9,17,8,5,28,7,23,3,191,12,24,11,36,39,11,0,164
3,6,10,4,4,9,2,16,6,117,5,17,7,16,29,11,0,92
10,10,10,11,8,4,8,4,5,106,1,21,16,19,6,10,0,103
10,10,7,11,14,7,1,15,3,88,6,30,12,16,11,7,0,84
66,51,84,46,54,41,24,39,0,798,31,93,55,103,61,80,41,739
0,5,8,6,1,4,7,4,0,69,5,7,0,9,13,11,8,51
0,2,11,5,1,5,1,6,2,38,6,0,0,14,5,1,0,45
4,8,14,4,1,10,2,10,1,57,2,7,0,18,13,5,0,66
10,44,73,31,13,27,16,39,25,586,13,61,19,91,57,59,0,564
0,0,3,7,1,5,8,3,6,65,4,10,6,7,5,6,0,60
34,64,94,31,29,27,19,33,28,811,21,75,46,120,46,58,0,804
15,10,4,2,2,4,1,3,0,72,1,7,17,11,6,6,6,59
5,5,6,11,0,1,3,4,0,63,5,6,2,7,1,5,3,69
13,8,8,5,0,1,1,1,30,134,7,2,19,24,8,17,0,124
154,42,87,29,26,24,14,44,0,614,23,106,138,93,73,51,26,524
72,18,36,14,2,10,7,15,19,733,10,48,78,35,14,39,0,702
12,7,16,9,7,6,4,5,5,101,6,21,9,20,10,7,0,99
27,9,29,10,9,23,4,7,0,223,5,22,29,22,33,17,2,211
39,10,25,8,2,2,4,5,0,153,3,16,39,35,5,12,2,136
7,1,6,3,0,1,0,2,1,75,0,3,10,6,1,5,0,71
6,5,9,5,5,9,0,2,8,106,2,5,12,8,10,13,0,105
56,68,64,38,13,14,17,28,0,749,22,63,72,95,37,63,85,610
60,42,49,49,8,13,15,17,0,486,20,38,52,86,31,64,27,421
36,19,35,24,10,10,12,17,0,280,6,35,38,57,24,30,13,240
57,55,49,30,7,12,13,22,0,579,20,64,73,71,22,50,33,491
64,63,43,37,10,12,14,19,0,515,15,42,57,87,20,53,33,470
72,47,70,35,3,6,18,22,0,679,34,48,73,67,14,52,27,637
39,47,104,30,31,212,27,53,33,783,19,112,82,122,187,75,0,762
32,46,102,36,14,123,19,59,45,822,17,90,62,106,148,83,0,792
7,7,20,5,6,16,9,17,16,124,7,16,14,20,26,21,0,123
0,15,14,6,2,35,7,20,8,163,16,34,2,47,23,21,0,127
23,43,71,23,10,61,23,50,0,745,31,74,28,94,90,69,3,660
11,17,15,9,10,38,5,18,0,255,7,30,15,14,47,30,14,221
12,12,20,9,4,4,6,14,0,132,8,21,15,23,10,18,7,111
8,28,45,15,14,16,11,41,0,236,0,42,26,59,26,42,7,212
31,31,94,42,11,34,26,43,0,596,32,59,67,112,69,54,11,504
14,29,67,21,7,16,26,35,0,706,29,52,19,88,33,57,51,592
15,16,50,19,10,3,10,20,0,536,14,17,23,76,21,23,27,478
27,25,70,37,8,19,12,45,4,425,23,46,50,73,37,36,0,407
28,29,76,19,10,13,14,37,0,396,36,48,46,68,26,29,9,360
8,31,40,32,1,4,12,26,0,349,8,19,18,53,11,46,16,332
12,10,40,15,10,18,12,17,0,485,14,27,22,32,23,34,14,453
4,11,16,10,3,15,9,10,0,171,5,10,2,15,17,16,2,182
15,8,42,22,1,33,16,17,8,302,13,17,23,59,33,32,0,287
15,26,89,30,17,6,24,61,4,384,22,46,46,94,35,55,0,358
25,15,69,16,11,12,13,38,0,464,25,55,41,54,29,28,45,386
17,16,57,30,10,12,30,23,0,2323,34,37,41,66,27,40,132,2141
37,39,67,44,11,22,35,41,0,700,35,39,73,90,42,42,11,664
41,37,98,46,18,42,35,82,0,676,37,65,77,98,77,70,23,628
25,42,94,32,21,20,26,33,0,576,26,60,48,103,34,59,66,473
31,23,70,20,7,9,9,28,20,420,23,26,35,78,33,43,0,399
11,33,59,27,9,15,24,27,0,474,22,33,17,76,16,37,39,439
16,58,67,40,15,12,25,27,0,579,34,43,40,86,27,54,44,511
28,39,59,45,10,20,17,31,0,441,26,26,38,72,25,33,68,402
29,22,94,35,8,19,30,33,0,616,33,51,42,101,30,48,4,577
29,24,83,28,11,22,13,31,0,480,30,27,44,76,30,28,47,439
10,19,66,30,9,15,18,29,0,368,21,23,13,73,30,32,36,336
10,31,45,23,6,7,17,31,0,337,12,27,32,66,21,34,19,296
22,37,93,44,22,24,20,42,4,500,35,51,47,108,50,68,0,449
19,52,90,35,17,22,28,17,0,415,27,33,35,88,39,59,20,394
12,27,43,27,7,10,15,17,0,400,20,25,23,54,19,22,31,364
26,57,108,43,14,19,38,56,0,702,30,59,59,124,39,71,47,634
23,31,88,29,18,15,16,39,0,581,35,52,40,107,32,58,17,499
20,38,106,56,13,23,24,55,0,680,28,53,45,137,33,67,49,603
14,36,77,38,12,14,23,41,0,576,29,34,55,79,35,55,26,518
10,37,91,36,12,23,26,29,0,522,40,37,19,93,42,59,49,447
13,31,80,36,8,24,23,26,0,533,39,33,33,100,37,44,20,468
29,38,82,38,8,12,24,44,0,506,27,46,32,94,43,54,42,443
15,58,80,37,11,13,15,32,0,562,29,48,29,99,37,61,54,466
25,35,66,23,8,15,18,41,43,396,27,41,74,59,42,44,0,383
28,24,44,21,18,13,12,29,5,293,10,52,56,54,30,26,0,259
6,17,30,11,2,9,29,15,0,321,19,25,25,38,20,30,16,267
11,33,42,15,2,8,15,24,0,479,15,16,13,49,19,20,41,456
5,34,76,31,4,9,21,23,0,428,16,27,21,80,21,41,21,404
11,24,57,35,5,19,16,14,0,487,32,25,23,73,11,37,21,446
12,23,44,20,13,17,18,25,0,386,16,29,29,47,31,34,15,357
7,7,9,9,1,3,8,10,0,105,9,10,9,23,6,15,5,82
8,16,41,19,14,22,13,21,0,293,7,30,16,57,40,39,26,232
11,34,52,36,8,18,21,35,0,358,17,30,27,82,45,47,17,308
7,15,30,11,3,7,9,10,0,200,7,16,19,30,17,29,3,171
14,39,63,19,12,25,26,47,0,675,20,49,52,72,24,45,94,564
0,1,3,15,3,7,4,1,0,92,5,3,5,11,3,10,7,82
0,1,1,0,0,10,4,4,0,57,5,3,2,4,6,3,0,54
2,8,18,4,0,19,0,3,0,147,5,7,4,20,11,13,3,138
15,31,45,38,11,152,20,28,11,711,23,42,21,74,59,49,0,794
12,19,24,12,56,11,14,12,0,409,14,39,20,72,30,41,13,340
19,26,49,28,23,35,23,34,0,568,15,38,29,71,45,39,9,559
4,9,10,16,3,13,3,5,5,84,2,4,6,17,12,14,0,97
10,34,68,28,7,32,10,52,0,457,18,51,23,98,43,47,16,402
7,10,26,12,7,5,12,13,12,212,9,11,9,58,18,14,0,197
1,21,39,10,4,12,9,14,0,207,7,18,7,37,22,23,0,203
4,15,32,15,11,45,11,36,0,299,11,51,6,50,45,19,30,256
0,3,19,2,2,2,3,4,6,55,2,4,2,21,2,11,0,54
8,10,21,9,1,26,2,18,0,108,6,19,9,14,19,18,3,115
4,16,48,19,9,53,6,18,3,279,19,33,10,39,52,26,0,276
3,4,8,6,10,5,9,11,6,128,5,36,10,10,13,10,0,106
0,10,18,8,3,11,5,12,8,161,8,16,5,20,13,14,0,160
4,6,35,14,6,24,7,10,0,195,18,16,5,38,17,18,2,187
12,19,27,10,18,61,8,14,0,291,11,22,17,35,52,23,7,293
11,20,36,11,11,17,13,13,0,312,19,11,14,38,30,56,1,275
14,27,97,35,54,39,34,32,0,935,51,43,26,105,59,53,22,908
9,16,35,7,7,20,19,77,0,386,22,28,17,49,47,43,15,355
22,25,26,27,22,25,15,107,15,523,31,41,53,68,48,54,0,512
5,23,30,22,3,12,6,18,12,125,12,13,9,32,23,30,0,137
4,5,22,11,16,19,6,7,14,139,5,11,9,27,34,18,0,139
21,20,67,23,11,47,15,83,8,500,25,64,51,83,86,48,0,438
10,30,68,26,11,33,28,51,0,856,32,64,18,70,49,65,62,753
12,23,51,50,8,38,23,60,0,608,22,71,26,100,53,59,29,513
3,14,16,10,0,7,2,8,8,156,13,14,5,20,16,18,0,138
2,2,6,7,0,4,0,7,0,96,3,9,6,6,3,13,3,81
31,37,108,52,12,52,45,102,0,837,43,65,43,106,94,82,23,820
16,38,63,36,12,21,16,41,0,659,25,66,23,98,24,66,47,553
2,34,53,24,7,26,19,36,0,432,28,46,18,74,36,43,23,365
2,18,31,15,2,11,9,35,0,406,18,23,15,49,21,23,17,363
19,28,53,36,4,33,32,55,0,658,29,49,24,72,46,56,91,551
10,34,59,43,9,31,10,53,0,664,17,72,13,86,31,54,47,593
18,26,50,33,13,19,9,69,0,630,23,51,36,71,53,45,20,568
6,15,22,18,6,18,21,33,6,316,12,41,10,38,25,33,0,302
17,35,62,25,4,19,18,36,0,448,13,38,11,89,28,36,46,403
14,38,62,32,8,29,10,96,0,489,17,39,36,92,62,57,12,463
14,31,31,38,6,15,26,41,0,865,23,61,14,65,26,65,49,764
22,31,45,33,2,20,13,34,0,623,23,40,21,82,38,47,51,521
25,44,85,32,19,32,22,99,0,597,17,100,43,87,66,71,41,530
5,0,12,2,1,60,2,6,4,74,7,13,6,14,54,8,0,64
2,5,16,10,0,39,3,7,0,84,4,11,5,12,31,9,1,93
14,40,81,30,11,185,22,39,7,641,10,87,26,92,169,51,0,635
3,8,17,9,6,11,2,17,8,127,8,34,9,23,7,13,0,114
1,6,8,8,5,0,3,3,0,93,7,4,1,6,1,9,7,92
23,39,57,30,27,26,20,30,0,648,38,41,39,64,29,38,32,619
11,34,35,40,24,20,12,25,0,805,29,19,16,41,28,51,34,788
7,50,50,22,24,9,14,19,0,613,23,29,21,93,16,46,29,551
15,26,39,34,17,12,11,15,0,443,15,26,18,52,23,22,45,411
18,24,51,33,29,11,22,16,3,580,16,35,26,43,22,31,0,614
12,25,23,28,21,15,15,20,0,478,24,18,18,69,22,31,29,426
3,5,21,14,6,6,6,10,0,110,8,16,5,10,9,14,7,112
4,23,19,11,6,12,5,13,0,185,5,13,4,36,20,21,15,164
1,2,2,2,6,2,0,8,4,26,2,9,4,4,4,6,0,24
5,4,5,3,0,1,2,5,8,55,0,4,3,3,10,5,0,63
3,13,15,1,6,12,7,6,11,103,13,6,2,16,15,18,0,107
5,14,17,9,1,16,5,9,0,183,11,7,5,25,15,22,10,164
15,22,35,9,19,23,21,18,0,363,24,31,20,34,40,41,9,326
20,44,59,16,27,57,30,28,0,685,18,35,36,63,81,85,71,577
20,51,40,29,43,46,10,22,0,491,20,33,19,60,57,78,40,445
24,89,71,22,31,41,21,39,0,597,32,39,41,74,74,103,28,544
17,34,30,18,10,15,17,33,56,840,23,33,26,31,33,45,0,879
2,7,15,27,10,22,1,5,0,146,9,13,2,17,22,14,4,154
8,7,19,2,8,7,5,7,8,141,9,12,7,19,14,14,0,137
1,31,30,34,26,14,15,19,0,428,11,25,9,52,18,20,5,458
0,8,17,13,39,21,6,13,4,183,16,20,2,35,43,12,0,176
6,8,20,15,5,16,7,7,7,116,8,13,7,18,33,13,0,115
2,7,8,2,4,9,5,5,1,112,6,6,2,25,22,5,0,89
0,1,0,3,8,1,4,2,0,84,4,2,2,7,9,4,14,61
9,20,41,16,25,28,32,19,0,481,23,44,30,45,36,38,1,454
1,10,6,11,0,6,0,4,0,40,1,4,4,19,6,6,8,30
17,24,81,45,21,55,33,28,1,697,40,56,34,104,89,65,0,614
3,15,23,7,12,34,5,19,6,203,7,27,13,25,37,15,0,203
2,9,30,18,11,28,2,20,0,280,3,28,10,39,42,27,1,250
15,33,21,15,55,23,7,37,0,398,26,42,12,34,53,37,26,374
6,5,5,20,1,4,2,7,0,128,9,9,10,10,8,10,8,114
8,17,24,16,13,8,9,8,0,293,10,21,12,34,21,18,1,279
2,5,9,9,2,19,3,6,25,144,11,6,1,15,10,9,0,172
4,1,0,7,1,4,3,0,0,56,0,4,4,12,2,4,3,47
1,2,7,1,0,0,6,4,1,98,4,7,1,12,1,1,0,94
0,4,10,5,0,5,2,4,0,74,1,11,1,15,5,3,11,57
1,2,7,1,0,5,0,1,1,60,0,4,2,9,3,2,0,58
15,18,30,24,11,19,3,14,0,495,2,30,25,39,21,34,14,464
7,38,63,34,17,27,21,32,0,450,13,52,19,80,49,45,25,406
2,4,1,14,4,14,0,3,6,74,3,1,1,14,19,21,0,63
2,12,12,13,16,8,7,9,3,142,5,11,5,18,13,26,0,146
0,6,14,9,2,7,0,7,3,75,5,9,0,27,5,7,0,70
4,10,24,15,10,4,3,6,0,134,4,3,8,35,16,17,4,123
2,7,8,4,9,6,4,6,0,79,10,10,2,11,11,5,3,73
5,5,12,11,6,15,6,7,3,78,4,11,5,30,25,10,0,63
13,23,68,25,53,43,22,36,5,637,28,34,31,87,68,40,0,637
9,10,13,4,18,5,5,10,12,142,1,4,20,27,21,9,0,146
7,9,21,13,5,10,14,20,1,229,7,34,11,28,19,16,0,214
17,56,96,58,21,80,33,49,110,702,51,44,27,122,132,76,0,770
3,6,22,3,15,19,1,8,2,133,5,26,8,21,9,15,0,128
1,19,24,14,22,14,2,14,2,281,14,23,7,33,22,27,0,267
14,23,33,13,13,29,6,16,25,341,10,43,19,51,38,16,0,336
4,12,18,3,4,5,2,2,6,81,2,9,5,30,10,10,0,71
5,22,41,30,5,37,21,9,0,318,20,23,7,45,41,23,7,322
2,17,30,14,24,13,16,19,12,356,23,25,14,31,34,29,0,347
10,22,45,12,36,74,15,37,12,429,16,61,25,56,72,29,0,433
8,15,34,11,14,20,4,18,0,154,11,9,10,44,25,19,11,149
11,11,38,10,8,25,9,32,0,170,17,38,16,35,27,19,7,155
24,59,66,29,19,53,27,41,0,690,22,44,35,80,75,46,19,687
36,45,83,34,20,60,34,52,0,690,30,48,50,100,82,46,22,676
8,27,67,29,108,42,8,26,0,511,12,73,18,125,46,29,13,510
12,35,65,26,99,31,14,20,0,555,10,59,16,92,47,46,32,555
7,12,37,18,8,51,9,18,6,279,8,42,4,43,70,32,0,246
18,28,59,28,22,33,12,27,0,495,16,34,24,61,70,64,0,453
3,8,13,5,2,31,4,2,4,110,2,9,3,20,36,12,0,100
1,4,17,10,3,6,7,11,8,118,9,7,9,23,14,9,0,114
9,34,38,23,27,8,15,30,3,270,9,32,18,79,15,46,0,258
41,27,59,25,45,15,18,33,0,442,19,70,72,82,36,28,14,384
10,31,60,35,14,17,7,19,0,526,21,45,17,85,29,26,42,454
13,27,75,36,44,21,14,19,0,549,20,59,30,71,31,54,36,497
16,30,63,32,28,10,21,36,17,619,27,84,38,77,45,59,0,542
11,30,54,30,39,8,21,35,0,679,29,73,30,61,26,45,13,630
6,38,47,32,20,12,36,25,0,500,29,47,17,87,26,43,30,437
17,30,59,27,31,7,14,30,0,351,14,45,25,70,30,24,42,316
40,48,87,30,55,18,26,60,0,476,31,75,73,90,35,56,31,449
20,26,48,22,33,19,18,34,0,434,25,52,39,80,29,50,8,371
29,22,38,18,17,29,18,41,0,420,15,51,41,64,55,30,33,343
22,42,64,31,37,18,12,31,0,480,19,67,35,89,37,30,21,439
14,35,58,33,40,11,17,30,0,496,29,51,35,70,37,21,25,466
5,25,46,35,36,4,17,32,0,581,33,60,17,80,21,28,43,499
7,28,27,17,26,8,21,28,0,463,18,47,16,27,21,31,50,415
40,38,84,23,39,34,27,34,0,462,24,71,63,108,76,33,36,370
10,26,60,34,37,16,33,25,0,545,38,61,24,93,23,38,42,467
25,37,36,11,31,24,19,33,0,314,17,61,29,51,48,27,18,279
29,23,72,27,54,24,26,35,0,570,34,59,41,73,37,33,67,516
22,28,54,21,49,26,30,44,0,504,20,57,46,54,53,32,58,458
17,22,49,30,56,19,24,51,0,555,34,74,40,93,39,45,20,478
23,27,63,31,33,8,29,31,0,518,33,47,23,86,22,33,31,488
25,11,63,16,30,18,22,60,0,1377,29,85,43,63,51,36,38,1277
16,28,61,24,30,11,23,29,0,493,27,39,19,71,19,32,25,483
16,31,44,23,23,15,16,23,0,544,26,40,26,72,38,35,38,460
11,31,51,35,21,10,20,28,0,437,17,35,14,72,27,41,36,402
10,54,66,33,31,20,22,16,0,540,23,80,14,92,28,45,43,467
7,36,56,37,23,11,19,17,0,444,14,38,15,92,19,26,45,401
7,34,62,26,11,11,12,13,0,417,22,29,14,82,20,20,43,363
6,43,43,28,27,13,21,23,9,403,19,34,29,73,25,45,0,391
14,10,27,1,17,7,6,15,0,256,5,32,17,35,16,7,30,211
5,12,37,9,21,22,11,12,6,408,15,39,14,49,35,16,0,375
19,28,71,22,30,8,20,36,0,390,26,31,26,81,50,35,10,365
10,30,60,32,22,4,18,16,0,517,26,38,11,83,23,28,49,451
4,7,4,5,5,10,4,4,3,161,7,16,2,12,5,12,0,153
55,28,83,38,31,36,30,32,0,508,24,63,81,97,43,43,13,477
38,38,66,12,51,31,26,32,3,560,18,59,58,80,47,33,0,562
44,30,75,30,37,35,22,27,0,525,19,64,88,86,45,31,3,489
4,2,9,1,19,0,0,2,0,76,2,12,5,7,3,4,2,78
4,9,19,15,31,2,13,5,2,299,17,22,13,45,14,25,0,263
7,13,25,29,63,4,13,9,0,420,17,29,10,70,24,32,13,388
1,28,20,19,24,27,9,19,0,264,17,36,2,41,24,36,8,247
5,22,49,35,34,26,32,11,0,409,25,39,15,70,28,44,23,379
12,11,14,6,8,1,1,15,0,164,2,17,13,14,11,13,7,155
1,14,25,36,66,20,12,19,5,336,8,38,11,46,36,51,0,344
6,21,37,27,16,3,6,18,0,360,6,32,6,34,11,19,37,349
3,24,29,17,35,11,12,18,42,244,12,16,9,45,15,24,0,314
30,41,60,47,38,78,27,27,21,494,22,88,32,90,95,52,0,484
10,52,70,60,15,8,17,23,0,622,14,33,7,130,14,45,54,580
10,37,68,45,33,19,27,25,0,817,27,29,15,104,22,40,54,790
5,18,23,17,16,10,13,28,0,591,14,31,6,64,13,22,56,515
27,5,13,8,37,19,4,24,6,145,2,17,44,24,27,11,0,163
3,10,23,16,52,23,7,7,0,193,8,23,4,49,36,26,6,182
12,14,49,23,73,5,23,17,0,493,23,35,14,69,23,38,24,483
0,3,6,11,4,6,6,4,2,121,4,12,3,15,4,3,0,122
3,6,25,21,5,1,6,8,0,171,12,5,3,37,3,18,11,157
20,52,102,26,21,17,13,17,0,692,40,33,16,131,36,45,28,631
20,58,113,45,15,21,16,23,0,791,22,48,35,142,34,40,47,734
4,17,22,11,123,30,2,10,0,347,10,55,21,43,39,22,18,358
10,21,40,7,16,6,24,28,3,406,26,44,16,54,21,22,0,378
22,68,130,34,38,22,23,66,0,703,32,82,34,136,96,37,35,654
11,40,52,29,21,8,25,23,0,562,25,34,10,78,54,30,48,492
12,52,72,38,51,21,27,56,0,721,38,86,34,83,88,56,11,654
14,36,64,32,36,8,31,45,0,637,30,55,28,97,63,35,36,559
12,47,70,37,33,9,25,40,0,778,22,61,23,94,61,53,63,674
11,28,35,18,23,9,16,26,0,395,22,48,16,46,35,25,61,308
15,35,84,28,33,13,20,51,0,1246,25,73,33,94,75,33,74,1118
24,36,66,12,43,21,13,27,0,415,17,49,30,55,58,48,5,395
7,10,19,8,8,9,8,14,0,215,15,23,15,20,16,14,10,185
3,10,31,14,15,56,3,11,21,274,9,31,6,41,64,16,0,271
2,2,5,3,2,6,1,12,0,77,4,1,2,6,8,7,6,76
5,38,44,30,19,9,20,24,0,580,19,28,7,74,17,13,33,578
2,13,17,23,39,8,5,16,0,321,11,15,5,38,7,59,16,293
7,5,5,5,2,2,4,11,0,54,1,10,10,17,3,14,0,40
8,26,35,29,14,2,2,8,11,287,4,37,18,43,14,28,0,278
10,28,38,32,73,11,29,19,0,374,20,49,20,84,37,32,28,344
4,5,7,9,20,14,6,6,12,167,4,18,10,20,18,10,0,170
11,25,66,45,122,44,24,21,0,679,18,88,15,110,64,53,14,675
10,32,33,13,12,2,10,26,4,444,9,27,19,41,15,38,0,437
18,75,55,36,32,10,12,34,0,774,26,62,40,94,33,54,27,710
6,37,15,23,9,5,10,18,0,370,14,38,14,44,11,26,5,341
1,7,7,4,27,3,1,9,0,104,3,21,2,11,8,5,4,109
17,15,34,23,21,5,13,17,0,396,21,30,32,41,19,25,15,358
62,58,102,59,47,26,40,66,0,901,35,99,53,113,55,57,68,881
5,13,21,21,9,5,6,17,30,187,11,30,12,26,9,30,0,196
2,5,4,2,5,3,0,4,5,90,3,10,4,10,3,9,0,81
35,53,61,33,12,22,13,50,0,494,14,58,26,92,37,44,24,478
7,4,9,11,0,4,1,7,4,109,4,25,8,8,12,22,0,77
22,64,67,44,18,31,17,46,0,460,14,66,28,86,38,51,0,486
21,47,42,33,11,29,10,50,0,433,12,44,22,61,47,40,44,406
17,77,76,32,32,25,12,30,0,698,27,47,29,100,23,67,58,648
0,4,8,8,45,0,6,5,5,84,3,27,3,27,4,10,0,91
3,14,29,20,79,19,9,18,0,366,10,42,6,55,31,31,11,371
6,5,7,17,7,1,2,10,0,64,6,13,4,9,5,17,5,60
1,6,9,2,2,1,0,8,0,58,2,12,1,10,1,5,5,51
2,16,12,4,0,1,1,4,0,66,2,3,5,22,1,3,6,64
2,16,12,7,2,0,0,7,6,79,1,8,4,19,2,17,0,80
4,4,9,17,11,8,5,6,9,249,7,19,9,33,4,17,0,233
8,12,19,13,11,4,12,11,0,227,15,16,7,23,12,15,55,174
14,74,128,109,77,66,41,56,0,1279,58,100,27,181,88,120,26,1244
2,7,11,8,5,8,0,21,0,142,4,8,7,36,17,9,2,121
3,2,10,10,6,11,5,14,9,100,4,16,3,12,13,16,0,106
1,9,13,21,2,6,4,16,1,221,7,26,6,16,14,20,0,205
13,31,62,64,14,17,10,62,0,654,19,61,19,120,26,47,68,567
20,49,84,62,15,19,18,60,0,636,21,64,32,104,41,53,20,628
21,22,86,77,15,20,18,69,0,696,26,86,36,104,44,76,25,627
35,42,110,84,18,33,34,73,43,721,29,99,49,152,66,80,0,718
3,5,6,8,2,6,0,4,0,94,0,3,2,3,10,5,7,98
6,3,7,7,1,5,0,4,7,87,3,13,6,11,5,5,0,84
3,0,23,3,0,13,3,6,3,86,2,11,7,18,27,8,0,67
0,6,7,5,24,4,1,6,0,118,3,16,3,16,10,8,1,114
10,34,49,21,141,52,14,27,0,544,19,108,22,90,72,41,16,524
3,10,15,4,13,4,2,9,3,97,9,8,3,19,7,9,0,105
43,32,88,26,93,28,32,73,56,851,43,150,60,107,91,43,0,828
31,29,77,30,73,36,47,55,93,799,40,121,67,134,70,53,0,785
2,8,9,3,14,18,5,5,6,111,3,14,6,21,9,6,0,122
2,10,4,6,5,6,3,3,2,69,5,5,1,12,8,5,0,74
0,3,15,5,4,3,1,5,0,71,4,12,7,21,4,5,3,51
4,7,11,5,5,9,10,11,0,100,0,18,9,14,5,5,10,101
8,21,42,23,22,10,19,12,0,566,17,31,24,69,15,54,10,503
6,11,11,21,19,10,13,14,6,170,10,10,9,42,10,21,0,179
2,2,7,2,1,2,0,10,3,41,6,5,2,11,4,2,0,40
2,5,7,12,2,1,3,3,2,39,6,5,2,8,2,7,0,46
14,3,9,6,3,3,5,5,0,63,1,0,13,13,7,6,1,70
4,11,19,16,5,12,8,22,13,149,4,16,4,30,11,38,0,156
1,6,3,0,2,12,0,0,0,61,1,2,7,13,1,0,1,60
18,17,19,23,16,78,7,15,0,294,17,14,15,46,55,30,4,306
4,21,51,38,40,16,36,33,19,579,40,65,25,59,57,44,0,547
17,36,93,62,161,76,69,42,0,682,36,125,28,144,97,62,47,699
22,51,98,49,29,11,20,25,22,568,18,69,24,143,25,50,0,566
20,21,82,9,43,15,27,19,0,565,25,59,17,128,33,26,17,496
15,35,77,27,27,34,19,30,0,674,16,56,31,119,40,33,18,625
0,6,7,1,6,0,1,4,0,46,2,5,1,8,7,1,4,43
2,0,7,9,11,3,0,5,0,77,2,11,4,12,4,9,16,56
4,16,20,9,26,9,3,8,0,271,4,30,4,26,22,32,10,238
8,17,32,31,127,31,34,19,4,349,24,93,14,62,49,30,0,380
6,1,10,3,12,6,4,1,9,124,2,15,7,9,15,9,0,119
6,8,25,20,25,20,6,10,0,242,9,17,4,38,26,18,22,228
17,23,29,35,75,29,14,31,11,650,23,51,22,90,57,35,0,636
5,5,6,7,6,1,4,6,0,48,8,6,1,17,3,4,5,44
17,29,48,31,34,12,19,29,0,691,19,46,22,81,16,30,42,654
2,13,32,18,31,3,7,15,0,387,10,12,13,40,31,16,16,370
0,2,2,5,0,2,0,3,1,19,1,0,0,2,2,2,0,27
0,4,1,3,4,3,3,4,3,29,5,7,1,7,2,3,0,29
2,2,6,5,7,7,1,7,0,37,2,7,0,8,7,3,6,41
14,44,92,50,28,32,20,45,0,950,23,46,19,122,43,64,26,932
2,3,1,2,5,2,0,6,0,21,1,1,0,5,2,7,2,24
13,25,64,30,68,14,56,21,10,627,21,53,21,111,36,41,0,645
6,7,34,13,65,25,4,7,0,191,7,26,9,44,50,36,6,174
6,12,41,7,24,21,7,14,0,280,10,22,10,42,16,11,4,297
25,33,75,47,27,19,7,45,0,703,19,70,29,97,39,53,23,651
6,39,84,38,10,7,17,124,0,726,23,41,19,115,48,36,14,755
0,17,5,2,1,2,2,2,0,90,7,4,0,8,1,7,15,79
20,76,54,41,26,15,21,26,0,661,25,50,23,98,37,65,17,625
2,17,9,5,1,4,3,10,0,90,5,4,4,14,6,18,6,84
6,115,43,26,53,11,23,9,0,769,28,49,16,89,19,49,32,773
5,7,34,8,10,21,12,17,0,230,8,17,0,33,29,13,5,239
14,40,64,41,51,56,16,40,0,505,18,73,24,97,60,46,21,488
24,63,81,54,50,52,13,33,0,699,27,69,23,139,60,65,60,626
4,3,12,4,14,14,2,6,7,93,3,7,3,10,24,9,0,103
0,1,8,1,3,5,0,1,2,39,3,0,0,12,12,3,0,30
0,5,11,7,20,21,2,8,0,111,4,17,0,19,27,2,9,107
17,22,59,33,43,60,15,33,0,567,11,86,23,85,62,31,49,502
14,21,50,19,47,49,15,37,0,595,21,81,19,47,73,24,56,526
12,37,48,28,40,67,17,30,0,462,23,78,9,61,76,49,34,411
5,14,39,20,17,52,8,14,0,310,11,25,8,61,53,29,13,279
18,27,29,17,43,67,10,22,10,469,21,63,22,70,82,32,0,422
22,25,44,27,31,96,8,29,0,1033,17,81,39,63,81,44,30,960
29,42,84,45,84,118,24,35,0,756,35,129,50,134,130,75,34,630
14,62,69,36,27,41,9,20,0,573,22,44,18,99,55,40,43,530
13,60,49,53,31,66,10,28,45,675,23,87,15,79,60,52,0,714
9,29,72,19,36,31,15,23,0,455,19,58,16,91,41,34,16,414
0,7,7,22,7,0,2,7,0,114,4,9,0,20,5,16,7,105
9,64,60,60,26,11,16,30,0,584,22,50,19,87,25,69,21,567
4,19,18,35,4,4,13,16,2,300,30,18,2,33,6,24,0,302
5,4,9,11,9,7,3,5,3,66,4,12,1,7,5,19,0,74
6,48,23,29,18,16,4,25,8,310,12,58,9,58,38,36,0,276
29,15,84,15,28,46,12,52,0,522,18,69,49,88,92,53,25,409
24,36,106,28,70,74,24,87,13,612,44,137,64,103,140,75,0,511
1,6,4,1,0,0,3,1,0,27,1,4,0,5,3,4,5,21
12,23,61,33,25,35,21,41,0,328,31,41,24,101,50,33,2,297
0,8,8,6,9,12,3,13,6,167,9,18,3,12,22,12,0,156
2,8,18,10,12,11,3,7,7,70,4,6,8,22,13,23,0,72
0,9,7,0,4,13,0,17,14,35,0,6,5,7,31,5,0,45
0,18,4,1,2,8,0,18,0,73,1,7,0,14,12,14,2,74
9,33,38,16,9,27,20,21,51,401,16,65,22,54,45,62,0,361
19,115,49,10,18,35,7,51,39,318,21,72,44,35,71,121,0,297
4,22,6,1,3,11,3,14,0,126,3,23,5,18,16,10,23,92
4,9,11,3,12,23,5,5,0,104,6,30,2,16,33,12,3,74
2,7,10,8,5,26,1,7,5,114,5,18,2,18,32,5,0,105
23,22,65,11,11,16,15,30,33,278,11,54,35,56,53,44,0,251
18,32,41,23,61,31,45,64,0,649,33,96,22,83,60,57,21,592
15,17,47,23,36,32,31,38,30,505,32,69,23,61,57,57,0,475
14,26,14,18,4,58,9,16,0,224,13,15,13,30,99,19,15,179
22,79,90,29,32,49,25,62,0,780,31,81,30,141,89,84,23,689
2,5,7,6,4,12,4,12,0,106,2,15,5,12,20,8,8,88
8,22,24,9,10,18,14,31,26,252,8,31,17,46,30,31,0,251
9,33,48,27,10,57,15,44,0,302,12,53,16,59,52,46,14,293
8,8,10,14,4,9,6,10,0,119,5,14,4,26,12,21,0,106
1,13,18,15,8,22,7,21,8,177,11,34,13,28,23,21,0,160
4,1,5,7,4,4,1,8,0,105,4,9,3,11,5,8,1,98
12,18,19,8,3,5,6,7,13,179,5,19,15,36,12,13,0,170
3,9,9,4,2,9,0,20,9,105,4,16,7,11,23,17,0,92
22,18,55,19,34,12,13,14,2,374,26,43,26,44,23,28,0,373
9,15,36,31,28,4,8,11,0,229,10,37,16,66,14,25,2,201
21,19,19,9,7,18,10,27,5,210,13,32,17,26,37,29,0,191
2,6,14,8,2,14,0,2,10,33,2,7,8,5,22,6,0,41
2,4,15,3,1,2,3,5,4,104,0,8,4,27,3,7,0,94
3,10,25,12,5,1,2,5,0,135,1,11,4,31,4,27,3,117
23,19,190,37,18,29,4,24,0,507,13,49,37,140,49,44,14,505
18,11,9,9,2,17,4,10,0,113,6,19,8,16,26,11,10,97
10,24,41,11,21,70,7,35,5,302,12,63,26,38,86,36,0,265
25,35,108,51,19,57,15,44,0,837,26,86,32,98,73,66,23,787
1,15,19,4,3,12,3,11,12,95,6,14,6,18,11,9,0,111
4,15,36,17,9,26,4,25,8,241,5,36,15,47,34,40,0,208
5,11,50,20,12,16,7,18,0,362,14,43,9,49,34,21,4,327
4,8,17,15,2,12,7,6,0,115,8,12,6,23,12,13,6,106
4,11,19,13,12,12,8,17,0,191,3,11,7,20,31,31,21,163
2,10,4,6,8,3,7,4,0,92,2,5,5,6,9,9,3,97
1,6,4,9,3,8,3,4,5,154,4,8,3,13,17,10,0,142
5,17,24,8,3,13,12,21,8,293,20,25,16,35,31,15,0,262
10,15,30,27,13,11,15,12,0,325,19,14,12,54,19,21,4,315
2,12,5,11,2,7,6,15,0,139,5,19,6,11,12,11,0,135
12,27,25,21,21,10,9,10,0,374,11,25,12,36,13,30,24,358
4,15,20,15,10,1,3,7,3,104,8,9,5,24,7,10,0,119
1,4,16,4,9,15,0,6,6,71,4,14,4,21,9,12,0,68
1,3,4,3,2,3,2,4,1,31,2,5,2,5,5,5,0,30
0,2,1,5,1,1,4,1,0,55,3,1,0,9,3,5,4,45
1,5,6,1,5,4,0,2,1,10,0,3,1,7,3,8,0,13
2,21,22,18,111,17,8,8,5,304,15,61,19,40,33,29,0,319
2,2,10,10,8,1,2,6,9,176,8,11,3,18,6,7,0,173
2,5,7,5,0,3,4,5,0,91,5,5,3,8,4,6,9,82
21,4,11,4,8,3,5,8,0,122,8,11,18,12,9,5,6,117
8,14,25,15,12,14,1,9,0,217,5,34,4,45,18,12,7,190
4,2,13,11,14,9,4,4,9,103,7,10,3,28,15,5,0,105
5,8,26,15,41,11,1,3,0,159,8,28,8,45,12,9,6,153
13,21,60,27,290,9,30,32,41,604,46,194,27,151,33,62,0,614
3,5,8,2,18,6,3,6,18,60,5,12,13,6,20,10,0,63
1,5,7,5,12,3,8,7,3,104,7,3,6,24,6,8,0,101
5,11,47,13,64,2,11,13,0,455,18,23,10,64,13,30,25,438
9,8,16,6,128,34,8,16,24,297,15,68,18,54,41,24,0,326
4,23,52,33,35,17,13,14,0,427,11,19,6,46,31,49,6,450
2,11,24,2,1,3,4,10,0,108,2,12,9,24,7,7,1,103
3,13,9,0,4,3,2,7,0,129,6,14,10,6,4,12,3,115
4,6,30,3,4,3,1,11,15,98,5,9,9,28,18,10,0,96
22,35,126,29,69,37,29,75,40,765,43,123,44,132,120,78,0,687
7,18,52,20,15,23,11,34,2,364,11,45,16,67,44,37,0,326
9,31,36,15,22,19,17,12,0,394,15,17,22,63,45,38,2,353
3,12,19,18,11,8,7,7,0,141,6,17,8,29,10,14,7,135
4,11,19,26,8,21,4,6,0,235,1,12,7,34,26,15,2,237
40,53,132,35,78,18,33,89,7,666,49,90,94,135,66,48,0,669
32,34,90,39,10,75,23,63,4,700,27,93,41,107,118,63,0,621
13,20,49,24,11,66,18,36,24,429,18,47,8,72,98,31,0,416
1,11,14,10,3,39,0,8,0,137,2,10,3,21,44,13,8,122
7,37,16,11,20,25,11,15,0,214,4,22,8,33,48,33,1,207
8,16,51,12,14,12,7,23,0,382,23,53,17,45,24,19,15,329
6,3,8,2,0,11,4,6,3,87,5,9,3,10,9,8,0,86
6,8,14,7,6,15,4,6,9,175,7,10,6,25,25,9,0,168
5,14,22,11,8,22,11,14,4,255,11,18,10,29,33,18,0,247
14,7,29,18,2,6,5,9,0,177,3,7,4,25,21,28,3,176
3,3,14,4,1,4,1,3,0,103,1,9,5,10,3,6,8,94
3,11,20,8,4,11,3,3,0,142,7,6,2,17,22,21,0,130
2,12,13,15,12,15,5,2,3,104,6,11,5,28,20,23,0,90
2,9,16,7,4,16,2,6,0,121,5,13,4,17,22,8,2,112
0,3,11,11,1,12,6,3,4,66,6,2,4,11,13,8,0,73
5,10,39,9,31,62,12,17,0,281,13,44,17,52,65,12,12,251
6,5,10,6,19,1,0,11,3,87,3,30,12,11,11,8,0,73
4,31,74,32,114,30,26,24,4,758,44,88,18,98,72,35,0,742
11,36,82,33,76,8,16,31,0,595,28,73,19,120,47,35,115,451
0,12,18,23,10,8,6,4,3,230,4,17,2,35,11,21,0,224
13,24,36,14,22,5,12,19,27,352,12,43,23,49,18,17,0,362
32,33,91,21,78,28,22,50,0,582,32,104,47,101,59,45,27,522
28,41,78,23,58,17,31,51,0,632,22,113,54,105,45,40,18,562
2,19,29,39,42,0,15,10,0,302,13,14,9,47,10,34,9,322
11,23,28,10,19,28,11,17,0,216,15,25,6,43,48,15,3,208
2,3,16,9,0,23,1,10,0,82,3,13,6,13,23,9,6,73
1,10,16,20,16,7,1,6,9,190,11,13,2,26,19,15,0,190
6,4,23,14,6,4,9,20,4,227,9,21,24,29,18,15,0,201
2,17,21,7,2,25,2,12,0,143,3,11,4,30,28,16,9,130
80,33,49,27,25,28,7,21,0,424,25,37,46,54,55,56,1,420
1,2,0,3,1,3,1,1,2,20,3,4,2,2,6,1,0,16
10,16,45,10,20,10,10,4,0,150,9,18,5,61,21,13,6,142
8,13,6,13,12,15,1,0,0,110,0,13,15,21,14,10,3,102
48,57,59,22,9,45,38,76,75,566,40,113,83,103,81,59,0,516
24,66,132,38,10,32,42,60,0,699,58,58,49,154,75,60,10,639
31,48,77,18,9,39,27,77,41,713,45,101,77,66,100,49,0,642
18,56,70,19,7,30,32,49,0,522,22,53,35,83,49,43,25,493
18,38,52,40,3,14,27,38,0,602,25,43,28,60,24,50,32,570
29,54,95,35,9,21,31,77,0,582,27,64,71,114,53,74,12,518
12,46,72,42,8,16,21,33,0,453,35,50,26,67,33,49,41,402
14,30,38,24,4,9,10,16,0,431,15,18,13,47,24,30,107,322
10,37,57,35,2,14,11,31,109,373,15,33,19,68,45,47,0,452
8,66,68,41,1,15,32,31,0,383,27,28,28,93,26,49,42,352
27,30,46,19,9,10,35,43,0,1817,40,50,45,42,32,34,21,1772
29,39,59,28,1,14,15,35,0,541,21,33,25,81,21,51,29,500
26,53,74,35,2,26,21,68,43,521,42,62,55,106,58,58,0,488
16,44,80,33,6,19,21,45,0,483,28,62,25,80,38,49,45,420
31,53,80,29,11,25,20,57,0,670,25,70,52,106,46,45,44,588
17,47,69,27,16,13,23,47,0,541,32,46,42,99,30,56,16,479
11,40,62,43,9,12,33,47,0,534,51,52,24,65,38,66,0,495
7,42,52,29,5,15,34,48,0,737,29,53,28,89,27,56,28,659
13,44,96,29,8,22,28,64,0,646,18,46,20,84,44,59,32,647
11,31,46,35,5,17,19,21,0,482,15,36,25,47,30,43,54,417
5,53,63,19,4,11,12,38,3,433,21,28,19,61,20,38,0,454
17,61,51,34,5,5,24,53,0,681,33,47,21,72,33,59,76,590
12,44,52,32,7,14,38,53,0,567,42,49,19,66,30,51,35,527
8,54,48,37,9,12,29,38,91,497,35,57,26,107,40,51,0,507
25,34,51,16,6,20,22,40,0,384,12,55,45,52,38,46,12,338
15,54,76,48,13,16,30,48,0,769,39,65,47,103,48,66,0,701
20,49,45,10,8,37,26,49,0,438,21,66,26,51,50,37,34,397
21,44,95,26,18,21,19,59,0,510,33,89,49,94,50,37,17,444
17,54,67,41,4,10,14,45,3,497,34,46,29,110,30,62,0,441
26,45,63,28,13,32,26,71,0,619,23,86,42,57,64,40,64,547
49,39,61,29,14,24,32,76,0,520,26,53,79,72,67,54,22,471
19,44,79,27,8,19,37,70,0,495,45,71,49,90,36,58,28,421
23,25,42,20,4,17,26,37,0,566,24,43,38,58,37,25,50,485
34,41,52,17,5,18,29,50,0,684,42,51,48,51,45,37,61,595
18,21,51,12,5,12,12,39,5,429,16,30,23,70,34,31,0,400
9,44,60,21,12,28,28,39,0,466,24,30,28,76,41,45,14,449
11,46,60,27,5,19,15,35,0,506,27,48,30,92,42,45,20,420
20,27,55,90,9,27,27,30,2,571,40,47,33,105,30,65,0,538
1,25,13,11,1,8,5,14,0,56,14,8,1,22,11,13,0,65
0,27,21,17,0,12,10,6,0,209,7,8,1,42,24,23,4,193
4,3,16,11,6,5,8,5,0,186,13,13,13,22,14,14,0,155
9,22,14,8,5,33,7,29,0,253,13,22,7,33,50,27,18,210
1,3,3,9,5,6,3,4,0,75,3,2,3,12,6,20,3,60
0,4,9,4,2,0,1,2,0,48,2,4,0,10,0,8,3,43
6,36,54,31,23,29,13,26,0,426,14,48,13,63,38,42,22,404
8,1,4,3,2,4,5,1,0,96,7,3,7,12,4,1,2,88
24,31,62,22,9,33,35,52,9,831,23,63,33,101,48,46,0,794
3,8,12,6,13,14,2,6,0,112,2,11,6,18,26,8,1,104
2,20,30,13,6,23,10,10,0,226,8,24,5,39,25,19,7,213
6,18,19,20,6,12,10,12,0,165,1,11,5,29,20,13,0,189
9,24,29,36,10,8,9,42,0,265,12,28,22,56,15,35,4,260
11,93,64,69,12,33,27,44,0,479,23,56,17,97,50,96,8,485
3,2,9,5,7,0,1,4,0,75,0,7,1,6,7,4,7,74
10,50,75,41,14,20,31,36,0,573,29,54,24,121,32,48,12,530
31,20,69,42,7,26,9,41,0,194,14,23,18,72,42,29,24,217
0,18,15,8,3,15,11,8,16,177,4,31,6,40,17,16,0,157
4,16,40,37,5,28,16,17,0,486,31,23,8,31,47,22,20,467
6,16,21,42,1,9,13,13,2,330,18,14,11,45,10,36,0,319
2,25,31,26,46,12,15,15,0,268,17,22,2,43,22,39,21,274
0,15,13,13,6,15,2,5,0,139,2,12,2,24,21,12,12,123
5,16,28,10,2,3,8,5,0,226,3,24,4,25,13,19,13,202
0,9,2,6,0,3,0,1,0,50,2,0,0,4,3,14,0,48
7,42,35,28,6,38,12,21,0,504,11,33,9,70,53,62,46,409
3,4,7,7,0,1,0,14,0,126,9,9,1,15,5,7,7,109
5,11,16,8,2,8,11,0,0,114,7,6,4,25,8,9,12,104
2,4,13,19,4,2,2,8,0,123,12,11,7,16,3,9,1,118
23,26,57,38,35,16,16,30,22,374,28,45,30,56,46,42,0,390
4,2,3,8,1,1,2,5,1,46,2,2,1,5,3,7,0,53
5,24,23,19,8,30,5,14,47,197,6,15,10,28,51,24,0,238
11,17,31,26,8,22,13,23,0,252,13,17,10,49,36,20,29,229
1,20,17,9,3,14,9,14,0,159,6,9,5,20,22,25,7,152
3,15,15,8,7,9,3,7,0,228,8,16,1,15,26,16,8,205
5,18,41,40,11,25,12,22,33,463,20,26,11,66,37,40,0,470
2,20,19,26,6,18,9,11,2,125,7,16,8,20,22,47,0,118
1,10,4,8,2,3,4,9,0,65,4,7,3,8,5,12,5,62
0,6,4,5,1,3,11,7,3,71,8,6,2,8,3,12,0,72
7,6,4,9,3,12,4,7,0,98,8,10,2,9,10,17,9,85
1,3,10,1,8,14,3,5,0,81,1,13,1,18,12,6,2,73
22,36,55,26,34,54,10,34,3,588,7,84,23,70,88,53,0,537
22,66,50,55,37,48,33,38,0,594,32,73,21,82,85,64,10,576
20,127,57,19,4,67,37,33,8,592,36,74,46,71,67,115,0,555
16,153,67,29,12,98,36,52,0,886,25,69,31,117,110,132,7,858
3,23,10,16,3,15,13,6,0,144,7,4,6,24,15,21,7,149
33,47,121,46,14,34,33,61,42,863,28,84,90,114,76,80,0,822
5,20,29,19,7,26,11,17,21,330,17,42,5,33,37,29,0,322
4,3,7,7,2,8,0,1,0,51,1,4,1,20,3,8,6,40
7,20,39,13,11,52,10,24,0,235,17,24,9,48,55,29,0,229
6,19,25,4,6,9,7,20,0,216,9,21,4,39,29,10,8,192
1,8,4,5,4,13,4,4,2,36,3,7,2,5,13,6,0,45
12,24,20,17,7,38,4,11,0,249,5,18,20,49,45,20,19,206
1,5,21,2,2,13,2,2,0,69,2,3,1,9,26,3,1,72
2,3,7,2,0,0,0,2,0,46,5,3,2,6,2,4,4,36
2,7,7,5,2,5,0,3,0,44,2,2,0,10,10,7,8,36
10,23,24,21,8,21,7,17,3,175,9,21,10,34,31,31,0,173
2,17,34,27,13,9,2,8,8,295,14,43,3,44,13,26,0,272
40,75,133,40,14,32,53,57,40,814,49,83,78,164,67,82,0,775
6,7,10,8,2,1,15,11,0,95,2,16,2,14,0,27,15,79
2,6,9,16,3,0,0,8,0,62,2,10,1,11,3,20,9,50
8,14,21,18,1,10,12,15,0,214,10,25,10,42,11,26,9,180
26,105,38,37,14,35,20,20,0,673,22,47,34,58,43,78,22,664
14,82,52,40,4,16,25,21,0,409,32,19,14,68,26,66,20,418
22,54,89,41,13,48,18,41,0,817,42,72,30,80,61,78,2,778
2,20,11,14,15,7,0,12,4,178,2,10,4,20,18,31,0,178
1,3,15,14,2,5,6,8,12,152,0,6,2,16,11,13,0,170
11,21,24,12,3,34,23,33,6,219,25,32,25,40,52,20,0,192
0,5,4,9,1,28,2,10,0,93,1,16,8,14,42,8,10,53
1,7,17,4,0,1,9,4,8,84,3,11,1,25,11,11,0,73
27,52,109,34,17,27,42,70,44,850,44,77,37,131,80,72,0,831
2,13,18,20,5,19,5,14,0,197,4,19,4,28,21,16,13,188
93,60,66,53,11,35,38,54,3,623,48,53,73,116,72,46,0,628
0,12,16,12,23,14,2,14,0,146,7,16,1,26,26,12,13,138
7,27,42,31,8,28,16,23,0,418,15,39,7,62,43,32,10,392
8,16,44,15,50,52,14,21,0,353,25,66,14,80,71,28,2,287
0,4,13,7,0,5,0,5,0,83,4,4,6,10,6,4,8,75
8,7,7,11,0,17,8,7,0,113,6,14,7,9,18,10,3,111
7,19,8,13,1,18,9,15,0,160,7,20,9,34,21,17,14,128
21,26,55,42,14,35,29,37,18,484,22,46,24,76,67,55,0,471
16,28,50,18,2,36,19,31,0,463,10,52,30,66,59,33,39,374
5,9,10,4,1,8,1,18,9,182,6,15,9,18,13,11,0,175
22,65,71,36,32,71,32,33,8,446,28,42,23,60,103,56,0,504
4,10,18,4,2,14,1,10,0,51,1,10,2,12,12,8,5,64
16,55,49,52,14,45,17,18,0,653,28,45,27,92,64,72,16,575
6,35,47,25,6,71,14,19,5,479,18,31,11,53,82,31,0,481
0,6,8,17,8,10,4,2,4,107,3,22,2,13,19,4,0,103
0,16,9,2,3,2,2,4,7,38,3,10,0,21,4,9,0,36
1,7,5,13,3,1,2,2,0,49,0,6,1,20,3,10,3,40
10,19,23,13,6,20,11,17,0,313,12,14,19,36,24,22,15,290
3,12,26,12,11,10,5,15,0,122,11,17,8,35,18,12,2,113
1,22,16,12,1,12,5,5,0,209,9,9,0,15,11,22,10,207
10,10,28,13,12,10,16,36,11,322,12,43,27,39,47,38,0,262
36,55,137,24,7,30,46,87,0,920,28,85,54,158,84,83,41,809
1,2,2,4,7,0,1,1,0,55,4,7,0,6,1,8,2,45
4,3,9,5,1,2,2,8,3,91,6,14,2,13,13,7,0,73
9,31,22,16,6,11,9,9,0,200,10,5,10,43,20,22,4,199
2,9,7,6,4,9,1,7,0,85,0,6,6,10,16,9,7,76
2,22,30,18,9,20,11,15,0,227,11,25,6,45,28,27,2,210
3,4,1,6,0,10,8,1,0,17,2,3,4,3,10,8,4,16
0,14,11,7,0,30,4,9,0,95,5,12,1,10,24,15,5,98
9,32,14,11,4,42,7,23,0,136,5,21,9,26,55,27,7,128
1,6,7,13,4,5,1,11,4,159,3,7,7,18,8,16,0,152
8,30,26,12,16,14,17,11,0,259,36,11,9,42,14,18,14,249
1,5,11,11,6,9,8,15,0,192,6,7,3,25,20,10,18,169
15,12,34,15,3,14,20,32,0,410,25,38,17,34,29,20,2,390
8,17,35,22,6,18,12,21,0,409,11,32,24,51,37,53,9,331
7,30,28,13,4,8,1,17,0,247,22,17,6,41,9,33,0,227
6,15,29,20,2,26,7,25,16,264,14,21,14,39,24,21,0,277
5,6,13,3,3,3,1,14,0,100,1,4,25,8,9,4,5,92
6,12,29,10,0,11,3,12,0,179,8,24,9,40,20,15,0,146
11,8,26,12,3,23,6,12,3,135,10,13,2,41,27,17,0,129
8,5,47,10,4,5,6,6,6,146,10,25,4,21,22,7,0,154
6,13,52,13,3,9,10,18,24,260,10,30,22,41,30,30,0,245
16,33,124,37,19,35,16,35,0,399,16,60,31,88,51,58,29,381
7,32,39,17,6,12,9,5,0,351,21,29,8,54,18,31,11,306
6,17,25,27,2,67,18,23,0,236,20,20,21,46,72,29,4,209
1,25,20,11,4,10,13,18,20,175,8,22,3,28,20,17,0,199
0,4,13,6,0,0,0,6,0,95,3,6,2,8,1,5,21,78
5,12,7,17,3,6,10,19,0,294,9,13,5,19,14,20,20,273
0,3,1,8,0,0,2,0,0,65,1,1,2,4,0,9,6,56
13,29,55,73,6,7,8,28,0,688,14,48,24,94,14,70,60,583
7,15,38,96,1,7,14,14,0,698,23,37,9,60,8,56,35,662
7,12,20,35,2,8,7,11,8,365,9,20,8,22,11,30,0,375
1,1,2,14,0,1,1,5,0,15,1,2,1,5,1,2,5,23
2,2,4,8,0,2,5,4,0,69,4,3,1,1,3,3,8,73
1,3,6,7,0,0,0,4,0,97,1,0,3,13,2,5,10,84
0,5,13,8,0,2,4,4,0,89,7,3,1,21,3,8,9,73
9,37,42,34,28,5,7,24,0,529,21,38,8,69,18,43,21,497
8,39,36,30,28,8,14,28,0,721,17,24,12,60,15,47,36,701
2,2,9,2,5,0,0,10,0,41,3,7,8,11,5,1,2,34
0,1,5,1,6,0,1,1,2,20,1,0,0,5,3,5,0,23
4,3,20,6,8,0,3,13,0,206,5,13,2,34,4,5,31,169
11,26,39,19,31,16,13,8,0,429,15,26,14,49,23,27,36,402
