OBEC,OKRSEK,VOLICI,HLASY,HLASY_53,HLASY_7,HLASY_768,HLASY_721,HLASY_47,HLASY_1102,HLASY_1150,HLASY_1151,HLASY_1138,HLASY_55,HLASY_79,HLASY_600,HLASY_720,HLASY_1137,HLASY_785,HLASY_98,HLASY_1139
503916,1,449,164,7,17,18,3,103,2,6,1,7,,,,,,,,
506664,1,225,89,3,12,25,2,25,2,4,1,10,2,1,1,1,,,,
530085,1,57,30,1,9,8,1,2,3,,3,,,,1,2,,,,
530123,1,84,35,13,10,2,3,2,,2,1,2,,,,,,,,
530131,1,186,87,10,14,18,6,12,2,8,1,6,2,,1,4,1,2,,
530140,1,155,59,3,12,22,1,8,,6,1,4,2,,,,,,,
530182,1,351,109,7,37,17,4,18,3,13,1,2,,1,,4,,2,,
530221,1,85,33,2,11,6,,4,,4,,1,,,,3,,2,,
530239,1,56,25,7,5,12,,,,,,,,,,1,,,,
530247,1,115,58,17,9,17,1,5,,1,3,4,,,,,,1,,
530271,1,76,21,3,6,4,3,2,1,,,,,,1,,,,1,
530280,1,194,82,12,25,11,3,15,1,6,,6,,,3,,,,,
530328,1,156,48,7,14,9,2,4,1,4,,1,,,,3,,3,,
530336,1,224,84,9,11,12,8,14,1,6,14,7,,,,2,,,,
530361,1,42,26,4,5,6,1,,,9,,1,,,,,,,,
530379,1,114,56,5,11,7,,13,,16,2,,,,,1,,1,,
538183,1,85,27,2,3,9,1,1,,2,1,3,,,2,1,,2,,
539716,1,184,74,11,12,11,5,8,,8,6,1,1,,4,2,5,,,
539741,1,425,185,39,47,29,12,8,1,21,7,10,,,,5,1,3,,2
539783,1,270,119,6,28,22,4,29,1,12,,8,,,1,3,,5,,
539821,1,343,122,14,25,20,4,20,2,17,6,8,,,2,4,,,,
539929,1,37,21,4,5,2,,6,,2,1,,,,,1,,,,
539937,1,194,61,8,7,22,1,9,,6,2,1,,,2,3,,,,
539945,1,237,78,4,12,19,13,17,1,4,2,3,,,1,1,,,,1
540056,1,116,31,6,11,4,,3,,5,,1,,,1,,,,,
540064,1,91,34,3,14,4,1,4,,2,2,2,,,,,,2,,
540102,1,92,36,5,6,9,1,2,,6,5,,,,,1,,1,,
540137,1,40,23,8,1,2,6,3,,1,1,,,,1,,,,,
540200,1,76,34,2,3,10,,2,1,5,4,6,,,1,,,,,
540251,1,108,45,6,7,10,3,7,1,4,,2,,,3,,,,2,
540269,1,224,83,15,11,20,7,14,2,4,5,3,,,,2,,,,
540293,1,124,48,7,14,8,2,9,3,,1,2,,,1,,,1,,
540307,1,87,48,,18,8,,9,,5,4,,,,1,3,,,,
540340,1,281,95,10,18,22,5,11,1,9,3,12,,,2,2,,,,
540412,1,185,91,18,17,19,11,7,2,8,2,3,,,1,1,,2,,
540421,1,81,46,8,9,7,1,7,2,2,2,1,,1,,3,,2,,1
540463,1,44,25,1,4,9,1,7,,,,1,,,,1,1,,,
540528,1,114,37,5,2,11,6,1,,2,2,4,,,1,2,1,,,
540561,1,504,260,38,42,50,26,20,14,19,13,10,3,,1,7,,17,,
540617,1,124,35,,12,6,2,5,,2,,3,,,3,,2,,,
540633,1,252,45,12,3,8,2,7,,4,,1,,,4,3,1,,,
540641,1,185,87,14,15,10,11,11,6,6,1,1,3,,,1,,7,,1
540668,1,207,46,4,11,12,2,8,,1,4,4,,,,,,,,
540676,1,146,72,2,8,16,3,22,3,7,1,3,1,,2,2,,,2,
540692,1,94,48,4,3,14,4,8,,2,1,6,,,,1,2,,,3
540706,1,70,33,6,2,14,3,1,,6,1,,,,,,,,,
540722,1,207,95,16,15,18,7,2,2,9,8,5,,,,9,1,3,,
540803,1,38,26,4,2,3,1,7,,4,2,,,,,,1,1,1,
540927,1,16,15,5,1,3,1,,,2,1,,,,,2,,,,
541001,1,24,18,5,1,4,3,,,1,1,,,,,2,,,1,
541061,1,101,53,4,3,18,3,6,3,6,2,4,,,,3,,1,,
541095,1,99,46,1,17,14,3,5,,1,3,1,,,1,,,,,
541141,1,53,17,1,3,2,,4,,2,,3,,,1,,,1,,
541150,1,626,200,23,27,50,20,24,1,12,15,11,,,2,9,1,5,,
541176,1,357,140,32,17,27,11,11,2,11,4,6,2,1,2,7,1,5,,1
541192,1,141,42,3,6,9,3,6,,7,,2,,,,3,1,2,,
541290,3,34,11,,,7,,2,,,,1,,,,,,,1,
541290,2,70,34,,4,10,,15,3,,1,,,,,1,,,,
541290,1,99,26,1,2,4,,6,,3,1,4,,,5,,,,,
541362,1,203,51,3,2,26,4,9,,,1,1,1,,,3,1,,,
541401,1,98,42,1,6,13,2,4,,9,2,2,,,,3,,,,
541435,1,104,47,3,15,10,3,5,,3,1,2,,1,2,2,,,,
541443,1,101,28,4,4,3,4,5,,2,1,2,,,,3,,,,
541460,1,124,29,2,5,6,,2,,6,,6,,,1,,,,1,
541486,1,119,43,5,10,9,1,4,,2,3,5,,,,3,,1,,
541494,1,210,70,,19,15,5,18,,5,1,2,,,,3,,2,,
541532,1,199,52,1,16,13,1,3,,1,4,6,,,1,5,,,1,
541559,1,154,33,,7,5,2,9,,3,,6,,1,,,,,,
541605,1,202,71,4,35,11,4,6,,6,,5,,,,,,,,
541621,1,370,80,3,12,18,3,23,2,6,3,4,,2,,3,1,,,
541664,1,309,75,13,16,32,,8,,,,5,,,,,1,,,
541681,1,143,38,2,4,10,2,6,1,2,6,,,,,1,,4,,
541702,1,321,84,4,21,16,,20,,6,1,14,,,,2,,,,
541745,1,101,46,4,8,12,3,11,,5,,,,,,3,,,,
541753,1,190,82,14,12,16,5,7,3,2,3,9,2,,1,4,2,1,1,
541788,1,227,65,6,9,12,3,24,1,3,3,1,,,2,1,,,,
541796,1,139,59,4,11,21,1,4,1,6,3,3,,,1,2,1,1,,
541826,1,88,51,1,5,10,4,13,3,7,2,,,2,,3,,,1,
541842,1,142,46,6,2,16,3,4,1,10,,1,,,,3,,,,
541851,1,95,32,1,6,11,1,5,,3,1,3,,,,,,,1,
541869,1,61,35,6,7,8,2,1,1,2,1,3,,,1,,,,3,
541885,1,276,104,11,28,24,2,12,4,5,3,3,,,,10,1,,1,
541915,1,159,64,9,8,15,3,12,1,2,,5,,1,3,1,,4,,
541923,1,160,48,8,6,13,2,2,,6,5,3,,,,2,,1,,
541931,1,103,46,6,2,2,5,2,,21,1,2,1,,,3,1,,,
541958,1,179,87,3,12,9,6,7,2,37,2,7,,,1,1,,,,
542024,1,170,65,8,13,13,1,2,,8,2,1,,,2,14,1,,,
542059,1,45,19,7,3,7,,1,,1,,,,,,,,,,
542083,1,89,30,5,6,5,1,5,2,4,,1,,,1,,,,,
542091,1,58,30,13,1,6,8,,,1,,,,,,1,,,,
542148,1,70,45,23,4,4,2,2,,2,1,2,1,,,2,,2,,
542156,1,181,62,18,3,10,2,12,1,8,3,5,,,,,,,,
542172,1,194,75,6,17,13,10,9,,12,1,3,1,,1,,1,1,,
542296,1,183,79,5,12,15,4,24,,8,5,1,1,,,2,,1,1,
546372,1,183,70,11,14,18,3,8,,6,2,4,,,4,,,,,
546399,1,99,53,10,5,11,3,10,,5,3,1,,,,,1,3,,1
546411,1,274,90,16,6,19,7,20,4,9,2,4,,,,3,,,,
546488,1,102,60,19,6,2,3,19,1,,,2,,,1,6,1,,,
546526,1,263,93,14,12,18,4,19,1,7,7,7,,,,3,,1,,
546534,1,172,92,6,18,28,4,15,,8,4,5,2,,1,1,,,,
546551,1,213,89,6,14,26,13,9,4,5,2,4,,,2,2,1,1,,
551686,1,127,46,7,5,11,1,9,,2,1,4,,,,1,2,,2,1
553425,12,141,56,7,15,10,1,10,,4,6,,,,,2,1,,,
553425,11,787,267,47,45,47,19,23,1,28,24,13,,1,3,10,5,1,,
553425,10,997,264,44,46,33,18,23,2,27,31,23,2,,,9,6,,,
553425,9,651,262,36,41,37,18,29,,36,32,23,,,2,4,3,,,1
553425,8,874,317,35,77,58,6,44,1,27,39,7,,1,1,12,7,,2,
553425,7,760,230,12,42,56,8,31,9,24,11,14,,2,2,7,9,3,,
553425,6,654,197,17,57,39,7,21,1,18,7,5,,,2,9,12,2,,
553425,5,737,303,50,64,44,14,40,,29,30,14,2,,,10,4,,1,1
553425,4,597,223,9,53,48,5,47,,16,19,10,2,,1,8,5,,,
553425,3,657,216,25,28,55,12,41,1,11,18,12,,,1,7,4,1,,
553425,2,869,257,21,54,36,15,36,8,26,17,22,,,,13,2,6,1,
553425,1,866,393,44,69,59,21,40,7,65,49,15,2,,5,9,3,3,2,
553433,1,232,101,7,8,31,6,12,2,19,8,6,,,,1,1,,,
553441,2,506,131,7,26,19,2,33,,30,4,8,,,1,,1,,,
553441,1,898,208,12,30,34,5,40,3,47,5,22,1,,1,2,5,1,,
553450,5,87,35,1,5,11,2,4,1,,2,6,,,1,1,,1,,
553450,4,62,22,5,4,5,,,,1,4,,,,3,,,,,
553450,3,129,45,7,10,8,4,4,1,1,3,5,,,,2,,,,
553450,2,96,40,3,7,3,,8,,4,3,3,,,4,4,,,1,
553450,1,757,198,20,44,50,8,20,2,9,6,16,,,,17,2,4,,
553506,1,79,19,2,6,6,,2,,,,,,,1,1,,1,,
553514,1,204,95,14,24,20,9,9,1,4,4,4,4,,1,1,,,,
553522,1,68,43,2,18,3,3,3,,6,3,2,,,2,1,,,,
553531,2,114,36,4,3,17,,,,1,1,8,1,,1,,,,,
553531,1,168,44,16,8,6,2,1,3,5,1,1,,,,1,,,,
553549,3,79,18,,8,3,,6,,1,,,,,,,,,,
553549,2,100,30,4,15,2,3,1,,1,1,1,1,,1,,,,,
553549,1,345,88,12,13,22,4,11,2,5,6,6,,,,3,2,2,,
553557,1,307,144,22,28,32,8,25,,3,4,6,2,,,7,2,3,1,1
553565,1,38,24,1,11,1,,5,,4,1,,,,1,,,,,
553573,1,152,36,4,12,9,1,3,1,3,2,1,,,,,,,,
553581,1,329,147,15,30,32,3,9,2,12,21,9,,1,1,6,5,1,,
553590,1,181,72,3,7,24,4,14,4,5,1,3,1,,2,1,,3,,
553603,1,35,22,1,4,6,2,,,4,1,,,,,1,1,2,,
553611,1,423,136,18,27,21,14,9,7,6,7,13,,2,,9,1,2,,
553620,1,217,79,7,14,10,8,5,2,7,3,15,,,1,4,2,1,,
553654,6,95,41,7,8,6,3,1,,4,,10,,,1,,1,,,
553654,5,794,216,25,49,50,5,31,,28,4,16,,2,,4,,1,,1
553654,4,609,184,17,50,28,4,28,3,15,4,23,,4,1,1,2,3,1,
553654,3,797,239,41,47,45,12,19,1,22,2,38,2,2,3,4,1,,,
553654,2,829,203,17,34,54,8,18,2,10,9,28,,3,5,9,1,5,,
553654,1,833,207,24,46,51,7,38,1,8,,15,2,,5,8,2,,,
553662,1,196,80,9,35,9,3,11,,6,,1,,,1,4,,1,,
553671,7,125,19,7,3,5,,3,,1,,,,,,,,,,
553671,6,142,27,1,5,8,,9,,,,4,,,,,,,,
553671,5,148,34,8,11,2,2,6,,2,,3,,,,,,,,
553671,4,895,243,37,50,42,5,38,1,17,6,29,1,,,12,1,3,1,
553671,3,855,289,53,51,56,13,54,5,14,9,18,1,,1,10,1,2,1,
553671,2,865,249,44,40,53,10,32,1,14,10,22,,1,1,12,4,1,3,1
553671,1,968,230,36,28,63,12,38,3,17,3,16,1,,1,9,1,2,,
553689,2,253,61,7,11,11,6,18,,2,,1,,,,5,,,,
553689,1,748,172,8,54,39,1,29,1,13,3,10,1,,,10,2,1,,
553727,1,97,37,4,5,9,1,9,,5,2,1,,,,,1,,,
553735,1,607,193,13,42,38,2,42,2,10,13,9,,,2,7,11,1,1,
553743,1,338,126,31,15,20,7,21,,5,13,4,,7,,1,,2,,
553751,1,310,124,5,24,20,12,9,,14,31,4,,,,3,,2,,
553778,1,26,14,4,2,2,1,,,3,1,,,,,1,,,,
553786,10,69,34,9,8,6,2,1,,1,2,2,1,,,1,1,,,
553786,9,57,25,5,6,3,2,4,,,2,3,,,,,,,,
553786,8,292,153,54,25,17,4,17,2,5,10,9,,,1,4,4,,,1
553786,7,103,42,4,8,5,,8,,,2,8,,,,2,4,,,1
553786,6,53,16,2,3,11,,,,,,,,,,,,,,
553786,5,335,125,33,26,26,,8,3,6,8,9,,,1,4,1,,,
553786,4,765,308,106,55,40,4,39,3,2,17,17,,,3,10,3,6,1,2
553786,3,837,383,137,51,60,12,41,7,10,30,16,1,,2,10,2,3,,1
553786,2,639,270,99,52,36,10,37,1,2,6,13,2,,2,6,2,1,1,
553786,1,951,264,108,31,31,8,22,7,2,10,14,,,9,17,5,,,
553794,1,1027,377,35,53,50,26,109,1,21,26,12,3,,1,14,21,3,2,
553816,1,813,235,43,27,49,12,22,1,37,14,12,1,,7,5,2,3,,
553824,1,912,334,74,59,65,16,44,1,20,24,17,,,2,6,2,3,1,
553832,1,126,56,10,12,16,1,4,1,2,,8,,,,1,,1,,
553841,1,305,138,1,18,17,,15,,69,3,7,1,2,,3,,1,1,
553859,1,87,30,6,6,4,1,1,,2,4,2,1,,,1,2,,,
553867,1,103,56,16,13,5,2,5,1,4,2,4,,,,1,1,,,2
553891,2,112,53,5,9,7,2,4,,2,21,1,,,,2,,,,
553891,1,180,95,7,14,14,4,17,,3,26,6,,,,3,1,,,
553913,2,245,74,5,12,21,1,15,2,7,,8,,,2,1,,,,
553913,1,619,154,18,24,57,7,21,4,1,4,12,,,1,2,1,,1,1
553921,1,87,48,4,24,2,,5,1,6,1,5,,,,,,,,
553930,1,107,45,1,19,5,,9,,2,4,5,,,,,,,,
553948,2,115,48,10,4,17,2,4,,5,3,2,,,,1,,,,
553948,1,355,168,15,48,24,8,17,1,6,35,4,1,2,1,3,1,2,,
553956,1,219,57,,16,12,2,6,,3,,7,1,,2,6,2,,,
553981,1,936,339,36,50,77,12,30,3,24,76,18,,,,10,1,2,,
553999,1,208,36,2,8,8,1,8,,3,,3,,,,1,,,1,1
554006,1,208,45,2,7,7,1,12,,1,2,4,,,,2,7,,,
554022,1,117,51,2,11,13,1,3,,6,2,6,,,2,2,3,,,
554031,1,155,70,9,7,14,4,2,,4,16,1,,,1,8,3,1,,
554057,1,182,74,3,27,13,,9,,1,1,7,,,12,,,1,,
554073,1,484,161,12,34,36,10,20,,8,6,19,,4,4,4,3,,1,
554081,1,180,62,8,20,10,3,7,3,1,7,,,,,2,1,,,
554090,1,194,74,15,18,9,1,8,,9,2,5,,,4,2,1,,,
554111,2,717,191,24,37,49,12,28,5,4,7,15,1,1,,7,1,,,
554111,1,561,171,17,37,36,3,39,,,6,21,1,1,3,6,1,,,
554120,1,466,178,39,38,22,14,13,4,15,16,5,,1,1,7,1,1,,1
554138,1,948,327,33,59,40,14,45,2,31,61,14,1,1,3,16,3,1,3,
554154,1,272,95,2,29,35,5,7,,7,2,2,,,2,3,1,,,
554189,1,141,37,6,5,7,2,8,2,6,,,,,,1,,,,
554201,1,152,30,1,3,9,,14,,,1,1,,1,,,,,,
554251,1,152,87,11,18,13,5,11,2,7,9,4,,,4,1,2,,,
554260,3,63,37,3,5,12,1,3,2,1,1,4,2,1,1,,,1,,
554260,2,104,57,2,18,11,,8,1,3,1,12,,,,,,,1,
554260,1,162,73,6,12,7,3,11,1,6,2,10,,4,1,6,2,1,1,
554278,1,346,86,8,14,26,2,20,2,3,2,5,,,1,1,1,,,1
554294,5,109,47,7,12,3,5,4,,6,2,4,,3,,1,,,,
554294,4,69,32,1,18,8,,,,1,1,,,,2,,,1,,
554294,3,209,99,10,28,24,9,9,1,7,1,4,,3,1,2,,,,
554294,2,1014,394,32,126,74,25,35,7,19,10,35,1,1,5,14,2,8,,
554294,1,1251,441,40,197,72,9,46,,13,21,19,,1,8,8,2,3,1,1
554316,1,198,88,8,16,17,5,6,2,4,17,3,,,,3,2,5,,
554341,1,347,138,7,63,12,7,11,,9,22,3,1,,,3,,,,
554359,1,435,146,20,32,30,4,21,3,5,2,13,,,3,8,4,1,,
554383,1,313,107,7,23,24,12,12,1,8,11,3,,,,3,2,,1,
554391,1,88,39,4,8,13,3,4,,2,2,3,,,,,,,,
554405,1,121,31,6,3,6,,5,,6,1,,,,,3,1,,,
554413,1,201,54,1,6,19,3,8,3,6,,2,1,1,2,1,,,1,
554421,1,133,33,3,4,4,,12,1,4,,4,,,,1,,,,
554448,1,42,22,4,9,2,,1,,3,1,1,1,,,,,,,
554456,1,623,143,10,11,23,1,24,,50,6,11,,,2,3,2,,,
554464,5,372,97,12,16,26,5,11,1,5,12,4,,,,4,,,1,
554464,4,111,46,8,10,9,1,6,,3,3,3,,,,1,1,,1,
554464,3,110,49,10,8,11,5,7,2,,2,3,,,1,,,,,
554464,2,52,33,11,3,8,1,,,2,5,,,,,3,,,,
554464,1,152,75,18,14,19,2,3,,7,5,3,,,,2,1,1,,
554472,1,123,61,7,22,6,8,9,,,3,,,,3,1,2,,,
545970,1002,801,310,70,24,57,68,6,10,19,13,16,1,,2,14,,10,,
545970,1001,332,149,35,10,19,27,4,7,18,10,5,,,1,13,,,,
545970,1012,423,141,18,26,43,9,17,3,8,2,3,,,2,6,,4,,
545970,1011,464,156,27,20,30,12,19,8,6,12,9,,,3,5,1,2,2,
545970,1010,664,248,33,46,69,6,24,4,22,2,19,,3,,15,2,1,,2
545970,1009,559,214,33,40,55,12,22,2,14,13,8,2,1,,6,3,3,,
545970,1008,444,181,31,26,47,20,18,1,10,7,8,1,1,,10,,1,,
545970,1007,155,94,15,30,16,2,15,,,2,4,1,,1,1,,3,1,3
545970,1034,573,161,28,33,40,7,8,,20,7,4,,,1,10,,3,,
545970,1033,552,217,32,33,46,18,35,5,20,3,17,2,,1,5,,,,
545970,1032,573,241,31,60,49,13,23,,13,10,12,,,1,23,,6,,
545970,1031,479,187,32,31,50,5,16,2,14,6,16,,,,10,1,3,1,
545970,1030,617,222,30,53,42,22,17,3,14,9,15,,1,1,11,2,,,2
545970,1029,508,165,21,29,43,12,15,3,18,7,5,,,1,7,,2,2,
545970,1028,591,225,29,34,62,27,21,3,8,20,5,,,4,11,,1,,
545970,1027,516,214,25,52,57,20,9,4,14,7,11,,1,2,6,1,3,1,1
545970,1026,710,259,33,51,67,20,28,5,12,13,12,,1,3,13,,1,,
545970,1025,503,185,14,36,46,18,21,3,9,8,18,2,,4,4,1,1,,
545970,1024,455,158,34,22,39,4,20,1,9,11,11,,,2,5,,,,
545970,1023,974,374,69,40,85,58,24,4,34,14,15,,,1,19,,11,,
545970,1022,988,490,102,60,113,66,31,9,43,16,12,2,1,4,27,1,3,,
545970,1021,402,147,14,38,55,6,10,,5,7,6,1,1,,3,1,,,
545970,1020,721,251,28,43,58,17,30,4,15,16,18,1,3,1,11,1,2,2,1
545970,1019,505,209,19,36,54,17,18,2,18,19,4,4,2,3,9,1,3,,
545970,1018,403,174,24,33,39,15,14,3,16,8,11,1,,1,6,1,2,,
545970,1017,742,262,27,46,67,10,37,,24,11,10,,,2,20,,8,,
545970,1016,746,268,28,54,66,13,28,3,13,18,14,,,,24,,7,,
545970,1015,695,263,25,57,68,10,30,4,16,14,14,,2,3,14,,6,,
545970,1014,740,247,34,41,73,10,41,5,12,5,9,,,,12,2,2,,1
545970,1013,859,328,40,56,91,32,33,5,18,12,14,,,4,14,1,6,2,
545988,2034,882,394,75,50,85,26,46,1,33,27,16,4,2,3,15,2,9,,
545988,2033,532,235,43,49,43,28,7,3,15,8,18,1,,5,10,1,4,,
545988,2032,1370,632,148,112,119,75,44,8,40,25,26,2,1,3,20,1,7,,1
545988,2031,1256,578,152,69,93,86,30,3,59,29,19,1,2,1,25,1,8,,
545988,2030,608,314,73,49,62,41,11,1,31,6,9,1,,1,20,,8,1,
545988,2029,972,439,89,41,83,61,20,13,31,27,27,2,,3,18,1,21,1,1
545988,2028,899,415,77,59,83,44,37,4,32,19,16,1,,,22,2,19,,
545988,2017,642,224,30,46,41,21,19,5,18,19,16,,,1,5,,3,,
545988,2016,710,277,49,37,57,18,41,3,23,17,10,3,,3,10,1,4,,1
545988,2015,1934,305,46,40,69,10,30,7,27,18,15,2,3,5,19,1,12,1,
545988,2014,781,335,75,58,66,28,30,5,13,23,7,1,2,1,16,,10,,
545988,2013,777,339,77,40,74,31,24,12,29,25,10,4,1,2,5,1,4,,
545988,2012,1033,468,113,49,82,43,25,1,53,29,36,4,,1,27,,4,1,
545988,2011,835,367,61,55,78,32,25,9,36,25,17,3,,6,15,3,2,,
545988,2010,971,445,97,43,104,45,22,6,51,40,9,,1,3,15,1,6,2,
545988,2009,760,318,59,38,58,40,11,6,24,31,18,4,1,3,14,2,6,2,1
545988,2008,709,237,31,58,53,17,29,4,17,12,3,1,,2,8,1,1,,
545988,2007,877,270,44,26,47,38,15,4,33,21,15,,,5,21,,1,,
545988,2006,793,256,42,35,31,35,18,3,26,21,18,2,,4,17,,3,1,
545988,2005,742,236,52,36,35,34,16,6,16,17,10,2,,,5,1,6,,
545988,2004,625,162,26,22,35,26,7,1,8,17,4,2,2,2,6,,3,1,
554731,5001,1592,524,60,88,130,65,47,2,54,19,22,,2,10,17,,7,1,
545970,1056,1242,496,113,50,86,70,14,5,67,24,20,1,2,6,27,1,10,,
545970,1055,1332,443,79,61,74,32,35,11,36,19,28,1,3,3,41,3,16,1,
545970,1054,1024,284,40,36,70,19,25,4,21,26,25,,2,1,9,,3,3,
545970,1053,1271,401,67,45,86,23,36,13,34,17,27,4,3,8,27,2,8,1,
545970,1052,1083,294,31,44,76,23,24,7,17,12,18,1,1,5,26,2,7,,
545970,1051,792,232,28,32,54,17,14,5,34,9,19,,,1,15,,3,1,
545970,1050,751,237,22,39,74,13,11,4,11,14,30,,,1,12,1,5,,
545970,1049,618,183,26,31,29,10,17,8,17,12,9,1,1,,16,,4,1,1
545970,1048,514,156,28,26,30,9,19,4,14,6,7,,,3,8,,2,,
545970,1047,620,201,30,31,43,16,24,2,13,11,13,,1,1,11,1,2,2,
545970,1046,625,210,32,42,41,13,19,3,20,7,8,1,1,2,15,,6,,
545970,1045,598,203,19,38,48,15,23,3,14,4,12,,1,1,16,3,6,,
545970,1044,615,220,38,32,51,13,25,2,20,15,10,,1,1,8,1,3,,
545970,1043,660,273,34,57,53,19,27,2,21,11,21,1,1,7,14,,3,,2
545970,1042,651,241,35,42,61,27,13,7,21,11,11,,,,10,2,,1,
545970,1041,727,223,31,41,51,13,24,12,10,13,12,1,,2,10,1,2,,
545970,1040,541,198,31,36,55,13,23,,13,10,7,,,1,5,1,3,,
545970,1039,544,227,50,24,54,19,20,6,14,12,11,1,,2,7,2,5,,
545970,1038,605,204,29,36,33,9,32,4,26,6,11,3,1,1,10,1,2,,
545970,1037,608,195,24,39,51,10,25,1,11,5,5,,,2,13,4,5,,
545970,1036,630,211,19,34,52,23,21,,15,18,8,1,,,13,2,5,,
545970,1035,692,202,27,36,34,23,20,1,8,11,10,,2,,18,1,10,,1
545970,1006,1357,543,114,59,95,79,35,10,44,33,24,2,,2,27,,19,,
545970,1005,2788,369,79,63,83,44,25,2,16,13,19,1,1,1,12,2,7,1,
545970,1004,924,400,75,37,86,53,28,7,37,34,16,,3,3,17,2,2,,
545970,1003,851,432,85,50,85,54,32,5,37,17,26,1,6,9,19,1,5,,
545988,2003,722,188,38,22,25,22,13,2,30,8,12,,,7,5,,4,,
545988,2002,820,236,34,23,49,25,16,12,15,21,15,1,1,2,14,3,5,,
545988,2001,555,134,22,20,25,10,15,5,8,11,6,2,,1,7,,2,,
559199,9001,613,234,50,32,43,26,11,7,10,16,12,,3,3,15,1,3,2,
545988,2027,824,340,59,57,69,29,38,10,18,18,11,,,3,21,,5,2,
545988,2026,651,282,47,42,63,27,23,6,24,24,9,1,,2,5,,8,,1
545988,2025,659,262,43,44,75,29,20,2,18,14,3,2,3,2,2,2,3,,
545988,2024,933,325,55,45,71,35,22,8,30,17,20,1,1,2,11,,6,1,
545988,2023,594,218,53,24,35,30,16,6,11,11,10,1,1,2,10,,8,,
545988,2022,579,245,48,39,61,16,25,1,17,16,12,,1,,5,1,1,1,1
545988,2021,478,212,38,38,38,17,29,1,12,15,8,,,2,8,,6,,
545988,2020,831,261,42,51,52,27,20,3,20,16,6,4,1,2,8,,9,,
545988,2019,512,208,54,23,33,23,12,,24,16,2,,,1,9,,11,,
545988,2018,772,263,51,34,60,25,33,7,12,11,11,,,6,6,1,6,,
546003,3025,609,248,51,25,54,23,13,2,27,18,15,2,,3,11,2,2,,
546003,3024,590,196,41,22,43,16,24,3,16,8,8,1,,1,10,1,1,1,
546003,3023,604,264,27,35,70,32,26,,19,23,12,,,4,11,1,3,1,
546003,3022,440,203,39,21,28,34,13,2,16,16,9,,2,2,20,,1,,
546003,3021,847,299,43,42,73,31,23,2,26,16,14,,2,3,17,1,4,2,
546003,3020,607,256,43,40,67,28,14,6,22,14,8,,,,9,,5,,
546003,3019,521,163,31,28,25,11,10,4,10,13,7,2,,4,14,,3,1,
546003,3018,353,132,20,12,25,11,6,5,13,13,7,5,1,1,10,1,2,,
546003,3017,486,177,35,23,40,20,10,1,20,13,7,,,2,6,,,,
546003,3016,632,224,46,27,32,20,18,4,20,19,12,2,2,1,12,1,8,,
546003,3015,874,357,57,50,84,33,10,3,40,29,16,3,2,9,14,2,3,2,
546003,3014,548,148,26,16,28,12,5,1,10,21,10,,,3,12,,2,1,1
546003,3049,411,134,12,30,38,5,13,,7,9,7,,1,,5,,7,,
546003,3048,757,238,32,59,58,7,29,3,13,11,13,,,1,8,2,1,1,
546003,3047,589,268,37,51,83,13,29,2,16,13,9,,2,2,5,,5,,1
546003,3046,687,290,49,44,82,16,34,7,10,10,11,4,1,3,13,,6,,
546003,3045,1006,367,48,64,91,27,23,7,24,24,22,1,1,2,24,2,7,,
554758,6001,1542,659,125,85,170,46,45,9,37,49,31,,2,13,31,2,11,2,1
546208,4020,1519,329,36,47,95,24,32,9,30,20,14,,1,3,11,,6,1,
546003,3013,665,198,45,27,45,12,8,2,24,19,2,2,,,9,,3,,
546003,3012,477,117,14,12,30,12,20,,10,3,2,,1,1,11,,,1,
546003,3011,476,165,28,23,33,23,5,1,6,13,10,1,,1,19,,1,1,
546003,3010,503,160,37,13,23,21,11,4,9,9,15,3,,2,11,,1,1,
546003,3009,770,248,50,38,37,22,11,3,18,30,17,1,,3,13,1,4,,
546003,3008,713,209,29,34,41,25,16,1,19,10,17,1,,,13,,3,,
546003,3007,498,140,35,14,17,15,9,,11,17,2,,,1,17,,1,1,
546003,3006,442,87,15,17,20,8,4,1,5,7,2,1,,1,5,,,,1
557978,10001,931,385,76,48,73,42,20,2,36,24,18,,2,,22,1,19,2,
546208,4010,809,392,63,70,70,43,35,8,35,22,11,1,2,3,17,1,7,4,
546208,4009,664,268,48,39,43,25,53,4,19,15,7,,,,12,,3,,
546208,4008,721,301,58,60,74,24,18,2,22,13,10,2,,1,7,,8,2,
546208,4007,918,341,40,50,108,26,31,7,17,15,17,2,2,2,16,1,6,1,
546208,4006,625,185,26,28,38,18,19,4,18,11,7,3,3,,6,1,2,1,
546208,4005,815,302,50,54,70,16,25,1,36,18,14,,3,2,7,,5,1,
546003,3005,879,186,30,26,33,27,9,1,17,11,13,2,1,2,9,1,3,,1
546208,4004,728,319,60,35,84,30,21,6,25,16,21,,1,1,14,,4,1,
546208,4003,644,204,31,37,52,17,24,1,8,11,12,1,1,,6,,3,,
546208,4002,604,244,26,45,90,11,21,5,4,13,16,1,,1,6,,5,,
546208,4001,731,261,52,38,73,12,28,3,13,20,11,,,,6,1,4,,
546003,3004,2369,133,29,9,22,19,9,4,8,7,8,2,2,1,10,,2,,1
546003,3003,481,140,40,9,14,13,14,4,10,13,5,2,,,12,2,1,,1
546208,4014,933,414,63,67,104,31,55,7,32,25,13,1,1,1,10,1,2,1,
546208,4013,751,307,37,62,66,19,58,6,13,14,11,1,,4,11,1,4,,
554766,7001,818,375,72,52,64,55,27,7,37,18,14,,,3,10,5,11,,
546003,3063,797,340,55,52,87,30,25,3,33,12,15,4,,1,12,2,9,,
546003,3062,654,279,48,30,65,29,31,5,28,7,10,,1,6,16,,3,,
546003,3061,588,218,31,26,55,26,14,1,20,5,17,1,2,4,6,4,4,2,
546003,3060,824,336,43,50,74,19,38,2,20,48,14,,2,4,13,3,6,,
546208,4012,816,342,68,49,97,31,18,11,16,20,13,,,2,11,,6,,
546208,4011,886,380,56,47,104,30,25,2,32,29,22,,1,,18,,11,2,1
546208,4019,823,376,47,56,109,33,41,3,23,24,12,,2,2,17,2,4,1,
546208,4018,563,225,21,75,46,24,15,2,15,7,7,2,,2,5,,4,,
546208,4017,651,278,50,49,51,29,19,6,27,21,11,2,,1,8,1,3,,
546208,4016,589,217,24,47,42,17,27,7,20,9,10,1,,,9,,4,,
546208,4015,749,343,59,85,89,18,21,1,19,18,18,2,4,,6,,3,,
546208,4023,699,335,58,58,70,40,31,3,18,19,18,3,,1,10,1,5,,
546208,4022,1125,573,121,48,119,76,28,3,72,36,22,3,1,5,22,2,13,1,1
546208,4021,778,318,55,59,66,27,22,5,26,15,16,1,1,,19,3,3,,
546003,3002,279,60,15,9,11,4,4,,3,4,6,,,,3,,,1,
546003,3001,660,211,51,25,29,26,7,7,22,12,14,,,1,12,,2,1,2
546003,3059,505,169,23,21,25,18,13,4,14,11,16,1,,5,16,,2,,
546003,3058,703,223,38,30,56,15,34,4,12,12,5,,,3,9,,2,3,
546003,3057,758,283,43,67,56,12,48,,18,4,13,,3,2,12,2,3,,
546003,3056,745,320,45,64,97,19,25,3,24,18,12,,2,,9,,1,1,
546003,3055,699,268,42,46,70,9,39,1,17,11,14,1,1,3,11,1,2,,
546003,3054,364,155,20,17,33,11,33,3,6,11,8,,,1,9,1,2,,
546003,3053,978,396,79,48,93,35,33,4,36,25,10,1,2,1,11,1,14,1,2
546003,3052,393,155,25,23,34,10,18,6,8,12,7,,2,,7,2,1,,
546003,3051,696,274,38,65,70,10,32,,11,19,10,2,1,,7,2,5,2,
546003,3050,460,168,22,36,42,8,17,,12,12,10,,,1,6,1,1,,
554774,8001,1238,592,123,75,135,70,27,7,58,33,24,,1,1,24,,14,,
546208,4025,1085,558,134,55,129,83,21,5,46,27,19,,8,,18,2,8,3,
546208,4024,423,169,28,31,48,20,8,2,11,10,5,,,1,3,1,1,,
546003,3044,387,186,30,23,60,19,15,,9,4,9,1,2,,14,,,,
546003,3043,145,44,9,4,8,8,4,1,2,2,3,,,,3,,,,
546003,3042,617,264,54,24,73,43,7,5,16,11,4,,1,1,19,1,5,,
546003,3041,534,161,37,26,32,10,17,3,10,5,4,,1,1,9,,5,1,
546003,3040,561,204,44,33,30,30,13,3,11,12,14,,,,10,1,1,2,
546003,3039,408,188,26,25,49,24,15,3,18,7,5,,,2,7,,7,,
546003,3038,390,176,32,29,37,20,6,3,12,15,5,,2,2,10,1,2,,
546003,3037,379,170,20,31,46,12,15,2,18,11,3,1,,2,6,,3,,
546003,3036,753,266,36,29,58,34,15,5,21,30,13,,,2,21,1,1,,
546003,3035,371,142,28,22,20,15,9,1,13,13,3,1,,,13,,4,,
546003,3034,592,159,30,16,24,21,13,4,8,13,12,,,,16,,2,,
546003,3033,592,254,44,49,64,10,37,4,9,16,2,1,2,,9,3,4,,
546003,3032,403,174,26,28,46,12,22,5,6,8,9,,,1,9,1,,,1
546003,3031,432,144,16,14,37,13,25,2,7,14,3,1,,,4,,6,2,
546003,3030,543,226,36,46,59,14,24,,5,17,14,,,,7,,3,1,
546003,3029,647,263,39,44,67,14,34,1,14,8,10,1,1,5,11,2,12,,
546003,3028,358,186,28,36,51,19,20,2,11,4,6,,,,7,1,,,1
546003,3027,448,190,29,21,58,13,29,2,9,5,5,1,,3,14,,,1,
546003,3026,347,164,21,26,32,27,11,3,14,12,4,,2,1,9,,2,,
555771,22,43,30,4,8,6,,4,,,2,4,,,1,1,,,,
555771,21,243,112,23,12,13,13,28,1,,6,8,1,,2,1,1,3,,
555771,20,233,86,29,12,19,2,8,3,3,2,3,,,3,1,,1,,
555771,28,91,25,5,1,4,,2,,3,7,,,,1,,1,1,,
555771,27,111,34,8,7,6,2,4,,,1,2,,,,4,,,,
555771,26,132,55,4,12,11,1,11,1,3,,7,,,,1,2,2,,
555771,25,239,101,27,6,15,17,6,5,5,2,4,2,,,7,,3,2,
555771,24,101,36,5,8,5,,6,,5,2,3,,,,2,,,,
555771,23,78,49,2,15,13,2,2,,2,,7,,,3,2,,1,,
555771,1,1034,375,105,72,61,40,33,,17,9,15,1,,7,12,,2,1,
555771,19,77,30,2,5,7,2,7,,1,1,3,,,1,1,,,,
555771,18,75,16,1,5,3,,7,,,,,,,,,,,,
555771,17,101,33,4,2,11,1,8,1,,2,1,,,1,1,,1,,
555771,16,238,71,8,16,17,4,5,1,5,1,7,,,1,5,1,,,
555771,15,922,316,104,40,68,23,20,4,9,15,13,1,,5,7,3,3,,1
555771,14,1006,433,101,84,87,14,68,11,6,17,18,,,4,20,2,1,,
555771,13,1083,357,73,54,70,19,67,4,10,15,18,,2,6,14,1,2,1,1
555771,12,1544,298,47,43,66,34,35,3,11,14,17,1,1,1,14,7,3,1,
555771,11,1176,518,121,80,109,42,54,4,12,17,20,1,,9,32,11,5,1,
555771,10,858,296,73,41,58,33,31,1,8,13,16,,,,17,1,4,,
555771,9,547,190,49,25,35,20,23,1,1,4,12,1,,4,11,2,2,,
555771,8,425,131,40,29,23,5,12,2,3,7,6,,,2,1,,1,,
555771,7,1357,560,187,72,108,62,27,2,26,13,25,1,3,,23,9,1,1,
555771,6,1722,598,132,75,122,51,69,9,21,24,36,4,1,5,31,10,6,2,
555771,5,1064,383,112,54,68,21,45,6,13,15,24,,,1,19,4,1,,
555771,4,1434,476,99,73,113,37,50,13,15,20,24,1,1,4,19,4,3,,
555771,3,1001,374,91,58,64,23,64,5,14,8,14,3,,6,12,4,8,,
555771,2,1112,361,87,67,50,18,61,7,7,12,23,,1,5,14,4,2,3,
555797,3,47,20,7,,2,,4,,,2,,,,1,3,,,1,
555797,2,86,49,1,11,3,6,3,4,5,4,3,,,3,3,,,2,1
555797,1,509,148,17,20,44,7,21,,7,7,10,,,,8,1,4,2,
555801,2,176,63,6,8,15,10,15,,7,1,,,,,1,,,,
555801,1,558,236,37,20,70,14,48,2,9,12,6,,,1,9,,8,,
555835,4,51,27,7,1,8,,1,3,4,,3,,,,,,,,
555835,3,51,27,,6,6,,5,1,4,1,1,,,1,2,,,,
555835,2,53,26,5,5,1,1,1,,8,4,1,,,,,,,,
555835,1,375,142,12,17,29,3,3,1,35,16,17,1,,1,1,,6,,
555835,5,79,45,9,3,7,4,3,1,7,4,4,,,2,1,,,,
555894,2,58,33,,5,17,,1,,5,,2,,,1,1,,,1,
555894,1,186,81,6,19,18,4,7,1,3,10,5,,,5,1,1,1,,
555941,3,66,37,8,5,8,3,4,,1,3,2,,,1,,1,,1,
555941,2,106,50,6,11,13,4,4,1,,6,3,,,,1,1,,,
555941,1,243,71,8,14,11,4,9,4,5,11,2,,,,2,1,,,
556041,3,122,43,4,4,16,,10,,,2,3,,,,3,,1,,
556041,2,81,43,5,,8,3,14,,1,,5,1,1,1,2,,2,,
556041,1,350,132,11,14,12,7,56,1,3,13,6,,,,8,,1,,
556068,1,376,119,12,15,35,6,21,2,8,3,9,,,2,5,,,1,
556076,1,672,210,28,39,62,9,25,,8,20,6,1,1,1,3,1,6,,
556084,1,123,44,9,5,8,9,3,,2,6,1,,,,1,,,,
556106,1,719,254,37,33,58,22,36,4,17,15,17,,,3,10,1,,1,
556181,1,868,270,28,42,68,14,38,6,9,30,14,2,1,3,11,4,,,
556203,1,399,155,22,33,37,10,10,1,6,23,4,,,2,7,,,,
556254,11,106,40,5,7,16,1,1,,2,7,,,,,1,,,,
556254,10,140,53,10,15,8,3,1,,,10,3,,,,1,1,1,,
556254,9,72,25,4,7,9,,3,,1,1,,,,,,,,,
556254,8,69,38,12,4,9,,1,,3,5,,,,1,,2,1,,
556254,7,78,24,1,4,5,2,7,,1,,3,,,,,1,,,
556254,6,51,11,,5,,2,1,,1,,2,,,,,,,,
556254,5,140,63,5,14,17,6,8,1,5,1,2,,,1,,,3,,
556254,4,818,340,33,102,73,11,40,3,39,10,15,1,,,5,5,3,,
556254,3,899,317,61,67,56,19,41,6,25,18,11,,,4,6,1,2,,
556254,2,869,249,31,52,33,17,18,5,47,18,13,1,,1,4,5,4,,
556254,1,1130,330,52,65,59,18,24,2,44,20,17,1,,4,19,2,3,,
556301,5,156,52,16,7,9,5,5,,,2,3,,,1,2,,2,,
556301,4,65,28,,9,9,,2,3,2,,,,,1,,2,,,
556301,3,150,58,5,14,16,1,2,,2,8,5,,,,4,,1,,
556301,2,130,44,7,2,8,10,3,1,6,5,1,,,1,,,,,
556301,1,629,216,25,20,40,19,16,1,17,46,12,,,7,5,7,1,,
556319,3,69,32,4,6,1,1,5,,7,2,2,1,,,,,3,,
556319,2,72,29,3,7,5,6,1,,2,5,,,,,,,,,
556319,1,204,62,4,11,13,6,5,,8,9,2,,,,1,2,1,,
556335,5,73,41,1,11,1,4,10,1,9,2,,,,1,1,,,,
556335,4,62,23,2,4,2,2,,,6,3,,1,,,1,,2,,
556335,3,76,32,5,2,2,1,10,1,7,2,2,,,,,,,,
556335,2,56,40,3,12,12,,1,,4,2,,,,4,2,,,,
556335,1,309,109,14,20,23,6,4,2,18,6,7,,,2,6,1,,,
556343,1,109,51,10,9,14,1,7,,1,2,4,1,,2,,,,,
556378,1,602,181,15,30,32,18,25,4,11,12,17,,,1,12,,3,,1
556386,2,178,54,5,6,18,9,11,,1,1,3,,,,,,,,
556386,1,299,76,8,21,17,3,8,,4,3,3,,,1,5,2,,1,
556394,2,478,184,26,41,41,9,34,1,1,12,7,,1,2,6,,3,,
556394,1,1247,318,53,45,75,24,42,6,13,8,29,,1,2,11,6,2,1,
556432,1,1265,375,39,72,102,17,55,5,17,14,20,2,3,6,11,5,1,2,4
556467,8,40,13,,2,,,9,,,,,,,1,,,,1,
556467,7,19,10,,2,1,,,,1,,2,,,,4,,,,
556467,6,37,22,7,3,5,5,,2,,,,,,,,,,,
556467,5,71,29,,6,4,1,4,,11,,,,,1,2,,,,
556467,4,102,36,2,7,9,3,6,,5,2,1,,,,,,,,1
556467,3,87,44,2,4,12,1,7,1,11,,,,,,6,,,,
556467,2,143,58,6,7,21,1,10,,7,2,,,,3,1,,,,
556467,1,657,217,14,23,36,2,35,1,71,12,8,1,,1,8,2,2,,1
556505,1,168,64,6,11,10,12,9,1,1,6,4,,,1,3,,,,
556629,2,156,73,3,19,12,4,9,,15,4,1,1,,,3,2,,,
556629,1,275,79,12,8,17,9,5,,11,4,7,,,1,2,1,2,,
556637,6,56,16,,5,2,,,,,,6,1,,,2,,,,
556637,5,72,42,2,2,9,3,4,,1,1,16,,,3,1,,,,
556637,4,95,22,4,4,4,1,5,1,2,,,,,,1,,,,
556637,3,120,30,2,5,10,2,8,1,,,,,,,2,,,,
556637,2,67,33,2,8,9,,13,,,,1,,,,,,,,
556637,1,479,114,2,17,29,6,21,,11,7,15,1,1,,3,,1,,
556718,5,79,29,9,4,4,1,5,,,4,,,,,2,,,,
556718,4,91,36,4,2,11,3,13,1,,,,1,,,1,,,,
556718,3,97,38,3,5,8,3,8,1,3,2,3,,,,1,,,1,
556718,2,145,35,1,3,12,5,2,2,3,1,4,,,1,1,,,,
556718,1,391,134,30,18,14,14,25,8,14,3,4,,,1,2,,1,,
556726,1,106,62,11,12,12,5,3,,10,2,,,,,1,1,3,,2
556734,1,234,56,3,8,11,6,5,,14,4,1,,,1,3,,,,
556734,3,39,17,,5,2,,8,,1,1,,,,,,,,,
556734,2,80,36,4,7,6,2,1,,10,1,2,,,,2,,1,,
556751,7,115,34,12,9,5,1,1,,1,,,,,2,2,1,,,
556751,6,82,38,3,1,13,4,4,2,5,2,,,,,3,1,,,
556751,5,75,29,4,5,3,2,6,,,2,2,,,3,,,2,,
556751,4,30,21,2,4,6,3,,,3,,,,,,3,,,,
556751,3,32,18,4,1,3,2,,,,7,,,,1,,,,,
556751,2,180,36,2,9,8,3,6,1,2,2,2,,,,1,,,,
556751,1,470,103,9,17,25,10,10,4,13,4,4,,,,3,3,1,,
556815,1,284,104,14,18,19,6,20,,3,4,9,,,3,5,1,,2,
556831,6,135,62,1,13,6,11,15,,8,6,1,,,,1,,,,
556831,5,89,27,4,11,1,5,1,,2,1,,,,,1,,,1,
556831,4,204,55,1,9,2,4,13,,3,13,6,,,3,,,,1,
556831,3,1080,381,54,49,97,36,52,2,18,19,20,,3,4,18,2,7,,
556831,2,1072,330,35,43,85,30,64,,9,15,20,2,,6,13,1,7,,
556831,1,1232,368,50,68,90,21,55,2,16,14,19,,,5,20,1,4,2,1
556912,4,78,46,1,3,5,,3,2,26,1,1,,,3,,,,,1
556912,3,62,27,1,8,2,,2,1,13,,,,,,,,,,
556912,2,137,59,2,7,2,,8,,36,1,2,,,1,,,,,
556912,1,366,156,6,10,3,3,7,,112,4,5,1,,,5,,,,
556921,2,79,42,10,4,6,5,2,,1,6,3,,1,1,2,,,,1
556921,1,422,171,35,19,33,14,13,1,5,24,16,,,1,6,3,1,,
556955,8,52,30,3,4,10,1,9,,,,1,,,,2,,,,
556955,7,76,18,,1,7,,2,,2,2,1,,,,2,,1,,
556955,6,81,46,4,7,7,5,12,2,4,,,,,,,,1,4,
556955,5,65,25,,9,10,2,,,2,,2,,,,,,,,
556955,4,113,46,4,15,12,2,5,,1,1,,,,3,2,1,,,
556955,3,63,38,2,7,5,4,3,,10,,1,,,3,,2,1,,
556955,2,90,32,7,5,4,6,6,,2,,,,,1,1,,,,
556955,1,805,238,30,43,50,19,27,4,24,11,9,,,7,7,5,2,,
557005,3,101,48,6,8,12,4,4,,3,,2,,1,1,1,6,,,
557005,2,115,34,6,7,8,,3,,6,,1,,,2,1,,,,
557005,1,221,88,15,17,20,1,9,2,10,2,8,,,,1,2,1,,
557005,5,108,54,6,12,10,9,2,1,3,1,3,,1,,3,2,1,,
557005,4,56,22,7,7,4,1,,,1,,2,,,,,,,,
557013,3,62,37,3,8,9,1,7,,1,3,2,,,,3,,,,
557013,2,55,30,7,8,6,2,1,,3,2,,,,,1,,,,
557013,1,291,98,12,18,18,3,12,,12,7,,,1,,12,3,,,
557021,1,209,65,21,11,7,5,7,,4,3,3,,,,3,,1,,
557081,1,236,70,5,12,22,,13,,3,,12,,,,2,1,,,
557099,1,358,98,13,12,28,5,17,1,6,10,3,,,,1,,2,,
557111,1,201,57,11,8,11,1,9,1,6,1,5,,,2,1,1,,,
557129,1,272,84,12,10,21,4,9,2,11,3,7,,,1,,2,1,1,
557137,1,1095,364,67,72,76,25,34,2,15,18,25,3,,1,9,5,9,3,
557153,7,926,348,59,79,72,12,56,5,9,13,16,,,9,9,4,3,2,
557153,6,1053,384,83,77,63,21,45,5,7,34,23,4,2,,6,8,5,1,
557153,5,1137,312,98,41,63,26,20,3,15,22,10,,,3,10,,,1,
557153,4,1034,397,103,70,95,23,43,9,13,18,11,,,,10,1,1,,
557153,3,148,37,4,12,5,,6,,1,2,3,1,,,,1,2,,
557153,2,317,122,25,15,21,10,11,,8,14,6,1,,2,3,4,2,,
557153,1,89,29,3,4,13,2,1,2,,1,,,,1,2,,,,
557153,11,850,266,50,47,63,8,34,2,8,22,16,2,,1,10,1,,2,
557153,10,1318,420,92,57,88,30,34,15,18,13,30,3,,9,19,6,4,1,1
557153,9,1087,407,77,68,111,20,51,2,9,24,20,,,1,13,5,6,,
557153,8,1105,432,112,62,89,38,32,1,12,38,20,,,1,14,8,3,2,
557161,1,276,133,5,19,31,5,11,,47,7,3,,,2,2,,1,,
557200,6,49,16,4,2,3,2,,,1,3,,,,,,,1,,
557200,5,44,29,5,3,6,2,5,3,1,1,,,1,,,1,,1,
557200,4,1018,378,48,59,65,32,60,5,28,17,19,12,5,5,11,3,8,1,
557200,3,139,48,10,8,10,1,11,,2,1,5,,,,,,,,
557200,2,77,38,3,8,10,,7,1,,,1,,,3,3,2,,,
557200,1,36,22,10,5,1,2,,,2,,,,,1,1,,,,
557366,4,354,116,16,15,28,8,10,,15,12,6,,,,5,1,,,
557366,3,139,45,6,14,10,4,5,,3,2,1,,,,,,,,
557366,2,108,39,4,3,14,8,,1,2,5,2,,,,,,,,
557366,1,108,50,8,9,5,9,2,,3,7,1,,1,2,3,,,,
557374,1,207,53,5,10,18,4,5,,4,6,,,,,1,,,,
557382,3,62,30,,13,4,2,1,1,2,,,,,4,1,2,,,
557382,2,90,47,3,5,3,1,1,,28,2,,,,,2,,2,,
557382,1,291,97,9,31,11,,8,,23,7,3,,,1,4,,,,
557455,3,266,109,19,21,15,15,15,,1,4,3,1,3,5,5,,2,,
557455,2,245,105,34,15,26,5,10,2,6,2,,1,,1,2,,1,,
557455,1,209,76,23,18,18,6,4,,,2,2,,,,1,1,1,,
557463,2,36,25,5,1,8,,2,,4,3,,,,,2,,,,
557463,1,320,97,8,11,26,6,12,2,18,6,2,,,,5,,,,1
557528,3,88,44,14,4,10,5,2,1,,,2,,,,4,2,,,
557528,2,164,69,30,5,10,6,4,,1,2,6,1,,,1,1,2,,
557528,1,998,302,88,56,69,18,10,1,13,12,17,,,3,6,,8,1,
557536,4,129,54,8,17,20,1,1,1,1,1,1,,,1,2,,,,
557536,3,60,31,4,8,9,2,3,,2,2,,,,,1,,,,
557536,2,62,27,2,3,9,,4,,,5,2,,,,1,1,,,
557536,1,228,97,15,12,31,2,11,1,9,4,8,,1,,2,1,,,
557544,1,563,176,15,50,46,8,18,,7,10,15,,1,1,3,,1,1,
557587,8,49,26,2,6,7,2,5,,,2,2,,,,,,,,
557587,7,191,75,13,14,16,5,13,,6,3,1,,,,1,,3,,
557587,1,1402,493,104,77,99,53,46,3,41,13,31,,2,,12,3,9,,
557587,6,85,29,8,2,8,4,,,3,1,,,,1,2,,,,
557587,5,67,20,1,5,5,3,4,,,1,,,,,,,1,,
557587,4,37,23,2,1,8,1,6,,,,2,,,,1,,,,2
557587,3,365,143,24,31,22,15,18,,15,3,7,,2,1,3,,1,1,
557587,2,1168,404,101,75,54,16,51,11,54,8,9,,,4,8,1,12,,
557641,1,443,204,24,37,35,16,18,6,32,7,10,1,1,1,11,2,3,,
557650,5,55,28,1,9,5,2,,2,6,1,,,,1,,,,1,
557650,4,134,59,1,10,14,1,6,2,14,8,1,,,,1,,1,,
557650,3,139,85,5,30,22,,11,4,5,4,2,,,,2,,,,
557650,2,47,29,2,7,6,1,3,,4,2,,,1,3,,,,,
557650,1,140,56,5,4,15,8,6,1,10,,3,,,3,1,,,,
557668,2,90,24,1,4,2,3,11,,2,,,1,,,,,,,
557668,1,568,212,27,30,27,14,57,2,21,10,14,2,,,4,1,2,,1
557676,4,1016,317,38,58,74,15,40,4,29,10,25,,2,3,14,2,2,1,
557676,3,932,332,45,69,59,20,33,6,39,11,24,1,,3,14,,5,2,1
557676,2,1383,525,78,99,88,14,70,7,89,13,28,,1,13,19,1,3,2,
557676,1,1342,400,45,57,64,22,41,3,82,15,32,4,1,3,24,,2,4,1
557676,5,258,108,6,16,32,6,13,2,17,2,5,,,6,1,1,,1,
557684,4,60,29,7,4,3,1,2,1,,,4,,1,1,3,,2,,
557684,3,80,28,4,6,2,3,10,,,2,1,,,,,,,,
557684,2,136,49,5,9,12,5,2,,5,2,3,,,,5,,1,,
557684,1,475,172,23,27,21,18,16,7,15,10,14,,,4,7,,8,1,1
557722,2,91,34,5,3,3,,4,2,5,,8,,,3,,,1,,
557722,1,245,79,6,22,11,8,8,5,4,1,7,,,,3,1,3,,
557731,1,450,139,18,41,34,12,11,3,9,4,3,,,,2,2,,,
557749,2,92,45,7,8,2,2,11,1,4,7,1,,,1,,1,,,
557749,1,91,34,5,2,11,4,4,1,4,1,,,,,,1,1,,
557773,1,188,72,14,16,20,,4,2,6,,,,,2,3,,5,,
557781,4,106,47,10,4,11,3,3,,5,,5,,,,4,1,,1,
557781,3,100,20,1,4,5,,6,2,,,1,,,,,1,,,
557781,2,880,214,31,47,31,11,33,3,12,4,27,1,,1,6,4,3,,
557781,1,832,239,34,34,47,21,31,6,36,3,11,,,,9,2,3,1,1
557803,1,453,157,15,31,35,15,25,2,7,4,4,,,3,7,2,7,,
557838,2,777,217,37,49,38,11,21,2,17,9,15,,1,4,6,,4,3,
557838,1,883,208,25,42,40,20,32,,19,,14,2,,2,5,6,1,,
557838,5,111,43,,11,16,6,6,,,,1,,,,2,,1,,
557838,4,68,13,1,3,5,,,,,,4,,,,,,,,
557838,3,328,94,10,15,20,2,21,2,1,2,6,3,5,1,4,1,,1,
557846,3,42,26,8,,3,8,1,1,5,,,,,,,,,,
557846,2,61,30,1,8,9,3,,,2,2,3,1,,,1,,,,
557846,1,443,156,27,14,20,51,10,4,14,4,5,,,1,2,1,3,,
557862,7,29,15,,3,5,,,2,3,,2,,,,,,,,
557862,6,50,28,7,5,4,5,4,,2,,1,,,,,,,,
557862,5,50,23,,4,12,2,,,,4,,,,,1,,,,
557862,4,56,29,1,4,4,3,7,1,5,1,1,,,,1,,,,1
557862,3,52,15,1,2,2,,5,,3,,,,,,2,,,,
557862,2,44,22,4,1,5,1,3,,6,,1,,,,,,1,,
557862,1,732,241,20,23,65,10,21,2,61,12,11,1,3,4,5,2,1,,
557871,2,95,39,2,11,9,2,5,,1,4,4,,,,,,,1,
557871,1,158,45,4,1,13,2,12,,3,1,8,,,,1,,,,
557897,1,162,57,8,11,5,2,13,1,5,5,5,,,,,1,1,,
557943,1,90,52,2,10,12,,7,3,7,1,,,,3,4,,3,,
557951,5,39,22,4,7,2,1,,1,,1,2,,,2,1,1,,,
557951,4,65,28,1,6,8,1,1,,4,,2,,,2,1,2,,,
557951,3,84,34,,14,8,5,1,,1,1,1,,,1,2,,,,
557951,2,35,11,4,,2,,2,,,,1,,,,,,1,1,
557951,1,314,105,16,22,6,5,23,,9,4,9,,,1,5,1,3,1,
558001,1,1039,521,100,69,126,35,41,12,47,13,29,2,1,4,18,7,16,1,
558010,1,77,35,,10,7,3,3,4,1,2,2,,,,,1,2,,
558028,3,78,31,1,11,4,3,6,2,,,3,,,1,,,,,
558028,2,71,23,3,7,3,1,1,,1,1,3,,,1,1,,1,,
558028,1,375,153,30,35,25,11,17,5,20,3,1,,,,2,,2,,2
558044,2,94,37,,6,14,1,4,1,7,1,,,,,3,,,,
558044,1,834,256,35,54,60,10,29,1,21,17,17,,1,3,6,,,2,
558052,5,64,38,6,10,7,4,2,3,1,1,1,3,,,,,,,
558052,4,47,25,1,9,,,4,1,7,,2,,,,,,,1,
558052,3,52,27,1,3,5,,5,,5,6,1,,,,1,,,,
558052,2,36,19,,2,4,1,4,3,2,,,,,2,1,,,,
558052,1,94,37,4,4,8,4,6,2,3,2,,,,,1,,2,1,
558061,5,98,59,3,5,32,5,9,,,5,,,,,,,,,
558061,4,90,22,,3,5,,5,,8,1,,,,,,,,,
558061,3,46,30,1,3,9,,8,,5,2,,,,,,1,1,,
558061,2,163,50,6,8,15,2,10,,8,1,,,,,,,,,
558061,1,177,42,9,9,17,1,1,,3,,,,,1,1,,,,
558079,1,54,22,3,4,3,,5,,2,2,3,,,,,,,,
558095,1,146,64,7,13,12,2,9,1,8,7,2,,,,1,,1,1,
558109,3,619,202,14,37,45,1,28,14,23,15,7,1,,3,11,,3,,
558109,2,973,345,25,73,68,21,47,7,41,32,16,2,,1,10,,2,,
558109,1,1258,354,56,61,52,9,41,11,42,46,21,3,1,,8,,3,,
558117,1,151,50,4,13,5,2,3,3,11,,5,,,,3,1,,,
558125,2,71,23,2,4,5,,4,,3,2,2,1,,,,,,,
558125,1,261,80,14,19,18,6,7,1,9,,2,1,,1,2,,,,
558125,7,55,31,1,5,8,,8,,2,,1,,,3,2,1,,,
558125,6,102,38,1,11,6,4,4,3,3,6,,,,,,,,,
558125,5,53,13,3,3,3,1,1,,,,,,,,1,,1,,
558125,4,42,23,1,5,3,2,5,,2,1,1,,,,2,,,,1
558125,3,60,18,,5,4,,2,,,5,1,,,,1,,,,
558141,1,1175,473,64,170,94,15,37,5,49,7,15,,2,4,10,,1,,
558176,1,262,90,7,7,27,1,12,1,12,9,9,1,,,1,1,1,,1
558184,2,98,35,,9,10,,8,,6,,,,,,1,1,,,
558184,1,186,68,8,10,19,7,13,,7,1,,,,,2,1,,,
558231,1,166,71,19,9,10,,15,1,11,6,,,,,,,,,
558249,8,92,45,3,6,6,4,14,,9,1,1,1,,,,,,,
558249,7,208,69,10,4,14,12,4,2,7,4,8,,,,2,,1,1,
558249,6,323,87,11,22,9,9,11,,5,,8,3,,1,5,1,1,1,
558249,5,754,309,43,56,59,26,49,2,23,8,18,,,4,12,1,6,2,
558249,4,1173,412,52,63,89,53,52,6,27,17,21,1,2,7,8,,10,3,1
558249,3,1139,325,62,69,70,39,29,,15,16,9,,2,1,7,,2,1,3
558249,2,893,272,21,60,60,23,50,7,11,8,12,1,1,4,7,2,5,,
558249,1,860,263,35,52,41,52,35,6,12,7,5,,1,9,4,,3,,1
558257,2,95,51,3,24,10,1,1,2,1,4,3,1,,,,1,,,
558257,1,702,236,37,45,50,36,26,5,8,3,8,3,,3,6,1,1,2,2
558257,3,72,27,4,8,5,,4,2,,,1,,,2,,,1,,
558265,1,158,76,9,18,14,4,20,1,5,3,,,,,,1,,,1
558290,1,214,98,15,14,16,1,21,1,3,1,3,18,,1,3,,1,,
558303,5,97,30,2,6,5,3,3,,,3,,1,,4,3,,,,
558303,4,63,27,1,4,13,5,1,,,1,1,,,,1,,,,
558303,3,166,63,6,17,11,4,6,,8,2,2,,,2,3,,2,,
558303,2,134,61,5,21,11,,8,,3,,4,1,,3,5,,,,
558303,1,276,96,8,14,13,20,11,1,9,1,7,1,,2,3,2,4,,
558311,1,233,87,6,19,26,1,12,1,6,1,6,1,,2,3,,3,,
558346,2,173,59,,3,23,3,18,,6,,3,1,,1,1,,,,
558346,1,318,101,14,24,14,6,23,,11,3,4,,,1,,,1,,
558362,4,104,41,2,4,5,3,3,1,14,1,5,1,,2,,,,,
558362,3,128,50,2,11,12,2,4,,16,,2,,,,1,,,,
558362,2,121,48,8,3,12,3,,1,19,,1,,,,1,,,,
558362,1,1370,486,20,60,71,18,46,13,208,11,28,1,,1,4,2,3,,
558362,8,45,16,,6,1,1,2,,4,,2,,,,,,,,
558362,7,143,56,3,8,14,,9,2,13,1,4,,1,1,,,,,
558362,6,145,54,4,6,10,,5,1,15,2,7,,,1,2,1,,,
558362,5,92,34,1,6,2,,1,1,19,,3,,,,1,,,,
558371,5,830,393,46,59,74,33,38,11,41,12,34,5,3,7,13,5,9,1,2
558371,4,386,185,22,18,50,12,19,4,22,12,13,2,1,,6,1,2,,1
558371,3,1056,579,87,66,100,73,49,8,85,28,29,2,3,6,20,2,17,4,
558371,2,874,449,87,62,99,44,33,9,55,12,14,4,1,4,14,4,7,,
558371,1,916,431,75,65,70,38,36,19,52,20,19,1,3,3,17,1,11,,1
558389,4,90,15,,4,4,1,1,,4,,1,,,,,,,,
558389,3,959,268,34,57,71,19,23,3,22,4,17,3,,3,11,,1,,
558389,2,831,251,22,48,57,16,33,5,15,2,28,1,1,3,13,2,5,,
558389,1,1039,259,40,60,58,19,30,2,21,1,11,,1,5,4,1,1,4,1
558401,1,320,132,8,28,26,11,17,8,16,3,4,,,3,,5,3,,
558427,2,882,313,43,55,65,24,24,10,39,10,12,,,3,16,4,8,,
558427,1,744,264,40,45,59,23,18,1,36,17,6,2,1,1,12,,1,2,
558427,3,410,183,22,30,37,14,22,5,31,4,9,2,,2,1,2,2,,
558435,1,1532,599,84,82,149,58,42,12,72,21,41,1,,7,16,3,11,,
558460,1,736,262,28,34,69,17,23,4,31,11,16,,,2,9,,18,,
558486,2,135,56,14,8,13,3,2,,6,4,,,,,5,,1,,
558486,1,411,156,24,22,41,19,8,,19,3,10,,,,7,1,1,1,
558494,1,280,46,3,14,15,1,4,,3,3,,1,,,1,,1,,
558559,1,251,110,7,10,15,8,20,12,11,6,9,,,2,8,,,2,
558567,1,416,117,11,24,21,3,13,3,20,3,8,,,1,6,,4,,
558583,1,483,153,16,39,38,5,6,1,27,1,5,1,1,,6,,6,1,
558591,2,77,30,2,11,9,1,2,,3,,1,,,,1,,,,
558591,1,151,52,7,5,16,3,7,,1,3,8,,,1,,,1,,
558605,1,383,149,21,35,37,4,27,,9,3,5,,,2,3,,3,,
558630,3,90,43,3,11,5,1,6,,5,5,,1,,1,4,,1,,
558630,2,115,40,1,14,8,1,10,1,1,,2,1,,,1,,,,
558630,1,540,166,19,39,37,15,19,2,16,4,3,,1,3,3,,2,3,
558656,1,555,135,13,28,38,7,26,2,3,11,5,,,1,1,,,,
558672,1,664,221,27,39,63,8,20,9,23,2,17,,,1,7,1,3,1,
558699,1,138,48,6,15,5,4,5,,2,7,2,,,1,,,1,,
558711,1,218,94,9,18,27,3,13,,12,1,5,1,,3,1,,,1,
558745,1,462,171,26,30,43,11,13,5,9,11,5,,,3,11,,4,,
558770,2,53,23,3,5,3,1,4,,1,1,,1,,,3,1,,,
558770,1,295,108,12,37,14,4,18,3,5,2,3,,,4,4,,2,,
558788,1,224,82,11,20,23,5,5,,8,6,2,,,,2,,,,
558796,1,366,175,21,24,31,25,28,3,8,7,17,,,2,6,,2,1,
558800,1,49,20,1,1,3,1,4,,5,1,1,,,,2,1,,,
558834,1,586,246,46,30,59,18,20,3,24,5,18,,,8,8,1,6,,
558851,2,311,123,27,12,34,9,10,,10,8,1,1,,5,3,1,2,,
558851,1,1032,371,61,50,90,33,17,8,24,26,21,2,1,4,22,2,7,3,
558869,2,575,120,7,18,28,2,24,2,22,2,5,,1,2,5,,1,1,
558869,1,872,234,15,31,56,13,30,3,59,5,9,1,,7,1,1,3,,
558877,3,95,40,,9,17,1,6,,1,2,2,,,2,,,,,
558877,2,135,64,9,13,11,7,5,,4,6,2,,,1,1,2,3,,
558877,1,236,113,9,17,15,8,17,5,5,17,8,1,1,,8,,2,,
558885,4,1009,309,31,82,56,31,43,1,22,6,10,,,5,10,2,8,2,
558885,3,787,311,35,46,76,26,33,8,27,10,16,1,2,5,13,3,6,4,
558885,2,1169,407,34,69,76,27,59,17,33,7,28,,1,6,32,2,16,,
558885,1,566,175,12,41,28,7,42,7,12,2,6,,,2,6,1,9,,
558915,4,159,60,12,5,8,12,9,,6,,1,,,3,2,1,,,1
558915,3,103,57,8,11,16,,6,,6,2,1,,,3,3,,,1,
558915,2,329,117,13,20,22,6,14,2,17,5,8,,,2,5,,3,,
558915,1,429,151,18,13,35,19,26,6,7,3,11,,1,6,3,,2,,1
558931,1,198,124,7,18,23,12,42,,5,13,,,,1,1,1,1,,
558940,1,911,338,62,54,57,51,17,3,22,25,20,2,1,1,15,3,5,,
558966,2,705,310,40,46,81,19,36,6,25,11,21,7,,3,13,,2,,
558966,1,772,310,45,38,98,37,18,4,17,15,18,,2,2,10,3,2,1,
558974,1,185,63,,12,17,4,8,,3,3,5,1,,4,3,,3,,
558982,1,116,66,5,7,24,5,3,4,2,5,6,2,,1,1,,1,,
558991,1,105,54,3,12,7,13,6,,1,1,1,,,3,4,,2,1,
559008,4,739,232,24,45,59,5,31,13,20,6,14,1,4,3,4,,2,,1
559008,3,494,192,11,47,48,14,26,2,9,7,11,,1,1,7,1,6,,1
559008,2,655,217,11,48,68,10,33,4,10,6,14,,,4,4,3,,2,
559008,1,560,226,27,49,91,6,20,1,6,,10,,,3,11,,2,,
559024,1,111,54,7,18,12,4,3,,2,2,3,,,2,,,1,,
559032,1,112,60,7,12,14,7,3,,6,4,3,,,,3,,,1,
559041,1,510,219,25,54,43,15,29,2,19,10,5,,,2,8,1,5,1,
559059,1,825,282,20,33,55,17,28,,83,5,16,5,,4,8,,5,3,
559067,1,1177,355,54,69,91,12,44,10,15,12,25,1,,8,6,3,4,1,
559075,6,101,56,16,15,6,,11,,3,4,,,,1,,,,,
559075,5,108,42,2,12,10,,7,,1,,5,,,1,2,,2,,
559075,4,684,279,35,81,50,4,45,,21,10,18,,,3,9,3,,,
559075,3,765,307,36,68,78,18,40,,18,14,12,2,2,1,11,,7,,
559075,2,626,252,28,60,64,6,32,1,15,11,18,1,3,1,9,,3,,
559075,1,587,180,36,38,35,8,26,1,8,8,7,,1,1,5,2,4,,
559083,1,313,126,19,20,28,6,36,,8,3,,1,1,1,1,,1,,1
559091,1,199,64,2,21,8,2,10,,8,3,4,,,1,3,,2,,
559105,1,190,56,2,13,11,,22,,1,3,1,,,2,1,,,,
559121,1,137,37,3,8,7,1,7,2,2,1,4,,,,1,,1,,
559130,1,730,302,57,38,71,24,26,3,28,11,12,,3,6,9,,11,3,
559148,1,671,246,37,51,52,24,25,2,16,9,15,,,6,6,,3,,
559164,3,420,162,24,41,32,9,17,5,15,4,3,1,1,,6,1,2,1,
559164,2,828,272,27,51,47,11,44,6,25,23,14,1,,2,11,2,8,,
559164,1,819,297,50,40,67,25,38,4,33,5,16,,3,3,9,,4,,
559172,1,569,138,6,26,39,9,26,6,8,3,9,,,2,2,,,2,
559202,3,118,41,1,7,7,1,8,,2,12,,,,,3,,,,
559202,2,82,21,,1,1,1,2,,,12,3,,,,,1,,,
559202,1,727,308,51,45,41,7,36,3,16,88,4,,,5,8,3,1,,
559211,2,699,211,20,27,50,18,29,4,21,14,16,2,,2,5,,2,,1
559211,1,952,328,44,49,75,30,28,3,50,13,14,,2,2,7,5,6,,
559237,1,434,184,9,61,48,4,24,3,9,9,8,1,1,1,4,1,1,,
559245,1,282,134,16,32,34,9,20,,3,5,4,,,,6,,3,2,
559253,1,100,44,11,1,12,3,,,7,4,2,,,1,3,,,,
559261,1,522,197,6,45,48,22,25,2,13,17,11,,,3,2,1,1,1,
559270,1,399,127,25,28,29,3,22,1,8,1,3,,1,1,4,,,1,
559288,1,226,106,16,20,18,11,12,,8,1,10,1,,2,5,,2,,
559300,1,211,68,9,10,19,4,6,4,3,2,6,,,2,1,,2,,
559300,9,436,120,17,23,22,9,20,2,8,1,10,,,1,3,,4,,
559300,8,690,152,16,37,33,7,18,5,7,2,8,,,6,10,,2,1,
559300,7,670,112,10,30,27,4,11,2,3,3,10,2,,4,2,1,3,,
559300,6,441,166,40,29,37,9,18,3,9,1,14,1,1,1,2,,1,,
559300,5,877,228,32,51,42,7,41,7,7,10,11,,1,3,12,1,2,1,
559300,4,864,255,37,54,64,9,38,1,14,6,12,2,1,3,6,1,7,,
559300,3,891,277,23,50,79,20,42,1,12,4,21,,3,3,7,1,10,,1
559300,2,451,120,14,21,20,12,14,1,7,4,9,,,4,6,2,5,,1
559318,1,424,188,15,37,39,17,27,5,12,14,10,1,,2,6,1,1,1,
559326,1,173,55,2,11,16,,10,1,5,,8,,,2,,,,,
559334,1,624,139,13,15,39,9,19,2,13,4,12,,1,,5,3,2,1,1
559351,5,147,85,3,44,21,1,11,,,2,2,,1,,,,,,
559351,4,166,53,3,7,12,6,10,,3,7,1,,,,2,,1,1,
559351,3,486,222,21,74,46,14,24,,13,6,3,,,2,14,,2,1,2
559351,2,480,189,30,46,45,9,21,3,12,11,4,1,,,7,,,,
559351,1,575,179,20,47,29,19,31,2,2,5,9,,5,,8,1,,1,
559351,8,136,75,11,18,22,2,4,,3,6,5,,,1,3,,,,
559351,7,133,63,5,13,17,,13,,2,1,7,,,1,1,1,2,,
559351,6,63,36,1,17,4,2,3,1,2,3,1,,1,,1,,,,
559369,1,217,65,7,16,23,5,1,1,4,1,3,,,1,1,1,1,,
559377,1,359,154,16,26,35,5,25,4,14,6,5,3,,6,8,,1,,
559393,1,446,114,14,18,25,8,23,1,6,,10,,,,4,3,2,,
559423,1,222,69,8,11,17,4,7,1,1,2,3,,,4,9,1,1,,
559431,1,417,157,21,27,33,13,21,6,8,5,10,,,3,4,1,5,,
559482,1,83,30,1,3,15,1,7,,1,,,,1,,1,,,,
559491,1,1387,452,46,107,100,41,32,8,27,14,26,,5,6,28,2,8,1,1
559491,2,1139,420,68,72,64,48,38,5,38,26,14,1,3,10,20,,7,6,
559504,1,723,295,44,58,71,24,33,7,15,2,14,1,,10,9,1,5,1,
559521,5,585,260,56,32,45,22,14,2,32,14,20,,2,2,13,2,4,,
559521,4,848,273,42,46,51,16,26,7,31,12,20,,2,4,11,,3,2,
559521,3,880,337,58,53,57,31,33,7,47,9,16,1,,1,15,1,7,,1
559521,2,937,295,40,58,63,9,40,1,25,9,28,4,2,3,7,1,5,,
559521,1,761,275,48,38,61,17,34,3,21,8,21,2,1,2,11,,7,1,
559555,1,379,155,10,26,32,8,32,3,13,7,7,1,,,10,1,3,2,
559563,1,471,139,10,30,24,1,44,2,8,2,7,,,2,4,1,3,,1
559571,1,388,114,7,23,19,2,19,1,8,10,13,,,,7,4,1,,
559580,2,933,413,159,35,39,36,44,4,18,17,27,2,4,1,15,1,11,,
559580,1,945,382,122,42,57,26,36,2,30,16,21,2,,1,15,,10,2,
559580,3,1192,534,155,67,110,47,27,5,41,16,16,1,,5,25,3,16,,
559601,1,668,282,22,33,48,11,21,4,74,10,18,,1,11,17,4,8,,
559628,1,1071,316,58,48,70,25,40,7,22,6,13,1,,3,12,,4,4,3
559661,3,303,100,17,24,23,5,10,7,5,1,6,,,,,1,1,,
559661,2,660,192,30,24,41,12,18,11,15,7,16,,2,,4,2,9,1,
559661,1,750,190,25,32,58,1,29,13,10,4,9,,2,2,3,,1,1,
559679,2,1219,514,114,55,107,64,29,5,41,20,39,3,,2,23,3,9,,
559679,1,1356,587,108,80,168,57,52,4,37,16,34,3,,2,21,,4,1,
559695,2,538,239,17,78,63,6,14,5,10,9,14,1,3,3,13,2,1,,
559695,1,569,188,9,75,32,6,26,2,4,5,12,1,2,3,7,1,2,1,
559709,1,345,145,26,25,19,15,22,3,12,12,5,1,,,4,,1,,
559717,5,757,260,49,35,61,12,32,2,15,20,14,1,4,3,8,,4,,
559717,4,1075,369,73,52,77,20,41,4,21,33,12,1,1,5,23,2,3,1,
559717,3,877,292,38,52,48,15,54,1,28,17,15,3,,1,17,1,1,,1
559717,2,736,242,40,31,59,7,36,2,12,18,13,,2,4,16,,2,,
559717,1,1599,318,42,52,56,18,26,6,21,39,32,1,4,4,9,2,4,2,
559717,12,337,150,18,20,32,9,12,,13,22,10,,1,,9,,3,1,
559717,11,774,295,64,41,67,26,20,4,21,22,13,,2,1,8,1,5,,
559717,10,1293,480,76,56,132,27,57,3,42,36,23,1,5,1,16,3,2,,
559717,9,967,370,65,51,71,22,36,9,29,49,17,,4,1,7,1,4,4,
559717,8,611,217,29,36,38,12,36,1,4,36,8,,2,1,12,,2,,
559717,7,1117,336,38,56,80,14,63,1,12,21,33,,1,2,15,,,,
559717,6,894,241,27,38,56,11,30,2,20,23,23,,,,6,1,4,,
559725,2,487,125,24,24,32,8,14,2,9,1,3,,,2,4,,2,,
559725,6,138,47,6,11,10,4,6,,3,3,2,,,,1,,,1,
559725,5,185,75,12,10,12,6,14,1,9,3,4,,,3,1,,,,
559725,4,203,75,10,16,22,7,6,1,3,5,,1,,,2,,2,,
559725,3,280,97,12,20,18,6,20,3,8,1,2,,,4,1,1,1,,
559725,1,492,144,25,34,29,6,18,4,5,6,6,,,1,6,,4,,
559733,1,284,94,8,9,46,10,5,2,2,2,4,1,,1,2,,2,,
559741,1,51,27,6,10,5,2,1,,,3,,,,,,,,,
559750,3,70,44,6,5,12,1,6,2,3,,5,,,,1,1,2,,
559750,2,148,67,6,11,8,6,7,,13,5,4,,,,7,,,,
559750,1,260,123,13,18,38,10,9,1,9,8,6,,,2,7,,2,,
559768,1,107,46,10,7,3,7,7,1,8,,2,,,,1,,,,
559776,1,1021,369,34,50,93,12,57,6,42,14,29,2,,4,12,4,6,4,
559792,1,515,216,42,31,47,15,18,2,20,9,14,2,,1,8,2,4,,1
559806,4,28,14,3,3,6,,,,1,,1,,,,,,,,
559806,3,32,25,2,10,2,,4,,1,,2,,,1,,,2,,1
559806,2,61,28,4,5,7,,9,,,,2,,,,1,,,,
559806,1,145,59,9,22,12,1,7,,2,,2,,,,1,,1,2,
559814,1,1167,455,53,81,81,27,87,11,25,16,35,,2,3,19,3,12,,
559822,3,766,252,20,51,46,9,62,1,27,4,17,,,2,11,,2,,
559822,2,807,182,19,35,27,4,30,3,9,9,26,,,5,11,3,,,1
559822,1,717,267,34,36,44,18,54,5,26,10,23,1,1,2,10,2,1,,
559849,1,204,88,10,8,28,4,13,1,3,5,10,,,2,,,4,,
559857,1,586,169,15,35,45,7,39,,15,3,4,,1,1,2,,2,,
559903,1,494,171,27,15,34,12,34,3,22,4,5,,1,1,9,1,1,2,
559911,1,388,150,14,19,61,16,8,,11,5,6,,,1,4,3,2,,
559920,1,143,49,,9,17,2,10,,3,2,,,,2,,2,2,,
559946,1,57,22,2,5,2,1,8,,,1,3,,,,,,,,
559954,1,206,70,3,21,17,3,12,3,1,1,,,,1,3,1,3,1,
559962,1,139,55,7,8,11,5,5,,8,4,1,,,1,3,1,1,,
559997,3,361,99,8,17,16,4,15,4,12,7,12,,,,4,,,,
559997,2,797,247,30,43,63,14,39,4,27,4,12,2,,2,3,1,3,,
559997,1,641,199,32,27,41,12,26,4,20,7,15,,1,2,9,1,1,1,
560006,2,58,31,3,15,4,,5,,,1,,,,,2,,1,,
560006,1,197,59,13,12,10,3,8,,2,2,3,,,,2,3,1,,
560014,1,1194,377,57,49,81,14,38,6,60,12,26,1,,5,17,2,8,,1
560057,2,136,70,6,8,17,14,8,1,6,2,4,,,1,3,,,,
560057,1,870,262,22,45,66,24,37,,17,8,19,1,1,4,8,4,5,,1
560081,1,205,86,5,13,26,7,17,1,11,,2,,,2,1,1,,,
560111,1,176,78,8,16,16,6,17,3,1,5,1,,,,4,,1,,
560120,1,1457,442,47,109,116,31,46,3,43,7,17,3,1,4,5,1,9,,
560146,1,65,41,1,7,16,2,7,,1,3,1,,,2,,,,1,
560162,3,510,179,17,46,36,11,24,,8,9,12,,3,2,10,,1,,
560162,2,1163,300,53,55,36,13,53,2,19,9,34,3,,2,15,2,3,1,
560162,1,233,93,14,19,23,8,12,1,7,,2,,,2,4,,1,,
560189,1,236,79,8,20,7,7,12,,5,7,5,,,,3,2,3,,
560227,1,192,70,10,13,10,4,12,2,2,4,3,,1,2,4,,1,2,
560235,1,211,73,16,10,8,9,8,1,8,1,7,,,,5,,,,
560251,1,920,386,46,99,70,27,46,1,33,19,30,1,2,3,4,1,3,,1
560260,5,26,18,,6,4,,4,,1,1,,,,1,1,,,,
560260,4,43,16,,1,4,1,3,,6,,,,,,,,1,,
560260,3,17,7,1,,,,2,,1,2,1,,,,,,,,
560260,2,761,264,32,40,54,5,31,6,61,7,10,,,2,13,,,3,
560260,1,1162,322,30,55,39,17,48,6,64,15,26,,,10,5,2,4,1,
560715,10,596,183,20,44,49,2,32,3,6,6,10,,,2,7,1,1,,
560715,9,718,216,19,43,61,5,33,2,10,5,17,1,,4,14,1,1,,
560715,6,1223,231,19,66,59,6,31,3,8,4,12,,1,,19,1,,2,
560715,5,847,238,28,58,64,8,25,2,9,5,19,2,,,16,1,1,,
560715,4,768,216,7,54,52,11,36,1,6,10,21,,,3,13,1,,,1
560715,3,917,290,42,50,70,19,41,4,13,8,19,,,1,22,,1,,
560715,2,748,226,37,39,45,19,41,1,7,6,13,1,1,2,13,1,,,
560715,1,824,302,28,67,66,11,53,2,19,14,17,2,,,18,2,3,,
560715,14,52,23,4,1,4,,3,2,,3,4,,1,1,,,,,
560715,13,204,62,13,10,15,2,11,,5,,2,,,1,2,,1,,
560715,12,762,270,20,69,81,6,42,5,9,9,6,1,,5,13,1,3,,
560715,11,865,213,14,44,55,6,38,1,13,2,22,,1,2,13,,1,1,
560715,8,707,204,21,48,43,14,27,1,9,5,15,1,,,16,2,2,,
560715,7,539,154,13,56,29,4,28,,2,5,7,,,,7,,2,1,
560723,1,179,69,2,23,23,1,8,1,2,3,5,1,,,,,,,
560740,1,747,189,18,33,41,4,41,,28,7,4,1,,2,2,2,5,1,
560758,3,1117,174,10,20,23,1,41,1,31,11,18,,,3,6,,7,2,
560758,2,1029,238,17,38,56,16,43,,41,3,11,1,,2,2,,3,2,3
560758,1,989,258,7,31,55,4,62,,56,7,24,,,1,5,1,5,,
560782,1,231,42,,7,5,1,9,,2,1,7,,,5,4,,1,,
560804,1,275,100,2,27,23,,10,2,8,3,9,,9,1,5,,,,1
560812,1,904,230,20,46,67,5,31,2,7,23,9,3,1,3,4,1,5,2,1
560839,1,285,89,6,16,24,12,11,,2,3,3,,,1,8,,3,,
560855,1,284,87,7,18,33,6,10,2,2,1,,1,,2,2,1,2,,
560863,1,760,186,10,53,44,4,44,3,3,6,9,1,,,8,,1,,
560898,2,74,29,3,12,2,1,6,,1,1,,,,,3,,,,
560898,1,235,45,,13,9,,15,,2,,1,,1,3,,,,1,
560901,1,1469,363,34,64,126,8,48,,34,9,20,2,,2,12,2,1,1,
560910,2,114,55,,10,27,1,5,2,2,,3,,,1,2,1,1,,
560910,1,495,197,4,17,125,4,19,,12,3,8,,,,4,,,1,
560928,3,82,28,,2,4,,8,,2,6,4,,,,2,,,,
560928,2,63,26,2,1,4,2,4,1,2,1,5,,,1,2,,1,,
560928,1,1084,362,29,39,72,11,58,4,8,79,39,1,,10,3,1,5,,3
560952,2,164,59,1,9,10,1,16,,4,7,5,,,3,2,,1,,
560952,1,619,241,36,28,55,11,32,1,13,37,22,1,,,5,,,,
560979,1,152,60,1,11,7,,22,3,5,,6,,,,4,1,,,
561002,1,372,89,2,20,21,6,13,4,5,1,9,,,1,4,1,1,,1
561011,1,318,80,1,16,17,7,12,1,7,,10,,1,1,4,,2,,1
561134,5,744,206,5,23,53,3,56,2,29,7,13,1,,1,11,,,1,1
561134,4,886,314,30,72,47,25,52,5,38,6,23,,1,1,12,1,1,,
561134,3,922,264,15,59,40,12,46,2,50,9,19,,1,,8,1,1,1,
561134,2,1082,290,20,53,58,20,42,3,46,6,19,2,,7,11,1,2,,
561134,1,782,165,12,29,50,4,24,4,19,5,13,,,2,1,,,2,
561151,4,206,65,3,14,15,,15,,6,1,8,,1,1,,,,1,
561151,3,100,44,,13,9,2,11,,,1,2,,,1,3,,2,,
561151,2,111,30,,9,6,2,9,,2,,,,,,,,2,,
561151,1,523,131,10,29,30,3,24,,8,3,15,2,,,4,,1,1,1
561169,1,453,105,3,21,16,2,34,2,2,4,12,,1,3,1,3,1,,
561185,1,901,197,15,45,39,3,37,1,9,18,15,,,7,6,,1,1,
561193,1,215,67,5,22,8,,20,,7,1,1,1,,,1,,1,,
561207,1,906,239,17,38,46,17,42,9,21,7,19,,1,4,13,1,3,,1
561215,4,1168,423,33,80,151,22,53,3,19,18,15,1,1,3,18,1,4,1,
561215,3,1184,359,19,86,101,19,43,2,11,14,25,1,1,3,30,1,2,,1
561215,2,1454,318,29,56,86,15,27,1,8,33,27,,1,12,17,,5,1,
561215,1,591,153,9,37,49,8,8,3,8,9,13,,,1,6,,1,1,
561215,6,938,262,17,77,67,13,26,3,13,15,6,,,1,22,,1,1,
561215,5,842,257,15,50,84,22,32,1,10,9,17,,1,4,8,,2,2,
561223,1,386,123,8,40,16,10,17,1,5,3,14,,1,,6,,2,,
561231,1,166,71,6,16,31,1,10,,3,,1,,,,2,1,,,
561258,1,350,92,1,12,21,3,12,,1,36,,,1,3,2,,,,
561291,1,187,54,,16,13,1,16,,,4,2,,,,1,1,,,
561304,1,315,82,3,15,17,10,18,1,7,1,7,,,1,,1,1,,
566055,1,251,80,15,17,10,7,9,1,4,5,3,,1,3,3,,2,,
566071,1,81,45,6,4,8,1,7,1,11,5,2,,,,,,,,
566080,1,63,3,,,2,,,,,,,,,,,,1,,
566098,1,152,53,6,17,12,1,5,,3,3,,,,,2,1,1,1,1
566101,1,65,38,1,10,7,1,6,,5,2,1,,1,,3,,1,,
566136,1,302,126,42,17,26,5,8,2,1,8,6,1,,3,5,1,1,,
566144,1,164,79,22,18,14,2,10,,6,1,4,,1,,,1,,,
566161,1,89,32,8,4,10,5,2,1,,1,1,,,,,,,,
566179,1,132,46,8,9,7,4,3,,8,3,1,,,,1,2,,,
566209,1,87,23,,8,7,,5,,,,3,,,,,,,,
566250,1,98,25,2,7,2,1,6,,3,1,2,,,,,1,,,
566276,1,64,30,8,5,6,5,2,,3,,,,,1,,,,,
566292,1,194,36,3,5,7,,9,,2,2,,,3,1,,3,1,,
566331,1,29,12,1,3,4,,1,,1,,,,,1,,,1,,
566365,1,212,89,6,27,14,3,8,,1,3,3,,23,,,,1,,
566373,1,65,29,1,8,5,2,2,,4,1,2,,,,3,,1,,
566390,1,57,27,3,5,5,7,4,,1,,1,,,1,,,,,
566420,1,176,69,3,7,12,5,27,2,5,6,,,,1,,,1,,
566446,1,204,93,9,14,22,3,21,1,1,6,10,,,,5,,1,,
566462,1,96,30,,6,7,1,9,,1,1,4,,,,1,,,,
566471,1,101,40,7,11,12,4,1,,,1,,1,,,1,1,1,,
566489,1,60,30,,5,12,4,2,1,2,,4,,,,,,,,
566497,1,42,22,1,5,4,,2,1,7,,2,,,,,,,,
566543,1,163,65,2,8,16,1,3,,20,2,6,,2,,2,1,2,,
566594,1,82,43,,3,6,1,10,3,10,1,3,,4,2,,,,,
566632,1,64,33,,9,14,7,,,3,,,,,,,,,,
566641,1,156,69,5,16,12,1,13,,5,3,9,,2,1,,2,,,
566683,1,124,47,2,6,4,3,8,2,5,2,10,1,,1,2,1,,,
566691,1,51,33,2,9,3,3,13,,2,,1,,,,,,,,
566705,1,78,46,,15,15,4,2,1,8,,,,,1,,,,,
566730,1,55,26,9,12,,,2,,1,,,,,,2,,,,
566748,1,55,28,1,6,8,2,10,,,,1,,,,,,,,
566756,1,507,186,25,19,55,13,15,2,32,3,10,,,5,4,,2,1,
566764,1,52,12,,4,3,,5,,,,,,,,,,,,
566781,1,60,30,5,12,7,1,2,,1,,,,,,,,,2,
566799,1,212,135,9,32,29,17,20,1,8,2,8,1,,1,2,1,4,,
566802,1,130,43,7,6,12,4,2,1,8,,,,,1,2,,,,
566811,1,45,21,,9,4,3,3,,1,,,,,,,1,,,
566837,1,128,59,4,14,16,12,3,,1,1,2,,,2,3,1,,,
566845,1,177,82,4,14,18,4,24,,3,2,5,1,1,1,2,,2,,1
566861,1,102,67,2,8,10,1,7,,23,4,2,,,,6,,4,,
566888,1,50,22,2,3,8,2,,,,5,,,1,,1,,,,
566942,1,177,80,13,18,12,3,7,,8,,6,,,4,4,1,4,,
566969,1,367,150,12,43,35,8,17,2,4,9,9,,,1,6,,3,,1
566993,1,88,58,6,8,16,4,6,,7,,7,1,,2,1,,,,
567001,1,241,89,4,13,20,4,22,,12,5,3,,,1,1,1,2,1,
567086,1,244,80,10,12,20,4,8,2,3,1,11,2,,2,4,1,,,
578061,1,51,41,6,1,14,3,3,2,3,,2,1,,2,3,,1,,
578070,1,106,44,5,11,7,5,2,,1,3,6,,,,4,,,,
578088,1,101,34,5,8,12,,1,1,2,,,3,,,2,,,,
578177,1,71,23,1,1,5,,,,7,1,1,,,3,4,,,,
578223,1,59,19,2,4,5,2,1,1,1,1,,,,1,1,,,,
578240,1,108,35,5,8,7,4,6,,2,,,,,,,,2,1,
578312,1,105,38,4,3,6,2,5,,6,2,1,,,6,3,,,,
578321,1,89,45,3,8,15,3,4,,1,,4,,,2,4,,1,,
578410,1,36,17,,1,,,,1,13,1,,,,,,,,1,
578436,1,88,46,2,12,13,1,4,,12,1,,,,,,,1,,
578461,1,52,27,5,6,4,6,,,,5,,,,,,,1,,
578495,1,125,61,5,6,22,6,13,,1,2,2,,1,,1,,,1,1
578517,1,48,14,3,3,3,,1,1,,1,2,,,,,,,,
578525,1,82,52,7,11,8,6,1,,5,5,3,,,,3,1,2,,
578533,1,189,79,9,20,17,4,14,,3,3,3,,,1,1,4,,,
578541,1,206,81,6,24,22,3,9,,6,2,6,,,2,,,1,,
578568,1,105,43,6,11,14,2,7,,3,,,,,,,,,,
578592,1,65,24,1,3,4,1,8,,5,,1,,,,1,,,,
578606,1,141,78,8,15,18,5,6,,11,3,7,,,1,3,,,1,
578614,1,82,37,3,7,7,3,3,1,3,1,6,,,1,,,2,,
578665,1,123,59,8,3,15,2,10,,1,17,,,,,2,,,1,
578771,1,99,32,4,10,8,,5,,,,,,,,3,,2,,
578797,1,97,62,2,14,3,,6,1,,33,1,,,,1,1,,,
578827,1,126,53,3,14,10,2,14,,1,2,5,,,,1,,1,,
578924,1,55,29,3,7,7,1,5,,1,1,,,,1,1,,,2,
578983,1,200,78,5,10,16,8,23,,5,3,,,,,3,2,2,1,
579009,1,195,87,8,13,22,13,9,,7,1,3,,,,7,,4,,
579017,1,77,50,9,11,4,1,19,,4,,1,,,1,,,,,
579033,1,144,65,11,13,9,5,7,,9,,4,1,,,2,,4,,
579084,1,72,36,4,4,6,2,8,,3,,3,,,1,4,,1,,
579131,1,327,127,9,27,23,6,23,1,20,2,7,1,,2,6,,,,
579246,1,90,36,2,3,12,5,9,2,1,,1,,,,1,,,,
579289,1,36,22,2,15,,,2,1,,,,,,,,,2,,
579343,1,49,25,1,4,2,1,4,,5,,6,,,2,,,,,
579459,1,250,88,1,21,21,4,19,,8,,8,,,1,2,,1,,2
579467,1,87,29,1,7,4,1,11,,3,,2,,,,,,,,
579491,1,132,46,7,7,14,2,7,2,,,4,,,,1,,2,,
599131,1,115,55,14,17,5,,14,,2,,2,,,1,,,,,
599166,1,104,46,11,7,8,5,1,1,5,,4,,,2,1,1,,,
599174,1,53,21,2,2,7,,1,1,3,,2,,,1,,2,,,
599182,1,127,64,6,10,6,2,9,6,5,3,2,,,,6,8,,1,
