A7,A9,A997,A998,A999,B1458,B166,B1,B1114,B720,B53,B7,B768,B997,B998,B999
139,151,0,4,113,14,26,16,5,43,34,28,26,4,0,211
161,141,0,14,127,22,23,22,18,32,39,19,35,8,0,225
582,518,0,59,496,26,58,148,36,113,61,23,156,31,0,1003
545,484,0,27,383,28,49,153,25,78,69,16,122,84,0,815
556,350,0,0,481,22,60,104,67,45,49,30,123,39,27,821
62,62,0,5,44,6,13,30,0,4,3,3,17,1,0,96
114,76,0,0,57,6,19,22,5,15,5,3,7,10,7,148
395,356,0,56,251,30,138,69,29,64,48,22,85,23,0,550
335,217,0,18,317,16,32,64,20,49,24,24,66,30,0,562
339,376,0,0,308,12,61,98,31,59,44,34,33,18,50,583
267,330,0,21,174,21,65,74,36,42,65,34,53,20,0,382
250,179,0,0,225,6,34,43,7,14,31,19,41,21,23,415
262,244,0,0,252,6,27,71,14,29,45,25,57,21,15,448
333,269,0,0,312,12,52,61,29,37,32,51,50,19,18,553
284,244,0,0,318,9,28,65,16,32,43,44,60,19,27,503
295,295,0,14,351,18,62,78,25,51,38,45,50,24,0,564
316,297,0,0,345,11,45,75,23,33,41,31,34,21,20,624
347,250,0,9,297,12,48,68,16,40,30,47,58,13,0,571
316,342,0,19,277,8,53,76,30,42,59,40,76,20,0,550
198,272,0,1,147,11,46,78,24,31,45,26,38,10,0,309
269,224,0,0,347,13,44,46,24,34,24,35,35,19,70,496
278,252,0,0,343,10,38,81,23,52,42,24,38,27,14,524
287,321,0,0,210,20,44,93,18,46,59,27,62,25,23,401
167,97,0,21,121,6,21,33,15,17,19,10,22,7,0,256
139,102,0,11,77,4,29,25,19,17,16,8,21,4,0,186
316,237,0,47,1194,9,19,69,28,30,34,30,43,23,0,1509
289,239,0,7,288,8,50,61,22,33,45,23,58,14,0,509
290,275,0,20,300,26,43,64,13,56,40,38,72,20,0,513
289,266,0,0,256,6,40,70,26,32,27,24,60,13,31,482
295,264,0,15,256,13,60,61,15,33,33,40,76,23,0,476
366,229,0,8,234,8,36,89,32,34,29,42,83,27,0,457
288,283,0,30,241,12,32,67,28,45,133,7,52,12,0,454
512,558,0,0,487,13,63,197,37,71,42,21,100,25,61,927
69,51,0,0,51,0,5,15,7,8,2,3,16,3,3,109
29,7,0,5,20,0,2,2,3,3,1,2,13,2,0,33
58,59,0,1,56,1,7,13,2,12,9,12,20,4,0,94
415,386,0,0,425,10,58,125,29,48,29,14,48,11,39,815
355,221,0,0,335,26,35,93,19,39,21,20,41,18,6,593
370,222,0,14,422,10,21,106,19,49,24,34,52,24,0,689
841,724,0,0,679,44,51,169,49,91,45,102,126,40,220,1307
414,398,0,9,278,17,43,176,17,49,22,21,40,25,0,689
663,522,0,71,546,30,63,92,41,85,75,61,90,27,0,1238
336,316,0,21,315,5,72,156,9,24,23,11,56,16,0,616
383,312,0,0,252,19,52,122,22,45,20,27,52,22,1,565
373,244,0,4,273,18,40,118,25,31,17,13,22,6,0,604
309,254,0,0,337,22,37,96,14,33,21,19,28,12,4,614
603,521,0,36,481,39,71,232,30,71,44,9,137,37,0,971
253,166,0,10,196,7,16,55,12,32,16,17,52,19,0,399
552,485,0,36,593,24,65,138,58,93,94,56,105,32,0,1001
248,212,0,18,197,9,20,54,11,41,31,22,77,23,0,387
418,235,0,0,467,6,33,105,18,33,14,27,65,13,80,726
423,255,0,0,364,15,20,110,22,39,19,17,74,22,48,656
320,240,0,0,276,18,65,95,20,46,17,14,42,11,2,506
25,29,0,1,26,0,9,19,1,3,5,0,19,1,0,24
52,24,0,4,41,1,5,11,4,13,0,2,17,4,0,64
46,45,0,3,35,1,5,25,0,7,2,3,9,2,0,75
89,55,0,8,60,5,8,36,1,5,4,1,17,6,0,129
328,281,0,7,330,8,29,112,11,36,18,18,81,19,0,614
192,249,0,11,167,3,16,146,16,15,11,4,36,12,0,360
137,111,0,20,98,12,22,41,5,15,6,5,30,6,0,224
267,220,0,10,186,6,39,101,7,33,5,7,36,8,0,441
228,154,0,0,175,4,26,46,7,17,12,4,29,12,8,392
48,30,0,3,24,0,3,12,0,6,0,4,9,1,0,70
45,44,0,0,29,0,4,10,4,7,7,1,8,4,10,63
58,40,0,0,39,2,12,14,3,10,1,4,16,6,2,67
85,71,0,0,66,4,10,27,7,11,5,2,25,3,8,120
153,75,0,0,94,3,3,24,6,20,17,5,31,5,6,202
459,559,0,45,410,8,51,311,16,62,28,15,48,14,0,920
490,327,0,7,388,31,77,75,56,61,58,27,54,15,0,758
35,22,0,2,21,0,4,7,3,3,0,2,9,3,0,49
180,180,0,0,199,7,25,56,13,25,16,6,29,9,1,372
184,151,0,12,160,9,35,71,9,13,11,2,18,10,0,329
216,177,0,5,204,10,31,54,14,31,42,9,28,14,0,369
221,200,0,0,235,2,28,63,9,15,27,15,18,5,20,454
172,173,0,0,207,4,12,71,8,21,29,12,5,3,8,379
344,260,0,0,365,8,32,127,15,42,23,36,35,18,5,628
160,138,0,19,73,4,30,33,8,33,30,10,47,4,0,191
168,129,0,0,156,4,13,37,16,19,10,5,33,12,9,295
223,100,0,0,120,8,25,31,17,15,5,18,26,21,27,250
592,445,0,0,440,24,39,124,41,76,46,25,154,25,36,887
195,170,0,3,146,5,20,49,8,28,35,23,30,6,0,310
547,447,0,0,476,30,86,141,31,69,51,30,82,23,0,927
326,314,0,0,315,15,40,75,20,50,44,8,102,16,12,573
379,463,0,43,399,25,69,99,27,94,68,21,140,18,0,723
366,327,0,0,319,27,36,69,28,73,30,19,111,13,11,595
178,204,0,0,139,8,21,50,19,31,10,14,74,6,5,283
307,308,0,0,298,20,38,74,21,79,35,15,93,21,10,507
360,447,0,20,390,13,68,96,22,89,74,19,109,19,0,708
356,454,0,0,743,20,45,94,26,67,63,8,132,16,13,1069
432,447,0,0,529,22,50,77,33,109,48,20,101,16,68,864
386,304,0,0,356,14,27,79,28,56,30,15,100,20,31,646
336,294,0,0,387,16,25,56,26,69,33,29,88,16,20,639
292,337,0,3,215,17,36,79,21,56,62,3,91,12,0,470
255,399,0,27,172,21,63,106,18,79,46,14,102,8,0,396
230,283,0,0,241,16,42,59,19,49,42,11,64,11,29,412
275,201,0,13,262,10,22,76,12,50,42,10,33,14,0,482
115,87,0,3,55,7,20,23,1,11,11,3,13,10,0,161
186,132,0,0,172,2,11,63,6,19,9,12,23,3,15,327
250,232,0,0,206,14,51,68,8,35,19,24,63,15,1,390
141,139,0,9,134,9,16,55,9,21,2,3,16,4,0,288
450,448,0,1,400,16,41,236,24,65,45,19,96,10,0,747
182,179,0,0,161,3,22,112,10,22,9,3,37,3,8,293
396,369,0,29,386,15,127,172,30,69,29,13,67,15,0,643
239,217,0,0,261,14,29,45,13,46,22,8,76,12,19,433
65,87,0,3,47,1,12,41,2,10,6,5,22,7,0,96
180,122,0,12,106,9,17,34,11,20,17,12,58,12,0,230
211,99,0,20,144,14,1,31,9,15,18,7,59,14,0,306
83,112,0,13,83,3,8,57,13,16,13,1,21,2,0,157
415,417,0,26,316,15,52,128,18,58,52,17,131,21,0,682
243,292,0,0,242,16,25,97,15,55,27,6,75,16,6,439
273,177,0,0,173,9,22,34,12,11,29,21,80,20,19,366
250,290,0,0,229,18,43,64,18,52,51,8,57,26,19,413
234,199,0,19,903,7,9,26,28,54,24,9,52,16,0,1130
287,265,0,2,188,12,22,75,29,36,32,13,86,16,0,421
305,260,0,11,361,11,27,47,29,64,36,18,70,21,0,614
415,356,0,0,347,20,21,89,32,59,32,27,132,26,4,676
364,345,0,32,322,19,42,99,18,63,50,14,94,26,0,638
247,218,0,1,200,9,17,60,13,34,31,17,63,15,0,407
225,189,0,0,194,13,31,47,11,27,24,13,67,12,36,327
199,222,0,0,138,9,22,66,14,44,29,17,55,14,3,286
263,407,0,43,175,18,44,119,20,69,93,14,97,11,0,403
154,131,0,0,181,6,15,27,17,24,17,4,51,13,24,268
275,141,0,0,273,14,8,32,12,25,18,11,59,18,10,482
222,162,0,0,179,13,10,41,17,17,14,6,61,12,21,351
203,223,0,12,207,16,21,52,12,40,32,12,69,12,0,379
236,153,0,0,224,6,20,42,15,34,14,6,65,19,29,363
253,231,0,0,247,13,30,44,10,41,23,9,93,19,31,418
232,258,0,0,241,20,37,50,21,28,44,4,67,16,33,411
75,83,0,0,86,7,23,21,7,8,7,3,11,4,3,150
41,19,0,0,25,3,1,21,3,4,2,0,10,0,3,38
91,132,0,9,95,22,10,45,3,13,27,3,13,5,0,186
356,453,0,0,263,14,46,149,17,34,44,19,46,19,173,511
406,428,0,0,411,8,47,166,10,38,20,17,52,28,189,670
254,360,0,25,223,24,50,105,19,64,55,4,63,14,0,464
156,136,0,6,112,3,11,98,7,22,14,5,28,5,0,217
355,427,0,28,334,18,49,128,42,69,59,10,85,11,0,673
193,148,0,0,149,7,24,89,7,29,13,4,22,15,1,279
250,213,0,10,173,4,23,59,12,32,30,6,77,12,0,391
403,335,0,21,405,22,25,94,25,60,40,15,109,10,0,764
304,208,0,0,257,6,16,65,15,22,10,13,84,21,20,497
369,407,0,0,243,80,69,108,14,68,43,28,80,19,2,508
101,93,0,0,88,7,9,20,13,20,7,4,17,13,10,162
133,83,0,0,109,7,15,25,10,10,9,14,33,5,9,188
258,265,0,9,202,14,48,82,7,65,37,29,46,18,0,388
195,272,0,3,151,10,41,102,10,31,4,5,38,10,0,370
90,76,0,1,58,5,8,7,2,6,16,9,13,2,0,157
245,267,0,15,162,35,44,29,18,55,81,19,43,9,0,356
343,384,0,35,300,23,72,107,24,78,37,30,69,26,0,596
74,39,0,4,43,3,7,15,1,4,8,7,20,1,0,94
63,75,0,0,35,12,13,19,7,6,8,2,6,5,4,91
318,280,0,0,238,24,43,48,15,44,30,16,83,26,28,479
264,245,0,0,270,24,43,50,13,38,26,21,55,11,5,493
333,294,0,0,345,23,32,62,18,48,45,17,91,26,33,577
300,311,0,3,172,22,44,55,32,51,49,14,95,18,0,406
310,343,0,0,435,28,57,62,13,46,52,22,64,16,20,708
309,290,0,0,239,18,68,65,21,49,41,16,48,18,24,470
360,627,0,12,479,50,168,182,20,75,89,20,73,21,0,780
397,302,0,5,333,42,119,76,24,40,37,18,83,16,0,582
376,384,0,0,286,36,120,134,28,52,36,23,74,25,1,517
371,338,0,0,319,20,123,83,23,40,24,35,87,23,50,520
137,123,0,0,108,5,6,63,8,16,4,4,16,5,15,226
115,43,0,5,66,2,8,18,17,8,6,3,25,12,0,130
252,177,0,0,198,15,35,39,27,41,31,19,40,11,0,369
118,88,0,0,74,5,10,29,9,19,16,12,16,8,2,154
26,8,0,0,21,0,1,2,0,3,0,1,6,4,3,35
165,130,0,12,140,9,24,28,9,9,10,21,27,5,0,305
161,80,0,0,78,15,14,17,2,8,20,17,29,6,4,187
155,115,0,30,74,13,22,27,22,23,26,15,35,11,0,180
108,112,0,0,120,16,14,10,14,27,13,24,28,4,0,190
118,55,0,25,84,3,12,15,10,17,4,25,32,12,0,152
97,36,0,6,68,1,0,24,7,8,4,9,25,1,0,128
210,211,0,16,174,19,41,65,17,31,33,15,41,10,0,339
179,177,0,7,148,7,36,46,15,33,32,19,38,17,0,268
194,274,0,15,220,16,44,133,10,41,29,22,41,4,0,363
313,427,0,29,200,56,71,88,18,76,84,34,87,18,0,437
396,534,0,9,319,46,94,105,32,107,94,46,111,25,0,598
314,359,0,29,239,36,67,49,23,82,60,39,119,12,0,454
326,455,0,35,247,53,93,65,29,93,96,44,91,20,0,479
108,115,0,6,82,7,19,33,7,22,22,3,22,5,0,171
270,418,0,5,237,31,82,90,22,85,87,48,83,18,0,384
221,238,0,0,177,29,40,39,32,61,30,38,59,16,4,288
190,257,0,0,162,21,38,46,15,39,34,26,43,11,68,268
255,322,0,0,321,39,62,35,24,68,53,27,58,21,42,469
249,207,0,0,165,36,25,44,14,47,41,39,66,12,27,270
265,193,0,0,200,32,40,27,22,32,18,31,69,13,33,341
278,195,0,0,202,19,48,37,32,46,33,17,73,10,8,352
333,375,0,0,246,52,50,39,22,65,61,57,90,13,155,350
319,323,0,0,207,56,46,37,27,63,57,54,114,18,25,352
181,324,0,29,174,43,53,59,20,68,50,32,59,15,0,309
81,50,0,0,40,5,9,13,8,9,6,1,9,3,13,95
250,308,0,30,176,32,79,72,12,60,59,20,62,10,0,358
390,286,0,0,240,25,43,80,18,54,31,47,90,25,27,476
411,490,0,76,306,56,103,117,52,97,75,30,97,24,0,632
330,430,0,0,236,28,88,123,23,68,93,44,65,14,6,444
314,283,0,0,246,30,65,49,25,61,44,16,72,13,35,433
165,235,0,0,139,17,53,56,15,57,29,11,41,14,5,241
225,214,0,0,187,14,39,30,8,52,18,27,80,14,46,298
271,299,0,0,215,29,51,44,15,66,50,25,90,15,8,392
262,269,0,0,195,30,49,21,20,44,43,39,97,16,25,342
344,291,0,0,296,30,40,36,22,72,49,39,98,25,9,511
250,288,0,4,201,27,69,50,20,49,49,34,80,17,0,348
310,285,0,45,213,44,52,30,26,67,36,49,127,20,0,402
232,209,0,0,230,24,42,14,14,51,31,42,75,12,29,337
261,297,0,22,211,25,60,25,18,56,46,55,102,14,0,390
286,348,0,3,222,53,51,44,32,80,72,58,77,11,0,381
195,183,0,0,189,18,33,32,9,33,27,30,63,25,14,283
372,583,0,99,305,53,164,101,33,126,108,45,98,11,0,620
206,254,0,21,168,28,49,47,11,75,43,25,48,5,0,318
345,524,0,107,304,83,118,105,35,72,104,63,127,13,0,560
192,183,0,12,137,21,30,29,26,43,39,30,49,15,0,242
113,73,0,0,68,11,12,5,5,20,11,19,34,9,1,127
306,284,0,0,215,41,41,69,21,68,22,34,85,20,15,389
220,309,0,0,227,20,58,37,21,85,45,33,77,7,16,357
253,297,0,0,176,25,52,20,25,50,48,32,79,14,53,328
279,278,0,10,235,22,69,32,12,61,59,35,99,17,0,396
410,523,0,0,2610,38,89,67,33,89,87,29,77,27,95,2912
242,259,0,0,191,14,40,50,19,47,40,26,83,12,6,355
260,327,0,76,209,40,69,67,9,63,71,41,70,5,0,437
205,336,0,45,152,25,72,61,15,63,58,38,62,8,0,336
295,389,0,16,281,38,88,41,38,91,73,45,67,19,0,481
286,386,0,0,283,40,86,42,32,86,61,53,46,11,11,487
298,359,0,0,352,30,78,35,17,81,45,37,75,12,17,582
243,252,0,48,175,47,64,35,18,50,39,38,74,14,0,339
376,309,0,5,406,30,50,37,44,52,38,33,78,17,0,717
165,174,0,0,103,23,26,23,23,31,31,17,52,4,5,207
235,305,0,20,166,31,54,46,27,65,64,34,79,16,0,310
290,437,0,44,261,44,91,65,28,77,51,44,81,16,0,535
342,332,0,0,294,33,61,51,26,63,31,43,96,14,22,528
255,168,0,0,222,29,24,19,22,44,21,23,70,10,8,375
276,195,0,0,283,32,23,39,20,51,25,38,74,17,5,430
315,266,0,0,266,34,52,65,31,54,34,31,85,14,22,425
301,263,0,0,246,17,58,35,21,52,34,38,103,29,26,397
281,455,0,11,217,50,88,52,32,85,102,45,107,20,0,383
292,350,0,10,254,34,59,41,25,87,40,34,98,19,0,469
266,303,0,17,187,35,64,52,20,59,60,31,92,15,0,345
332,293,0,0,259,44,42,74,24,43,40,49,76,22,24,446
222,151,0,24,266,14,18,31,24,30,18,30,65,17,0,416
311,309,0,0,210,34,59,59,37,60,41,38,81,14,11,396
270,280,0,0,255,17,41,39,37,62,35,36,83,20,12,423
210,153,0,0,105,19,33,17,19,32,21,18,94,10,14,191
193,259,0,0,136,35,59,40,16,49,37,27,75,14,14,222
231,136,0,12,188,14,17,62,10,34,14,10,58,21,0,327
261,170,0,0,191,17,31,64,22,27,17,31,53,17,0,343
89,37,0,0,83,1,10,16,3,4,2,10,20,6,1,136
106,75,0,0,77,1,22,22,7,6,2,7,12,3,11,165
448,389,0,6,403,14,62,127,28,48,28,87,57,12,0,783
582,494,0,17,551,24,75,148,23,38,32,75,116,29,0,1084
404,296,0,10,454,26,54,88,10,29,23,47,70,15,0,802
166,124,0,13,90,27,23,41,8,32,9,16,47,11,0,179
246,134,0,0,192,17,25,29,30,38,12,20,42,11,8,340
76,47,0,2,40,6,16,13,3,11,2,2,16,1,0,95
92,61,0,0,62,5,14,26,3,5,9,8,20,1,0,124
203,183,0,15,115,22,11,81,8,29,18,15,41,8,0,283
146,163,0,11,128,16,34,25,13,37,29,10,47,6,0,231
115,112,0,16,93,9,21,38,6,16,4,23,20,3,0,196
120,125,0,0,84,12,10,13,7,41,26,16,22,6,2,174
386,446,0,9,345,32,61,81,45,59,72,67,110,15,0,644
54,51,0,2,22,12,2,9,1,5,6,7,6,1,0,80
79,109,0,8,77,5,22,11,9,16,12,22,15,2,0,159
329,474,0,5,297,56,73,76,24,69,70,54,73,19,0,591
678,348,0,37,472,22,75,111,55,78,27,23,114,32,0,998
39,9,0,1,20,3,3,2,4,1,0,5,8,3,0,40
147,197,0,13,105,16,44,48,6,60,27,14,53,7,0,187
132,119,0,16,140,9,21,42,18,14,7,10,22,6,0,258
215,112,0,0,124,11,25,53,10,14,4,10,45,15,7,257
338,405,0,11,266,40,48,72,19,85,70,134,78,8,0,466
304,250,0,17,209,38,49,38,21,39,48,62,63,15,0,407
72,75,0,0,84,0,11,27,4,11,7,10,15,5,4,137
99,58,0,1,69,6,4,23,19,10,4,3,20,6,0,132
274,261,0,25,183,13,60,78,15,38,26,47,56,12,0,398
154,114,0,0,143,10,33,52,13,14,11,9,38,9,14,208
186,218,0,11,163,11,49,41,19,41,28,14,46,7,0,322
81,67,0,1,36,6,5,38,9,9,7,3,15,2,0,91
103,67,0,0,63,7,7,12,8,12,3,0,21,8,0,155
85,31,0,3,52,1,2,16,11,3,2,2,25,4,0,105
372,477,0,0,336,29,66,75,43,74,63,28,86,18,6,697
379,411,0,21,359,39,79,95,33,59,58,18,93,26,0,670
107,71,0,0,75,7,8,18,6,8,13,4,20,7,46,116
446,568,0,0,424,59,83,105,40,84,105,42,120,30,24,746
170,79,0,12,81,1,24,8,10,22,9,27,31,12,0,198
222,147,0,7,140,10,20,49,21,14,8,13,34,11,0,336
154,212,0,22,114,15,39,102,12,22,21,10,18,12,0,251
326,148,0,1,249,15,11,50,30,24,21,10,63,19,0,481
360,223,0,0,483,19,37,67,22,40,26,20,78,26,0,731
428,321,0,2,285,14,44,106,25,64,31,18,86,21,0,627
356,313,0,21,319,15,51,61,25,88,48,25,73,22,0,601
470,351,0,8,283,16,63,111,43,73,43,15,118,32,0,598
364,342,0,0,296,13,65,86,29,74,37,24,72,34,20,548
237,167,0,0,163,3,25,84,4,17,5,26,48,9,1,345
412,279,0,0,396,7,32,107,8,33,5,27,42,5,7,814
197,188,0,16,158,2,18,84,8,16,9,14,40,2,0,366
152,102,0,6,111,15,30,17,6,18,8,9,31,4,0,233
297,343,0,4,239,14,75,79,31,54,46,39,66,11,0,468
360,201,0,0,344,14,57,41,23,46,17,24,95,21,21,546
395,280,0,0,276,14,38,40,41,64,33,64,99,26,4,528
392,374,0,6,291,30,58,57,28,109,44,56,84,16,0,581
449,311,0,0,462,16,42,48,55,67,37,46,69,28,34,780
479,309,0,0,287,21,55,83,45,58,29,60,109,15,8,592
430,369,0,0,302,28,82,92,33,72,27,52,118,16,1,580
550,323,0,41,1010,27,44,78,53,75,43,57,109,27,0,1411
484,359,0,11,482,24,43,63,44,82,30,46,75,21,0,908
447,264,0,0,370,16,32,72,33,64,22,47,103,17,9,666
422,257,0,0,326,21,57,58,28,64,19,41,101,14,14,588
441,208,0,0,256,12,49,43,38,41,19,43,93,25,19,523
196,269,0,0,172,12,31,85,18,48,10,18,59,13,0,343
236,241,0,27,149,21,57,56,14,60,29,15,53,10,0,338
223,222,0,21,142,15,33,94,8,38,22,8,29,4,0,357
221,212,0,0,135,15,10,57,19,39,20,24,37,8,0,339
175,114,0,0,112,9,16,33,4,25,9,16,43,4,3,239
98,65,0,0,82,7,14,11,7,8,1,11,20,11,3,152
288,180,0,0,198,9,64,39,14,25,9,20,62,17,7,400
313,223,0,0,234,14,55,22,17,42,18,33,66,25,10,468
300,175,0,0,187,20,53,21,15,20,19,35,60,16,16,387
367,299,0,0,372,27,92,65,13,46,25,30,58,16,0,666
317,326,0,0,242,39,78,60,8,31,37,29,61,12,11,519
153,214,0,3,84,22,31,64,13,39,33,14,38,12,0,188
466,434,0,26,372,85,55,80,35,101,53,45,76,14,0,754
397,353,0,0,307,51,57,53,21,61,54,40,84,13,15,608
556,393,0,29,415,26,95,152,34,60,26,19,113,28,0,840
165,90,0,10,129,8,20,22,6,17,8,6,33,18,0,256
96,61,0,1,58,6,13,15,5,14,7,5,24,6,0,121
112,150,0,9,104,6,21,48,2,11,8,22,18,8,0,231
537,420,0,37,412,20,50,165,24,47,39,66,110,21,0,864
352,213,0,27,262,20,29,49,39,50,25,28,106,13,0,495
392,267,0,0,477,29,49,74,35,62,21,25,70,14,18,739
375,251,0,0,308,51,47,53,21,41,19,20,70,19,12,581
99,77,0,3,62,3,20,4,12,21,10,12,20,12,0,127
356,283,0,5,337,18,79,60,17,61,18,18,68,20,0,622
80,83,0,13,51,7,22,25,6,7,3,12,19,5,0,121
22,40,0,4,7,0,15,18,0,8,0,1,5,0,0,26
76,52,0,0,66,2,23,14,0,14,0,5,12,4,2,118
282,311,0,8,219,15,135,59,15,41,24,18,40,15,0,458
315,295,0,10,452,16,94,55,12,41,20,20,54,6,0,754
279,232,0,0,288,16,92,46,14,34,24,18,34,11,5,505
265,188,0,14,137,18,41,77,11,37,19,12,49,16,0,324
261,212,0,11,175,30,41,26,14,45,28,35,54,13,0,373
385,613,0,0,489,40,96,68,32,104,107,40,86,22,1,891
51,64,0,11,26,6,14,19,5,20,7,6,5,0,0,70
327,340,0,23,263,32,65,41,21,64,52,40,67,17,0,554
360,550,0,0,410,46,86,71,14,93,80,37,74,23,28,768
114,103,0,3,76,3,30,27,5,21,11,11,17,7,0,164
333,311,0,0,265,16,76,87,10,35,22,22,56,10,2,573
130,85,0,3,114,10,17,25,7,33,3,13,35,2,0,187
406,228,0,6,257,46,40,83,16,38,31,16,89,15,0,523
68,48,0,0,42,5,8,5,3,15,2,4,20,4,2,90
381,309,0,48,279,47,70,29,33,68,55,49,80,21,0,565
143,83,0,0,63,14,11,26,13,14,6,8,31,19,1,146
76,81,0,0,48,1,28,9,9,6,11,9,10,10,0,112
46,51,0,2,40,5,17,8,3,12,5,0,5,1,0,83
48,67,0,0,71,0,17,5,1,7,7,7,7,7,8,120
89,48,0,0,58,1,9,38,0,6,7,3,15,5,4,107
62,33,0,5,24,0,15,17,5,8,3,7,5,8,0,56
80,54,0,3,60,2,9,17,0,16,6,7,7,3,0,130
83,39,0,20,59,2,3,8,3,8,4,12,11,10,0,140
557,582,0,0,522,26,53,31,31,106,65,204,95,32,296,722
539,494,0,0,426,14,24,136,35,76,58,165,114,40,6,791
339,312,0,15,302,15,23,54,25,67,40,118,77,22,0,527
391,330,0,13,240,13,39,30,19,86,38,161,75,34,0,479
482,334,0,0,284,12,40,20,39,83,44,165,82,23,1,591
189,121,0,21,110,8,10,7,19,37,27,24,51,13,0,245
45,36,0,7,39,2,4,13,1,5,3,16,6,5,0,72
307,339,0,0,381,8,37,59,22,61,33,86,42,32,38,609
353,315,0,20,1028,22,32,33,28,81,58,64,72,28,0,1298
375,248,0,0,288,8,21,33,24,48,24,105,68,31,28,521
419,235,0,0,381,15,21,22,17,35,31,96,94,32,60,612
420,221,0,0,338,6,20,15,22,50,30,107,84,22,56,567
398,250,0,0,267,22,21,17,25,58,32,122,83,19,18,498
113,77,0,10,68,5,4,10,15,33,12,16,21,5,0,147
466,393,0,23,389,18,39,42,34,95,51,131,107,37,0,717
343,214,0,7,258,7,24,19,30,52,26,89,78,33,0,464
440,345,0,0,313,12,31,22,31,70,35,141,73,37,23,623
478,356,0,32,630,15,46,29,41,79,62,140,103,29,0,952
453,297,0,0,401,17,41,24,36,66,26,132,82,35,34,658
509,395,0,29,428,24,41,44,29,101,62,123,110,48,0,779
487,363,0,0,398,28,40,41,47,96,47,142,103,40,19,645
59,72,0,3,33,3,17,9,4,14,10,16,15,7,0,72
91,61,0,0,54,3,17,13,9,19,1,11,19,10,8,96
97,94,0,7,66,5,17,22,5,20,11,22,21,6,0,135
206,103,0,0,112,8,9,16,17,28,12,35,39,12,4,241
125,77,0,0,105,2,10,19,19,6,11,12,19,23,10,176
278,278,0,17,201,14,31,72,18,25,45,45,66,15,0,443
275,240,0,25,222,4,29,48,24,46,59,22,52,20,0,458
60,11,0,0,34,1,1,9,2,1,5,2,9,4,0,71
109,44,0,0,78,1,3,9,5,13,12,4,17,2,11,154
92,65,0,0,99,1,4,14,9,12,9,7,17,10,0,173
262,168,0,0,245,12,22,30,25,34,37,25,51,17,3,419
326,212,0,3,273,10,16,40,22,32,42,19,77,16,0,540
277,223,0,0,489,12,17,38,26,21,46,21,41,12,15,740
245,174,0,3,210,4,17,35,26,21,34,21,53,10,0,411
194,205,0,19,134,0,32,47,31,23,47,10,42,15,0,305
214,183,0,0,151,12,23,51,19,16,44,25,43,9,9,297
74,28,0,4,49,1,13,11,3,5,1,8,9,2,0,102
188,57,0,0,112,3,11,15,7,12,6,18,38,31,5,211
141,73,0,0,84,8,28,11,4,9,4,19,48,12,1,154
184,134,0,0,115,8,15,14,16,30,16,23,40,15,3,253
181,87,0,0,91,5,18,18,11,15,9,13,49,11,2,208
119,115,0,7,111,5,25,31,6,14,7,9,24,2,0,229
347,231,0,6,253,18,49,54,23,33,30,29,55,27,0,519
413,230,0,0,293,22,55,37,36,43,12,45,75,36,26,549
412,324,0,14,312,37,83,47,37,53,37,59,85,36,0,588
263,169,0,0,180,10,30,23,21,32,17,31,47,30,11,360
220,185,0,5,256,13,45,36,17,28,29,30,33,12,0,423
422,326,0,27,310,31,61,47,27,49,50,52,104,26,0,638
324,180,0,65,573,27,50,26,28,48,18,23,57,24,0,841
363,234,0,0,400,13,58,33,8,37,31,30,76,28,14,669
61,21,0,0,43,3,4,4,15,7,0,5,8,14,3,62
332,194,0,3,501,15,11,48,26,36,60,36,84,25,0,689
143,98,0,0,110,7,5,37,12,21,15,5,29,7,2,211
457,230,0,0,358,10,15,24,33,44,69,33,119,24,19,655
325,177,0,0,237,4,18,16,23,33,63,33,68,30,6,445
316,231,0,0,270,9,17,30,26,32,70,34,68,17,1,513
318,164,0,0,279,12,13,8,25,27,50,25,66,21,46,468
372,221,0,2,300,16,27,31,31,43,80,36,88,17,0,526
143,61,0,0,96,4,15,32,12,15,3,9,32,7,5,166
110,25,0,3,45,5,5,6,7,11,4,30,16,4,0,95
451,204,0,0,294,16,18,9,33,44,38,85,104,35,26,541
414,184,0,9,377,22,12,6,21,32,25,67,77,37,0,685
412,183,0,16,500,15,16,14,22,37,46,78,73,31,0,779
43,17,0,0,12,2,2,8,0,1,0,2,9,1,11,36
34,27,0,0,26,1,3,3,3,10,6,7,1,1,2,50
139,107,0,0,100,6,22,19,15,17,9,13,39,14,8,184
13,14,0,0,12,0,3,5,2,0,4,1,1,2,5,16
66,49,0,0,47,1,7,12,9,4,5,5,12,7,2,98
111,68,0,0,66,8,12,15,9,11,12,30,24,7,8,109
75,102,0,0,71,0,21,39,3,10,2,14,14,5,4,136
100,72,0,0,68,3,18,13,4,6,4,8,15,6,3,160
106,40,0,0,70,2,10,10,6,8,2,2,10,10,3,153
332,220,0,0,249,19,27,22,28,40,16,20,41,45,19,524
347,165,0,0,342,7,46,41,8,17,10,20,62,21,15,607
65,23,0,0,38,1,1,12,1,4,4,7,15,1,4,76
282,199,0,20,201,12,17,51,22,27,24,32,57,17,0,443
33,14,0,0,16,1,1,2,2,5,2,2,9,5,7,27
113,48,0,6,51,10,2,17,3,4,6,4,26,11,0,135
338,260,0,0,280,7,29,66,23,34,19,27,59,25,6,583
333,245,0,0,371,16,27,55,25,36,31,25,70,16,1,647
146,108,0,0,144,9,12,16,8,9,6,7,39,19,1,272
148,77,0,11,90,9,7,39,14,19,10,6,42,8,0,172
30,23,0,7,11,4,6,5,3,5,0,3,10,3,0,32
142,51,0,0,134,2,37,17,4,26,4,10,28,10,27,162
68,57,0,0,50,1,9,9,12,4,7,3,17,2,5,106
137,95,0,0,141,4,11,24,8,31,12,12,32,10,6,223
156,55,0,0,94,3,7,7,16,7,4,16,10,26,21,188
417,229,0,26,423,16,40,55,29,46,27,51,63,33,0,735
132,81,0,0,86,2,6,13,7,7,12,15,33,6,11,187
84,43,0,0,88,0,15,3,4,7,0,11,10,4,14,147
185,79,0,0,84,10,16,16,7,15,10,14,44,6,2,208
182,64,0,12,120,7,24,19,11,11,9,11,28,9,0,249
90,51,0,0,49,0,10,8,12,9,8,13,13,5,9,103
81,33,0,3,50,1,5,6,8,4,1,14,16,22,0,90
99,18,0,11,42,1,4,7,20,11,1,24,16,6,0,80
184,65,0,0,154,1,7,13,14,13,3,44,31,22,10,245
91,35,0,3,72,1,3,11,7,9,10,15,14,7,0,124
180,75,0,6,137,4,9,29,8,27,7,23,23,45,0,223
121,125,0,0,149,1,17,55,7,24,11,3,25,2,2,248
312,126,0,0,184,16,14,22,27,29,26,19,59,17,22,371
410,273,0,19,278,22,36,69,35,36,30,32,70,20,0,630
177,121,0,0,144,13,15,30,10,21,9,13,31,19,32,249
56,66,0,9,38,4,11,7,2,17,10,12,20,2,0,84
302,196,0,5,234,12,21,48,24,37,16,56,50,31,0,442
282,91,0,7,174,13,19,56,12,18,4,14,56,11,0,351
218,150,0,0,221,8,25,24,22,31,18,24,37,14,25,361
198,119,0,0,188,5,12,27,24,18,13,19,40,8,26,313
190,167,0,7,129,5,22,35,9,30,15,38,44,8,0,287
211,132,0,11,167,7,18,28,21,23,29,6,42,6,0,341
89,17,0,0,17,1,7,12,5,5,4,7,13,3,0,66
20,12,0,2,17,1,5,1,5,4,0,1,5,5,0,24
61,16,0,12,35,1,13,7,4,7,0,9,10,4,0,69
63,55,0,0,95,3,8,11,2,9,7,6,11,7,6,143
45,38,0,3,43,1,16,14,11,7,0,0,3,4,0,73
60,44,0,0,32,2,6,14,5,5,0,16,21,4,12,51
91,39,0,11,105,2,5,6,13,10,2,15,20,8,0,165
73,70,0,0,75,2,16,10,7,6,15,12,28,3,2,117
78,18,0,1,50,3,0,2,5,9,4,6,8,12,0,98
131,49,0,2,97,2,8,14,16,8,1,17,30,11,0,172
144,98,0,0,112,3,9,25,7,11,9,9,23,7,19,232
117,69,0,6,71,1,11,28,8,17,6,5,25,5,0,157
297,90,0,16,187,25,8,14,22,19,14,25,62,34,0,367
84,29,0,0,50,4,7,3,7,3,6,7,19,5,0,102
416,201,0,0,461,11,26,26,19,29,32,55,64,42,30,744
66,33,0,0,46,0,7,10,2,13,3,8,8,7,4,83
86,43,0,0,60,7,13,2,8,21,3,17,7,13,9,89
41,24,0,3,37,1,3,1,1,12,4,7,3,3,0,70
73,20,0,0,40,1,4,6,5,3,1,4,6,9,8,86
130,95,0,0,156,7,8,21,8,26,7,15,19,14,1,255
212,135,0,10,136,8,21,35,13,18,17,22,43,15,0,301
242,195,0,20,183,20,51,54,14,41,10,15,43,7,0,385
258,243,0,17,186,40,41,55,18,58,46,6,56,30,0,354
279,376,0,175,230,54,80,47,14,76,100,28,79,31,0,551
389,612,0,0,269,63,90,49,17,85,115,39,81,23,167,541
184,150,0,0,127,13,16,31,8,32,59,9,40,14,2,237
317,364,0,0,190,33,65,92,15,47,108,17,64,21,26,383
348,292,0,0,272,45,33,31,11,49,34,31,79,26,71,502
258,226,0,0,283,20,32,35,11,39,28,22,59,31,4,486
283,223,0,0,244,29,26,33,13,29,38,17,70,38,5,452
304,251,0,0,236,32,22,33,9,57,40,40,62,39,15,442
283,288,0,0,277,35,39,23,16,52,59,30,46,25,26,497
306,395,0,85,851,53,79,45,16,71,64,21,60,28,0,1200
212,221,0,43,188,24,43,34,17,35,48,22,63,22,0,356
217,243,0,0,190,24,38,26,12,44,37,22,51,21,11,364
290,266,0,18,255,29,37,30,19,41,43,14,79,33,0,504
241,170,0,0,229,15,20,30,11,31,35,13,52,18,37,378
292,406,0,2,289,33,59,48,11,54,74,25,75,26,0,584
249,302,0,0,207,41,39,33,12,57,66,19,70,26,13,382
349,346,0,0,327,39,34,35,15,58,41,36,54,26,146,538
331,311,0,0,385,31,46,39,16,53,50,16,44,26,33,673
275,328,0,17,213,39,45,35,9,45,33,22,68,31,0,506
281,240,0,0,292,17,55,37,19,36,30,28,64,21,2,504
209,272,0,0,248,24,52,31,7,39,51,16,40,18,17,434
513,461,0,20,474,19,143,91,45,85,33,43,108,33,0,868
372,271,0,28,228,10,61,78,17,32,78,14,49,13,0,547
325,222,0,0,288,14,44,45,18,24,54,11,56,12,8,549
104,122,0,9,53,14,28,46,6,16,9,7,23,7,0,132
455,367,0,13,370,23,50,115,31,71,64,21,89,32,0,709
65,29,0,0,19,8,4,8,4,5,21,3,17,7,1,35
102,24,0,0,95,0,4,3,5,4,7,5,7,12,20,154
146,17,0,3,96,3,7,7,12,3,14,4,15,11,0,186
512,285,0,0,296,27,25,66,39,45,121,26,103,35,5,601
351,212,0,0,380,32,19,36,20,31,78,23,54,16,4,630
469,238,0,0,277,38,17,47,27,37,85,23,98,29,20,563
266,181,0,9,212,32,14,60,12,26,15,12,31,29,0,437
333,335,0,11,215,31,53,92,12,37,44,31,67,26,0,501
238,177,0,20,205,20,36,39,18,38,16,27,47,20,0,379
267,268,0,16,181,34,60,42,38,44,34,27,57,21,0,375
374,177,0,0,271,9,43,56,22,11,27,2,33,15,0,604
398,246,0,5,265,18,32,85,18,40,48,33,88,39,0,513
421,396,0,0,322,33,42,92,33,67,71,28,86,32,27,628
312,174,0,0,184,13,49,54,26,21,11,10,51,15,4,416
150,76,0,3,83,3,19,38,8,12,5,10,15,6,0,196
595,349,0,0,399,27,69,139,22,37,12,8,92,30,30,877
479,312,0,0,334,22,55,102,19,35,35,20,69,15,2,751
184,139,0,0,102,11,11,111,5,17,13,9,39,11,9,189
395,282,0,20,308,24,27,82,17,44,36,7,50,40,0,678
499,380,0,0,462,49,33,112,27,52,40,15,95,46,10,862
481,392,0,0,311,35,46,111,23,40,53,20,96,31,14,715
331,146,0,23,188,22,25,55,24,27,10,14,51,17,0,443
11,16,0,2,5,0,4,10,0,5,1,2,1,1,0,10
72,127,0,0,56,4,21,62,6,7,3,0,12,2,4,134
239,171,0,1,136,30,30,85,19,17,7,13,50,12,0,284
314,273,0,4,205,28,45,99,21,40,24,28,63,24,0,424
594,366,0,0,486,36,80,133,28,66,34,19,122,29,13,886
188,71,0,0,117,4,10,21,13,17,12,8,33,9,1,248
54,38,0,2,35,3,9,18,7,11,8,5,4,3,0,61
357,315,0,1,230,40,36,99,19,66,43,15,82,44,0,459
239,100,0,14,116,39,22,31,7,19,11,10,32,25,0,273
356,184,0,0,236,16,59,62,12,29,19,13,81,15,0,470
305,230,0,0,210,24,33,69,21,33,25,15,65,21,13,426
144,86,0,5,105,6,18,12,4,16,10,1,28,13,0,232
273,245,0,5,268,20,42,57,4,41,24,20,60,7,0,516
70,48,0,0,58,1,4,11,2,13,4,0,7,1,0,133
177,83,0,0,121,13,13,20,6,24,7,6,27,12,9,244
59,13,0,0,35,1,3,7,5,3,3,2,7,3,1,72
325,236,0,28,254,22,37,108,26,37,31,14,57,22,0,489
273,190,0,16,177,37,24,67,20,23,11,11,48,42,0,373
496,415,0,16,358,70,84,111,12,52,40,15,81,72,0,748
286,150,0,0,173,82,23,22,15,25,12,25,41,39,1,324
317,321,0,0,230,18,101,66,15,19,20,15,42,14,10,548
298,353,0,0,256,22,102,88,12,28,22,11,45,14,3,560
222,206,0,9,169,11,42,68,18,24,32,10,39,15,0,347
236,179,0,0,176,21,26,82,9,21,13,13,48,23,5,330
252,183,0,5,176,19,27,69,10,25,17,13,42,33,0,361
430,386,0,0,384,21,49,161,22,59,45,21,93,28,11,690
404,317,0,0,313,20,26,105,18,48,43,13,84,24,38,615
331,164,0,23,201,19,23,47,17,33,19,11,60,26,0,464
244,171,0,0,180,25,47,39,19,22,11,6,47,7,23,349
308,203,0,4,222,44,14,71,17,30,20,14,28,44,0,455
262,215,0,24,197,21,37,24,21,32,29,10,43,14,0,467
279,294,0,6,252,23,77,78,8,29,37,14,59,13,0,493
293,265,0,6,200,25,71,65,6,31,25,13,42,14,0,472
371,255,0,0,226,27,50,81,9,45,37,18,72,40,3,470
332,271,0,18,205,25,66,114,19,47,14,11,67,11,0,452
177,81,0,0,110,19,15,20,9,16,9,5,37,12,10,216
137,95,0,13,91,11,17,22,3,20,12,6,32,20,0,193
272,79,0,0,191,25,28,29,19,14,18,9,32,22,5,341
49,36,0,0,26,8,9,4,3,7,1,4,7,6,5,57
357,198,0,0,210,18,7,70,8,7,5,13,62,23,97,455
412,230,0,0,354,16,16,85,24,27,18,14,45,15,27,709
398,271,0,0,422,11,18,166,12,32,15,5,16,19,14,783
151,89,0,0,107,30,10,15,3,15,11,20,30,12,2,199
377,252,0,23,237,16,252,66,8,18,7,13,60,11,0,438
244,158,0,10,99,8,40,54,4,25,11,13,44,3,0,309
87,56,0,0,68,6,1,22,3,6,7,6,12,2,16,130
260,216,0,37,166,24,50,57,8,30,20,11,31,7,0,441
260,224,0,0,204,15,37,84,16,24,11,9,48,9,10,425
471,476,0,0,398,31,66,185,27,65,17,33,69,53,21,778
345,308,0,0,306,30,46,76,18,36,23,23,53,37,2,615
74,62,0,17,53,10,7,31,8,5,4,15,11,6,0,109
361,283,0,19,244,17,48,91,28,60,14,23,67,34,0,525
311,341,0,31,215,18,50,135,4,41,32,15,38,16,0,549
264,362,0,0,227,23,46,128,16,41,48,19,59,11,21,441
279,267,0,0,193,13,33,92,19,31,31,17,44,20,2,437
390,310,0,0,264,13,40,90,18,41,35,28,74,24,44,557
387,228,0,0,240,17,31,43,17,40,14,19,102,19,18,535
375,284,0,0,321,20,42,56,16,48,35,27,82,24,19,611
321,241,0,0,347,10,33,35,25,36,22,19,69,24,28,608
260,169,0,0,376,9,28,35,16,27,36,12,43,29,20,550
441,370,0,0,346,13,50,96,30,51,39,34,46,16,53,729
341,351,0,0,286,26,66,65,24,48,52,15,60,18,6,598
337,363,0,14,611,24,56,78,17,58,43,17,59,29,0,944
382,460,0,184,261,19,104,104,23,53,96,27,60,35,0,766
329,368,0,0,287,38,74,64,27,61,63,19,68,27,9,534
452,358,0,0,394,26,36,71,21,59,25,39,82,19,32,794
327,263,0,19,417,29,25,55,14,41,26,28,71,23,0,714
90,32,0,11,60,4,3,17,2,11,5,5,14,6,0,126
87,27,0,0,46,7,2,25,3,6,5,5,7,5,2,93
120,134,0,12,90,5,35,39,6,19,19,4,36,9,0,184
318,334,0,0,320,42,47,124,11,48,32,33,48,55,28,504
175,168,0,0,119,10,19,55,20,22,24,11,28,8,7,258
433,436,0,0,382,21,76,109,28,84,49,23,61,33,11,756
394,433,0,0,394,17,66,92,27,57,53,14,59,22,18,796
48,17,0,3,48,1,3,1,4,4,2,0,2,2,0,97
402,210,0,0,262,31,31,47,20,26,36,13,54,22,23,571
104,89,0,4,57,6,5,58,7,12,5,15,10,4,0,132
565,366,0,11,392,38,77,87,22,49,38,24,138,34,0,827
71,43,0,0,32,4,1,14,16,6,4,2,1,1,16,81
