OBEC,OKRSEK,VOLICI,HLASY,HLASY_53,HLASY_769,HLASY_7,HLASY_166,HLASY_47,HLASY_5,HLASY_137,HLASY_720,HLASY_721,HLASY_768,HLASY_1,HLASY_1114,HLASY_1184,HLASY_714,HLASY_155,HLASY_1182,HLASY_724,HLASY_1127,HLASY_1176,HLASY_156,HLASY_1177,HLASY_1173,HLASY_1178,HLASY_1125
505099,1,162,117,5,1,5,17,8,2,1,11,5,40,15,7,,,,,,,,,,,,
513717,1,267,179,24,,8,7,30,,7,15,8,62,3,8,1,3,1,1,1,,,,,,,
530671,1,48,35,1,,1,2,2,,,6,,19,1,1,,,,,1,1,,,,,,
530735,1,150,110,21,,5,4,9,1,2,6,8,36,2,14,,,,,,1,1,,,,,
530786,1,168,114,7,,7,5,12,2,2,13,6,33,8,11,,4,,1,,,1,2,,,,
530808,1,156,86,8,,4,,7,1,,6,4,45,2,9,,,,,,,,,,,,
546470,1,130,86,9,,3,3,4,2,,15,3,23,3,15,,3,1,,,,1,,1,,,
547531,1,123,71,9,,4,1,2,2,1,11,4,22,2,10,,1,,1,,,,,,1,,
547565,1,146,104,17,,10,2,4,3,,16,2,24,10,15,,,,1,,,,,,,,
547646,2,893,602,79,,37,20,31,4,4,38,39,193,72,66,1,6,,,3,1,2,4,,,1,1
547646,1,986,657,129,1,55,16,46,9,7,55,33,194,47,50,,7,,,1,1,1,1,,1,1,2
547654,1,152,91,7,,8,5,8,,1,10,4,30,5,10,,1,,,1,,,1,,,,
547701,1,59,44,6,,2,,,2,1,6,2,13,6,5,,,,,,,1,,,,,
547727,1,87,63,4,,4,9,2,2,2,8,4,9,8,7,,4,,,,,,,,,,
547743,1,256,146,11,,9,13,10,,1,10,6,56,6,21,,1,,,1,,1,,,,,
547751,1,298,208,28,,15,13,7,2,,17,8,61,23,23,,4,,,,1,2,2,,,1,1
547786,1,437,262,44,1,14,12,23,1,3,25,17,72,9,34,,2,,1,,,1,2,,,,1
548057,1,56,45,3,,2,4,4,,,1,3,21,1,4,,,,,1,,,1,,,,
548065,1,235,139,28,1,5,6,6,2,1,7,7,57,9,7,,,,1,,,2,,,,,
548154,1,237,163,12,,9,5,8,1,,22,7,58,13,15,1,4,1,1,,1,1,1,3,,,
548642,1,274,174,19,,13,7,20,1,1,19,5,54,11,14,,2,1,2,1,,1,,,,,3
548651,1,115,76,15,,5,3,6,,,3,1,22,2,16,,1,,,1,,,1,,,,
548669,1,219,134,11,,9,11,9,2,,11,4,42,15,16,,,,,2,,1,1,,,,
548677,1,70,52,1,,3,3,,,,8,4,21,,8,,1,,,2,,,1,,,,
548685,1,70,50,1,,9,3,3,1,1,4,1,18,7,2,,,,,,,,,,,,
548693,1,141,87,4,,1,4,6,2,,7,9,36,7,10,,1,,,,,,,,,,
548707,1,120,88,12,,6,10,1,,4,5,6,13,19,8,,,1,,,1,2,,,,,
548723,1,109,74,9,,4,3,10,1,,9,4,23,5,1,,1,,,1,1,1,,,,,1
548758,1,40,31,2,,6,,2,,,7,,13,,1,,,,,,,,,,,,
548782,1,82,54,8,,5,3,9,,,5,1,11,1,7,,2,,,,,,1,,1,,
548791,1,74,58,4,,7,2,4,2,,2,4,13,10,10,,,,,,,,,,,,
548804,1,339,178,8,,13,,26,,1,16,1,67,4,36,1,1,,,1,,,1,,2,,
548812,1,49,32,7,,1,8,2,,1,1,4,5,,3,,,,,,,,,,,,
548821,1,157,90,11,,8,3,8,,1,8,3,27,4,11,,1,,,,,,1,,,,4
548839,1,116,93,10,,2,3,7,,,8,7,40,2,7,,3,,1,1,,,2,,,,
548847,1,97,71,7,,6,6,2,1,,6,4,30,,6,,1,,,,,,2,,,,
548855,1,202,118,9,,14,4,8,,5,11,1,44,5,14,1,,,,,,1,1,,,,
548863,1,217,148,7,,7,16,9,3,2,24,9,46,5,17,,,1,,1,,1,,,,,
548871,1,36,27,3,,4,1,3,,2,,3,6,2,3,,,,,,,,,,,,
548880,1,178,130,7,,7,8,16,,,12,4,61,5,4,,2,,,1,,2,1,,,,
548898,1,82,42,3,,4,1,1,,,1,3,23,2,3,,,,,,,,,,,,1
548901,1,98,75,8,,5,6,,2,,12,5,30,1,5,,,,,,,,1,,,,
548910,1,65,45,4,,3,3,2,2,,6,4,20,1,,,,,,,,,,,,,
548928,1,30,21,3,,3,,,,,1,1,4,,4,,5,,,,,,,,,,
548944,1,107,74,4,,6,11,1,1,,2,4,40,,,1,2,,,,,1,,,,,1
548952,1,130,57,3,,9,,10,,1,2,1,25,1,5,,,,,,,,,,,,
548961,1,89,63,3,,6,7,8,,3,3,4,17,4,6,,,,,1,,1,,,,,
548979,1,85,55,6,,2,11,,1,,7,5,15,3,3,,1,,,,,,,1,,,
548995,1,126,87,5,1,3,16,8,1,,5,10,24,3,9,,2,,,,,,,,,,
549029,1,73,49,4,,,11,6,,,2,1,20,2,1,,2,,,,,,,,,,
549037,1,162,115,22,,2,7,3,1,,10,12,34,7,15,,1,,,,,1,,,,,
549070,1,85,56,8,,,5,2,,2,7,3,14,4,8,,1,,,1,,,,1,,,
549088,1,34,23,8,,,1,3,,,2,,6,1,1,,,,,,,,,,,1,
549096,1,258,140,12,,4,7,14,,1,14,8,47,3,23,,,,,,,1,,,1,,5
549100,1,120,82,14,,2,9,,2,,12,7,26,3,4,1,,,,1,,1,,,,,
549118,1,43,35,2,,,4,2,,1,1,2,14,,7,,2,,,,,,,,,,
549151,1,153,120,10,,2,8,6,1,1,13,2,44,6,18,,6,1,,1,,,,,,,1
549169,1,172,124,19,,5,5,13,4,2,24,6,33,2,7,,,,,2,,1,1,,,,
549185,1,55,35,2,,,2,3,1,,8,,13,1,2,,,,1,,,1,,,,,1
549193,1,101,67,11,,1,3,1,1,1,4,18,21,4,2,,,,,,,,,,,,
549207,1,128,76,6,,1,7,6,,,13,5,33,,3,,2,,,,,,,,,,
549223,1,131,73,11,,8,8,3,,1,3,1,22,7,8,,,,,,,,1,,,,
549274,1,67,43,4,,2,1,2,,,6,5,11,1,7,,1,,,,,2,,,1,,
549282,1,206,127,13,,12,11,23,3,1,9,8,28,2,8,,5,,,,,2,1,1,,,
549312,1,132,80,5,,6,4,9,2,1,9,2,30,4,5,,,,,,1,1,1,,,,
549355,1,185,83,5,,10,1,8,,,8,3,27,1,15,,1,,3,,,,,,,,1
553701,1,133,97,12,,5,5,9,1,5,14,4,34,1,5,,1,,,,,,,,,,1
554863,1,314,213,29,,6,12,20,1,1,27,12,59,4,34,1,2,1,,2,,1,,,1,,
569810,69,918,621,61,1,39,22,60,10,4,73,46,178,30,70,,15,1,,1,1,6,1,,,1,1
569810,68,952,660,35,,44,22,93,6,1,65,49,212,24,72,1,21,1,1,2,2,4,,,1,3,1
569810,66,964,568,51,1,37,24,61,13,5,69,37,169,26,60,,8,1,2,,,1,,1,2,,
569810,65,953,625,56,2,36,31,32,7,6,101,47,184,32,60,,10,,,1,2,15,,2,1,,
569810,64,970,617,43,3,53,25,70,15,3,70,42,180,14,73,,14,,,5,1,2,,1,3,,
569810,63,907,579,82,,42,29,27,9,4,75,57,148,39,42,,6,,1,3,1,11,,1,1,1,
569810,16,987,686,72,,53,25,43,8,9,87,56,178,41,81,,17,,,3,,8,,,2,1,2
569810,15,959,602,71,,44,18,40,10,5,65,29,201,35,63,2,7,1,1,2,1,5,,1,1,,
569810,13,705,445,61,,20,21,18,8,2,54,21,131,29,51,1,9,,,1,2,12,,3,1,,
569810,51,886,641,99,1,27,43,15,8,5,107,79,149,41,37,,14,,1,,2,6,2,2,2,1,
569810,50,927,675,65,2,44,34,47,13,6,62,57,207,43,68,1,17,,2,2,,4,,,1,,
569810,49,809,562,54,1,46,27,52,10,5,63,39,157,33,63,,3,,,,1,7,,1,,,
569810,85,823,590,114,1,24,29,25,6,3,62,60,175,25,46,,8,2,1,,1,6,1,,,,1
569810,83,648,450,47,1,19,16,41,11,2,54,35,145,21,35,,6,,3,2,3,5,,,1,1,2
569810,82,706,529,79,1,26,22,33,14,4,63,39,163,30,33,2,10,1,1,1,2,1,1,2,1,,
569810,81,745,559,99,1,23,32,22,9,5,59,59,172,28,32,,6,1,,,1,8,,,1,,1
569810,80,718,453,34,,40,12,46,15,1,33,18,176,29,29,,10,,,1,2,2,,1,3,1,
569810,62,954,719,94,,56,35,59,9,2,73,80,177,48,44,,19,2,5,1,3,10,,,1,1,
569810,61,953,731,119,2,34,38,51,12,,75,85,209,47,33,1,14,,,1,,9,1,,,,
569810,48,854,568,84,2,32,20,22,9,,72,69,161,22,47,,8,,,6,1,10,,2,,1,
569810,11,613,405,47,,33,16,23,5,1,52,34,131,18,31,,7,,,2,,3,,2,,,
569810,10,2659,801,113,2,31,25,48,14,5,121,75,179,57,92,,21,,,1,2,5,2,2,,2,4
569810,47,813,505,57,,38,23,20,5,2,69,46,147,24,51,,7,,,2,3,10,,,,,1
569810,46,823,472,56,2,36,12,28,7,3,56,30,172,17,42,,3,,1,2,1,4,,,,,
569810,79,1033,768,122,,28,25,28,11,1,91,81,214,56,58,,28,,3,1,1,16,,1,2,,1
569810,78,979,731,101,,56,33,24,10,6,87,65,239,38,53,1,11,2,,1,,2,1,,1,,
569810,77,776,573,63,,45,14,23,3,1,48,57,207,38,49,,3,1,1,,4,6,1,2,5,1,1
569810,76,803,533,68,1,25,18,28,16,3,50,41,192,34,35,,8,1,,4,,5,,2,,,2
569810,75,890,604,65,,56,22,43,5,4,94,44,159,44,48,1,7,2,2,1,3,3,,,1,,
569810,9,764,500,79,1,9,28,12,13,,98,63,87,47,32,,16,,,1,,10,,2,2,,
569810,60,650,511,81,1,26,26,23,7,1,76,56,138,26,29,,8,,,1,,3,,7,2,,
569810,58,826,563,49,2,41,28,51,8,5,67,46,171,29,43,,7,1,1,3,1,1,4,1,,2,2
569810,8,745,461,80,,24,19,19,12,2,64,57,87,33,41,,16,1,,,1,3,,,2,,
569810,6,702,461,64,2,26,17,26,13,4,58,46,134,28,25,,9,,1,,,4,,,4,,
569810,5,873,569,95,,31,30,22,16,,74,64,112,45,50,,9,4,1,,2,12,1,,,,1
569810,4,722,479,59,1,39,22,21,11,3,66,51,120,20,39,2,8,,2,2,,11,,,1,1,
569810,74,888,585,58,,35,23,36,12,3,57,33,206,38,64,1,9,,1,2,1,4,,1,,,1
569810,72,982,649,62,,28,32,52,13,7,112,53,171,32,62,,13,,,1,2,4,1,2,1,,1
569810,71,887,547,64,3,26,24,29,10,3,81,37,172,21,49,,11,,2,4,,7,,1,,1,2
569810,70,1003,648,66,1,42,26,50,5,4,90,53,192,31,63,,15,,1,1,3,4,,,,,1
569810,57,835,592,64,1,37,28,59,12,1,50,72,148,33,53,,18,,,2,1,7,,1,4,1,
569810,55,937,603,66,,51,22,65,7,2,70,31,173,37,54,,14,,3,1,,3,,2,1,,1
569810,54,919,659,71,1,49,10,50,12,2,75,49,237,24,60,1,7,,,,1,5,,4,1,,
569810,53,937,667,51,1,38,28,44,11,8,77,48,243,40,56,,6,,2,3,1,6,1,3,,,
569810,3,881,569,65,,38,23,31,9,8,80,58,145,32,46,1,16,1,,2,,11,,2,,1,
569810,2,824,523,79,1,20,23,21,8,2,72,59,112,41,64,2,11,,2,1,1,3,,,,1,
569810,1,832,486,57,1,35,24,20,14,,76,59,110,37,37,,8,,2,1,,2,1,1,,,1
569810,41,989,621,54,2,73,12,69,6,5,71,22,203,35,47,,7,1,,6,3,3,,,1,,1
569810,39,939,633,99,,48,17,29,6,2,66,50,206,38,37,,20,,,3,3,8,,,,,1
569810,38,933,706,120,,30,31,35,11,3,93,77,185,42,46,,15,,1,1,4,8,2,2,,,
569810,37,746,472,50,,23,15,29,9,4,78,18,147,13,64,,9,,3,2,,5,,1,1,,1
569810,36,530,358,39,5,26,18,24,10,1,40,26,119,22,17,,9,,,,,2,,,,,
569810,34,1037,677,121,2,34,22,38,15,,96,43,198,29,56,1,8,1,1,2,2,2,,2,2,,2
569810,33,1035,724,99,3,36,34,36,9,2,93,56,229,47,55,,14,,2,,2,5,2,,,,
569810,32,803,583,86,3,45,21,23,7,2,49,53,186,48,47,,8,,2,1,1,,,,1,,
569810,31,765,570,83,1,26,27,22,7,2,74,47,194,27,39,,8,,1,4,1,5,1,1,,,
569810,30,827,552,96,2,36,18,30,7,3,87,46,148,28,41,,5,,,1,1,2,,,,,1
569810,29,893,648,70,,38,20,53,9,8,80,51,201,29,63,,15,,,2,1,4,1,,1,,2
569810,19,831,525,57,,32,32,34,12,3,79,33,136,37,53,1,4,,1,1,,6,1,2,,,1
569810,18,936,609,64,2,46,25,34,6,1,67,45,199,46,43,1,6,1,4,2,,12,,1,,2,2
569810,28,1035,758,106,2,35,35,42,6,2,101,89,213,42,53,,21,,,1,,7,,,2,,1
569810,27,993,685,70,,44,16,41,14,5,91,49,235,45,53,4,5,1,,2,3,4,,1,1,1,
569810,26,834,601,72,,30,20,47,14,4,75,43,184,29,51,,15,1,4,2,2,6,1,,,1,
569810,23,145,102,10,,5,1,6,2,1,14,10,32,10,6,,3,,,,,,,,1,1,
569810,22,624,442,65,,19,20,26,1,7,47,46,151,14,34,,4,,,1,,2,,,2,1,2
569810,21,951,640,63,,38,31,52,5,4,72,35,200,42,69,1,12,1,2,5,,5,1,,,1,1
569810,45,978,675,88,2,39,33,22,11,2,98,59,192,41,53,1,21,1,,2,,7,,1,1,,1
569810,44,991,637,79,,40,27,34,7,,76,65,200,52,39,,8,,,,1,2,2,2,,,3
569810,43,932,700,75,1,34,19,73,7,5,80,54,219,51,55,,14,,2,3,1,4,2,1,,,
569810,42,965,648,51,2,45,34,84,13,4,72,51,213,22,40,1,6,,1,1,,4,1,,1,2,
569828,1,165,108,7,1,4,7,19,3,,6,9,36,2,12,,,1,,,,1,,,,,
569836,1,227,140,21,,9,5,16,2,,19,4,46,3,6,,2,,1,1,1,2,1,,,1,
569852,1,269,206,38,,8,9,1,3,,16,12,76,10,25,,7,,,,,1,,,,,
569861,1,93,67,9,,2,9,1,,,7,5,19,5,6,,2,,,,,,2,,,,
569879,1,322,227,53,1,15,8,6,2,2,35,13,63,7,14,,2,,1,1,3,,1,,,,
569887,3,57,40,2,,7,2,10,,,6,,8,,2,,,1,,,,,,,1,,1
569887,2,94,55,5,1,1,1,6,,,2,,26,,9,,,,2,,,2,,,,,
569887,1,319,202,13,,27,8,15,3,5,20,8,67,4,20,1,4,,,,,6,,,1,,
569917,3,174,119,16,,8,2,11,,4,10,5,28,4,21,1,3,1,2,,,2,,,,,1
569917,2,124,81,4,,,3,5,,,21,6,24,5,9,,2,,1,,,,,,1,,
569917,1,1603,1026,130,6,42,51,64,20,8,116,72,276,84,116,,20,,2,1,1,9,2,1,5,,
569925,1,893,577,41,6,20,25,52,7,4,68,32,223,30,53,,8,,,2,2,2,1,1,,,
569933,1,129,82,10,,2,11,2,1,1,15,6,21,6,2,2,1,,1,,,,,,1,,
569941,1,175,110,18,,3,8,6,3,1,15,10,23,6,11,,4,,,,,2,,,,,
569968,1,459,279,37,2,17,4,23,1,2,24,17,99,11,29,,6,,,1,,5,1,,,,
569976,1,376,231,20,,14,16,14,1,2,45,13,61,7,27,1,4,1,,,1,2,1,,,1,
569984,3,63,50,4,,,4,2,1,1,6,6,18,1,5,,1,,,,,1,,,,,
569984,2,148,115,21,,5,11,4,2,,12,3,26,11,14,,,,,,1,2,2,,,,1
569984,1,350,253,33,1,18,12,21,,2,38,12,71,13,22,1,4,,,3,,,1,,,,1
569992,1,235,158,13,1,10,4,18,,,7,12,61,4,19,,7,,1,,,,,,,,1
570001,1,616,290,28,,15,21,19,4,3,23,18,110,6,31,,3,,,,1,4,1,2,1,,
570010,1,135,90,16,,2,8,4,1,1,10,1,34,5,1,,5,,,1,,,,,1,,
570028,1,747,489,47,1,34,26,43,3,6,48,18,187,10,48,1,5,,1,4,1,4,1,,,,1
570044,4,57,44,2,,2,,7,,,10,3,8,5,7,,,,,,,,,,,,
570044,3,13,9,1,,,,3,,,2,,2,,1,,,,,,,,,,,,
570044,2,102,64,4,,1,5,5,,1,6,4,24,2,11,,1,,,,,,,,,,
570044,1,406,212,17,,6,7,21,2,4,15,8,89,3,31,,2,,,,,3,2,,1,,1
570052,1,163,120,12,,12,2,4,2,3,9,6,49,1,19,,1,,,,,,,,,,
570087,1,345,207,17,,21,10,5,5,,20,5,70,7,33,,2,,,1,,6,,2,2,1,
570109,7,91,50,12,,1,2,4,1,,4,2,7,2,14,,1,,,,,,,,,,
570109,6,120,71,7,,7,2,10,6,,6,,18,4,6,,,1,,1,,2,,1,,,
570109,5,825,574,46,,45,20,45,9,2,71,24,168,60,53,,12,,4,1,,11,,1,1,,1
570109,4,694,459,42,,31,15,39,3,1,55,23,137,44,45,1,4,,,2,,13,2,,,,2
570109,3,676,434,38,1,34,12,35,2,5,55,14,127,35,42,,12,,,5,,13,2,,,2,
570109,2,995,657,70,2,46,15,32,13,5,76,41,178,71,72,1,14,,,1,1,16,2,,1,,
570109,1,994,481,48,2,33,11,49,7,6,59,33,129,21,58,1,11,1,1,2,2,7,,,,,
570125,1,188,118,14,1,16,6,2,1,,12,2,34,7,19,,2,,,,,,1,1,,,
570133,1,363,238,13,,21,8,16,3,2,20,16,87,16,26,,3,1,1,,,2,2,,,,1
570150,1,173,117,11,,8,3,24,1,,19,2,24,6,16,,2,,,,,,1,,,,
570168,2,43,37,3,,1,,5,,,5,2,14,3,2,,,,,2,,,,,,,
570168,1,285,200,12,,15,11,31,2,,16,8,82,5,14,,2,,,,,2,,,,,
570176,1,290,181,8,,8,11,16,,,20,3,70,9,22,,1,1,1,1,,9,1,,,,
570184,1,298,162,14,1,3,3,8,1,,24,7,70,8,16,,1,,,1,,3,2,,,,
570192,2,97,58,7,,2,6,7,1,,3,,23,3,3,,3,,,,,,,,,,
570192,1,216,118,7,,1,2,15,2,3,6,7,52,,17,,,1,,2,,2,,,,,1
570206,1,459,289,38,,18,15,18,3,3,28,12,82,14,45,,7,,,,,2,1,,2,1,
570214,1,276,199,23,,17,25,11,3,4,16,6,68,5,16,,1,1,1,,,2,,,,,
570222,1,165,112,10,1,6,3,7,,5,7,2,44,5,19,,3,,,,,,,,,,
570231,1,743,519,69,,31,26,32,6,12,59,33,164,21,41,1,5,1,1,5,1,6,1,,1,,3
570249,2,69,62,7,,3,5,6,,,3,1,22,3,10,,,,,1,,,,,,,1
570249,1,653,451,58,1,19,10,29,4,5,43,19,158,16,72,1,6,,,2,1,3,1,,1,,2
570257,1,125,97,26,,6,3,3,,,6,4,19,12,11,,2,,,1,1,1,1,,1,,
570265,1,425,319,31,,10,20,10,1,1,42,28,103,18,30,3,12,,,,,7,1,,2,,
570273,1,240,172,16,,11,4,13,2,1,20,6,52,18,22,,3,,,1,,2,,,1,,
570290,1,140,81,1,,14,2,10,,1,3,1,29,10,7,,3,,,,,,,,,,
570303,1,317,194,19,,9,12,16,1,1,23,7,76,5,17,,5,,,2,,1,,,,,
570311,1,462,338,60,,12,20,23,5,2,34,27,92,22,24,1,11,1,,1,2,,,,,,1
570320,1,550,331,18,,30,7,27,3,4,28,9,119,24,48,,3,1,1,1,,3,2,2,,1,
570354,1,120,67,5,,7,1,12,1,,10,1,20,3,2,,1,2,,2,,,,,,,
570362,1,414,249,30,,15,7,9,3,3,18,9,110,7,26,,5,,,,1,4,2,,,,
570397,3,281,181,19,,12,14,20,2,2,12,3,62,8,17,2,3,,,2,,1,1,,,1,
570397,2,128,97,7,,6,5,16,1,,9,,35,3,12,,,1,,,,2,,,,,
570397,1,86,67,8,,13,4,9,,,3,1,18,,11,,,,,,,,,,,,
570401,1,187,118,14,,3,4,15,1,,16,,41,6,13,,2,,,,,2,1,,,,
570419,1,289,194,16,,17,12,16,1,2,23,6,67,5,20,,8,,1,,,,,,,,
570427,1,151,108,4,,4,12,10,,4,8,2,51,1,11,,1,,,,,,,,,,
570435,1,339,239,23,1,7,14,21,4,4,14,23,74,15,31,1,,,,1,1,3,,1,,,1
570443,1,289,187,15,,19,7,7,2,4,15,10,74,7,16,1,4,,1,3,,,1,,,,1
570451,6,97,74,2,,4,12,12,1,3,9,,16,1,10,,1,,,,,3,,,,,
570451,5,228,125,12,,11,6,16,3,1,19,6,31,,11,,4,,1,,,4,,,,,
570451,4,284,151,18,,11,24,4,1,2,20,1,55,3,8,,3,,,,,,,,,,1
570451,3,64,44,1,,5,3,5,,,1,1,19,4,5,,,,,,,,,,,,
570451,2,1020,628,50,3,34,58,29,7,2,53,22,252,33,70,2,4,,,,2,5,1,,1,,
570451,1,144,90,4,,17,5,8,1,,16,2,24,3,8,,,,,,,2,,,,,
570478,3,133,87,7,,7,3,2,,,8,2,44,2,10,,,,,1,,,1,,,,
570478,2,82,43,6,,5,2,4,,,3,,18,,,,2,,,,,3,,,,,
570478,1,569,322,18,,19,6,27,4,4,21,8,152,10,39,,3,1,,3,,6,,1,,,
570494,1,336,225,20,,11,10,33,1,3,20,9,83,5,16,,4,,,,,8,1,1,,,
570508,10,67,38,2,,1,1,8,1,,1,1,8,,13,,2,,,,,,,,,,
570508,9,126,79,5,,2,4,8,1,1,5,4,29,1,12,1,,,,1,2,3,,,,,
570508,8,178,99,10,,10,6,5,1,3,8,7,31,2,10,,2,,2,,,1,,,,,1
570508,7,277,159,14,,7,2,18,2,2,16,2,67,1,21,,3,,,1,,1,1,,1,,
570508,6,422,254,27,,13,4,20,2,3,23,6,89,14,26,,12,,,1,,6,4,,3,1,
570508,5,930,605,73,2,44,24,41,6,3,61,18,197,30,63,2,20,,,2,,16,1,,1,1,
570508,4,1062,606,72,1,42,12,55,7,7,58,6,226,23,64,1,16,1,,,1,7,4,,1,2,
570508,3,767,417,42,,31,8,31,4,8,32,23,149,12,47,1,9,,,4,,13,3,,,,
570508,2,786,474,47,,31,16,33,9,4,36,29,168,23,48,,12,,,1,,10,1,,4,2,
570508,1,1067,431,80,,25,21,22,6,,42,19,106,15,66,1,10,,2,2,,12,2,,,,
570516,1,273,166,15,,8,15,18,1,4,19,6,49,12,11,,,,2,2,,3,1,,,,
570524,1,274,164,21,,11,6,14,1,1,17,3,55,6,17,,6,,,,,4,,1,,,1
570532,1,384,258,11,1,7,4,24,5,6,28,11,107,9,32,,7,,,2,,2,1,,1,,
570541,1,130,73,2,,2,2,5,,1,12,6,30,2,10,,1,,,,,,,,,,
570567,1,221,156,3,2,12,2,23,1,2,6,2,73,2,25,,2,,1,,,,,,,,
570575,1,205,129,3,,12,6,10,2,2,5,7,41,3,30,,1,1,4,,,1,,1,,,
570648,1,499,281,17,5,25,10,21,1,1,25,6,113,17,31,,2,,,,1,5,,,,,1
570656,3,252,150,17,2,5,10,20,4,3,14,4,54,3,11,,1,1,,,,,,,1,,
570656,2,106,74,9,,10,4,14,4,,11,7,11,1,2,,1,,,,,,,,,,
570656,1,493,305,41,,16,5,9,8,1,36,22,104,13,32,,6,,4,,,3,1,,1,,3
570672,1,1418,944,148,5,69,38,57,15,5,91,68,282,35,93,1,17,1,2,1,2,10,1,,1,1,1
570681,1,269,165,7,,12,3,6,4,4,17,1,68,9,19,,3,3,1,1,,5,2,,,,
570702,1,134,94,9,,3,3,11,,1,10,6,30,7,9,,4,,,,,,,,,1,
570711,1,150,103,15,1,5,5,16,,3,6,2,27,3,13,,5,,,,,2,,,,,
570729,1,112,87,1,,3,12,6,4,3,19,5,25,5,4,,,,,,,,,,,,
570745,1,522,357,61,,25,17,26,6,8,30,12,126,7,23,,2,,3,4,1,5,,,1,,
570796,1,323,222,31,,10,4,16,2,,20,11,99,3,21,,2,,,,1,,1,,,,1
570800,1,468,312,40,,13,15,21,5,5,40,7,98,18,44,,3,1,,,,2,,,,,
570834,1,817,459,30,,42,20,46,8,9,36,14,155,16,58,,6,,,1,,13,4,,,,1
570851,1,428,270,22,,19,28,19,2,4,31,11,96,2,25,,3,,1,,,3,,2,2,,
570869,2,101,71,3,,5,2,10,,2,5,1,34,1,6,,2,,,,,,,,,,
570869,1,706,378,34,,32,11,55,1,5,27,7,125,15,53,3,,1,,1,,6,1,1,,,
570869,5,241,126,4,,10,3,19,4,2,10,,53,8,10,2,,,,,,1,,,,,
570869,4,96,46,,,3,1,3,1,3,1,,21,2,9,,,,,,,,2,,,,
570869,3,152,79,7,,3,,18,,,2,1,41,1,3,,,,,,,3,,,,,
570877,3,131,70,6,,1,,4,1,,10,1,33,3,6,,1,,1,3,,,,,,,
570877,2,1051,616,54,2,33,36,46,10,3,72,25,212,17,68,1,11,1,,9,1,6,2,2,,,5
570877,1,1102,606,54,5,30,20,48,6,9,59,25,220,26,74,,7,,2,7,1,5,4,1,,2,1
570885,1,396,269,35,,13,12,17,1,3,37,13,79,16,29,,6,2,1,1,1,1,,,1,1,
570907,1,168,121,10,,4,9,13,1,5,9,8,34,9,16,,,,,,,1,,,,2,
570915,1,115,83,3,,1,5,7,5,3,8,3,33,6,7,,1,,,,1,,,,,,
570931,3,121,84,9,,3,2,9,3,,14,3,23,1,13,2,1,,,,,,,,1,,
570931,2,329,247,29,,14,18,13,4,3,27,21,72,6,30,,7,,,1,,,1,1,,,
570931,1,1060,768,81,,41,37,50,12,3,98,42,290,22,64,,15,1,3,2,2,2,,,3,,
570958,1,248,157,29,2,15,14,7,1,,14,1,51,7,10,,2,,,2,,,1,,,1,
570966,2,94,61,8,,4,,15,,,7,1,16,1,6,,1,1,,,,1,,,,,
570966,1,215,156,20,1,12,9,10,1,1,15,21,36,9,17,,1,,,,1,1,,,1,,
571008,1,333,210,11,1,12,1,10,,5,16,10,102,5,27,,2,1,1,1,,4,1,,,,
571016,1,103,66,5,,6,4,3,,1,7,1,28,4,6,,,,,,,1,,,,,
571024,1,284,212,35,,10,3,23,3,,14,4,83,9,23,,3,,,,,2,,,,,
571041,2,1009,591,72,2,51,24,31,7,7,50,24,199,37,62,,10,1,,1,,7,,2,1,,3
571041,1,859,548,66,,29,29,44,12,7,50,36,178,34,51,,4,1,1,,1,2,1,1,1,,
571041,8,219,135,9,3,5,4,12,4,4,18,6,37,2,19,,6,,2,,,3,,,1,,
571041,7,259,169,25,,13,3,3,1,,18,7,58,8,24,1,4,1,,,,2,,,,,1
571041,6,161,109,11,,7,4,7,,1,12,5,43,4,11,,3,,,1,,,,,,,
571041,5,71,41,8,,1,,2,2,,9,2,11,1,5,,,,,,,,,,,,
571041,4,974,629,118,1,26,18,48,11,6,65,27,187,30,76,,8,,1,2,,1,1,1,,,2
571041,3,1062,702,87,,38,45,18,17,5,91,36,193,53,75,,25,,,1,,10,,4,2,,2
571059,2,45,36,1,,3,3,9,3,,1,,10,,4,,1,,1,,,,,,,,
571059,1,155,90,7,,11,5,6,1,,2,1,29,2,18,,3,,,,,2,,,,1,2
571083,4,79,47,4,,4,,13,,,,,19,3,3,,1,,,,,,,,,,
571083,3,50,33,3,,5,1,4,,1,1,1,12,2,2,,1,,,,,,,,,,
571083,2,68,39,5,,1,4,1,,,2,1,18,2,3,1,1,,,,,,,,,,
571083,1,148,95,12,,7,8,13,,2,4,1,30,4,10,,1,,,,,1,2,,,,
571091,6,179,141,14,,9,6,15,2,1,7,4,56,12,12,,,,,1,,,,,2,,
571091,5,142,116,10,4,2,4,9,2,1,13,6,39,,23,,2,,,1,,,,,,,
571091,4,108,72,20,,5,1,5,,,6,3,23,2,3,,1,,,1,,,1,1,,,
571091,3,169,111,15,,7,6,10,1,1,16,5,33,4,6,,1,,,,,5,,,,1,
571091,2,192,137,25,1,7,3,12,5,,18,4,36,7,15,,,1,,1,,,2,,,,
571091,1,561,401,38,1,29,14,16,5,2,40,19,154,41,26,,9,1,,,,3,2,,,,1
571105,1,328,240,41,,19,20,4,4,1,22,5,72,13,21,1,10,,2,,,4,1,,,,
571113,2,541,423,106,,14,30,10,3,1,55,46,106,20,22,,6,,,,1,3,,,,,
571113,1,619,408,46,4,17,12,19,3,3,61,25,159,16,37,,1,,,1,1,3,,,,,
571130,1,176,105,11,1,8,4,13,,2,8,1,40,2,9,,3,,1,1,,1,,,,,
572047,1,49,30,2,,3,7,1,,,4,,9,1,3,,,,,,,,,,,,
572128,1,119,74,1,2,8,9,11,1,1,8,2,20,1,5,,3,1,,1,,,,,,,
572136,1,158,60,11,,4,3,3,2,,1,,25,2,9,,,,,,,,,,,,
572144,1,102,88,9,,3,1,7,1,2,4,2,46,1,6,,1,,,,1,2,,1,,,1
572187,1,109,53,,3,4,3,11,,,3,1,13,1,11,1,,,1,1,,,,,,,
572659,2,1048,649,65,4,47,49,37,7,4,68,27,217,26,63,1,14,3,1,1,,4,,3,1,1,6
572659,1,1065,671,60,4,56,41,62,9,7,86,18,234,29,55,1,3,,,1,2,1,,2,,,
572659,15,461,316,36,,20,14,35,3,3,36,6,103,11,40,,1,2,1,1,1,2,,,,,1
572659,14,292,163,15,,17,9,18,1,2,12,8,61,8,7,,3,,1,1,,,,,,,
572659,13,368,260,39,,7,17,13,3,3,51,28,59,17,15,,2,1,,,,3,,1,1,,
572659,3,1449,892,100,7,52,56,70,16,8,121,30,273,53,69,,20,,,2,,5,2,3,2,,3
572659,5,765,551,84,1,35,32,34,6,4,90,17,177,13,32,,8,,1,3,,8,1,,1,,4
572659,4,898,503,48,1,29,28,32,8,3,86,28,139,42,41,,6,,,3,2,6,,1,,,
572659,7,962,686,111,1,30,52,39,7,10,104,39,204,31,36,1,2,,,3,1,9,1,2,2,,1
572659,6,797,533,66,,29,25,27,7,2,64,37,182,32,39,1,10,,,2,,6,,,1,,3
572659,12,837,515,69,3,22,27,20,13,6,64,41,165,27,30,,9,2,2,4,,8,3,,,,
572659,11,798,539,48,,48,27,43,7,6,69,16,184,32,34,1,9,1,1,2,3,8,,,,,
572659,10,1069,739,103,,48,37,69,7,1,96,45,221,40,51,,7,,,4,,5,,1,2,,2
572659,9,791,466,51,1,50,20,40,6,6,69,16,153,24,26,,2,,,,,2,,,,,
572659,8,1169,473,49,5,36,18,50,8,4,40,17,172,22,36,2,3,1,,6,,1,,,1,,2
572667,1,170,115,8,,5,8,7,,1,4,2,59,7,12,,,,,,,2,,,,,
572675,1,230,96,4,,10,3,3,,3,7,,42,6,17,,1,,,,,,,,,,
572705,1,188,139,26,,5,18,20,1,1,6,10,28,4,13,,5,,,,,1,1,,,,
572756,1,127,76,6,,2,20,4,1,,5,1,19,8,7,,2,,,1,,,,,,,
572772,1,275,149,12,2,17,4,12,3,1,12,2,58,9,11,1,,,1,,,,1,,,1,2
572781,2,161,101,6,,5,6,10,2,,12,3,34,5,11,,5,,,,,,,,,,2
572781,1,459,254,14,,17,11,24,2,1,21,7,89,9,31,,17,1,,,,4,,5,,,1
572811,1,188,131,4,,18,4,15,1,2,14,,46,6,15,,6,,,,,,,,,,
572829,3,102,69,1,,5,3,7,,1,2,1,41,2,4,,1,,,,,,,,,1,
572829,2,182,117,15,,9,8,17,2,4,5,6,24,5,13,,1,1,,1,,4,,,,,2
572829,1,337,180,14,,12,15,17,2,4,19,10,55,6,19,,3,1,,1,1,1,,,,,
572837,1,467,293,25,2,15,13,15,6,3,40,5,110,10,39,,3,1,,2,1,1,1,,,,1
572900,4,90,80,10,,2,9,1,2,,17,7,25,4,2,,,,,,,,,,,,1
572900,3,61,48,8,,6,4,2,,1,9,9,7,1,,,,,,1,,,,,,,
572900,2,51,38,4,,1,3,4,,3,9,4,6,,2,1,1,,,,,,,,,,
572900,1,273,184,29,1,15,14,9,3,1,27,6,58,12,4,1,,,1,,1,1,,,,,1
572918,1,421,289,27,,22,26,21,2,1,40,13,83,23,22,,3,,,3,,1,,,1,,1
572926,6,1207,782,96,1,54,71,27,9,4,100,36,271,31,58,,11,,,,,10,1,1,1,,
572926,5,1281,696,64,1,40,30,63,18,7,71,43,227,27,71,1,7,,1,2,1,11,9,,1,1,
572926,4,885,566,45,,45,35,54,9,5,67,26,190,26,47,3,5,,,,1,4,1,1,1,,1
572926,3,1198,767,100,2,42,41,39,10,6,77,42,249,29,77,2,13,,2,3,2,23,1,,3,1,3
572926,2,1399,928,87,1,58,41,51,13,7,139,31,340,42,78,1,13,2,,3,4,11,2,4,,,
572926,1,897,606,66,3,28,41,33,15,2,70,36,195,37,56,1,5,,,2,,14,,1,,1,
572969,1,527,283,13,1,18,21,36,2,3,21,8,112,12,28,,1,,4,,,2,,,1,,
572993,1,312,197,13,,14,16,11,1,4,13,4,80,5,21,,6,,,,1,3,1,,1,,3
573001,1,492,240,25,1,21,6,29,1,3,32,8,71,9,29,,,,,2,1,2,,,,,
573043,1,220,138,14,,11,9,10,2,1,17,3,41,8,15,1,1,,,1,,3,,,1,,
573051,1,295,189,16,,13,19,18,2,1,18,15,66,7,10,,,1,,,,,,,,1,2
573060,5,122,69,5,,9,2,2,,1,10,2,24,3,8,,1,,,,,,,,,,2
573060,4,68,52,6,,12,2,2,,,1,3,17,6,3,,,,,,,,,,,,
573060,3,61,27,3,,10,,2,,,2,2,5,,2,,,1,,,,,,,,,
573060,2,701,329,16,3,43,10,26,3,2,23,8,137,13,37,,1,,,3,2,1,,,,,1
573060,1,774,358,19,,42,10,28,5,2,25,9,142,17,38,,4,,9,2,1,4,,,,,1
573086,1,172,107,10,,9,4,6,2,2,16,1,41,3,10,,,,,,,1,,,,,2
573094,7,262,182,21,,13,14,7,1,4,24,9,60,10,6,,6,2,,,,4,,,,,1
573094,6,142,81,7,,12,8,3,,1,3,,35,,11,,,,,,1,,,,,,
573094,5,87,59,3,1,,8,6,1,,8,3,17,1,11,,,,,,,,,,,,
573094,4,505,317,24,,17,26,25,7,4,33,19,100,9,45,,4,2,,,,1,,1,,,
573094,3,113,80,22,,2,14,2,2,,12,2,13,5,4,,2,,,,,,,,,,
573094,2,899,533,74,1,40,38,20,3,4,59,24,180,31,32,,13,1,,,1,2,5,,,,5
573094,1,1067,708,81,2,52,71,48,8,7,69,34,220,47,45,,12,1,2,2,3,1,,1,,2,
573108,2,716,382,44,1,17,24,34,2,1,18,27,164,8,36,,5,,,,1,,,,,,
573108,1,681,351,36,,15,17,35,2,5,32,13,153,4,34,,1,,,1,,1,,,,,2
573116,1,415,283,36,1,11,27,26,,6,29,15,98,3,23,,4,,,1,1,,1,,,,1
573124,3,81,53,5,,3,7,5,,,7,1,15,6,2,1,,,,,,,,,1,,
573124,2,111,80,10,,2,8,4,1,1,8,4,36,1,2,,,,,,,,,3,,,
573124,1,468,276,24,1,16,34,22,3,4,40,7,88,6,22,,5,,,,,1,1,1,,,1
573132,1,335,185,11,,17,6,20,1,2,15,8,76,2,22,2,1,,,,,2,,,,,
573141,1,230,153,21,,14,12,14,1,2,16,4,41,8,15,,,,1,,,3,1,,,,
573159,1,489,323,40,,30,25,28,3,4,35,8,111,9,21,,4,1,,,,2,,,1,,1
573167,1,396,238,8,1,22,9,20,7,6,25,7,79,9,30,,8,,,2,1,1,1,,,,2
573175,1,733,490,40,1,27,115,27,6,2,50,18,142,19,28,,6,,,1,2,4,,,2,,
573183,1,130,77,1,,2,3,10,2,,14,3,26,2,9,2,,,,1,,,,,,,2
573191,1,270,204,16,,15,20,12,,3,19,8,83,10,12,,2,,,,,1,,,2,,1
573205,2,89,58,6,,7,,3,,1,6,,29,,5,,1,,,,,,,,,,
573205,1,343,216,10,,13,9,23,8,15,12,8,65,14,31,,,,1,2,,4,,1,,,
573213,1,474,285,25,1,27,31,27,5,,15,8,103,13,11,,7,1,,2,,3,1,,1,3,1
573221,1,255,191,13,,17,45,9,,1,17,4,69,7,6,,2,,,1,,,,,,,
573230,1,258,141,3,4,18,4,12,,1,9,1,62,5,19,,,,,,,1,2,,,,
573248,14,295,188,23,,5,47,16,,,14,2,50,9,18,,2,,1,,,1,,,,,
573248,13,97,75,4,,3,10,9,,,13,5,23,,8,,,,,,,,,,,,
573248,12,113,69,2,,7,11,5,1,1,13,4,17,2,6,,,,,,,,,,,,
573248,11,259,188,17,,10,40,22,2,1,31,4,32,3,21,,3,1,,,,,1,,,,
573248,10,209,162,23,,3,33,7,1,2,22,5,35,6,21,,2,,1,,1,,,,,,
573248,9,622,402,39,,27,83,14,5,4,57,10,107,17,31,1,4,,,,,2,1,,,,
573248,8,471,330,31,1,23,61,31,5,3,38,6,82,13,28,,3,,,1,,2,2,,,,
573248,7,863,542,40,,47,92,41,2,1,62,12,160,14,56,1,8,,1,2,,,1,,1,,1
573248,6,844,526,33,,32,69,51,11,2,56,22,134,14,67,1,15,,3,4,2,4,,4,,1,1
573248,5,901,637,80,2,50,96,31,8,3,67,16,184,29,55,,10,,,2,,1,1,1,,,1
573248,4,661,484,60,,24,63,22,6,7,61,10,136,43,34,,8,,1,,1,5,2,,,,1
573248,3,788,499,53,4,20,84,17,5,3,79,15,151,13,39,,12,,,2,1,1,,,,,
573248,2,598,366,43,,24,59,6,3,1,44,15,103,15,43,1,6,,,,,,1,,,1,1
573248,1,750,378,43,,30,61,22,3,2,38,12,87,19,52,,4,,,1,1,1,,,,1,1
573256,1,167,105,8,1,2,11,9,5,,13,5,31,4,9,,4,,1,,,1,,,,,1
573264,1,174,109,10,1,7,10,5,5,5,13,3,40,2,4,,2,,,,1,,,,,,1
573272,2,149,61,,,,4,11,,1,1,,25,4,8,,4,,,,,3,,,,,
573272,1,949,607,88,,44,43,36,4,5,75,18,216,15,40,,10,,1,5,,2,,,3,1,1
573281,1,81,46,1,,6,4,2,,1,1,,24,1,5,,1,,,,,,,,,,
573299,1,1063,683,75,3,45,100,37,2,4,61,18,223,33,59,,9,3,,,,4,2,3,,1,1
573302,1,73,47,5,,2,5,3,,,6,,10,11,3,,1,,,1,,,,,,,
573311,1,539,348,47,1,25,23,23,2,4,32,21,112,7,37,1,4,,1,,,6,,1,1,,
573329,1,156,86,5,,6,3,10,3,1,8,3,38,1,2,,1,,,1,,2,,,,,2
573337,1,187,124,18,,7,10,8,2,4,14,3,38,9,5,,1,1,,1,,1,,,1,1,
573345,1,211,149,15,,7,10,8,,,15,13,57,12,7,,2,,,,1,1,,,,,1
573353,1,124,88,4,,7,6,6,2,,8,,43,,9,1,2,,,,,,,,,,
573361,1,92,60,11,,1,9,1,,2,13,2,18,,,,1,,,,1,1,,,,,
573370,1,351,230,29,1,12,34,15,1,3,24,4,67,8,21,,3,1,3,,,2,2,,,,
573388,1,94,65,11,1,1,3,1,,,8,3,17,8,9,,2,,,,,,,,,,1
573442,1,220,129,15,2,4,12,13,,5,13,5,32,5,19,,1,,,1,,1,1,,,,
573451,1,207,110,6,,10,6,18,1,1,6,3,33,6,17,,1,,,,1,,,,,1,
573469,2,166,77,3,,14,9,6,1,1,9,1,16,,10,,1,,,2,1,,1,2,,,
573469,1,286,158,10,,13,20,11,2,1,12,3,59,13,5,,,1,1,5,,,1,1,,,
573477,1,238,169,30,,17,4,6,1,1,11,7,64,6,14,,4,,,,,2,1,,,,1
573493,2,961,608,32,,47,33,37,12,14,69,48,210,36,54,,6,,1,,,6,1,,,,2
573493,1,969,580,76,,27,38,44,9,5,68,64,175,20,39,,8,,2,1,,2,,,2,,
573507,2,472,325,49,,11,18,29,4,4,40,5,102,17,35,,6,,1,2,,1,,1,,,
573507,1,726,433,50,,24,39,32,4,4,59,5,140,20,37,1,11,1,1,2,1,,2,,,,
573507,5,153,99,9,1,4,7,6,,5,11,6,19,17,12,,,1,,,1,,,,,,
573507,4,129,82,8,,11,2,4,1,,7,3,29,5,11,,,,1,,,,,,,,
573507,3,179,132,26,,6,4,8,,1,10,,46,12,11,,4,,,,,,,4,,,
573523,1,210,96,2,1,6,2,11,,2,13,1,40,,14,,1,,,,,1,1,1,,,
573531,1,99,73,6,,1,3,9,,,6,,44,1,2,,,,,,,,,,,,1
573540,1,238,108,6,2,8,6,6,4,4,8,3,44,5,10,,,,,1,,1,,,,,
573612,1,239,145,19,,6,9,15,2,2,16,6,53,1,15,,,,,,,,1,,,,
573621,1,170,132,16,,8,9,8,1,1,8,4,49,6,12,,3,,,1,,4,,,,,2
573639,1,269,162,10,,14,10,12,,2,10,8,66,3,20,,2,,,,,,2,,1,,2
573647,1,137,79,6,,8,8,6,2,1,4,2,24,,14,,2,,1,,,,,,,,1
573655,3,74,63,1,,5,3,8,,,7,1,23,3,10,,,,,,,,,,,2,
573655,2,82,60,3,,4,8,2,3,,9,6,12,4,7,,,,,,,2,,,,,
573655,1,185,126,6,,6,20,10,1,,11,6,41,7,12,1,,,,1,1,1,,,,,2
573663,2,60,43,2,,4,1,6,,1,2,2,7,5,12,,,1,,,,,,,,,
573663,1,189,109,13,,8,7,9,2,2,15,1,42,2,5,,,,2,,,,,,,,1
573671,1,118,80,9,,6,15,12,1,,5,3,12,4,9,,2,,,,,,,2,,,
573680,3,63,33,2,,1,3,3,,1,7,,7,,7,,1,,,1,,,,,,,
573680,2,77,60,6,,5,4,8,,3,9,2,13,2,6,,,,,,1,,1,,,,
573680,1,133,88,4,,2,10,7,2,3,13,3,28,3,8,,2,,2,1,,,,,,,
573698,1,222,130,7,,15,8,11,5,2,8,8,49,3,8,1,1,,,,,2,,,,2,
573701,2,493,321,16,,28,13,50,2,5,21,7,135,12,29,,2,,1,,,,,,,,
573701,1,1351,771,51,2,54,17,85,11,13,95,19,317,31,40,5,4,1,2,5,1,3,8,2,2,,3
573710,1,191,120,20,,6,8,5,2,,6,5,39,3,21,,2,1,1,,,1,,,,,
573728,1,153,99,9,,8,7,1,1,,13,9,40,3,4,,,,,1,,,,,1,2,
573736,1,295,179,16,1,6,19,10,3,2,26,6,58,3,15,1,5,,,,,3,5,,,,
573744,1,147,100,10,,12,2,13,2,1,3,1,42,2,8,,1,,,,,1,,,,,2
573752,1,277,201,18,2,9,9,23,1,2,18,6,70,12,19,,,,1,3,1,3,,,,,4
573761,1,186,99,8,1,4,4,13,,,5,6,49,2,5,,,,,,,1,1,,,,
573779,1,172,109,7,,3,2,12,5,,8,9,39,4,12,,4,1,,1,,,,1,1,,
573795,1,177,87,6,,3,3,20,,2,10,2,27,1,11,,,,,,,,1,,,,1
573809,1,694,336,27,13,24,14,46,2,4,19,13,116,11,35,,4,,,,1,2,1,1,,,3
573825,2,98,78,6,,1,10,5,,1,10,2,38,,4,,,,,,,,,1,,,
573825,1,887,571,26,,23,126,42,2,9,62,17,165,34,53,,2,1,,4,,1,,1,,1,2
573833,1,211,120,2,,14,3,17,4,2,13,4,43,2,12,,2,,1,,,,1,,,,
573841,1,101,51,2,,7,6,6,,2,1,,20,1,3,,1,,,,,1,1,,,,
573850,1,210,141,15,,19,9,14,2,,14,1,41,10,12,,,,,,,2,2,,,,
573868,6,804,544,74,,52,18,30,10,2,62,30,167,44,43,,8,,,1,,2,1,,,,
573868,5,720,395,24,,63,9,21,9,2,38,23,123,31,40,,3,,,,,4,,,1,3,1
573868,4,853,447,36,3,33,15,35,13,3,60,17,147,18,56,,5,,2,,,1,1,,1,,1
573868,3,881,550,41,1,86,9,37,9,3,54,16,196,28,49,1,5,1,,,3,1,4,,1,2,3
573868,2,958,660,75,4,68,17,34,8,6,67,32,187,87,50,1,12,,1,3,1,2,2,1,1,,1
573868,1,656,428,35,1,48,16,13,3,3,52,16,130,58,39,,6,,2,,1,3,,,1,,1
573868,19,460,338,37,,21,10,16,2,1,40,19,114,22,50,,3,,1,1,,1,,,,,
573868,18,727,473,34,2,64,18,29,6,4,48,14,153,45,48,,2,,,4,,2,,,,,
573868,17,466,316,38,,49,12,10,2,2,20,8,111,26,26,,7,1,,1,,1,,,1,,1
573868,16,724,452,39,,61,12,25,9,1,49,7,148,42,50,1,3,,,,,1,1,,2,1,
573868,15,655,421,40,2,54,13,38,10,4,51,19,108,25,48,1,1,2,2,1,1,1,,,,,
573868,14,648,372,40,,40,16,30,9,2,38,15,117,14,37,,6,1,,,,2,1,,1,,3
573868,13,711,476,54,,52,7,24,4,2,43,20,170,49,33,1,9,1,,3,,2,,,,,2
573868,12,794,523,44,4,62,11,45,4,,42,25,178,38,46,,12,1,1,1,6,2,1,,,,
573868,11,553,284,36,2,33,4,11,8,,38,14,78,20,31,,5,,,2,,,,,,1,1
573868,25,747,471,46,,73,17,19,13,3,56,18,137,22,50,,6,,,2,3,3,1,,,,2
573868,24,97,70,5,1,11,2,1,,,4,5,14,11,12,,1,,,1,,2,,,,,
573868,10,824,636,73,1,48,20,38,10,3,77,46,178,62,53,1,13,,1,1,1,3,3,2,,,2
573868,9,733,414,63,1,56,11,21,5,5,35,30,105,43,23,,8,,1,1,1,1,2,,1,,1
573868,8,1200,383,40,2,36,9,21,3,2,37,15,133,31,36,,8,,,4,1,1,1,,1,,2
573868,7,871,494,58,1,65,16,22,8,4,41,27,139,49,53,,1,1,,,,6,,1,,,2
573868,23,189,122,10,,21,4,3,4,2,17,4,33,12,11,,,,,,1,,,,,,
573868,22,301,209,29,2,18,8,11,1,1,20,13,57,30,15,,3,,,,,1,,,,,
573868,21,169,120,12,,14,2,9,1,,11,5,35,20,6,,3,,,,,,,,1,,1
573868,20,328,198,24,1,27,3,9,3,2,17,5,65,8,33,,1,,,,,,,,,,
573884,1,446,279,27,,19,19,12,3,4,26,4,71,31,55,1,3,,,1,,2,,,,,1
573892,1,789,530,53,,42,28,30,7,5,38,22,172,64,46,1,7,,,4,,8,2,,,,1
573906,1,179,122,9,,7,4,8,5,3,15,2,47,14,7,,1,,,,,,,,,,
573914,1,276,159,12,,9,17,19,,1,24,1,50,10,14,,1,,,,,1,,,,,
573922,9,810,504,40,,39,28,38,4,4,45,16,195,37,42,,3,1,1,,1,1,4,1,1,2,1
573922,8,818,517,36,,53,13,43,10,2,51,15,204,29,43,,4,1,,7,,4,2,,,,
573922,7,1203,614,31,,55,28,40,15,2,89,22,178,54,81,,6,1,3,2,2,,1,,,2,2
573922,6,482,268,30,,11,12,26,5,4,33,17,72,18,28,,6,,,,,1,2,,,,3
573922,5,621,254,23,,18,6,25,3,6,24,10,77,10,42,,2,,,1,,2,2,1,,,2
573922,4,129,80,10,,2,2,10,,1,4,2,32,3,13,1,,,,,,,,,,,
573922,3,571,258,22,,31,11,31,4,2,27,8,75,10,29,2,3,1,,2,,,,,,,
573922,2,676,274,21,1,27,11,28,1,2,26,9,94,19,24,,2,,2,2,,1,2,,1,,1
573922,1,772,349,16,,29,8,33,,2,26,9,150,23,46,,3,,,1,,1,1,,,1,
573931,1,183,123,13,,6,9,10,,1,14,7,36,18,7,1,,,,,,1,,,,,
573957,1,397,258,9,,21,7,13,6,2,36,12,68,39,27,3,6,,,1,1,4,,,,1,2
573965,12,438,296,29,,14,15,10,6,2,21,17,74,63,26,1,12,,2,,,1,,,1,,2
573965,11,224,147,26,,6,2,5,2,1,13,4,39,23,14,,5,,,1,,3,2,,1,,
573965,10,565,394,36,,17,18,22,6,3,37,20,87,77,40,1,16,,3,1,,3,3,1,1,,2
573965,9,481,309,40,,20,7,22,1,3,16,21,84,56,25,,6,,,2,1,1,1,,,,3
573965,8,669,445,51,1,41,13,31,4,6,34,19,147,44,43,2,2,,,1,,2,2,,,1,1
573965,7,641,438,51,,28,23,22,1,4,38,31,111,65,40,1,17,,,1,,3,,,1,,1
573965,6,655,436,52,,31,15,8,4,3,31,26,125,72,50,,11,2,,,,,1,,1,4,
573965,5,541,386,47,,20,14,15,3,4,34,23,122,54,35,1,9,,,,1,2,1,,,,1
573965,4,928,493,55,2,29,21,21,13,4,59,32,130,66,44,,8,1,,1,,4,1,1,1,,
573965,3,811,529,60,,18,15,33,6,,53,52,143,86,54,,6,,,,,2,,1,,,
573965,2,530,345,36,1,9,10,12,2,1,45,27,99,44,51,,3,1,,1,1,,1,,1,,
573965,1,196,138,19,,5,7,8,,1,10,11,39,25,12,,,1,,,,,,,,,
573973,1,416,301,40,2,37,7,2,4,3,23,7,93,43,31,1,4,,2,1,,1,,,,,
573981,1,233,137,11,1,15,6,15,3,1,11,2,52,3,12,,4,,,,,,,,,,1
573990,6,167,110,10,,7,1,11,2,,10,11,31,10,16,,1,,,,,,,,,,
573990,5,803,358,43,,21,10,27,4,1,30,12,118,27,57,1,2,,,2,,2,1,,,,
573990,2,885,612,84,1,33,15,30,3,2,55,45,188,44,92,1,7,,1,4,,4,,,1,,2
573990,1,834,558,50,,28,22,30,6,2,54,11,233,42,69,,7,,,,,4,,,,,
573990,3,769,409,44,1,30,13,19,7,,47,33,115,35,52,,5,1,,2,,3,,1,,,1
573990,4,700,406,55,,33,11,28,5,6,19,10,153,28,50,,2,,,1,1,3,,1,,,
574015,3,54,29,1,,,2,6,1,,2,1,10,3,1,,2,,,,,,,,,,
574015,2,122,80,3,,6,,6,,,1,,50,2,8,,2,,,1,,1,,,,,
574015,1,347,235,30,,6,11,16,10,3,20,11,91,6,25,,,,,,3,3,,,,,
574023,1,626,442,54,1,42,17,21,3,2,37,30,141,35,51,1,2,1,,,,2,,,1,,1
574031,1,518,298,24,1,24,12,18,2,8,23,8,118,11,43,,3,,,,,1,1,,,1,
574040,2,137,73,17,,,3,4,,,8,2,25,,9,,,,,,,,,5,,,
574040,1,192,120,15,,12,11,6,2,1,10,2,40,6,11,,,,1,,,1,1,,,1,
574058,1,399,203,8,,15,5,19,,2,12,2,100,4,29,2,3,,,1,,1,,,,,
574066,1,392,253,19,,26,8,16,4,,26,5,83,34,26,1,2,,,,,1,,1,,,1
574074,1,459,307,23,4,16,13,11,,4,33,20,102,41,27,,7,1,,2,,,3,,,,
574082,8,73,40,2,1,10,3,2,,3,2,3,11,1,1,,,,,,,,1,,,,
574082,7,228,155,18,,11,8,10,,,16,2,54,15,13,1,1,,2,1,1,1,,,,,1
574082,6,589,412,44,,27,20,17,4,5,34,13,144,46,44,,7,,2,1,,3,,,,1,
574082,5,841,490,74,1,37,30,17,7,7,41,17,145,44,53,,8,,1,,,1,6,,,,1
574082,4,122,79,11,,4,5,8,1,1,7,1,21,13,5,,1,,,,1,,,,,,
574082,3,963,669,103,1,48,33,20,5,2,75,39,206,60,61,,7,,,3,,3,1,,,2,
574082,2,895,526,54,1,54,20,40,3,2,47,10,159,66,52,,6,,,2,1,4,,1,2,,2
574082,1,1319,720,99,,51,32,31,13,6,83,37,216,66,67,2,6,2,2,,,3,,,2,,2
574112,1,591,371,20,1,14,18,37,3,3,42,12,134,17,61,,3,,,1,,2,,,1,2,
574121,6,879,552,73,,26,38,25,9,3,57,27,181,31,65,2,8,2,,1,,1,1,,1,,1
574121,5,402,267,23,,14,16,27,7,1,22,11,113,11,18,,3,,1,,,,,,,,
574121,4,525,386,32,,20,21,35,5,2,38,25,154,23,21,1,3,,,,,4,1,,1,,
574121,3,688,181,25,,3,8,8,6,1,33,11,46,3,27,,3,,,,,3,1,,1,1,1
574121,2,667,414,59,2,13,25,34,6,5,53,29,105,19,56,,3,,,1,1,1,,,1,,1
574121,1,630,406,56,,18,18,31,9,4,40,26,136,18,43,,4,,,,1,,1,,,,1
574121,12,694,347,41,,31,28,28,3,3,33,14,90,14,50,,4,1,,,,3,1,,1,,2
574121,11,590,352,33,,22,17,18,8,3,35,13,142,25,30,,,,,,,5,,,,1,
574121,10,600,366,33,,24,25,42,3,2,35,13,120,21,33,,6,,1,1,,,,1,2,2,2
574121,9,695,378,36,1,24,13,45,6,2,39,31,127,12,26,2,4,1,,1,,5,1,,1,,1
574121,8,667,396,28,,24,27,27,8,1,50,18,119,16,57,2,7,3,3,,,3,,,,1,2
574121,7,449,254,15,2,17,12,23,4,3,16,11,94,13,30,,6,,,1,1,6,,,,,
574121,18,493,259,25,,10,16,21,3,1,26,13,94,15,32,,,,,,,1,2,,,,
574121,17,498,309,38,1,16,16,25,1,2,34,13,99,11,37,,6,,3,1,,4,,,,2,
574121,16,204,140,7,,5,9,8,2,3,15,10,55,10,13,,3,,,,,,,,,,
574121,15,131,81,3,,3,3,8,1,,5,5,31,6,13,,1,,,,,,2,,,,
574121,14,236,160,9,2,11,8,24,1,2,17,7,39,10,21,,2,,,1,,4,,,1,,1
574121,13,846,336,19,,28,10,25,10,5,31,12,104,8,68,,7,,1,,,4,1,,,,3
574139,1,575,344,25,,29,22,21,4,6,31,16,98,34,40,,6,,,1,,6,2,,1,,2
574147,1,136,98,11,,9,5,3,1,1,12,2,19,24,8,,3,,,,,,,,,,
574155,1,381,226,26,,22,17,19,,2,22,6,61,16,30,,4,,,,,,1,,,,
574163,1,151,65,,,7,1,10,,,4,,26,2,14,,,,,,,,,,,1,
574171,1,337,186,12,,9,10,23,1,1,20,7,47,25,20,,3,1,,,1,1,1,,,1,3
574180,1,233,146,21,1,5,5,3,2,3,11,1,59,11,20,1,1,,,,1,,,,,,1
574210,1,888,566,86,1,53,44,17,8,7,41,27,159,46,59,2,4,1,,3,,4,1,,1,1,1
574228,1,423,271,16,,20,15,25,,1,16,7,110,26,28,1,,,,2,,3,1,,,,
574236,1,119,87,11,,3,1,9,,,7,2,27,13,13,,,,,,,1,,,,,
574244,1,200,128,14,,5,12,6,1,,14,4,35,11,19,,1,,,,3,,1,,,,2
574252,5,209,118,7,,5,6,13,1,1,12,2,46,12,10,,2,,,,,1,,,,,
574252,4,440,245,13,,40,14,29,1,1,11,4,101,7,17,,5,,,,1,,,,,1,
574252,3,229,136,4,,26,4,10,1,1,13,1,50,2,22,1,1,,,,,,,,,,
574252,2,456,209,21,,31,7,21,5,2,14,5,72,6,21,,1,,1,,1,,1,,,,
574252,1,328,203,9,,33,4,20,,3,20,5,74,14,19,,1,,,,,,,,,,1
574252,7,85,46,2,,5,,8,,,4,,16,1,8,,,,,,1,,,,,,1
574252,6,255,132,9,1,8,4,8,1,,21,2,54,8,13,,1,,,,,1,1,,,,
574261,1,426,273,18,,11,11,9,2,4,25,12,104,28,41,,5,,,1,,1,,,,,1
574279,11,733,365,70,,23,14,19,3,2,40,35,89,27,31,,4,,1,1,,3,1,1,,,1
574279,10,610,418,57,,28,7,20,8,3,45,29,108,41,54,,6,,,1,1,7,2,1,,,
574279,9,852,594,73,2,23,22,35,10,3,60,36,188,63,55,1,10,,1,2,1,6,,,1,1,1
574279,1,173,136,29,,9,13,2,,1,16,11,28,15,9,,2,,,,,1,,,,,
574279,3,852,616,61,,45,18,27,1,7,66,30,212,73,50,,14,,1,2,1,4,1,,,1,2
574279,2,302,221,30,1,7,11,10,2,4,23,14,55,38,23,,2,,,,,,1,,,,
574279,8,503,394,74,2,18,11,22,9,2,29,34,96,46,33,1,9,,,1,1,6,,,,,
574279,7,893,592,63,,37,25,43,10,4,53,22,178,58,57,1,28,,,4,,2,1,,1,2,3
574279,6,764,505,46,2,33,21,14,6,5,67,22,180,42,43,,14,,,3,,3,,1,,2,1
574279,5,845,529,58,,44,13,33,3,6,54,28,178,40,56,,8,,1,1,1,3,1,1,,,
574279,4,701,481,59,4,27,20,27,5,3,43,31,141,38,51,,20,,,2,1,4,1,1,,2,1
574279,12,574,409,57,,34,28,16,8,1,58,22,104,34,33,2,6,,,,,3,1,1,,1,
574287,1,615,449,40,6,38,36,18,3,4,44,17,116,76,30,,10,1,2,,,1,1,,,3,3
574295,1,274,174,15,,10,6,15,4,1,19,7,52,15,23,,1,1,1,1,,2,1,,,,
574317,1,298,159,17,,14,5,14,5,1,19,2,66,5,9,,,,,,,2,,,,,
574341,1,756,538,92,,47,24,26,5,2,44,24,184,38,45,2,2,,,1,,2,,,,,
574341,7,123,96,8,1,4,3,5,3,,9,6,31,20,5,,,,,,,,,,,1,
574341,6,257,169,35,,5,7,21,1,,20,10,37,16,12,2,,1,,2,,,,,,,
574341,4,471,305,42,,27,9,10,8,3,39,8,84,45,25,1,1,,,1,,,1,,,,1
574341,2,678,334,71,1,25,9,16,2,5,29,14,83,29,45,,3,,,1,,,,1,,,
574350,1,953,648,84,1,28,34,24,13,7,85,15,199,105,44,1,5,,1,,,2,,,,,
574368,1,157,101,11,,2,6,3,,1,6,13,27,13,19,,,,,,,,,,,,
574376,1,531,332,41,,15,15,21,4,2,29,14,115,15,48,1,5,,1,1,1,1,1,,,2,
574384,1,318,196,15,,13,17,14,2,2,23,10,60,9,27,,1,1,,,,2,,,,,
574406,2,60,42,4,,,3,7,,,6,,17,1,2,,,1,,,,,1,,,,
574406,1,444,268,26,,12,16,16,1,2,20,14,88,26,36,1,1,3,,2,,1,1,,,1,1
574422,1,244,183,5,,12,8,9,1,,24,4,51,39,27,,,,,,,2,,,1,,
574431,1,197,148,15,2,16,6,4,,,15,10,52,6,17,,2,,,2,,1,,,,,
574457,1,229,174,4,1,10,7,8,4,1,18,7,48,37,19,,5,,,,1,1,1,,,1,1
574465,1,521,341,31,,26,13,23,4,2,38,11,115,26,42,1,6,,,1,1,,1,,,,
574481,3,369,255,25,,13,11,16,7,1,18,17,83,21,30,,4,,,,2,4,3,,,,
574481,2,264,196,28,,16,7,15,9,,12,10,60,17,15,,6,,,,,,,,,1,
574481,1,233,163,13,,16,7,7,5,3,16,3,68,8,12,,,,1,2,2,,,,,,
574490,1,325,219,31,,18,19,8,4,,25,11,60,21,19,,1,,1,1,,,,,,,
574511,1,240,129,8,,9,3,27,1,,10,,46,3,21,,,,1,,,,,,,,
574538,3,148,104,15,,2,8,9,3,,12,20,16,6,8,,2,,,1,,,,,,2,
574538,2,406,235,21,,9,21,36,1,1,18,10,77,4,30,,2,1,,,,3,,,,1,
574538,1,846,477,49,1,33,46,41,5,4,53,30,128,26,45,1,9,,1,,,3,1,,,1,
574546,3,101,75,9,,4,2,2,,,11,6,23,7,8,,2,1,,,,,,,,,
574546,2,119,96,18,,6,9,8,,1,13,5,23,4,5,,1,,,1,,2,,,,,
574546,1,664,494,84,,38,11,13,4,4,54,28,139,40,65,,5,,2,,2,3,,1,,,1
574554,2,155,102,9,,4,15,5,1,2,6,7,32,6,12,,,,,1,1,1,,,,,
574554,1,545,400,42,4,31,28,24,3,5,44,13,137,21,23,3,8,1,,1,2,2,4,1,2,,1
574562,1,613,371,20,,27,21,25,4,3,26,13,138,54,31,1,5,,,1,,1,,1,,,
574571,1,335,217,24,,38,6,12,1,2,43,4,34,13,26,,5,2,2,,1,3,,,,,1
574589,1,260,172,21,1,13,3,11,2,4,14,4,55,16,20,,2,,,1,,,1,1,,,3
574597,1,155,111,5,,9,9,12,,,14,3,25,11,19,1,1,,,1,,,,1,,,
574601,1,300,194,20,,12,13,18,8,5,8,12,54,10,25,,2,,2,2,1,,,,,1,1
574627,1,107,77,11,,7,1,2,,1,12,10,19,5,9,,,,,,,,,,,,
574635,1,217,135,20,1,10,9,3,1,2,8,9,52,13,5,,,,,,1,1,,,,,
574643,1,380,270,32,,11,9,23,1,1,23,20,85,27,25,1,2,,,2,4,3,1,,,,
574651,1,417,281,41,,26,14,8,4,,40,12,62,35,28,1,6,,,2,,2,,,,,
574660,1,367,245,4,3,13,16,26,3,3,15,6,88,4,55,,1,,2,1,,1,2,1,,,1
574686,1,522,337,59,,14,20,15,3,2,30,19,106,24,31,2,2,,1,1,1,1,3,1,,,2
574694,1,454,296,58,,25,16,12,,2,14,13,85,38,25,,1,,1,,1,,2,1,2,,
574708,1,203,141,28,,7,5,2,6,2,12,21,34,10,8,2,2,,,,,1,,,1,,
576069,8,791,502,75,,21,21,55,7,3,52,25,155,35,31,,13,,,3,1,,1,,1,2,1
576069,7,581,381,46,,34,17,52,14,4,34,10,110,17,27,,11,,,2,,,2,,,1,
576069,6,828,380,48,1,22,12,22,6,,32,11,132,23,60,,3,,,,2,4,,,,2,
576069,5,502,323,28,,24,14,34,3,3,15,12,127,17,33,,7,,1,2,1,,1,,,,1
576069,4,826,481,73,1,35,21,46,6,,57,14,121,44,47,,12,,1,,,1,2,,,,
576069,3,791,504,73,,28,20,27,6,2,56,38,156,37,42,,12,,,2,,1,,,2,1,1
576069,2,627,453,75,1,24,27,46,5,1,48,18,130,30,27,1,9,,1,4,,2,,,,,4
576069,1,536,294,49,1,20,14,16,6,2,24,9,84,14,42,1,6,1,,1,,2,1,,,1,
576069,14,415,268,37,,16,7,14,,4,41,15,78,18,30,,5,,1,,,,1,,,,1
576069,13,248,163,16,,12,5,6,4,3,19,5,52,7,26,,4,1,,,1,,,1,,,1
576069,12,437,279,41,,12,19,18,5,2,33,7,91,9,28,,10,1,,,,1,2,,,,
576069,11,957,545,65,,37,25,39,5,3,56,14,185,25,66,1,14,2,,1,1,2,,,2,,2
576069,10,743,459,52,3,41,33,37,8,7,37,8,140,23,60,,5,,,1,1,2,,1,,,
576069,9,500,299,28,,16,11,33,1,2,30,11,87,28,41,,6,,1,1,,3,,,,,
576077,1,818,525,73,1,28,25,56,6,2,46,42,158,14,54,,9,,,2,,5,1,2,,,1
576085,1,326,226,21,,12,8,14,3,3,15,9,64,23,36,1,5,,,3,1,1,,,2,3,2
576093,1,161,112,11,,4,6,15,2,,3,7,24,31,6,,2,,,,,,,,,1,
576107,2,198,133,15,1,3,4,6,1,3,7,2,50,15,23,,2,,,1,,,,,,,
576107,1,319,221,18,,10,12,13,,4,16,8,83,27,26,,3,,1,,,,,,,,
576115,1,198,140,11,,2,6,11,,,12,8,24,44,12,,6,1,,1,,2,,,,,
576123,1,454,265,17,1,15,10,34,3,9,16,3,97,24,23,,7,,,3,1,,1,,,,1
576131,2,792,421,46,1,36,17,58,1,9,29,25,123,19,43,1,3,2,1,2,1,1,1,1,,,1
576131,1,865,430,48,,36,11,34,3,8,37,17,157,19,49,,5,1,1,2,,1,,,,1,
576140,1,315,175,25,1,14,1,22,5,,14,5,50,15,17,,2,,,,,,,2,,,2
576166,1,206,161,18,,7,6,21,1,2,15,24,41,14,8,,2,,1,,,,1,,,,
576174,1,173,102,17,,2,5,2,3,1,11,7,36,10,6,,1,,,,,,1,,,,
576182,1,1302,793,86,3,46,16,92,13,7,71,52,265,45,76,,7,,1,5,,2,1,,1,1,3
576191,1,809,540,36,2,34,34,83,4,3,40,14,174,16,86,,5,,,,1,4,3,,,,1
576204,1,583,372,35,,23,22,21,4,7,28,10,147,30,33,,3,1,,,2,5,1,,,,
576212,2,102,68,3,1,3,9,6,,,8,,21,5,9,,,1,1,,,,,,,,1
576212,1,1333,781,71,,50,87,54,15,6,68,33,228,58,73,1,13,1,,2,12,3,1,1,1,2,1
576221,1,460,288,24,,22,9,37,8,2,30,12,94,8,33,,9,,,,,,,,,,
576247,1,521,364,79,7,17,18,17,2,3,48,31,74,31,28,,3,,,3,,2,,,,,1
576263,4,76,57,6,1,1,3,7,2,2,2,1,19,6,6,,,,,,,,,,,1,
576263,3,88,64,9,,7,1,,1,,2,4,20,8,9,,2,1,,,,,,,,,
576263,2,98,64,4,,8,5,6,2,,1,1,25,7,2,,,2,,,,,,,1,,
576263,1,426,298,20,,13,6,13,1,4,27,7,114,40,36,,11,,,,1,2,2,,1,,
576271,1,592,313,26,2,14,9,30,3,1,17,17,116,36,29,,5,1,,,,4,1,,,,2
576271,12,314,194,19,,14,15,7,,5,15,15,60,21,15,,4,1,2,1,,,,,,,
576271,11,282,177,20,,9,4,12,,4,14,9,55,12,29,,7,,,,,1,1,,,,
576271,10,267,218,15,1,12,7,6,1,3,28,12,84,32,11,,4,,,1,,,,,,,1
576271,9,80,61,2,,6,6,2,1,,11,3,11,15,4,,,,,,,,,,,,
576271,8,60,37,3,,9,,5,,2,2,1,13,,2,,,,,,,,,,,,
576271,7,768,504,35,,21,9,27,9,10,70,25,176,56,40,1,9,,,3,,5,2,1,,1,4
576271,6,525,345,15,1,23,13,49,,1,32,16,126,29,27,,6,1,,,,4,,,,2,
576271,5,761,526,46,,47,14,49,2,8,61,32,170,37,41,,13,,,,,6,,,,,
576271,4,447,292,32,1,25,12,15,3,,44,20,87,31,17,,1,,,1,1,,1,,,,1
576271,3,585,376,37,,22,15,35,3,3,33,18,114,48,26,,13,,,,,5,2,,1,,1
576271,2,795,556,65,,29,19,37,4,2,49,45,179,65,47,1,5,,,,1,3,1,1,1,,2
576280,1,97,70,10,,7,,2,2,,3,6,29,7,3,,,,,,,,,,,1,
576301,2,787,513,50,3,42,22,32,2,7,39,14,181,30,69,4,11,,1,2,,,2,1,,,1
576301,1,747,445,45,2,28,13,39,4,3,41,13,151,8,77,1,6,,2,2,2,1,2,,,1,4
576310,1,189,130,15,,5,8,15,4,2,18,2,34,17,6,,1,1,,,,1,,,1,,
576328,1,93,72,2,,3,,6,2,1,2,5,11,29,9,,,,,1,,,,,,1,
576336,1,808,562,74,,42,23,31,8,4,71,15,205,27,42,,12,,,1,,,,1,,,6
576352,1,257,190,12,,19,12,9,1,4,26,1,55,12,22,,7,1,3,,1,1,,1,1,1,1
576361,3,702,424,54,,33,10,26,7,9,45,19,120,17,62,1,7,,1,1,2,3,,,3,2,2
576361,2,1003,520,59,1,35,13,31,8,1,58,23,171,20,75,,13,1,1,,,2,,1,,,7
576361,1,965,630,122,,45,22,38,4,6,76,37,189,21,47,,11,1,,5,1,1,,,,1,3
576361,7,343,223,31,,17,7,18,3,5,21,9,69,8,24,1,3,,,2,,,3,,2,,
576361,6,864,573,52,1,41,13,60,3,1,59,19,198,25,87,,5,,2,,,3,,,,,4
576361,5,483,313,44,1,17,6,23,4,2,28,14,114,18,30,,5,,1,1,,2,,,1,1,1
576361,4,617,406,65,,27,19,19,2,1,47,16,121,26,48,,7,,1,1,,5,,1,,,
576387,1,123,80,2,,9,6,1,5,2,13,,19,11,11,,,,,,,,,,1,,
576395,1,195,138,12,,5,10,5,1,,14,6,47,21,14,,1,1,,,,,1,,,,
576409,1,179,126,9,,9,7,9,1,1,18,3,40,8,14,,5,,,,,,1,,1,,
576425,1,1093,673,52,,48,11,35,15,2,44,23,287,46,81,1,8,2,3,2,2,4,2,,,2,3
576433,1,301,183,23,,7,8,16,1,2,10,11,61,18,13,1,5,,,,,3,,2,2,,
576441,1,248,162,8,,13,12,8,1,1,14,4,71,2,18,,6,,,,,2,1,,,,1
576450,2,238,158,8,,12,9,9,2,1,15,3,56,5,34,,2,,,,,,1,,1,,
576450,1,228,131,4,,9,9,7,,6,11,2,53,13,12,,4,,,,,,,,,,1
576450,3,102,51,2,,3,4,6,,2,7,2,10,2,13,,,,,,,,,,,,
576468,1,507,332,31,,21,18,16,7,3,29,17,106,32,39,,6,,1,1,1,1,,1,,,2
576476,1,439,271,23,,24,7,29,2,4,40,15,83,10,28,,3,,,2,,1,,,,,
576492,1,499,327,35,1,20,15,13,4,5,36,13,139,8,23,,10,1,,,,1,,,1,,2
576506,1,214,152,41,1,14,,8,1,2,6,2,43,4,27,,1,,,,,2,,,,,
576522,1,126,77,6,,7,1,6,1,,8,1,35,3,6,,3,,,,,,,,,,
576549,1,154,114,15,,10,6,11,1,,13,2,28,2,17,,,,,2,,5,2,,,,
576557,1,191,130,7,,17,3,10,1,1,16,5,47,14,6,,,,,,,,2,,,,1
576565,1,406,285,25,1,12,15,24,3,3,19,10,108,29,26,,1,,1,1,,2,3,,1,,1
576573,1,373,200,26,1,17,9,19,2,4,26,4,49,12,23,1,3,,,1,,3,,,,,
576581,1,374,240,29,,30,10,31,1,1,18,12,60,19,23,,3,,,1,,,,,,2,
576590,4,240,154,10,,15,2,19,3,2,12,9,40,13,20,,3,1,,2,,1,,,,,2
576590,3,929,603,60,2,43,35,36,8,1,46,44,168,59,73,1,5,,3,1,,6,,,1,1,10
576590,2,642,419,41,,20,19,29,2,4,37,31,153,36,28,,8,2,2,1,,5,,,1,,
576590,1,714,446,42,,34,26,22,8,1,50,22,128,34,53,4,6,,1,3,1,4,,,1,1,5
576603,1,175,99,5,,6,5,16,4,3,24,4,23,4,3,,,,,,1,,,,,,1
576611,1,224,141,11,,8,1,11,2,1,10,,60,20,15,,1,,1,,,,,,,,
576620,1,401,222,15,,13,16,15,2,4,20,7,76,13,36,,1,,,,,,1,2,,,1
576654,2,133,98,1,3,1,2,4,,1,19,6,22,24,12,,3,,,,,,,,,,
576654,1,281,208,17,,11,6,5,4,4,17,5,66,56,13,,1,,,,1,1,,,1,,
576662,1,545,386,43,,30,35,20,3,1,38,16,94,33,57,,7,3,,1,1,,,1,,1,2
576671,1,767,523,55,,32,23,38,12,10,60,26,152,31,67,,7,1,1,2,1,3,1,,1,,
576689,1,516,298,38,,27,10,26,1,5,19,4,76,45,42,1,,,1,,,1,,,,,2
576701,1,1688,877,103,3,81,55,62,14,12,91,36,224,67,103,1,7,,1,4,,3,2,,2,3,3
576727,1,347,240,18,1,8,8,26,5,6,23,7,69,20,42,,,1,,,,,3,1,,,2
576735,1,93,64,18,1,3,3,2,,1,8,,11,6,3,,3,,2,,1,,,,,,2
576743,1,195,121,5,1,2,5,11,2,2,10,17,37,6,18,,3,,,,,1,,1,,,
576751,1,333,239,36,,17,16,9,5,1,22,7,82,15,21,,4,,,,,1,3,,,,
576778,2,151,116,5,,9,5,9,5,2,8,6,39,9,15,,2,,,,,2,,,,,
576778,1,731,470,29,,24,17,36,6,5,38,22,185,42,46,,9,1,1,3,,1,1,,,,4
576786,1,678,425,40,,28,24,37,12,8,38,7,145,27,49,,2,1,1,2,,1,1,,,1,1
576794,1,108,81,10,,7,3,2,,1,4,5,28,13,6,,,,,,1,,,,,,1
576808,2,206,115,19,,8,4,5,1,3,6,7,41,5,11,,4,,,,,,,1,,,
576808,1,1509,935,96,2,52,35,57,8,8,72,20,406,60,93,1,16,1,1,2,,2,2,,,,1
576816,1,308,192,12,1,4,9,17,,3,24,7,62,15,30,,3,,1,,,1,2,,,,1
576824,3,169,113,10,,13,10,3,,2,3,2,36,23,8,,2,,,,,1,,,,,
576824,2,218,159,17,,3,9,14,1,1,14,6,60,20,11,,1,,,1,,1,,,,,
576824,1,212,127,4,,7,10,16,1,1,19,8,27,9,15,,7,,,1,,1,,1,,,
576832,1,209,150,24,,6,4,17,1,,13,3,43,13,22,,1,,1,,,,1,,,,1
576841,1,289,197,30,,6,6,26,3,5,18,3,64,9,22,,2,,,,,,1,,,,2
576859,7,139,90,6,1,7,6,8,,,3,7,26,8,12,1,1,,,2,,2,,,,,
576859,6,128,85,4,1,7,,18,1,2,12,2,11,10,15,,,,,,,,1,,,,1
576859,5,299,191,13,,13,6,28,1,4,21,7,57,11,22,,3,,1,1,,2,,,,1,
576859,4,932,614,47,,57,23,70,7,2,37,22,225,34,68,,8,,,1,,9,,1,1,2,
576859,3,993,610,49,1,28,22,52,7,6,87,29,188,25,70,1,12,1,,11,2,13,,1,,,5
576859,2,959,565,44,4,46,22,84,8,8,56,17,167,21,61,,8,,,5,1,4,3,1,3,1,1
576859,1,1278,654,82,2,45,29,65,3,1,73,55,162,29,67,,12,,2,12,,9,3,3,,,
576859,8,169,116,4,1,5,3,18,1,,13,12,42,1,9,,1,2,,3,,1,,,,,
576875,1,240,169,8,,2,1,8,2,1,17,6,68,36,15,,5,,,,,,,,,,
576883,6,827,421,44,9,21,18,37,6,3,42,17,107,14,75,2,12,,,1,1,8,,,,,4
576883,5,705,406,29,1,33,18,48,2,7,34,13,135,18,56,,3,,,1,,4,1,1,,1,1
576883,4,495,306,40,,14,6,23,5,5,27,4,112,8,51,,5,,,1,,3,1,,,,1
576883,3,627,383,41,,31,9,36,,5,30,11,130,17,61,,3,,,1,,2,2,1,,,3
576883,2,354,252,23,1,26,18,13,3,1,17,5,96,18,26,,5,,,,,,,,,,
576883,1,673,396,51,,20,10,28,9,6,38,13,143,17,48,,6,,,1,2,,1,3,,,
576891,4,35,24,4,,2,1,1,,,3,1,9,,3,,,,,,,,,,,,
576891,3,29,24,1,,1,,,,1,,,8,5,7,,1,,,,,,,,,,
576891,2,118,81,10,,5,3,7,,1,8,4,24,5,10,,2,1,,,,1,,,,,
576891,1,247,162,29,,6,12,9,1,1,18,7,47,19,11,,,,,1,,,,,1,,
576891,6,69,50,5,,5,3,6,,1,4,1,13,2,7,,,,,2,,,1,,,,
576891,5,70,51,3,,4,4,11,1,1,5,2,13,2,4,,,,,1,,,,,,,
576921,1,523,340,32,,22,20,33,6,4,43,9,115,13,27,1,7,,,3,1,1,,,,1,2
576930,1,200,131,9,1,9,3,12,1,,13,10,34,1,27,,8,,,,,1,1,1,,,
576948,1,154,100,14,1,,3,4,6,1,13,1,25,9,12,,3,3,,1,,,4,,,,
576956,1,395,227,21,,19,24,12,4,1,29,10,62,10,17,,1,1,,6,2,1,3,1,3,,
579025,36,62,48,6,,,,,,,8,,23,,8,,3,,,,,,,,,,
579025,35,285,178,23,,22,2,19,2,1,25,7,48,6,15,,4,,3,,,1,,,,,
579025,34,126,70,19,1,5,,1,,,11,1,24,1,6,,,,,,,,,,1,,
579025,33,206,153,31,,4,2,17,3,2,13,8,40,6,22,,4,,,,1,,,,,,
579025,32,523,386,112,2,13,7,32,5,4,45,10,83,12,43,,8,,,1,,2,2,,,4,1
579025,31,342,225,28,,21,8,32,4,,40,7,63,3,14,,,,1,1,,1,2,,,,
579025,30,214,90,8,,12,1,8,2,4,8,1,30,4,9,,1,,,,,1,1,,,,
579025,29,165,92,7,,5,1,8,,1,7,2,44,1,15,1,,,,,,,,,,,
579025,28,221,140,21,,4,1,14,3,,20,10,43,10,11,,,,,2,,,1,,,,
579025,27,670,398,46,,16,15,28,8,3,52,10,138,15,44,2,14,,,3,,2,1,,,1,
579025,26,780,437,73,1,26,15,32,10,3,69,11,117,16,40,1,14,,1,,,3,1,2,,1,1
579025,25,863,538,107,,23,12,42,6,4,67,30,167,18,47,,7,,,1,,3,2,1,,,1
579025,24,785,546,107,,27,17,25,4,2,62,17,196,19,45,,15,,1,2,,5,,,,,2
579025,23,892,552,106,1,32,8,34,11,1,84,24,155,10,69,,6,,,3,1,1,,,,,6
579025,22,771,528,106,,26,12,34,10,1,82,24,155,24,38,1,9,,,,1,3,,,,1,1
579025,21,603,448,87,,19,12,30,7,,61,23,144,11,39,,9,1,,,,2,,,1,1,1
579025,20,510,372,105,,24,12,24,2,1,41,21,88,17,27,,5,,,,1,1,2,,1,,
579025,19,765,485,87,1,24,10,38,7,3,72,6,159,16,42,,10,,,1,2,1,1,,,4,1
579025,18,766,506,89,1,23,12,40,5,3,61,27,166,17,51,,5,,,1,,3,1,,,,1
579025,17,767,521,99,,26,11,42,3,3,59,28,171,18,45,,10,,,2,,,2,,1,1,
579025,16,1812,550,132,,19,17,20,11,3,83,34,120,17,68,,10,1,1,2,,3,1,,1,2,5
579025,15,577,378,86,,21,7,20,7,,51,23,100,17,32,,6,,1,3,1,2,,,,,1
579025,14,958,657,130,2,41,14,25,16,7,90,16,216,31,52,2,7,,,3,1,1,1,,,,2
579025,13,780,488,92,,23,15,37,9,,52,21,169,8,52,,7,,1,,,2,,,,,
579025,12,830,580,87,,39,16,56,7,4,69,15,199,19,57,,6,,1,1,,3,1,,,,
579025,11,682,410,96,1,22,12,21,2,1,43,18,120,9,48,,11,,,3,,,,1,,2,
579025,10,834,482,80,,31,15,33,8,3,66,16,140,24,53,,3,,1,,1,3,,1,2,,2
579025,9,789,496,78,,54,12,46,4,2,52,16,151,12,57,,4,,2,,,2,,1,,1,2
579025,8,582,375,95,,10,14,20,7,3,48,26,94,7,38,,6,,1,,1,2,1,,1,1,
579025,7,1068,655,101,1,38,17,40,11,3,76,22,214,25,77,2,14,2,,1,,4,1,,1,3,2
579025,6,882,477,58,,36,11,48,6,5,54,16,152,13,51,,12,1,1,2,,4,3,,,1,3
579025,5,1258,741,104,1,65,17,36,8,9,101,30,222,16,100,1,19,,1,2,,3,1,1,,1,3
579025,4,825,480,60,2,31,12,31,3,1,50,14,171,21,66,1,8,1,1,1,,1,2,,1,,2
579025,3,1219,715,91,2,50,20,37,11,8,93,33,217,18,103,,18,1,,2,,3,4,,1,,3
579025,2,1132,571,110,1,24,19,52,10,3,65,29,154,17,65,,6,,,3,1,4,1,,2,,5
579025,1,96,60,9,,3,,10,,1,5,,23,2,6,,1,,,,,,,,,,
579041,1,635,414,53,,20,10,27,3,1,44,8,133,46,58,,5,,1,1,1,1,,,1,1,
579050,1,725,439,41,,26,15,54,3,4,37,4,155,16,59,,4,,15,1,,2,1,,,2,
579068,2,157,113,5,,10,7,13,1,,16,5,30,9,13,,1,,,1,,2,,,,,
579068,1,924,561,34,1,31,17,37,11,10,68,13,200,25,81,,14,,1,2,1,6,2,,1,3,3
579076,1,134,98,10,,8,7,12,1,,6,,41,1,10,,,,,1,1,,,,,,
579092,1,305,174,24,,10,15,12,5,,11,4,52,20,10,1,,,5,1,2,2,,,,,
579106,1,316,193,15,,14,12,27,2,3,10,11,59,5,22,,4,2,,1,,1,4,1,,,
579114,2,272,185,26,,9,11,21,4,1,22,10,51,,25,,4,1,,,,,,,,,
579114,1,304,223,27,1,15,21,18,1,4,23,12,74,7,14,1,,,2,,,,2,,,,1
579122,1,803,585,87,2,38,60,37,3,4,61,23,152,20,74,1,16,,,,1,4,,,,,2
579149,1,228,148,18,1,8,31,11,3,2,17,11,28,3,12,,2,1,,,,,,,,,
579157,2,98,72,10,,1,8,1,1,1,5,14,23,1,7,,,,,,,,,,,,
579157,1,446,286,23,,14,34,22,3,2,34,7,97,13,27,,6,,,1,,1,,,,1,1
579165,1,600,326,41,,11,39,22,1,2,31,15,103,11,39,,5,2,1,,,1,,,1,,1
579173,1,292,186,13,,7,8,15,,2,22,6,81,5,25,1,,,,,,,1,,,,
579181,1,308,194,24,,6,13,14,2,,19,7,63,9,30,,2,,,2,1,1,,,,1,
579190,1,561,375,25,,19,36,37,6,4,30,11,142,10,37,3,9,,,1,,,1,1,1,,2
579203,12,1108,727,111,,59,20,32,8,5,81,50,242,26,74,1,9,2,,1,,6,,,,,
579203,11,952,590,76,,36,12,36,6,2,69,14,227,23,70,,11,1,2,2,,3,,,,,
579203,10,1053,696,112,,40,20,28,9,4,87,31,260,29,49,,5,1,1,1,1,10,3,1,,1,3
579203,9,800,483,90,,27,11,25,8,3,50,33,146,18,57,,9,,,1,,4,,1,,,
579203,8,645,415,46,,38,6,29,6,6,39,20,149,11,45,,10,,5,1,,4,,,,,
579203,7,980,513,75,,38,14,31,5,6,56,14,178,26,52,1,9,1,,,,,2,,2,1,2
579203,6,1007,618,92,1,44,18,38,7,4,60,16,239,22,60,,7,,,2,,5,,1,,1,1
579203,5,1179,675,88,,34,25,45,5,3,75,34,254,19,74,1,7,,1,1,,3,3,,,,3
579203,4,864,548,72,1,39,19,36,5,9,68,33,186,24,41,2,8,,,2,,2,1,,,,
579203,17,648,408,36,1,37,11,18,9,4,37,20,175,11,29,,3,,1,2,,9,2,,1,1,1
579203,3,796,444,61,,27,21,27,3,1,43,25,148,22,46,,4,,1,,1,9,2,1,,,2
579203,2,454,273,35,,10,6,13,3,4,40,20,100,9,26,,6,,,,,,,,1,,
579203,1,1102,461,75,,22,19,19,9,,56,20,160,17,47,1,5,,,1,1,5,,1,3,,
579203,16,320,200,21,,15,3,5,4,4,28,12,69,8,26,,2,,,,,,3,,,,
579203,15,231,126,16,1,5,11,6,4,3,12,2,48,2,14,1,1,,,,,,,,,,
579203,14,343,222,21,,19,7,19,4,,33,15,65,8,25,,3,,,,,2,,,,1,
579203,13,435,273,19,,15,14,19,1,3,48,8,91,17,25,,4,2,,2,1,3,,,,,1
579211,2,126,82,5,,6,7,12,3,1,10,4,20,,14,,,,,,,,,,,,
579211,1,660,370,57,,24,2,22,10,4,46,13,125,8,42,1,4,1,1,3,,5,2,,,,
579220,1,784,543,80,1,26,27,33,8,7,42,42,168,34,50,1,11,2,1,,,3,1,,,1,5
579238,1,378,204,28,,13,14,13,1,7,17,6,64,8,29,,2,1,,,,1,,,,,
579254,1,292,193,28,,8,29,8,4,,16,18,45,15,19,,2,,,,,,1,,,,
579262,1,873,577,95,1,26,30,37,10,6,69,49,146,15,71,,2,4,1,2,2,6,2,,,1,2
579271,2,84,60,6,,4,1,5,,,6,,21,4,13,,,,,,,,,,,,
579271,1,179,95,7,,7,6,6,2,1,9,5,34,3,11,,,,,2,,1,1,,,,
579297,3,901,542,34,1,47,31,61,4,1,55,21,206,18,41,,7,,,2,,6,3,1,2,,1
579297,2,1063,521,26,,28,23,48,6,14,49,25,197,40,54,3,3,,1,1,1,,1,1,,,
579297,1,935,621,59,,29,51,43,5,4,66,18,221,24,87,,6,,,1,1,5,,,,1,
579297,4,720,434,34,2,25,39,43,8,5,42,16,160,8,46,,2,,,1,,2,1,,,,
579301,1,175,114,2,,9,7,12,1,1,11,10,37,4,18,1,,,,,,1,,,,,
579319,1,835,446,48,1,31,29,45,3,6,30,11,174,9,48,,2,1,,3,,1,1,,1,,2
579327,1,482,242,18,1,9,15,13,5,,23,17,77,21,32,1,2,,,1,,,7,,,,
579335,2,151,104,18,,4,7,8,,1,12,3,34,2,13,,,,,,,2,,,,,
579335,1,387,207,25,,13,9,26,,3,26,5,59,1,32,,5,,1,,,1,,1,,,
579351,1,745,476,80,,27,17,27,3,6,73,46,117,35,33,,4,,1,2,1,1,,,3,,
579378,1,444,256,25,,14,6,30,2,3,19,8,100,5,36,1,1,,,1,,1,,,,2,2
579386,1,178,115,2,,10,8,10,1,5,8,3,25,7,33,,1,,,,,2,,,,,
579394,1,419,260,17,,9,10,23,8,2,33,16,88,8,33,,2,2,,4,,,3,,,1,1
579408,1,226,146,26,,1,4,19,7,4,23,5,29,1,15,,5,1,2,,,3,,1,,,
579416,1,234,140,13,,4,5,15,1,2,13,8,40,7,21,,3,,1,1,,2,,1,,3,
579424,1,458,281,30,,12,40,19,3,1,28,19,78,2,39,,1,1,1,3,,1,2,,,,1
579432,2,1036,651,63,,26,62,62,7,8,56,22,194,22,93,,18,1,,1,,10,2,2,1,,1
579432,1,360,233,17,,9,27,26,1,1,29,13,57,2,42,2,6,1,,,,,,,,,
579441,1,156,101,8,,10,5,4,1,,14,,39,3,15,,1,,,,,1,,,,,
579475,1,303,218,28,,14,7,13,4,2,22,11,77,11,24,,4,,,,,,1,,,,
579483,1,157,110,8,1,2,4,11,3,3,13,5,41,3,10,,2,,,,1,,2,,,1,
579505,1,193,177,40,,2,15,2,2,,47,30,22,7,9,,1,,,,,,,,,,
579513,1,1401,946,93,29,69,37,64,15,11,97,38,293,59,94,1,13,1,,3,,9,10,1,3,3,3
579530,1,146,93,12,,4,,10,,2,7,2,34,7,14,,,,,,,,,,,1,
579548,1,1839,1066,125,2,72,72,80,7,11,113,46,298,42,156,,20,1,,3,,1,7,1,2,1,6
579556,3,59,32,3,,1,3,4,,,,4,13,,4,,,,,,,,,,,,
579556,2,164,109,5,,6,3,13,,3,15,1,26,9,24,,1,,,1,,1,1,,,,
579556,1,784,484,36,,22,20,59,8,7,58,13,171,31,45,1,7,,,1,1,,,,,3,1
579564,1,564,359,34,1,12,12,18,7,2,34,16,129,14,55,2,10,,1,3,,5,1,3,,,
579581,2,243,170,62,,4,10,4,4,2,23,16,24,,12,,3,1,1,,2,2,,,,,
579581,1,463,360,121,,8,19,9,5,1,72,41,45,14,16,,3,,,,,3,2,,,1,
579599,1,975,571,51,,31,22,51,9,5,54,21,202,16,85,1,8,2,2,2,,6,,1,1,1,
579602,1,456,290,33,,15,20,36,,7,28,11,87,2,46,,,,2,,,3,,,,,
579629,1,779,396,35,,24,13,57,3,7,40,10,135,15,48,,2,1,,,,,3,,,1,2
579637,3,823,586,55,2,41,32,27,5,7,63,27,176,67,60,,13,,,2,,5,1,,,,3
579637,2,777,447,40,2,43,20,34,7,6,41,17,122,33,65,,7,2,2,,,3,1,,,1,1
579637,1,872,555,61,,46,27,36,7,6,44,18,174,51,60,2,11,1,1,2,1,,1,2,4,,
579645,3,297,181,18,1,10,20,16,2,4,25,4,57,,20,,,,,1,,2,,,,,1
579645,2,645,378,32,,20,38,39,4,3,15,21,133,15,46,1,5,1,1,2,,,,,,,2
579645,1,256,159,19,,7,9,21,3,1,10,,71,4,10,,1,,,,1,,,,1,1,
579645,4,518,250,23,,15,30,8,1,4,34,12,85,6,24,,4,1,,,,1,2,,,,
579661,1,453,315,56,,24,5,26,2,1,24,2,122,7,36,,6,,2,,,,2,,,,
579696,1,214,170,57,1,7,5,1,3,,32,18,27,7,5,,5,,,,,1,,,,1,
579726,1,286,203,28,,15,7,16,1,,13,3,63,20,29,1,4,,2,1,,,,,,,
579734,2,716,449,58,,27,4,39,5,10,38,29,155,14,61,,2,1,,,2,,1,,,,3
579734,1,931,568,84,4,44,14,40,3,7,61,30,147,32,67,,16,7,,,,6,2,,,1,3
579742,1,1179,890,206,,35,75,27,18,5,136,91,162,38,67,,12,1,,4,2,6,,,3,2,
579751,1,68,43,3,,7,4,3,,,5,,15,,6,,,,,,,,,,,,
579769,1,348,225,34,,13,7,21,5,4,29,14,53,10,25,,6,1,,,,1,1,,1,,
579777,3,940,368,39,2,25,20,27,4,2,30,20,115,29,48,,,,,1,,6,,,,,
579777,2,572,330,34,,17,4,23,2,5,20,12,132,18,54,1,1,,,1,2,1,2,1,,,
579777,1,763,487,48,1,31,8,65,4,3,32,16,173,24,71,2,3,1,1,1,,2,,,,1,
579777,6,289,154,18,,13,4,15,2,2,6,9,53,13,15,,,,,1,,,,1,,,2
579777,5,1032,590,53,,41,12,57,6,9,48,23,225,27,69,,9,,1,1,1,3,,,,1,4
579777,4,931,579,71,,26,26,31,6,5,54,30,224,41,50,,2,,,4,,4,,1,3,,1
579785,2,263,163,11,,8,7,11,1,1,21,4,61,9,22,,2,,,,,4,,,,,1
579785,1,755,483,54,1,31,16,32,3,5,53,25,153,35,50,2,13,1,,2,,3,1,2,,1,
579793,1,189,121,8,,10,9,5,2,1,8,11,47,3,10,,5,,1,1,,,,,,,
579815,3,218,127,9,,9,2,3,3,1,20,17,44,1,11,,4,2,,,,,,1,,,
579815,2,435,271,23,,9,4,16,3,8,27,37,84,10,38,,5,,,1,1,1,2,,,,2
579815,1,447,213,21,,4,5,17,,4,16,24,63,3,47,,1,1,,,,1,2,,,1,3
579823,1,402,255,41,1,7,10,33,2,2,31,15,79,4,17,2,3,,,,,3,,1,,1,3
579831,1,311,186,16,,7,5,10,1,1,17,7,87,6,20,,2,,1,,,3,1,,2,,
579858,10,1443,982,131,,41,172,34,10,5,107,59,243,44,105,,19,1,,1,,3,1,,1,2,3
579858,8,931,669,68,,39,110,36,5,3,51,27,231,18,65,2,10,,,,,1,2,1,,,
579858,7,683,401,44,,22,56,16,3,,36,15,140,20,28,,8,,1,1,,4,6,1,,,
579858,9,1636,1072,128,3,61,150,59,21,14,143,49,274,21,113,1,14,6,1,,1,6,1,1,1,1,3
579858,6,820,520,60,2,28,81,30,6,4,54,22,148,7,58,,9,1,1,,2,1,5,,1,,
579858,5,660,411,41,1,20,56,19,7,2,26,30,130,15,49,,5,2,,4,2,1,,,,1,
579858,4,751,516,78,2,21,73,27,10,2,51,19,148,17,49,2,5,,,2,,8,1,1,,,
579858,3,1228,507,89,,17,73,19,7,5,55,41,95,16,68,,9,,1,1,,5,3,3,,,
579858,2,1001,702,107,,22,93,36,10,6,88,33,185,23,63,1,29,,1,1,,2,1,,,1,
579858,1,771,495,76,2,19,71,32,4,5,51,24,117,19,59,,9,1,,1,,4,1,,,,
579866,1,164,87,17,,1,2,11,1,2,7,6,25,1,8,,3,,,,,2,1,,,,
579874,2,892,495,64,,43,8,64,4,5,31,12,194,9,48,,7,2,,1,,2,,,,,1
579874,1,1110,573,92,3,28,5,73,7,10,59,22,193,7,62,,,,3,5,1,1,,,,1,1
579874,4,178,107,14,,5,1,13,2,,16,4,30,2,8,,7,,,3,,,,,,2,
579874,3,455,233,36,,16,2,16,2,5,31,2,92,5,20,1,1,,2,1,,1,,,,,
