A7,A9,A997,A998,A999,B1114,B1129,B112,B768,B210,B659,B720,B1451,B997,B998,B999
67,9,0,0,96,7,3,4,8,1,2,0,0,6,3,138
63,22,0,1,46,4,4,0,16,0,4,2,12,4,0,86
145,122,0,0,20,4,43,1,38,10,12,18,7,19,2,133
54,26,0,0,68,7,12,3,13,4,0,2,0,10,7,90
100,70,0,12,131,6,13,5,29,13,10,13,12,25,0,187
34,30,0,8,27,9,5,2,12,10,5,5,7,4,0,40
167,111,0,10,149,18,0,7,32,14,12,23,8,88,0,235
508,505,0,0,565,39,105,43,131,59,75,94,71,91,6,864
164,328,0,66,170,17,13,10,57,52,69,59,70,42,0,339
75,91,0,0,87,5,12,37,21,10,14,11,7,7,0,129
233,282,0,34,165,11,77,8,76,31,46,54,47,41,0,323
116,83,0,12,69,5,5,6,29,5,24,9,33,17,0,147
104,64,0,6,94,10,35,5,19,3,6,12,5,10,0,163
58,38,0,13,47,8,14,3,17,24,7,5,3,7,0,68
101,109,0,15,111,11,32,2,45,7,13,27,19,21,0,159
159,149,0,12,151,2,193,1,25,16,23,7,44,15,0,145
207,154,0,13,194,13,5,15,64,14,53,22,9,29,0,344
96,92,0,23,67,9,3,4,27,25,61,11,7,8,0,123
507,306,0,16,525,34,13,11,125,39,92,36,29,101,0,874
359,277,0,2,428,28,23,7,117,36,83,40,26,74,0,632
56,30,0,2,58,0,2,4,11,2,6,6,2,8,0,105
199,96,0,28,183,9,1,83,30,0,17,7,2,23,0,334
61,36,0,2,61,5,0,23,4,1,3,12,0,4,0,108
82,66,0,24,68,8,1,3,21,5,41,9,2,15,0,135
92,54,0,0,79,9,57,1,19,4,6,11,0,4,3,111
83,50,0,5,70,6,12,0,14,5,10,6,3,6,0,146
145,67,0,21,108,12,15,1,33,6,25,13,0,26,0,210
82,18,0,21,67,12,3,0,14,1,17,3,0,16,0,122
134,86,0,18,168,6,20,2,27,4,20,17,4,18,0,288
162,129,0,7,177,13,9,1,54,11,21,40,9,20,0,297
145,163,0,57,227,19,9,0,52,31,29,46,13,21,0,372
268,216,0,0,305,19,12,4,102,38,28,60,10,35,5,476
46,25,0,0,33,1,4,1,8,2,1,2,0,19,2,64
90,94,0,0,84,4,6,0,34,16,22,19,1,19,5,142
30,20,0,8,44,1,7,1,6,4,1,10,2,12,0,58
126,121,0,0,134,7,11,2,48,9,20,27,4,18,9,226
42,19,0,0,30,4,1,0,26,0,4,11,0,3,1,41
71,35,0,0,84,5,12,0,7,10,16,7,5,12,1,115
50,27,0,6,35,3,7,1,13,3,10,5,0,7,0,69
72,71,0,34,75,9,2,6,18,8,20,18,22,9,0,140
108,50,0,10,82,8,2,2,34,2,42,6,2,13,0,139
104,33,0,9,71,10,1,0,24,1,23,8,2,11,0,137
146,110,0,7,184,13,3,0,18,5,53,17,3,17,0,318
317,149,0,0,291,12,6,2,86,9,55,16,6,39,22,504
300,148,0,5,237,21,1,0,73,6,61,20,9,42,0,457
206,227,0,0,314,17,7,2,40,16,83,19,6,48,11,498
414,183,0,29,432,42,9,0,110,12,111,35,8,65,0,666
235,122,0,0,187,18,3,4,80,16,73,12,13,22,0,303
62,7,0,0,62,5,3,2,11,1,2,1,1,7,2,96
199,149,0,7,680,9,3,3,36,8,65,14,5,29,0,863
198,247,0,0,245,17,6,2,54,23,97,45,7,42,27,370
172,235,0,0,382,24,6,1,29,12,79,59,4,37,25,513
225,199,0,0,1202,16,5,1,35,25,64,36,4,30,17,1393
269,191,0,0,407,21,10,1,60,8,88,30,2,29,11,607
277,129,0,0,321,11,6,1,61,8,62,15,4,33,17,509
172,118,0,0,257,18,5,0,45,8,45,19,5,24,0,378
239,140,0,49,262,15,7,0,54,5,92,38,3,29,0,447
221,179,0,0,258,14,5,3,69,13,75,24,6,45,36,368
257,172,0,0,296,14,2,6,46,10,98,31,9,39,0,470
343,153,0,7,383,13,3,3,82,11,99,31,2,59,0,583
219,145,0,0,234,16,1,1,57,12,76,16,3,28,33,355
236,109,0,0,372,13,4,0,42,10,51,14,3,22,11,547
209,137,0,13,244,21,5,6,32,10,93,30,3,31,0,372
249,178,0,10,340,16,5,2,57,17,88,34,3,43,0,512
388,293,0,0,355,28,6,6,82,18,157,43,8,43,19,626
490,373,0,32,609,46,8,6,79,22,168,72,7,74,0,1022
422,265,0,0,574,34,8,4,101,24,129,43,12,28,112,766
285,275,0,45,257,17,10,3,63,32,181,33,20,56,0,447
278,158,0,0,244,17,0,1,46,17,71,19,6,60,12,431
320,151,0,0,319,23,5,1,59,11,72,18,1,50,22,528
385,149,0,0,378,22,5,3,75,5,73,24,8,88,25,584
78,43,0,3,45,4,0,0,26,2,21,7,1,25,0,83
252,170,0,24,232,12,4,72,61,8,13,37,0,71,0,400
276,205,0,5,332,17,1,97,64,13,30,31,2,67,0,496
245,132,0,8,437,17,2,72,35,7,12,20,6,46,0,605
125,87,0,0,325,11,2,32,7,5,11,14,1,29,29,396
205,121,0,0,389,13,1,52,41,3,10,14,2,47,16,516
327,153,0,0,561,24,2,89,48,4,12,25,2,54,19,762
179,118,0,9,258,13,2,55,35,3,10,17,2,55,0,372
232,179,0,8,333,23,0,89,41,9,17,26,3,37,0,507
74,34,0,1,55,6,0,13,16,7,0,7,1,12,0,102
85,55,0,30,113,13,0,17,15,2,15,12,2,12,0,195
198,84,0,10,177,24,0,50,44,3,8,12,2,21,0,305
355,168,0,37,913,36,1,84,41,3,11,29,12,48,0,1208
252,127,0,0,256,10,3,55,47,3,23,17,3,32,26,416
280,179,0,0,354,17,2,83,40,3,10,32,5,60,3,558
380,161,0,22,392,24,14,0,114,24,33,28,6,70,0,642
270,253,0,37,252,37,17,4,63,18,29,50,58,48,0,488
293,266,0,0,291,22,7,2,67,18,97,57,1,49,25,505
366,230,0,0,356,31,11,3,114,18,97,46,11,61,3,557
329,309,0,0,341,20,11,2,79,25,109,57,1,36,10,629
120,70,0,18,95,8,6,1,40,12,27,13,2,17,0,177
143,120,0,0,149,16,6,4,43,11,51,33,3,17,14,214
466,226,0,3,517,49,4,86,78,20,53,37,2,53,0,830
106,56,0,0,128,5,0,30,15,1,10,7,0,13,10,199
204,90,0,0,299,20,1,31,35,10,7,15,2,33,29,410
240,120,0,22,444,17,0,54,51,1,12,23,2,32,0,634
120,30,0,3,63,14,1,0,42,0,11,3,1,11,0,133
408,279,0,0,536,22,16,1,101,19,23,66,12,67,51,845
231,106,0,33,249,22,7,8,38,10,34,34,2,32,0,432
216,123,0,2,253,14,10,1,52,12,59,18,3,26,0,399
415,197,0,0,540,36,8,2,104,48,38,35,3,33,11,834
181,140,0,0,309,12,5,3,51,28,17,22,3,18,13,458
74,105,0,0,693,4,0,0,23,11,12,20,1,12,25,764
12,14,0,0,7,7,0,0,4,9,0,1,0,2,3,7
174,227,0,0,237,13,9,2,67,29,25,72,3,22,3,393
215,220,0,0,176,16,6,5,91,34,36,67,11,30,7,308
194,174,0,0,195,5,4,1,74,19,12,45,5,38,12,348
253,193,0,0,275,21,4,2,87,17,12,38,3,28,43,466
244,255,0,17,295,14,7,4,81,41,38,80,8,44,0,494
181,226,0,0,214,19,12,4,61,38,22,46,2,36,7,374
226,187,0,0,295,28,14,1,81,14,23,68,5,26,2,446
188,141,0,0,213,10,8,3,60,8,15,30,2,21,26,359
250,196,0,0,246,8,8,3,85,29,18,44,1,36,11,449
190,251,0,8,354,24,5,2,75,25,27,66,5,21,0,553
218,234,0,0,260,18,7,0,66,36,34,62,10,41,4,434
173,246,0,0,246,12,3,3,44,23,31,44,7,30,119,349
133,189,0,1,283,12,1,1,46,25,34,51,6,25,0,405
97,161,0,23,222,14,2,1,43,15,19,45,5,14,0,345
105,11,0,1,128,7,0,1,18,0,3,3,1,9,0,203
90,54,0,0,198,5,71,1,0,12,5,15,1,5,10,217
116,60,0,7,102,11,10,2,28,5,19,9,1,23,0,177
149,70,0,0,198,8,2,0,32,4,19,18,1,73,0,260
556,246,0,2,756,36,7,6,100,5,129,50,5,112,0,1110
502,340,0,0,663,46,14,3,149,24,113,50,10,84,7,1005
128,49,0,6,121,7,43,1,28,4,5,11,2,10,0,193
233,200,0,22,310,21,53,2,58,29,20,57,9,26,0,490
245,280,0,23,183,20,11,18,98,42,51,54,54,39,0,344
96,81,0,14,63,8,10,6,22,8,21,19,19,9,0,132
364,315,0,9,359,32,16,14,123,29,97,55,53,69,0,559
352,275,0,0,360,21,12,17,137,27,62,56,40,55,24,536
363,277,0,0,263,31,9,17,115,18,50,39,54,72,21,477
355,278,0,0,423,19,25,7,113,21,51,51,47,47,7,668
287,277,0,5,284,26,17,9,102,44,63,40,48,52,0,452
304,314,0,0,284,19,22,15,108,27,53,65,39,61,2,491
347,343,0,6,425,27,16,22,130,46,70,61,49,61,0,639
263,267,0,0,292,21,18,15,87,19,62,50,53,38,9,450
284,270,0,23,328,20,10,14,91,31,65,51,50,35,0,538
271,158,0,0,187,18,14,4,93,22,31,20,24,56,21,313
219,220,0,0,202,14,10,5,92,15,26,32,37,38,6,366
252,228,0,0,241,21,10,2,83,17,42,31,34,41,23,417
254,218,0,0,242,19,8,14,81,17,43,39,34,44,17,398
206,175,0,1,245,19,11,6,65,13,53,40,26,24,0,370
146,133,0,0,274,22,7,6,36,9,32,16,28,23,32,342
167,213,0,0,208,9,7,5,65,11,48,42,41,36,11,313
213,309,0,0,232,20,13,15,52,34,82,52,51,28,24,383
129,199,0,3,135,8,9,6,44,20,57,29,24,22,0,247
150,130,0,0,208,12,8,2,53,8,25,28,15,24,13,300
203,232,0,5,357,14,7,5,84,30,48,36,22,40,0,511
262,244,0,0,284,24,11,8,91,31,61,57,28,39,10,430
242,191,0,0,230,16,7,8,60,19,38,45,35,40,26,369
415,296,0,0,381,42,19,11,101,56,54,58,51,57,0,643
339,253,0,0,387,27,12,7,90,25,60,46,47,47,15,603
345,300,0,0,352,40,15,15,106,28,51,39,35,75,13,580
252,261,0,0,309,16,9,9,67,25,52,46,64,38,15,481
84,104,0,0,168,10,2,3,22,12,15,19,9,15,12,237
139,162,0,0,174,10,6,5,42,14,22,42,29,19,3,283
90,110,0,0,124,11,1,5,27,13,9,24,14,15,17,188
186,244,0,0,219,10,6,6,56,21,61,61,27,26,14,361
259,289,0,9,2028,24,9,10,57,40,52,53,24,32,0,2284
153,208,0,0,252,18,2,8,35,28,55,32,25,30,5,375
158,250,0,0,259,9,14,5,38,20,62,41,38,34,13,393
107,99,0,0,136,8,6,2,21,22,20,21,20,9,14,199
196,196,0,0,273,30,5,10,45,22,37,38,20,44,0,414
225,212,0,8,168,24,11,6,77,20,38,32,37,36,0,332
88,171,0,4,102,13,2,6,21,22,54,20,26,18,0,183
181,214,0,0,164,20,6,9,41,25,52,34,62,34,15,261
57,108,0,0,123,2,0,0,8,6,29,13,13,9,35,173
268,171,0,0,290,14,18,8,81,14,43,41,20,38,5,447
225,309,0,0,217,11,14,9,94,32,83,21,60,32,24,371
212,242,0,20,247,13,17,5,76,21,59,37,40,40,0,413
344,293,0,4,325,28,11,4,116,37,67,51,48,61,0,543
279,276,0,19,340,26,23,13,76,28,48,50,41,43,0,566
209,249,0,1,404,14,10,4,60,32,59,42,44,28,0,570
170,166,0,0,346,18,10,6,55,8,34,28,35,37,1,450
172,202,0,3,138,20,7,13,57,26,35,33,39,22,0,263
270,285,0,0,276,26,12,12,92,30,70,51,45,45,3,445
248,295,0,0,368,18,19,5,47,25,20,36,25,19,179,518
278,195,0,12,293,28,5,65,70,51,23,24,9,19,0,484
581,308,0,0,733,37,21,224,120,33,25,38,13,67,47,997
172,97,0,0,209,22,14,25,36,4,8,13,13,25,0,318
530,391,0,37,653,40,27,9,80,21,48,45,306,71,0,964
214,112,0,1,152,8,38,10,87,8,14,22,4,30,0,258
244,142,0,0,294,9,2,17,66,15,21,19,15,32,60,424
101,235,0,0,498,8,7,8,25,14,18,28,24,15,116,571
152,241,0,29,177,21,47,16,45,31,72,45,32,26,0,264
114,78,0,0,147,1,0,12,30,13,4,7,10,12,8,242
230,173,0,3,245,16,81,2,53,12,22,19,41,26,0,379
269,220,0,0,303,17,46,11,49,15,17,27,52,25,23,510
43,43,0,0,34,0,8,7,12,1,12,6,1,15,3,55
197,193,0,0,262,12,8,9,42,16,29,13,11,26,5,481
133,89,0,0,169,9,9,6,34,5,7,14,7,13,2,285
34,19,0,0,50,0,0,0,6,3,5,4,2,4,6,73
80,50,0,21,85,7,3,9,17,4,4,10,2,20,0,160
154,122,0,0,172,15,5,12,50,21,11,14,14,29,13,264
209,107,0,0,288,19,2,6,65,7,8,17,5,32,9,434
201,131,0,8,196,9,9,12,61,16,24,25,11,29,0,340
115,120,0,7,173,14,5,3,28,11,18,24,14,20,0,278
212,147,0,0,302,7,8,13,66,16,27,17,13,18,1,475
195,187,0,0,727,12,13,4,55,27,28,22,11,37,52,848
141,82,0,0,201,7,2,3,52,4,13,9,3,32,15,284
179,145,0,12,228,18,6,9,55,14,25,12,9,36,0,380
455,326,0,0,592,29,142,41,68,33,43,45,26,62,31,853
285,232,0,20,252,15,80,28,59,15,41,37,23,47,0,444
132,133,0,45,103,19,35,7,30,28,17,27,11,19,0,220
331,233,0,0,275,11,107,20,105,18,20,43,17,32,7,459
370,256,0,6,375,44,38,53,73,42,46,47,22,53,0,589
403,293,0,0,424,30,24,49,95,39,31,50,23,42,9,728
260,216,0,0,244,22,23,24,80,23,24,34,17,29,38,406
246,156,0,0,248,22,17,29,53,27,13,29,15,19,12,414
333,157,0,0,286,20,19,17,100,19,7,21,20,42,15,496
288,229,0,0,281,21,38,35,81,43,12,42,9,35,9,473
269,193,0,4,253,29,16,24,76,28,36,28,15,24,0,443
325,229,0,0,387,34,21,32,80,42,28,36,19,43,5,601
330,246,0,13,390,20,14,37,93,50,31,38,26,36,0,634
344,230,0,0,427,33,21,33,86,37,13,49,11,55,34,629
372,318,0,42,325,27,22,36,93,63,49,51,27,70,0,619
302,251,0,4,515,22,30,18,79,64,29,48,17,49,0,716
350,381,0,19,1116,34,51,56,74,86,35,72,25,51,0,1382
152,60,0,0,171,7,1,6,23,41,3,8,3,21,7,263
85,74,0,0,98,7,56,1,3,10,7,8,0,8,10,147
167,71,0,5,222,11,5,11,46,10,3,2,2,14,0,361
60,72,0,9,107,3,45,1,18,6,9,11,9,11,0,135
241,249,0,22,262,23,160,5,51,28,43,22,38,27,0,377
158,137,0,0,209,15,8,8,49,15,18,11,20,32,15,313
150,83,0,12,153,6,36,3,26,9,10,8,7,19,0,274
34,27,0,0,31,1,5,2,5,1,0,1,0,5,6,66
161,112,0,5,181,17,9,20,48,3,35,21,8,22,0,276
159,151,0,0,219,9,29,8,42,29,22,32,17,25,15,301
164,84,0,0,231,13,0,15,28,4,4,15,3,16,52,329
301,148,0,0,341,13,2,4,85,21,9,20,5,49,36,546
289,155,0,0,441,8,8,3,64,23,16,23,4,48,9,679
218,87,0,17,368,13,2,3,50,14,6,15,6,29,0,552
268,219,0,0,309,11,2,35,53,34,14,18,23,38,11,557
310,174,0,0,444,10,1,23,72,21,15,20,15,33,4,714
461,200,0,0,575,31,3,34,99,20,14,37,23,69,21,885
171,101,0,3,180,15,3,37,36,8,10,27,10,29,0,280
116,65,0,14,104,1,34,0,29,6,8,20,0,11,0,190
189,97,0,0,149,30,78,4,38,5,13,10,7,9,12,229
170,34,0,2,188,9,51,3,25,4,0,5,0,10,0,287
71,50,0,0,59,6,33,3,17,0,5,5,2,7,3,99
107,82,0,13,142,10,55,6,26,10,3,13,3,8,0,210
362,197,0,0,471,37,1,71,81,53,11,21,4,36,34,681
353,162,0,0,416,36,10,86,78,30,15,15,6,40,38,577
170,130,0,34,105,12,10,11,56,16,38,23,15,40,0,218
208,164,0,28,568,15,2,10,61,19,58,30,16,43,0,714
327,264,0,0,1058,15,9,15,93,28,64,28,27,51,11,1308
354,251,0,0,308,23,8,13,90,32,60,42,27,56,58,504
440,241,0,2,452,29,10,5,113,23,57,35,29,52,0,782
354,230,0,23,405,20,8,10,112,29,47,26,16,37,0,707
275,145,0,0,297,8,8,1,75,25,30,22,17,36,15,480
350,282,0,0,482,25,12,7,94,41,51,39,31,66,30,718
488,198,0,137,488,36,10,1,103,15,54,21,22,78,0,971
484,355,0,7,593,30,10,8,132,27,100,70,62,100,0,900
390,158,0,9,538,30,5,15,96,14,38,27,27,76,0,767
338,207,0,0,471,22,4,5,85,16,32,23,20,61,21,727
365,182,0,0,467,23,4,6,85,27,37,19,12,49,10,742
300,199,0,18,465,22,8,4,83,17,41,30,21,44,0,712
225,121,0,0,603,22,7,4,46,8,23,28,9,30,28,744
213,180,0,14,438,15,5,11,71,33,39,27,18,50,0,576
298,273,0,0,362,29,10,7,91,46,70,45,28,49,46,512
246,188,0,8,257,31,14,6,63,25,44,28,17,48,0,423
254,181,0,0,230,23,1,10,68,24,56,20,19,51,4,389
292,225,0,0,297,25,7,9,102,39,48,32,20,56,21,455
423,255,0,0,479,32,11,19,120,28,69,43,18,62,4,751
370,215,0,0,489,21,8,11,118,22,49,31,24,52,25,713
120,143,0,0,128,1,5,7,29,7,22,23,18,32,50,197
411,169,0,0,667,36,29,2,122,21,27,32,5,52,2,919
263,155,0,2,303,24,5,6,57,15,44,20,2,50,0,500
69,42,0,4,112,5,17,0,10,4,15,5,5,9,0,157
106,62,0,19,105,15,1,15,28,10,19,5,6,13,0,180
196,147,0,19,156,26,8,7,71,14,29,17,5,57,0,284
182,116,0,0,230,6,2,1,52,8,38,11,2,30,24,354
271,96,0,3,615,22,2,2,74,6,7,16,4,46,0,806
307,150,0,0,415,25,3,4,73,7,15,22,10,60,21,632
303,162,0,14,647,20,7,4,60,19,32,20,5,55,0,904
289,153,0,168,591,26,2,57,101,24,36,46,14,39,0,856
98,60,0,0,89,3,2,0,25,3,14,12,3,24,6,155
308,174,0,0,446,15,1,138,66,12,11,19,2,27,11,626
310,180,0,2,495,19,5,106,64,12,9,29,8,16,0,719
386,201,0,5,470,29,6,146,95,10,15,23,3,26,0,709
288,189,0,0,700,24,3,126,39,10,20,6,4,38,27,880
380,215,0,0,446,15,10,161,82,22,21,9,7,36,45,633
262,140,0,0,486,23,2,109,42,9,6,16,8,22,14,637
493,308,0,0,535,23,5,234,112,18,28,35,5,47,1,828
291,246,0,0,922,19,3,171,58,16,16,27,10,26,51,1062
319,236,0,0,385,19,0,198,77,22,20,22,20,33,21,508
305,213,0,0,394,19,6,152,70,29,10,10,8,38,20,550
95,68,0,8,71,6,0,44,21,3,8,11,1,4,0,144
159,97,0,18,143,9,43,10,42,8,31,5,5,22,0,242
143,69,0,0,156,17,10,2,36,7,11,13,4,14,13,241
314,129,0,8,312,16,9,2,64,22,40,21,18,48,0,523
247,135,0,0,283,19,8,3,115,10,35,27,13,30,40,365
182,83,0,0,204,10,3,5,68,6,19,11,13,37,2,295
140,108,0,0,178,10,0,3,41,9,29,12,8,32,6,276
268,151,0,0,274,28,1,7,67,11,23,26,22,49,19,440
189,124,0,16,277,14,2,11,52,6,25,21,20,42,0,413
241,136,0,0,582,25,1,3,62,10,27,19,8,48,33,723
284,143,0,0,322,20,5,9,82,7,28,17,28,41,16,496
224,150,0,0,413,24,2,9,71,5,21,10,15,40,19,571
289,230,0,0,288,14,4,4,86,10,51,20,23,65,12,518
353,189,0,13,392,29,9,7,105,29,43,24,8,81,0,612
341,148,0,0,243,14,2,8,94,16,35,25,1,42,7,488
333,160,0,2,565,33,4,6,92,14,37,34,3,58,0,779
410,193,0,0,430,35,7,6,118,22,44,25,6,67,22,681
189,66,0,0,224,11,2,7,59,6,36,9,1,16,25,307
413,362,0,66,478,27,10,18,110,46,112,95,25,69,0,807
302,395,0,0,512,34,14,23,75,47,94,83,15,52,23,749
399,249,0,39,391,17,12,15,98,23,74,39,56,60,0,684
47,19,0,0,115,0,4,2,7,2,3,10,4,6,2,141
222,108,0,4,180,22,5,18,63,5,25,18,13,30,0,315
53,47,0,0,95,1,0,13,17,2,1,13,5,10,14,119
242,103,0,14,441,32,1,25,42,4,14,11,7,27,0,637
218,109,0,5,258,19,4,19,47,7,17,10,6,23,0,438
177,71,0,0,176,3,3,8,53,3,6,7,57,22,15,247
283,118,0,11,525,24,2,1,72,4,15,13,67,38,0,701
27,18,0,0,27,2,0,1,6,1,3,1,0,19,10,29
56,23,0,0,145,1,0,2,9,4,2,7,0,26,9,164
312,75,0,0,552,18,3,3,40,4,3,12,1,192,30,633
449,177,0,0,698,20,1,3,57,15,14,29,6,278,57,844
93,13,0,0,153,10,10,0,15,5,2,1,3,10,7,196
282,187,0,0,223,27,11,12,90,31,19,23,17,44,7,411
145,93,0,0,156,13,3,5,44,1,19,15,7,23,12,252
112,69,0,0,93,8,8,5,25,3,9,6,5,38,12,155
323,104,0,25,472,26,7,71,74,5,21,15,3,35,0,667
68,32,0,6,210,4,2,7,9,3,0,5,0,13,0,273
63,21,0,0,73,2,9,0,11,2,2,0,2,3,7,119
55,20,0,11,46,1,33,0,8,5,10,4,2,3,0,66
45,27,0,3,53,9,3,2,9,6,8,3,0,22,0,66
37,15,0,3,35,0,1,0,9,2,1,2,0,10,0,65
81,83,0,0,113,5,4,2,23,15,17,27,6,29,30,119
115,72,0,6,71,10,38,6,26,18,7,17,5,8,0,129
76,49,0,16,68,4,8,5,47,2,18,13,5,10,0,97
