OBEC,OKRSEK,VOLICI,HLASY,HLASY_53,HLASY_1165,HLASY_93,HLASY_7,HLASY_704,HLASY_1126,HLASY_768,HLASY_721,HLASY_166,HLASY_47,HLASY_1141,HLASY_1161,HLASY_1066,HLASY_1138,HLASY_1139,HLASY_1137,HLASY_98,HLASY_747,HLASY_79,HLASY_1017,HLASY_1102,HLASY_736,HLASY_183
505528,1,279,128,14,3,3,11,1,6,34,3,20,14,3,2,10,4,,,,,,,,,
530395,1,173,55,2,1,1,9,,,13,1,4,9,1,4,1,7,1,1,,,,,,,
530417,1,95,40,3,,1,1,,2,13,1,5,1,,,4,5,,,3,1,,,,,
530506,1,175,46,4,1,2,6,1,3,9,4,3,5,2,,1,3,,,,1,1,,,,
530557,1,117,56,3,2,,4,1,,19,1,1,8,1,12,,,,,,4,,,,,
530565,1,74,20,,,,5,1,,4,,3,,2,,,2,,,,3,,,,,
530581,1,237,63,1,1,2,6,,,23,1,1,13,,1,3,,1,,6,1,,3,,,
530590,1,426,169,3,,2,8,,,27,,,18,,12,3,15,,,,,,78,3,,
530603,1,65,22,,,2,2,,,9,,,,,1,1,1,,,1,,,2,2,1,
530620,1,305,159,4,9,2,8,13,4,46,6,21,20,1,4,2,12,,,,7,,,,,
542407,1,289,110,13,1,3,9,,3,32,3,4,21,2,5,5,9,,,,,,,,,
542423,1,250,94,14,3,1,14,,5,24,5,7,11,2,1,2,3,,,,2,,,,,
542440,1,75,27,1,,2,1,1,,1,,9,11,,,,,,1,,,,,,,
542482,1,132,47,5,4,,3,,,10,7,4,4,,1,2,5,1,1,,,,,,,
542491,1,157,53,,1,,7,,1,12,4,7,5,1,2,4,4,1,,1,1,,,1,1,
542521,1,127,57,8,2,3,4,,,12,2,5,11,,2,3,4,,,,1,,,,,
542539,1,182,69,9,2,3,12,2,,14,6,5,6,4,,1,3,,,,,,,2,,
542547,1,240,85,7,1,3,16,1,2,18,9,3,16,1,2,,2,,3,,1,,,,,
542555,1,117,45,1,,,6,1,2,19,1,1,6,1,5,,,1,1,,,,,,,
542571,1,858,301,90,2,5,22,3,4,42,12,10,47,2,10,12,19,3,,2,7,,9,,,
542580,1,328,129,14,2,,10,1,9,38,15,2,11,3,2,6,13,1,,,,1,,,1,
542628,1,1084,375,20,7,12,43,8,18,86,29,11,81,7,12,8,20,2,,1,3,2,1,3,,1
542636,1,96,35,,,,7,,2,12,2,5,6,,,,1,,,,,,,,,
543012,1,166,78,5,1,2,6,1,5,16,,3,21,5,3,4,5,1,,,,,,,,
543128,1,747,202,2,1,8,28,1,3,73,4,4,34,8,4,4,17,3,,,,,5,2,1,
544647,1,237,77,3,,,11,,5,15,2,10,5,3,4,7,4,2,,,2,,,,,4
544680,1,297,136,5,2,,17,,10,39,8,12,25,1,2,5,3,,,,1,,,3,,3
544701,1,187,72,9,,,11,,2,23,3,4,5,,3,4,2,1,,,4,,,,1,
545538,1,170,53,3,,,7,3,2,12,,5,5,,6,,7,,1,,,,,1,,1
545678,1,550,152,4,1,,17,,2,46,5,16,25,,8,3,4,,3,,14,,,1,,3
545708,1,265,70,3,,,3,1,3,11,4,8,21,,2,3,9,1,,,,,,,,1
545783,1,359,100,5,2,4,14,,9,26,1,7,12,3,1,1,6,1,,,4,,1,,,3
545791,1,157,66,,1,2,4,,2,16,1,10,5,2,,16,,,1,,5,1,,,,
545856,1,450,134,3,2,1,16,2,4,36,7,8,31,3,1,6,7,,,,2,,,1,,4
545899,1,333,105,3,1,5,15,,2,29,1,12,20,2,3,2,2,4,,1,2,,,,,1
545929,1,341,109,6,1,4,20,,4,30,1,4,28,,3,3,3,,,,1,,,,,1
546011,2,334,93,5,,4,12,,2,26,4,,21,3,2,1,7,,,,1,,1,4,,
546011,1,372,118,12,1,2,18,,2,29,5,7,28,,3,2,5,1,1,1,,,1,,,
546062,1,111,29,1,1,1,2,,,7,,1,8,,,1,5,,,,,,2,,,
546071,1,327,84,12,,4,9,,,32,2,1,17,,,2,4,,,,,,1,,,
546160,1,171,51,3,,,3,1,1,14,,,21,,1,,1,,,,,,6,,,
546178,1,67,25,,,,5,,1,5,,1,6,,2,1,1,,1,,,,,2,,
546186,1,160,72,4,,2,4,2,,17,1,15,8,3,1,,11,,,,3,,,1,,
546330,1,196,71,2,2,,7,,4,20,3,4,11,2,1,3,7,,,,2,,,1,,2
546348,1,206,90,5,2,2,9,1,3,31,,6,15,,3,5,4,1,,,1,,,,,2
546429,1,104,36,7,,2,2,,2,7,,5,6,1,2,1,,,,,1,,,,,
546437,1,88,24,3,1,1,2,,1,2,1,,11,1,,,1,,,,,,,,,
546453,1,183,67,5,,1,12,,4,19,,,10,,,3,8,3,,,2,,,,,
546496,1,737,225,10,2,4,23,,12,66,8,11,25,8,2,8,20,,2,1,9,,,2,3,9
546518,1,98,38,14,2,1,1,,2,9,2,2,1,1,,,2,,,,,,1,,,
546691,1,132,48,4,1,3,,,,4,,10,21,,4,,,,,,,,1,,,
546721,1,173,59,5,,1,2,,,9,3,6,15,,1,12,4,,,,,,,,1,
546755,1,62,24,1,,,1,1,,10,1,2,,3,,1,2,1,,,,,,1,,
546763,1,79,42,2,1,2,2,4,,17,,2,3,1,3,1,2,,,,,,,1,1,
546771,1,124,48,2,,,3,,2,13,2,4,4,1,2,,14,,,,,,,1,,
546780,1,244,75,4,3,8,2,,2,17,1,4,20,,2,5,3,1,,,1,,,2,,
546810,1,124,33,4,,,5,,1,5,3,2,5,1,1,4,2,,,,,,,,,
546828,1,42,16,1,,,,,2,3,,2,2,,2,,1,,,,2,,,1,,
546852,1,179,48,7,6,,1,1,1,8,2,4,7,1,2,1,4,1,2,,,,,,,
546861,1,1097,430,33,3,10,45,2,17,99,21,9,112,2,8,11,29,4,5,,10,4,,5,,1
546879,1,370,131,8,2,2,36,1,1,32,6,2,26,,4,3,2,2,,,3,,,1,,
546887,1,202,73,3,,3,18,,3,11,2,1,19,,3,4,4,,,,2,,,,,
546895,1,74,30,5,,1,5,,,6,1,,9,,2,,1,,,,,,,,,
546909,1,118,49,1,,,2,,,19,1,2,4,,4,5,2,1,,,6,,,2,,
546925,1,400,129,7,,2,9,3,2,38,,5,31,1,8,9,6,,,,5,,,2,,1
553646,1,216,65,8,2,,8,,,12,3,3,11,,1,1,10,4,1,,,,,1,,
553697,2,1258,267,11,6,,15,3,4,31,9,51,62,2,35,8,12,,3,1,8,,,6,,
553697,1,1108,277,15,6,11,12,7,12,42,14,77,43,2,12,7,5,1,1,,6,,,4,,
555193,1,418,119,12,1,3,17,,1,39,1,2,18,,2,2,7,2,1,1,7,,1,,,2
555223,2,196,68,4,2,3,6,,3,10,3,,23,,,2,8,,,1,3,,,,,
555223,1,456,128,9,7,1,4,,8,44,11,5,22,,3,1,5,2,,1,2,,,3,,
562335,22,779,345,30,1,2,61,,22,101,8,10,33,3,14,8,12,,,,21,1,3,2,,13
562335,21,526,216,8,1,1,20,,20,64,17,11,23,3,,4,12,,,1,13,,3,1,,14
562335,20,262,24,,,,5,,1,6,,1,3,2,1,,3,,,1,1,,,,,
562335,19,538,252,24,2,1,24,3,23,68,19,10,21,1,1,15,10,1,1,,15,,,2,,11
562335,18,2227,255,15,4,3,45,1,12,58,12,3,24,9,8,13,15,1,,1,8,3,1,6,,13
562335,17,845,211,7,,3,32,1,14,46,10,5,30,7,3,7,17,2,2,2,11,,1,4,,7
562335,16,667,208,5,2,,37,1,20,49,12,2,27,3,1,10,17,5,,,6,,1,2,,8
562335,15,803,249,14,,5,28,,18,69,10,5,19,15,15,12,13,1,,,9,1,4,1,,10
562335,14,1271,417,21,3,6,78,4,10,114,15,9,52,3,16,20,29,1,1,,13,1,,2,1,18
562335,13,752,242,7,3,5,40,3,20,56,4,8,36,4,5,5,12,1,,,9,3,,6,,15
562335,12,707,214,11,,,40,2,12,63,8,3,24,2,8,8,14,,1,,8,,1,1,,8
562335,11,596,176,4,1,3,34,,12,48,9,4,20,5,7,4,3,,,,13,2,,,,7
562335,10,1217,381,17,3,3,67,2,25,87,19,11,44,5,6,14,19,1,,,22,1,2,10,1,22
562335,9,1031,375,22,5,4,61,2,30,89,16,8,45,4,10,16,19,1,,1,17,2,,4,1,18
562335,8,927,295,27,1,1,32,1,23,55,7,7,35,7,11,16,23,3,,,27,,3,9,1,6
562335,7,897,170,8,,4,24,,16,41,14,2,13,10,5,7,10,,1,1,8,,2,,,4
562335,29,656,236,16,1,,43,1,10,63,7,8,28,5,7,14,13,,,1,5,1,,2,1,10
562335,28,855,277,10,,8,48,1,9,89,7,3,52,4,7,4,12,,,,9,,1,4,,9
562335,27,837,246,11,1,8,58,,12,57,2,4,45,2,9,5,14,1,,1,9,,,,,7
562335,26,869,250,6,2,4,27,2,13,84,11,7,39,4,8,5,17,1,1,,12,,1,2,,4
562335,25,561,220,14,2,,18,1,10,58,17,9,30,9,7,13,11,,,,8,,1,3,,9
562335,24,868,270,12,2,11,38,,28,64,7,8,26,2,2,11,26,2,,2,16,,,1,,12
562335,23,901,327,15,2,4,60,,28,93,20,9,26,2,5,12,16,1,1,,17,,1,3,,12
562335,6,958,421,33,4,3,65,,32,104,35,6,35,13,12,21,18,,2,,13,,,5,,20
562335,5,587,148,11,,2,25,,17,26,6,6,18,1,2,11,9,,,,3,,,1,,10
562335,4,899,291,11,3,2,41,,21,66,13,12,22,13,6,22,12,3,,1,19,,7,4,1,12
562335,3,625,222,13,,3,43,1,1,71,5,3,33,2,5,9,10,,1,,9,,,1,,12
562335,2,914,346,18,5,,44,,37,88,6,12,36,9,10,19,17,4,,,18,2,1,5,,15
562335,1,799,267,15,3,2,37,1,29,55,15,9,35,2,6,12,11,,,,22,,1,2,,10
562335,41,212,53,4,,,8,,2,11,1,,8,4,,5,,,,,4,,1,,,5
562335,40,135,46,5,,,2,,2,17,,,4,1,1,6,7,,,,1,,,,,
562335,39,158,44,,,,11,1,,10,1,4,3,,3,1,5,,1,,1,,1,,,2
562335,38,489,181,13,2,5,17,2,9,49,5,12,16,3,3,5,11,1,,,16,2,,1,1,8
562335,37,366,109,3,1,,16,,10,40,6,4,14,1,1,,4,1,,,1,,1,5,,1
562335,36,995,341,27,5,1,36,,29,90,9,7,36,10,4,16,31,1,1,,21,,,,,17
562335,55,180,60,1,,,8,,2,19,1,4,12,,1,,4,,1,,5,,,,,2
562335,54,322,88,6,,,8,,6,32,2,,9,1,2,4,10,,,,6,,,,,2
562335,53,946,167,4,,4,41,1,11,35,6,8,10,,14,3,16,,1,,2,,2,2,,7
562335,52,1216,186,6,2,2,40,1,5,45,7,3,13,,9,5,25,,2,,10,1,1,2,,7
562335,51,730,245,17,3,1,50,2,6,65,14,6,25,3,13,2,12,,,,9,,,4,,13
562335,35,870,236,4,1,5,33,,6,71,10,5,31,4,13,11,15,2,,,12,,,3,,10
562335,34,650,231,6,3,3,54,2,17,43,9,5,24,1,9,17,19,1,1,,6,,,2,1,8
562335,33,907,251,10,1,1,42,,23,69,10,6,26,3,6,11,10,3,,,13,,2,1,,14
562335,32,964,299,16,2,2,56,,10,88,6,6,43,5,5,14,20,1,,,10,,2,3,,10
562335,31,473,70,3,1,,10,,5,14,2,3,12,4,3,4,4,1,1,,,,,,,3
562335,30,1059,334,22,2,7,56,2,19,90,6,8,31,7,5,12,27,,,,23,1,1,1,,14
562335,50,923,260,5,1,4,63,1,8,80,5,4,29,5,9,4,15,,3,,4,,,2,1,17
562335,49,617,165,6,1,6,21,,12,47,9,4,16,4,17,5,7,3,,,5,,,1,,1
562335,48,269,75,4,1,,8,,13,23,4,,5,,3,1,7,,1,,2,,1,1,,1
562335,47,815,224,11,2,5,37,,10,46,5,9,22,7,9,7,13,3,1,2,12,1,3,2,,17
562335,46,924,259,17,2,3,39,1,24,55,11,5,42,4,6,6,14,,,3,7,,2,,2,16
562335,45,372,140,1,1,1,16,,18,49,7,4,15,4,1,5,11,,,,4,,1,,,2
562335,44,445,159,8,,,20,1,13,48,10,5,12,2,4,2,8,,,1,11,,,1,1,12
562335,43,85,37,1,,,7,,1,7,10,1,3,1,,,,,,,5,,,,1,
562335,42,477,237,18,1,1,25,,26,81,10,6,23,7,7,7,8,,,,6,,,1,,10
562343,1,322,131,13,5,,27,3,,40,3,10,7,1,,5,3,1,1,,11,,,1,,
562351,1,955,257,11,6,1,24,3,43,66,3,8,38,,3,3,12,,,,10,,,1,,25
562351,3,931,195,9,,4,18,,29,44,7,,23,3,6,5,15,,1,,4,,,9,,18
562351,2,1111,335,10,5,4,48,,35,79,5,9,31,6,9,11,12,2,,,11,,,20,2,36
562394,5,382,93,5,6,3,15,,8,23,3,2,16,3,,6,2,,,,1,,,,,
562394,4,857,296,18,18,4,51,1,10,71,5,15,52,1,6,13,20,6,1,1,3,,,,,
562394,3,862,258,17,4,5,52,,9,71,2,9,40,1,10,7,15,1,3,,5,,,4,1,2
562394,2,1123,357,25,24,8,62,1,21,79,5,11,51,7,13,14,18,3,2,1,3,,1,5,,3
562394,1,993,247,20,9,7,22,1,18,58,6,9,41,5,10,6,27,1,,1,2,,,3,,1
562408,1,542,174,8,5,6,29,,17,45,5,3,19,1,10,1,13,,,,7,,,,2,3
562432,1,968,275,30,,4,24,,36,66,12,16,34,2,14,9,20,1,,1,1,,1,4,,
562441,2,284,58,3,,,3,,3,11,1,1,11,4,2,6,10,,,,,,,,,3
562441,1,988,225,34,,3,22,2,18,38,7,16,46,2,7,7,17,,1,,,,,,,5
562483,2,283,81,3,2,2,9,,2,21,2,3,11,,6,2,10,,,,,,,1,,7
562483,1,111,29,,,,1,,3,5,5,3,3,,3,2,,,,,,,,,,4
562505,1,637,179,9,1,3,10,1,24,40,4,31,23,2,4,2,21,,,,3,,,1,,
562513,1,199,68,12,,,5,,1,12,2,7,10,4,3,1,4,1,,,3,,,1,,2
562521,3,83,45,5,,1,7,,2,12,,3,6,,,,3,,,,,,1,2,,3
562521,2,130,43,1,,2,7,,1,10,6,1,8,1,,2,2,,,,2,,,,,
562521,1,403,129,5,,4,21,,6,37,3,4,15,4,6,4,8,,,,9,,,,,3
562530,1,1101,323,18,9,5,50,3,12,90,11,15,37,3,12,15,32,2,1,1,2,1,,1,2,1
562556,1,361,126,10,,4,13,,5,22,9,10,17,4,2,4,6,,1,,1,,,,,18
562564,4,477,150,3,7,2,31,1,12,35,5,1,19,3,4,13,9,,,,2,,,,,3
562564,3,1371,371,18,2,6,68,1,29,99,10,4,55,12,10,12,16,,1,,16,,,3,1,8
562564,2,982,356,24,1,2,46,2,27,127,10,10,52,4,10,6,16,2,1,,7,,,3,1,5
562564,1,1377,331,21,3,1,63,6,21,93,8,8,48,6,8,10,11,4,,,8,2,,,1,9
562572,1,485,179,5,2,1,7,,80,26,5,7,19,2,6,6,10,,,,2,,,,1,
562581,3,522,141,6,5,,10,,11,39,,32,14,,2,,16,1,,,2,,1,2,,
562581,2,1194,302,27,1,3,28,,,67,4,91,31,1,15,2,30,,1,,,1,,,,
562581,1,1210,288,21,2,6,21,,1,75,5,74,38,4,3,4,26,5,2,1,,,,,,
562611,1,939,262,12,,11,25,,4,47,1,83,49,1,10,4,11,,1,,1,,1,,1,
562611,5,163,74,5,1,,3,2,1,24,3,27,5,,2,1,,,,,,,,,,
562611,4,326,88,6,3,3,12,,5,12,,24,7,2,5,2,6,,,,,1,,,,
562611,3,728,203,2,1,,20,,16,30,4,77,20,4,5,7,14,,,,,1,,2,,
562611,2,691,175,10,,4,20,,7,21,2,54,30,,7,2,15,,1,,1,,,1,,
562645,1,420,132,11,1,,6,1,4,26,9,27,18,2,5,13,6,,1,,1,1,,,,
562661,1,482,133,28,2,2,19,1,8,26,3,8,23,,,,9,1,1,,,1,1,,,
562700,1,370,129,12,1,4,15,,7,23,4,7,17,2,6,3,16,,,,3,,,5,1,3
562718,1,693,243,17,3,2,22,2,13,71,6,7,31,3,3,5,32,1,,,10,2,2,1,1,9
562751,3,330,72,5,1,,5,,15,11,7,5,14,,2,1,5,,1,,,,,,,
562751,2,961,232,16,2,2,17,1,64,27,9,11,45,2,3,11,14,1,1,,3,,,3,,
562751,1,456,94,1,2,3,7,1,26,17,3,7,18,1,2,,3,,1,,1,,,1,,
562777,7,966,241,14,3,4,51,,10,61,6,24,28,6,6,8,19,1,,,,,,,,
562777,6,967,285,25,1,2,68,1,6,75,9,23,23,5,14,6,26,,,,,1,,,,
562777,5,947,267,24,5,2,54,1,6,75,9,14,38,2,7,9,16,2,2,,,,,1,,
562777,4,941,287,24,1,8,65,1,7,62,19,35,24,8,8,6,16,1,,1,,,,1,,
562777,3,1272,321,20,6,2,49,,13,73,12,44,42,,13,6,33,,5,,1,,,2,,
562777,2,1030,292,29,4,4,52,1,6,64,10,35,36,2,12,7,19,1,,,5,3,,,,2
562777,1,766,235,19,3,3,34,,5,69,1,32,26,,14,10,17,,2,,,,,,,
562777,9,879,267,34,3,4,56,3,13,59,6,20,22,,9,15,21,,,1,1,,,,,
562777,8,1059,356,42,3,3,54,,10,94,24,41,33,4,11,11,21,,1,,1,,,3,,
562793,1,541,158,10,2,1,12,1,24,43,4,29,15,3,2,5,3,2,,,,,,2,,
562823,2,218,40,1,1,,3,,1,7,,12,7,2,,,5,,,,,,,,,1
562823,1,799,225,8,5,,22,,1,42,7,93,19,2,13,2,11,,,,,,,,,
562858,4,402,99,8,2,1,8,1,1,24,2,24,16,2,1,4,5,,,,,,,,,
562858,3,1366,337,20,3,4,39,2,8,72,1,81,56,,14,15,16,,,,,,,4,,2
562858,2,1054,176,4,2,2,21,,8,33,4,54,24,1,10,2,8,1,,1,,,,,1,
562858,1,1495,399,19,3,12,43,,15,73,9,136,45,3,12,5,19,,,,4,,,,,1
562874,1,328,85,,1,1,6,,3,11,2,3,11,1,,,4,,,,3,,,,,39
562882,1,1022,286,17,4,4,39,1,8,90,9,23,39,3,11,6,27,2,,,,,1,2,,
562882,13,249,83,9,3,,7,,14,13,4,8,6,1,7,,8,,,,1,1,,1,,
562882,12,984,162,3,3,1,26,2,6,41,8,10,19,2,7,8,22,,,,,,,2,2,
562882,11,1129,314,22,5,4,40,2,29,77,13,13,32,4,9,10,53,1,,,,,,,,
562882,10,1063,311,17,2,5,43,,19,86,7,24,32,2,15,17,35,,2,1,,,,3,1,
562882,3,1145,318,41,3,1,30,1,17,108,11,7,24,7,11,9,40,1,,2,2,,1,2,,
562882,2,986,308,13,3,8,45,,28,97,3,13,50,2,8,11,21,1,,1,,1,,3,,
562882,9,1055,197,10,1,1,27,1,11,71,1,2,16,,14,1,31,2,,,4,,,,1,3
562882,5,1013,307,29,7,5,42,3,19,84,10,13,42,2,19,4,25,,,1,,,1,1,,
562882,4,1152,385,24,13,1,37,2,36,127,14,28,48,2,4,11,35,1,,1,1,,,,,
562882,7,1121,358,27,2,4,45,,26,113,6,22,39,3,22,7,33,,3,,,,3,2,1,
562882,6,514,163,16,2,2,15,,7,44,4,7,18,,15,6,23,3,,,,,,1,,
562882,8,1019,226,13,6,,36,,22,91,2,4,18,,3,3,27,1,,,,,,,,
562891,1,384,108,7,,2,16,4,5,25,2,6,15,1,5,4,7,1,1,,2,,,,,5
562912,1,1587,349,36,1,2,53,,21,79,4,34,52,1,10,20,24,1,,2,1,1,4,3,,
562921,1,912,223,11,3,3,22,8,7,56,4,30,34,1,8,4,20,,2,1,2,,,3,1,3
562939,1,278,79,4,,2,18,1,,31,,1,3,,2,5,5,,,,3,,,3,,1
562947,1,781,211,22,,,22,,14,60,10,15,38,2,4,11,9,1,1,,2,,,,,
562971,9,797,226,17,,2,33,,30,47,4,2,34,3,10,8,15,,,,2,1,17,1,,
562971,8,923,276,19,,4,38,,45,48,8,11,33,3,5,11,12,1,1,2,2,1,29,2,,1
562971,7,928,266,27,,4,32,1,23,63,7,1,36,5,4,9,17,4,1,1,2,,22,7,,
562971,6,907,246,17,,3,29,,19,61,3,3,30,11,5,7,18,,2,,,3,26,8,1,
562971,5,791,165,7,,7,12,1,16,36,3,1,21,3,1,8,16,1,2,,1,1,25,3,,
562971,4,706,182,16,,1,14,1,14,43,4,,23,2,4,6,15,,2,,2,,22,12,1,
562971,38,888,206,15,1,2,19,,10,43,,3,38,2,10,8,23,1,3,,3,,18,6,1,
562971,37,991,204,5,1,4,26,,12,53,3,3,30,3,12,3,20,,,1,2,,21,5,,
562971,36,1040,182,7,1,3,29,,9,41,5,3,31,3,7,5,12,1,,,,2,21,2,,
562971,35,1022,193,5,1,1,26,,15,49,2,2,39,9,8,2,19,1,,,1,3,8,2,,
562971,34,1042,189,5,1,5,21,1,9,35,6,,42,2,16,3,28,,,,,,13,2,,
562971,33,1253,199,11,4,3,25,,17,34,6,4,29,,11,6,21,,1,3,2,1,17,4,,
562971,32,1147,203,6,,4,23,1,18,54,3,,37,1,16,2,13,2,1,,,,17,4,1,
562971,3,990,274,20,,6,23,1,35,53,10,2,57,4,5,12,15,,,1,,,25,3,1,1
562971,2,749,228,13,,2,39,,21,44,3,3,41,6,1,4,21,,,,,,29,1,,
562971,1,782,265,28,,6,20,2,42,60,10,6,25,4,,3,11,1,1,,1,,42,3,,
562971,15,1209,392,43,,7,33,2,31,91,19,3,58,4,9,10,17,,2,1,4,2,47,9,,
562971,14,1033,268,9,1,4,29,2,21,73,9,4,47,5,10,7,11,,1,,1,,31,3,,
562971,13,1179,299,23,2,3,31,,17,62,9,,46,3,5,11,17,2,1,,6,,57,4,,
562971,12,2487,246,30,,4,29,3,16,56,5,1,41,,4,8,21,2,1,1,,2,16,5,1,
562971,11,750,262,26,3,4,30,1,36,50,10,2,36,4,3,6,6,3,5,1,3,2,27,4,,
562971,10,941,240,22,,8,21,,27,41,8,2,36,5,1,3,20,1,2,,2,2,37,2,,
562971,30,939,166,3,,3,28,,10,39,2,1,31,,12,5,17,1,2,1,,,9,2,,
562971,29,871,172,4,,5,23,,11,43,1,1,38,4,8,5,14,,1,,2,,9,3,,
562971,28,853,186,5,1,3,29,,12,48,,4,25,,15,3,18,,1,,2,,20,,,
562971,27,767,175,4,,3,28,,5,46,1,2,24,10,2,4,10,,2,,,,31,1,,2
562971,26,760,157,11,1,4,18,,7,26,,,29,1,6,7,14,1,,,1,,29,1,1,
562971,25,800,267,8,1,7,36,2,19,71,2,5,55,1,9,6,17,1,4,,1,,20,1,,1
562971,24,1006,352,35,3,3,34,1,33,99,9,3,49,1,4,17,5,,5,1,12,,35,3,,
562971,23,965,276,16,2,3,34,1,23,68,7,5,42,5,5,9,13,,1,,2,,36,4,,
562971,22,860,298,19,4,5,31,2,35,58,5,2,56,5,8,4,20,1,,,,,41,2,,
562971,21,934,286,27,,1,37,,20,40,6,5,60,5,6,4,19,1,2,,1,,50,2,,
562971,20,895,285,17,2,1,36,,23,77,11,3,52,7,2,2,18,2,3,,4,1,21,3,,
562971,19,801,255,41,,2,28,,26,47,5,1,37,,7,5,17,,,,,,36,3,,
562971,18,797,284,26,,1,24,,16,69,8,1,39,6,4,13,9,,,,5,,63,,,
562971,17,874,278,9,1,1,35,,24,57,12,,57,7,3,7,11,1,2,,1,1,46,3,,
562971,16,973,340,26,1,7,41,2,33,74,16,4,44,5,6,6,11,,,,,,62,2,,
562971,40,925,167,6,1,6,18,5,14,46,1,,28,1,8,6,12,1,,,,,13,1,,
562971,39,821,174,2,,4,19,1,8,39,2,,39,4,12,6,20,1,3,1,1,,9,3,,
562971,31,1099,340,24,1,5,20,2,34,86,10,6,41,6,15,9,20,,2,,4,,47,7,,1
562980,1,188,66,3,,,6,,12,22,2,,16,,,,4,,,,,,1,,,
562998,1,423,177,17,,,14,1,43,37,2,2,24,,3,2,13,,,,4,,11,4,,
563005,1,212,64,5,,,7,,7,14,,8,16,,1,4,,,,,,,2,,,
563013,1,1080,270,17,1,4,30,,5,72,9,5,56,4,11,14,16,4,1,,,,16,4,1,
563021,1,465,152,24,2,4,11,1,7,41,1,2,13,2,3,3,14,1,,,1,,17,4,1,
563048,1,139,32,3,,,1,1,1,11,7,,4,,,,,,,,1,,2,1,,
563056,1,651,197,19,2,3,20,2,8,49,9,3,27,8,4,3,11,,3,1,3,,21,1,,
563064,1,204,63,2,,2,4,,1,16,3,,13,,2,1,4,,,,,,12,3,,
563072,1,415,114,4,2,4,9,3,,38,5,1,28,2,1,,8,3,,,2,,2,2,,
563081,1,508,125,15,1,2,14,2,,40,,,27,2,4,4,8,3,1,,,,2,,,
563099,3,1006,407,49,4,6,50,3,18,115,12,12,60,4,14,15,11,2,3,,3,,22,4,,
563099,2,1298,274,13,3,3,50,2,4,69,8,2,36,1,10,7,26,,4,1,2,3,23,6,,1
563099,1,1934,287,29,4,3,44,6,12,76,7,4,22,3,13,10,18,,1,1,,,24,8,,2
563099,13,1028,221,15,5,12,57,5,6,29,3,4,38,4,3,2,17,,3,,1,3,11,3,,
563099,6,1041,253,13,2,1,35,,6,60,6,6,54,10,8,7,28,3,1,,,4,8,1,,
563099,5,1091,255,10,4,5,45,3,6,72,2,3,46,1,15,,24,1,,,2,1,9,6,,
563099,4,1123,335,21,10,4,50,8,11,95,3,11,47,6,3,9,26,,5,,,1,20,5,,
563099,12,1635,237,6,10,3,30,,5,52,7,7,39,2,7,4,23,4,1,1,4,3,23,6,,
563099,7,1400,329,43,2,7,50,1,11,59,11,4,56,4,22,4,29,1,1,,1,1,13,9,,
563099,11,1249,204,12,3,6,25,,7,37,7,2,26,8,6,15,32,,,2,,2,8,6,,
563099,10,1018,157,14,,9,20,2,6,30,3,2,18,,7,5,19,,,,1,3,9,9,,
563099,9,422,155,18,1,4,16,1,8,26,6,4,16,5,4,8,14,,1,,1,,17,5,,
563099,8,1523,242,29,2,4,31,1,11,47,7,9,30,5,20,6,18,2,,,2,,12,5,1,
563102,12,1452,462,193,,8,58,,5,102,7,2,33,,7,12,24,1,1,,1,3,3,1,,1
563102,11,1527,335,137,1,2,35,1,9,60,6,4,27,7,4,14,14,,4,1,2,5,2,,,
563102,10,1094,338,133,1,,31,1,8,56,10,3,31,2,5,14,34,,1,1,1,1,2,2,,1
563102,9,1046,331,137,3,2,36,1,3,58,13,5,27,5,4,17,12,,1,,4,1,1,1,,
563102,8,1002,265,72,2,1,47,,5,68,2,2,26,1,10,14,5,,1,,2,3,1,2,1,
563102,7,1195,354,124,3,,45,,5,84,7,5,32,7,1,10,20,1,,,3,2,4,,,1
563102,6,1131,326,103,2,5,31,1,5,85,5,1,30,5,2,13,27,1,,1,1,4,2,1,1,
563102,5,1052,282,74,4,1,36,,1,77,5,3,43,3,4,5,18,1,,,1,2,3,1,,
563102,4,906,222,74,,5,33,,,63,2,,23,1,3,7,6,1,,,3,1,,,,
563102,3,1203,188,52,1,,30,,2,52,2,,24,5,1,5,8,,,,1,4,1,,,
563102,2,1262,213,68,2,3,17,1,4,41,3,1,32,2,6,5,20,,,1,3,,1,3,,
563102,1,1115,198,68,1,3,18,1,1,49,5,,20,4,,6,17,,1,,,1,1,2,,
563111,1,209,82,7,,1,24,,10,11,,1,12,2,,5,6,1,,,,,2,,,
563129,8,1080,252,38,1,5,17,3,1,63,6,2,29,30,13,8,18,,,,10,2,3,2,,1
563129,7,980,204,21,1,1,22,,3,60,8,1,32,9,4,19,12,,,,1,,8,1,1,
563129,6,1177,340,44,2,10,32,,1,72,7,,47,76,11,8,15,,,,3,1,7,4,,
563129,5,1095,267,44,1,6,33,,1,59,4,3,49,32,7,12,9,,1,,,1,2,3,,
563129,4,1062,215,21,1,5,31,,1,54,3,1,31,27,8,13,8,1,,,2,1,4,3,,
563129,3,1020,217,26,1,4,16,1,,40,6,1,31,19,14,16,25,4,,,4,,5,4,,
563129,2,1049,201,13,2,1,21,1,3,67,2,,21,17,13,13,12,2,,,8,,2,3,,
563129,1,1666,398,72,,2,33,1,4,58,13,1,56,72,14,32,18,,3,2,2,2,12,1,,
563129,11,893,178,23,1,,14,,,38,3,4,20,26,6,17,11,,1,1,6,1,2,4,,
563129,10,1079,262,23,1,3,38,1,1,61,,2,49,27,8,6,20,1,2,2,9,1,5,2,,
563129,9,1066,217,27,1,5,19,,6,43,5,2,23,25,18,13,17,3,,,2,,3,5,,
563137,1,865,211,14,1,8,29,,6,51,3,9,39,5,,7,20,2,,,,,1,16,,
563161,1,303,68,6,1,4,4,,4,10,,,9,,1,1,5,1,,,,,22,,,
563188,1,207,87,10,,,21,1,1,9,1,1,25,2,6,2,5,,,,1,,1,1,,
563200,1,664,263,30,1,6,50,4,6,47,4,3,51,2,15,,17,2,2,,,,18,5,,
563218,1,468,123,11,2,2,16,1,1,38,3,3,27,,7,2,6,1,2,,,,,,,1
563226,1,129,52,4,2,1,1,,,9,,23,4,1,,1,4,,,,,,,2,,
563242,1,361,143,3,1,,26,1,2,49,2,3,21,2,,2,,,2,,2,,26,,1,
563269,1,291,148,5,,1,6,,,23,4,,13,5,,9,,,1,,,,80,1,,
563277,1,542,191,10,,5,31,,3,44,7,6,32,4,4,1,14,3,,1,5,,10,10,,1
563285,1,909,307,62,2,7,22,1,11,80,12,4,42,8,6,8,24,2,2,1,5,3,4,1,,
563293,1,169,43,4,,1,8,1,,10,,,11,,5,,,,,,,,1,2,,
563315,1,106,47,4,1,1,1,1,2,21,,,6,,1,3,2,,,1,1,,2,,,
563323,1,935,260,23,7,11,22,3,6,60,3,2,101,3,,1,7,1,1,,2,2,4,1,,
563331,1,238,49,7,,2,7,1,,11,1,2,9,,,5,4,,,,,,,,,
563340,1,1169,346,30,4,3,10,2,18,72,6,8,44,9,5,13,23,,1,,,,91,7,,
563358,1,701,272,17,2,8,46,3,8,44,2,58,30,7,3,3,26,1,,,1,1,8,4,,
563382,1,970,321,33,1,6,31,2,18,74,9,4,65,3,8,4,21,,,1,2,1,31,6,,1
563404,3,704,162,18,3,7,25,1,,37,,2,38,,5,2,11,2,5,,,2,4,,,
563404,2,708,119,25,,2,15,3,,35,,2,22,,4,3,5,1,,,1,,,1,,
563404,1,936,107,21,2,4,17,,7,22,3,2,13,,5,1,8,,,,2,,,,,
563412,1,247,59,12,3,,10,1,,11,,8,5,3,3,,3,,,,,,,,,
563439,1,476,105,6,,3,12,1,,38,,6,30,2,1,1,4,,,,,,1,,,
563463,1,233,70,1,,1,3,,1,18,1,2,20,3,2,8,4,,,2,,,3,1,,
563471,1,121,41,,,,3,1,1,12,,,7,,1,5,9,,,,,1,1,,,
563480,1,158,59,2,1,,10,,1,22,,5,,1,3,2,7,,,,,1,2,2,,
563498,1,220,67,10,,,6,1,,17,4,1,9,3,2,1,4,,,,,1,8,,,
563501,1,880,335,24,2,2,39,6,11,62,13,65,30,8,3,18,19,1,,,,4,23,5,,
564567,27,833,220,17,7,8,16,3,6,59,9,18,33,4,2,22,9,,1,,2,,,3,1,
564567,26,612,198,17,3,,13,8,8,53,11,6,26,,1,23,21,,,,4,2,,2,,
564567,25,716,214,17,3,7,30,4,1,47,8,9,37,3,2,21,13,2,1,1,6,,1,1,,
564567,24,750,298,60,14,4,22,6,11,76,32,14,24,2,,19,11,1,,,2,,,,,
564567,23,677,264,20,2,2,25,2,14,66,11,16,60,4,1,25,11,2,1,,1,,,1,,
564567,22,766,316,40,1,9,32,3,13,87,11,7,50,5,9,27,14,1,,,2,,,1,,4
564567,21,965,350,54,8,11,29,6,11,82,23,23,50,2,5,16,12,5,2,,5,1,,5,,
564567,20,724,197,16,3,7,18,3,5,47,4,10,34,3,7,19,14,1,,,3,,,3,,
564567,19,571,274,57,7,3,25,14,10,62,18,14,31,3,,20,6,,,,3,,,1,,
564567,18,559,163,11,6,2,19,9,5,53,8,9,13,,6,10,10,1,,,,,1,,,
564567,6,638,174,28,3,2,16,5,6,41,7,11,28,1,3,7,11,1,1,,1,,,2,,
564567,5,622,246,52,4,1,21,6,10,53,12,14,31,3,1,29,3,,1,,2,,,3,,
564567,4,643,251,53,5,4,26,3,16,51,16,13,20,9,,27,7,,1,,,,,,,
564567,3,578,215,43,1,,18,3,15,38,8,13,22,5,7,28,10,,,1,1,,,1,,1
564567,17,633,254,43,4,,10,11,7,43,25,13,33,4,2,34,16,1,1,1,4,,,2,,
564567,16,597,215,24,7,4,28,6,13,51,6,15,34,3,1,9,9,,1,1,1,2,,,,
564567,15,543,192,22,3,7,23,5,4,43,6,7,35,5,4,18,4,,2,,2,,,1,,1
564567,14,612,214,24,2,5,13,6,9,43,12,14,31,2,4,25,11,,1,,9,,,2,1,
564567,2,788,289,66,10,,25,7,8,42,12,18,31,4,,39,18,2,1,,4,,,1,,1
564567,1,1646,271,64,3,3,24,2,5,48,9,26,22,4,1,48,11,,,,,,,1,,
564567,13,563,243,25,4,4,19,9,9,66,17,9,56,6,3,5,8,,,,2,,,1,,
564567,12,619,209,29,,4,25,3,2,53,8,13,27,4,,24,8,,,,5,3,,1,,
564567,11,602,204,27,3,7,30,3,13,43,6,7,28,2,6,12,13,2,1,,1,,,,,
564567,10,474,173,16,1,5,18,3,6,49,7,14,29,,,8,13,,,1,3,,,,,
564567,9,506,168,13,1,5,14,2,2,41,7,9,32,2,6,19,9,2,,1,1,,1,1,,
564567,8,654,193,23,3,3,22,4,7,43,1,10,28,4,6,16,13,2,2,,2,,2,2,,
564567,7,370,106,16,,,5,1,5,27,4,6,15,5,,13,5,,,,2,,,,,2
564567,30,71,23,,,,4,3,,6,3,,3,,2,2,,,,,,,,,,
564567,29,216,100,12,2,2,20,2,,14,4,5,21,,4,1,10,1,,,1,,,,,1
564567,28,762,213,16,4,7,20,7,3,52,14,13,32,3,2,27,6,,1,,1,,,3,,2
564575,2,373,115,8,2,2,13,,5,33,7,6,11,7,3,5,9,1,1,,2,,,,,
564575,1,604,143,5,9,2,24,1,1,31,2,3,36,2,4,10,9,,1,,1,,,2,,
564591,2,732,182,16,,3,22,5,1,47,11,19,30,1,3,9,10,2,,,,3,,,,
564591,1,1039,323,20,14,3,62,11,4,73,11,17,70,2,8,7,14,1,,1,4,,,1,,
564591,3,234,84,5,1,3,8,1,5,28,5,3,11,,2,1,4,4,,,2,,,1,,
564613,1,342,77,8,9,2,12,1,4,15,3,4,14,,1,,3,,,,,1,,,,
564621,1,1019,310,42,20,4,32,23,4,63,15,10,40,2,7,17,13,3,,1,4,2,1,7,,
564648,1,333,88,7,8,,13,3,1,16,7,,19,,3,3,1,2,,,1,,2,1,1,
564656,7,73,24,3,5,1,1,1,2,3,,,4,,,3,1,,,,,,,,,
564656,6,71,24,2,11,2,4,,,,,,,,5,,,,,,,,,,,
564656,5,105,49,6,7,1,,,,8,1,1,14,2,2,2,5,,,,,,,,,
564656,4,142,24,1,4,2,5,,1,4,,1,3,,,2,1,,,,,,,,,
564656,3,79,26,2,,1,4,,,3,,,9,,5,,2,,,,,,,,,
564656,2,128,63,5,18,,4,,13,5,2,,9,,,4,2,1,,,,,,,,
564656,1,1146,394,26,109,8,30,2,9,57,24,10,74,1,9,6,18,2,1,2,3,,2,1,,
564672,1,266,78,16,3,2,4,,2,14,5,6,12,1,1,4,4,1,,,2,,,,1,
564699,1,132,30,3,2,3,2,,,7,,,6,,1,,3,1,2,,,,,,,
564711,1,1100,328,12,8,16,23,7,2,128,13,13,38,15,4,10,17,2,3,,8,,3,4,1,1
564729,1,297,87,4,1,1,4,4,,36,,3,15,1,3,2,7,2,,,4,,,,,
564737,1,99,44,,,2,4,4,1,17,2,1,8,,,1,2,,,,1,,,1,,
564745,1,441,179,16,6,1,27,1,6,43,11,7,32,3,3,6,15,,1,,,,,1,,
564753,1,307,97,4,2,1,12,5,4,18,6,1,13,1,6,1,12,3,,,7,1,,,,
564770,1,225,64,6,,5,8,,1,2,1,3,20,2,,6,7,2,,,1,,,,,
564818,1,290,93,7,11,4,5,4,2,12,,16,12,4,1,3,6,2,,,3,,,1,,
564834,1,231,69,6,4,3,12,,,12,2,1,23,,2,4,,,,,,,,,,
564842,1,214,91,8,1,1,4,,7,26,8,5,13,1,2,6,5,,1,,3,,,,,
564851,1,737,175,17,10,2,18,,1,32,9,16,37,4,2,3,18,1,3,,1,,,1,,
564877,1,1325,454,23,40,11,51,1,33,82,10,15,122,10,10,15,14,2,1,2,5,1,,2,2,2
564893,2,165,48,3,1,1,4,,2,11,7,5,5,,,,6,1,,,1,,,1,,
564893,1,357,119,13,2,1,13,10,6,22,4,18,10,3,,10,6,,,1,,,,,,
564923,2,261,100,8,5,5,13,2,4,17,4,15,13,,1,4,6,1,,,1,,,1,,
564923,1,274,58,3,1,2,11,1,2,9,6,4,7,,4,,4,,2,,2,,,,,
564931,1,131,72,3,,1,7,,7,22,,,14,1,1,1,7,,,,8,,,,,
564940,1,395,127,6,3,3,12,,2,41,3,13,24,5,1,6,2,,,,1,2,2,1,,
564958,1,232,84,5,2,,3,,3,30,4,16,4,4,2,7,,1,,,3,,,,,
564966,1,176,64,6,1,,15,1,,15,4,1,12,,1,3,4,,,1,,,,,,
565016,1,302,96,6,1,5,15,2,,26,9,1,14,,3,5,6,2,,,,,1,,,
565024,1,403,139,3,5,1,9,,5,45,11,13,26,1,4,3,7,1,,,2,,3,,,
565032,1,427,144,15,5,5,19,2,2,33,8,6,29,3,5,2,3,,,,6,,,,1,
565059,1,364,80,8,8,2,10,,,16,4,2,13,1,2,3,3,,2,3,,,,3,,
565067,2,418,106,7,5,3,15,1,,24,10,1,18,3,4,1,11,,1,,,,,2,,
565067,1,308,112,12,2,1,7,2,4,36,11,5,10,5,1,3,5,,2,,,6,,,,
565075,1,268,114,10,3,3,10,2,11,28,2,5,29,,3,1,3,,,,4,,,,,
565083,2,86,26,2,,1,3,,1,9,2,2,1,,2,1,,,,,2,,,,,
565083,1,549,173,21,4,1,21,1,6,59,2,,20,1,7,9,10,,6,,3,,,1,,1
565083,4,264,79,1,,2,20,,3,12,1,4,30,,1,1,1,,,,3,,,,,
565083,3,280,82,5,1,,19,,4,11,3,1,15,,7,7,8,,,,1,,,,,
565091,1,237,119,9,9,4,25,1,,30,10,6,10,,,5,9,,,,,,,1,,
565105,1,118,55,6,1,,7,,,10,,1,22,,,3,2,,,,,1,,,,2
565113,1,248,96,1,1,1,17,1,,32,2,23,8,,2,1,6,,,,1,,,,,
565121,2,230,73,3,,3,3,3,2,20,3,3,18,,2,5,6,,2,,,,,,,
565121,1,1023,197,19,8,5,27,1,3,62,3,7,27,7,2,9,9,1,,4,2,,,1,,
565148,1,421,128,11,3,3,9,,2,34,6,10,20,3,,6,15,3,,1,,,,2,,
565156,1,465,183,11,3,4,18,9,29,42,4,11,18,1,8,9,11,2,,,,,2,1,,
565164,5,149,59,,2,,19,1,1,17,2,1,5,,2,1,8,,,,,,,,,
565164,4,327,83,4,3,,17,1,,25,7,3,7,1,1,8,3,,,,3,,,,,
565164,3,726,269,23,16,7,30,9,1,76,32,4,40,4,4,7,6,,3,1,1,1,1,1,1,1
565164,2,960,200,11,2,7,31,,8,55,2,4,37,3,4,16,10,4,,,6,,,,,
565164,1,722,198,12,10,5,29,2,8,57,11,5,27,5,8,8,6,,1,,3,,,1,,
565172,1,348,142,1,,2,9,,,28,12,59,15,,4,2,5,1,,,,1,,3,,
565211,1,450,188,5,2,2,10,3,5,32,2,3,98,6,4,7,4,1,,,3,,1,,,
565229,4,811,336,19,5,6,39,2,14,152,19,21,21,3,4,15,12,,,1,1,,,2,,
565229,3,795,275,18,3,6,27,1,2,112,12,11,53,2,2,14,11,1,,,,,,,,
565229,2,681,236,13,4,2,27,2,8,94,7,13,46,1,,9,4,2,1,1,1,,,1,,
565229,1,748,253,26,6,1,18,4,6,92,9,27,32,1,6,8,14,1,,,1,,,1,,
565229,10,332,98,6,4,,5,,2,37,4,16,13,2,2,2,5,,,,,,,,,
565229,9,911,226,12,2,5,17,6,1,85,2,20,37,2,9,7,10,4,,2,3,,,1,1,
565229,8,462,125,3,2,5,11,1,2,51,1,5,28,3,1,3,5,,1,,2,,1,,,
565229,7,572,170,15,5,,22,,3,62,1,12,21,3,4,9,8,,,,4,,,,,1
565229,6,1213,237,17,,10,20,3,8,92,3,24,21,2,4,16,11,,,,1,2,,3,,
565229,5,591,210,6,2,4,19,1,3,86,7,20,31,2,,13,6,1,1,,6,,,,,2
565237,1,291,95,6,4,4,15,,1,31,3,6,16,,3,1,1,1,,,2,,,,,1
565245,1,588,280,9,4,9,22,1,1,51,2,109,44,3,1,5,6,,,,8,,1,3,,1
565253,3,187,72,12,11,,11,,3,12,3,6,8,1,4,1,,,,,,,,,,
565253,2,183,85,11,4,4,7,1,6,15,1,14,15,,1,3,1,,1,,1,,,,,
565253,1,243,96,19,3,3,15,2,3,18,8,3,6,1,1,4,9,,,,,1,,,,
565296,1,170,42,4,1,2,3,,1,7,,8,6,,1,4,3,,,,1,,,,,1
565300,1,451,189,35,17,3,14,,7,33,15,9,32,6,3,9,4,,1,,,,,1,,
565318,2,168,51,4,2,,3,1,,8,5,1,14,,5,2,3,,,1,2,,,,,
565318,1,911,288,62,18,6,28,2,6,47,10,5,63,3,10,17,8,,1,,,,,2,,
565318,5,149,61,5,5,,11,,,11,1,1,18,,,5,3,,,,1,,,,,
565318,4,93,35,2,1,4,5,,1,4,1,1,12,,,3,,,,,,,,1,,
565318,3,88,50,10,2,1,5,,1,13,2,3,5,,2,3,2,,,,,,1,,,
565342,2,115,45,2,3,1,6,,,12,,3,8,,2,2,5,,1,,,,,,,
565342,1,213,78,10,2,1,12,,1,15,4,6,15,1,3,4,2,1,,1,,,,,,
565393,1,352,105,16,4,3,11,3,3,19,6,4,19,3,3,4,5,,1,,1,,,,,
565415,2,147,74,3,,1,6,,,22,2,11,13,1,1,3,6,,,,5,,,,,
565415,1,387,160,4,4,4,22,3,,48,2,10,23,,11,9,11,1,,,6,,1,1,,
565431,1,1088,303,22,7,12,47,4,10,67,5,12,74,4,2,7,16,3,,2,1,3,,5,,
565458,2,176,58,5,2,,4,,,15,,5,10,,2,9,5,,,,1,,,,,
565458,1,331,102,1,,,18,1,,20,,19,26,3,,7,1,1,,2,2,,1,,,
565474,1,208,81,4,10,1,16,1,1,10,2,6,11,3,3,5,5,,,,1,,,2,,
565482,1,277,110,5,9,,8,,,39,5,3,15,5,2,1,9,4,3,,2,,,,,
565491,1,426,140,4,12,3,21,3,30,14,5,3,27,,1,4,11,1,,,1,,,,,
565521,1,365,117,3,4,4,17,,1,30,3,8,26,,,7,8,2,,1,2,1,,,,
565547,1,83,31,4,2,,4,2,,8,1,4,3,1,2,,,,,,,,,,,
565555,7,627,200,16,4,4,31,2,8,44,13,10,25,6,3,8,15,1,,,8,1,,1,,
565555,6,823,345,48,21,2,25,3,22,55,49,18,35,14,6,19,11,,1,,11,2,,2,1,
565555,9,787,298,25,10,3,27,3,19,55,32,42,30,7,5,19,18,,,,3,,,,,
565555,8,822,197,15,9,,21,1,2,45,24,12,23,4,11,5,19,,2,,3,,,,,1
565555,2,793,259,25,8,2,31,1,20,48,26,25,30,5,6,11,8,,,,12,1,,,,
565555,1,631,227,14,16,3,22,,7,42,24,35,23,3,6,11,6,,5,1,7,,,2,,
565555,5,1118,213,33,8,3,2,2,15,25,29,18,18,6,9,10,27,1,1,1,,1,2,2,,
565555,4,656,263,30,5,3,33,1,5,52,22,27,37,4,3,14,13,,,,13,,,1,,
565555,3,617,197,17,4,1,20,1,9,37,17,17,30,6,3,6,5,1,,,18,,,4,,1
565555,13,803,270,28,8,4,22,1,5,43,34,15,37,6,7,7,24,,3,,22,,1,3,,
565555,12,846,250,11,3,2,24,,10,60,23,19,38,9,7,10,15,1,1,2,12,,,2,1,
565555,11,877,242,16,9,2,22,,12,51,21,29,33,4,5,10,15,1,1,,9,1,,1,,
565555,10,861,331,28,7,3,52,2,4,69,26,28,42,1,8,14,18,1,3,2,19,1,2,,1,
565598,1,232,70,6,,1,7,,,24,2,4,15,,1,4,2,2,,1,,,,1,,
565601,1,228,75,7,4,4,5,1,2,14,,3,15,,3,4,6,1,,,2,1,,1,2,
565610,2,258,63,3,1,4,8,,1,18,2,2,14,1,6,1,,,,2,,,,,,
565610,1,394,112,12,6,4,19,2,1,17,8,3,20,2,2,5,9,,,,1,,,1,,
565679,1,846,301,21,94,7,16,3,8,34,11,11,61,1,7,4,5,1,,1,13,2,,1,,
565695,1,571,222,12,2,4,28,6,4,87,7,13,34,1,5,5,8,2,1,,1,1,,1,,
565709,4,1087,289,27,9,2,62,,3,78,12,2,46,6,4,6,24,2,1,1,,1,1,2,,
565709,3,837,229,18,9,10,44,4,3,50,11,,42,5,10,4,10,1,1,,,1,,6,,
565709,2,1275,269,20,6,8,64,4,,43,14,3,33,6,17,4,26,6,5,,2,,,7,,1
565709,1,968,274,22,8,3,65,1,4,50,12,4,40,13,10,11,26,1,1,,1,,1,1,,
565709,12,166,58,2,1,2,6,,1,15,3,2,9,5,3,2,5,,2,,,,,,,
565709,11,244,86,13,8,1,18,,1,14,1,,18,1,3,3,4,1,,,,,,,,
565709,10,238,88,12,1,,22,,,13,11,,20,1,1,6,,1,,,,,,,,
565709,9,103,47,2,,2,14,,1,11,3,,8,,,1,5,,,,,,,,,
565709,8,151,53,,1,2,16,1,,8,,,6,1,1,3,10,1,1,,,,,2,,
565709,7,82,43,2,1,,14,,,5,2,1,12,,1,3,,,1,,1,,,,,
565709,6,820,262,20,14,5,64,2,4,45,11,3,30,12,10,8,21,,1,4,,,2,4,,2
565709,5,1074,290,33,14,7,68,1,1,73,7,4,46,9,2,8,12,,,1,1,,,3,,
565717,5,116,37,,1,1,2,,,6,6,4,2,,,5,7,,,,2,,,1,,
565717,4,431,142,20,6,4,9,2,8,39,17,1,19,1,,6,6,1,2,,1,,,,,
565717,3,271,87,3,2,3,10,1,,25,,6,19,,5,3,7,1,2,,,,,,,
565717,2,835,198,28,3,8,23,4,12,34,7,9,25,2,2,13,14,,3,3,1,3,,3,1,
565717,1,718,228,16,5,10,23,3,2,52,7,14,58,2,10,9,12,,,1,,4,,,,
565741,1,518,151,25,6,1,19,2,3,33,21,7,18,1,1,4,7,,,,2,,,,1,
565768,3,161,50,2,,4,2,,1,8,2,4,11,,1,5,1,,,,9,,,,,
565768,2,681,264,12,1,2,13,3,8,38,14,51,52,2,11,15,13,1,,,25,1,,1,1,
565768,1,635,224,15,,5,14,3,5,63,4,27,45,1,6,10,4,,,,21,,1,,,
565776,2,106,59,4,3,1,3,3,,24,,5,10,,2,2,,,,,1,,,,1,
565776,1,607,201,11,,4,17,5,3,78,2,13,34,4,6,13,4,2,,,3,,,2,,
565792,1,471,132,12,3,2,16,6,2,24,3,7,30,2,5,7,4,1,3,1,1,,1,2,,
565806,1,210,76,8,2,,7,4,,22,4,2,16,3,6,2,,,,,,,,,,
565814,2,689,213,10,13,4,25,,25,38,10,7,49,2,5,2,11,2,1,2,4,1,1,,,1
565814,1,841,202,10,23,7,17,5,13,35,8,13,38,1,4,16,8,,2,,,,2,,,
565814,7,151,43,2,2,,,2,1,12,2,,10,2,,,9,,1,,,,,,,
565814,6,114,28,2,1,,4,,,5,,,8,1,4,1,1,1,,,,,,,,
565814,5,134,39,1,3,2,5,,1,8,2,1,8,,,1,5,1,,,,,,,1,
565814,4,187,71,,5,2,12,1,6,24,2,1,11,,3,2,,,2,,,,,,,
565814,3,150,42,1,4,,1,,4,7,,1,13,,2,3,4,1,,1,,,,,,
565831,1,687,404,56,15,5,34,7,12,79,35,36,47,29,6,12,18,1,2,,7,,,3,,
565849,7,94,44,,1,3,3,,2,5,,3,7,1,,6,3,,,,8,1,,1,,
565849,6,89,38,1,,1,2,,,8,,,17,,,5,1,,,,2,,,,,1
565849,5,81,35,,,1,3,,4,11,1,4,10,,,,,1,,,,,,,,
565849,4,86,34,3,1,,7,,,4,3,4,4,6,,1,,,,,,,,,1,
565849,3,158,53,3,4,,10,,2,7,1,,15,,1,4,1,,,,5,,,,,
565849,2,257,119,12,3,4,6,,1,25,3,6,32,2,1,15,3,1,2,,1,,,1,1,
565849,1,523,154,16,2,2,5,,2,40,3,13,25,1,3,20,9,,1,,12,,,,,
565857,1,397,149,9,4,2,18,3,5,37,2,22,13,,4,9,11,2,1,2,3,,,,1,1
565865,1,259,82,1,1,5,4,1,10,27,1,15,9,,2,2,3,,,,,,,1,,
565873,1,141,54,10,,,13,1,1,5,,14,4,,1,3,2,,,,,,,,,
565881,1,336,115,6,5,3,31,1,1,33,1,3,15,,2,5,6,,,,2,,,,,1
565890,1,395,151,13,,3,62,3,3,22,4,4,21,,,4,9,,,1,,,,,2,
565903,1,263,70,,,3,9,2,2,30,1,2,10,,2,4,3,,,,1,,,1,,
565911,1,249,74,12,,1,10,,6,13,2,,20,3,1,,6,,,,,,,,,
565938,1,203,77,2,8,,9,1,2,18,4,4,11,,5,2,8,,,,1,,,2,,
565946,1,421,170,10,2,6,15,8,2,57,5,6,35,,2,5,16,,,,,,,1,,
565954,1,299,126,22,2,3,15,,3,37,7,9,9,1,6,1,7,1,1,,,,,,,2
565962,3,232,63,5,,,1,2,2,17,4,1,6,2,2,8,8,4,,,1,,,,,
565962,2,342,109,8,3,,6,6,2,32,2,16,13,,5,8,3,,,,4,,,1,,
565962,1,655,212,24,1,5,22,5,11,40,11,7,27,4,2,21,25,,1,,1,,,5,,
565971,21,74,20,3,,,1,1,,10,,,3,,1,1,,,,,,,,,,
565971,20,93,29,3,,,5,,,12,1,,5,,1,,1,,,,,1,,,,
565971,19,882,249,21,1,2,20,3,6,59,43,4,45,2,4,12,12,,3,,9,,,3,,
565971,18,778,221,12,2,5,35,1,1,64,15,3,49,3,4,5,8,,2,,7,,,5,,
565971,17,629,176,20,,4,27,,4,42,28,1,25,1,1,8,8,,,,5,,,2,,
565971,1,592,169,14,,2,27,1,9,36,11,5,37,1,6,10,6,1,,,2,,,1,,
565971,4,722,203,24,3,2,28,1,13,37,11,6,43,3,5,9,13,,,,4,,1,,,
565971,3,774,276,49,3,4,27,1,13,86,18,4,40,,11,5,10,,1,,2,1,,1,,
565971,2,674,188,21,,2,23,1,6,44,16,9,31,1,7,7,9,2,,,6,1,,1,,1
565971,16,737,322,50,6,5,35,4,17,88,53,8,17,2,1,9,13,,2,,9,,,3,,
565971,15,947,305,19,6,5,44,,18,66,20,14,59,5,7,11,13,4,1,,10,1,,2,,
565971,14,903,315,38,1,5,41,3,11,58,33,5,56,4,6,12,16,,1,,18,,2,5,,
565971,13,778,278,25,5,6,38,3,16,54,23,6,52,7,6,13,14,,,,7,2,,,,1
565971,12,782,253,29,6,2,48,,9,64,25,9,26,2,5,12,10,1,,,2,,,3,,
565971,11,680,228,30,2,3,29,3,17,54,26,1,34,2,2,9,9,,,1,6,,,,,
565971,10,876,244,21,2,2,37,1,15,62,16,3,42,,7,7,15,,1,1,8,1,,2,,1
565971,9,1197,164,32,2,2,16,2,16,28,22,3,22,3,3,4,7,,,,1,,,,1,
565971,8,664,154,17,3,7,25,1,4,27,14,2,30,,1,11,6,,,,6,,,,,
565971,7,729,177,13,,5,33,,4,43,6,2,40,,4,3,14,1,,,3,,,5,,1
565971,6,641,196,15,3,1,26,,8,51,18,3,40,2,3,10,8,1,1,,6,,,,,
565971,5,791,191,15,6,6,33,,2,47,14,7,41,1,3,4,6,4,,,,,2,,,
565997,1,341,92,7,1,,6,3,3,25,1,,25,3,4,5,2,2,,,3,,1,1,,
566004,1,448,151,2,2,3,13,,,32,10,,70,,1,5,12,,,,,1,,,,
566012,1,195,76,16,5,4,11,,3,9,5,1,10,4,1,1,6,,,,,,,,,
566021,5,121,30,2,,2,3,,1,14,1,,3,,2,2,,,,,,,,,,
566021,4,63,31,,,,11,,,9,,,8,,1,,2,,,,,,,,,
566021,3,103,25,2,,,1,,,15,2,,2,,,2,,,,,,,,1,,
566021,2,129,51,,,2,6,,,26,3,1,10,,,,2,,,1,,,,,,
566021,1,379,103,7,1,4,23,,,33,3,1,11,2,8,2,5,,,,,,3,,,
566063,1,261,65,1,,,10,,,23,,1,16,1,4,2,5,,,,,,,1,1,
566128,1,159,55,,2,2,8,,,15,2,1,10,,1,6,5,,2,1,,,,,,
566152,2,139,48,1,4,1,5,1,,17,1,,10,,2,1,4,,,,,,,1,,
566152,1,389,108,45,1,1,10,2,2,17,2,1,21,,1,1,2,1,,,1,,,,,
566187,2,107,47,,,1,3,,1,18,3,1,8,,2,1,5,,1,3,,,,,,
566187,1,375,133,5,1,7,14,2,1,55,2,1,15,,3,6,13,,,,1,,1,5,,1
566195,2,54,25,,,2,6,,,6,,,6,2,1,,1,1,,,,,,,,
566195,1,278,101,12,1,,20,,4,26,2,7,18,2,1,3,4,,1,,,,,,,
566217,3,52,30,6,,1,7,,1,7,,1,5,,1,,1,,,,,,,,,
566217,2,141,54,3,5,,7,,,14,2,1,15,,2,1,4,,,,,,,,,
566217,1,319,105,18,,,11,3,3,15,5,1,34,1,2,3,5,1,2,,,,1,,,
566233,1,452,143,16,3,,12,2,9,33,12,2,23,1,3,9,6,,4,1,6,1,,,,
566241,1,434,107,4,2,5,16,4,1,29,,5,21,1,3,,7,1,,,7,,,1,,
566284,2,44,19,3,2,,2,,1,8,,,2,1,,,,,,,,,,,,
566284,1,473,164,14,3,9,24,2,10,27,1,6,52,,3,2,3,,1,,5,,,1,1,
566306,1,578,196,27,2,3,23,,6,44,5,1,50,,,20,13,,,2,,,,,,
566314,1,788,196,9,1,7,25,,1,47,7,5,48,4,7,8,22,2,,1,1,,,1,,
566314,5,95,16,1,,2,,,,5,,,7,1,,,,,,,,,,,,
566314,4,103,54,6,1,1,4,4,,19,,,6,,3,8,1,,,1,,,,,,
566314,3,148,57,,,2,1,,,12,,3,23,,3,1,9,1,,2,,,,,,
566314,2,782,245,16,1,5,29,,4,48,13,10,70,2,8,9,22,2,1,,1,,,4,,
566322,1,1181,353,41,1,,33,4,12,108,21,7,66,1,13,7,20,1,,,4,,1,13,,
566349,1,728,218,11,3,2,21,2,3,27,3,11,43,1,55,9,14,,2,,6,2,,3,,
566357,4,79,37,1,,1,2,,2,16,,1,5,,1,5,2,,,,1,,,,,
566357,3,128,46,5,2,1,1,,,21,,,8,,,1,6,,,,1,,,,,
566357,2,105,39,1,,1,3,,2,12,,,10,,,,8,,,,2,,,,,
566357,1,296,100,5,2,2,9,2,2,43,3,,12,2,1,2,10,5,,,,,,,,
566381,1,285,86,9,,1,6,,3,23,3,1,21,2,,3,6,1,,2,,1,2,2,,
566403,3,56,21,3,1,,1,,,6,,,2,,2,,4,,,,,,,1,,1
566403,2,136,55,3,,,22,,,18,4,,2,,2,1,1,,,,2,,,,,
566403,1,234,55,3,,1,7,,2,21,,,5,,5,3,7,,,,1,,,,,
566411,1,122,56,,,,7,2,,27,,,11,,3,,2,,,1,3,,,,,
566438,2,83,23,4,1,1,4,,,6,,,7,,,,,,,,,,,,,
566438,1,1064,332,15,2,6,39,,4,54,5,2,132,3,6,41,18,,4,,1,,,,,
566454,3,186,50,3,,2,4,1,3,16,,,10,2,1,1,3,1,,,1,,,2,,
566454,2,168,41,,,4,3,1,5,10,,3,12,,,,2,,,,,1,,,,
566454,1,465,82,9,2,2,8,1,,15,1,,23,,3,1,11,,1,1,2,,,2,,
566501,1,313,82,11,1,1,7,,17,17,3,,14,1,1,2,5,1,,,1,,,,,
566519,2,94,26,2,,1,3,1,,8,,,8,,1,,1,,,,,,1,,,
566519,1,311,87,2,3,3,12,,2,25,,4,24,2,2,,5,,,,3,,,,,
566527,1,304,100,5,,2,3,,1,37,1,21,16,,,1,13,,,,,,,,,
566535,1,361,116,12,2,1,13,1,3,31,3,24,9,2,3,5,4,,,,,,1,1,1,
566551,7,276,66,8,2,1,5,,1,24,5,2,13,,,,3,,,,2,,,,,
566551,6,177,83,6,,2,14,1,2,23,1,1,18,,1,7,5,,,,2,,,,,
566551,5,153,51,7,,2,7,3,,18,,,7,,,2,3,1,,,,,,1,,
566551,4,172,66,5,2,4,8,1,3,7,5,1,23,,1,3,1,,1,,,,,1,,
566551,3,180,62,12,1,,7,,,17,7,3,8,,,1,2,1,,1,1,,,,,1
566551,2,141,56,4,,3,9,1,8,12,5,1,10,,,1,2,,,,,,,,,
566551,1,738,251,42,1,6,15,1,15,47,18,8,66,5,5,4,12,1,,3,1,,,,1,
566560,1,541,144,9,1,2,12,1,3,26,6,,48,1,2,9,19,,,,,,,4,1,
566578,2,100,34,2,,4,3,,2,10,,,9,,1,,1,,,,1,,,1,,
566578,1,197,75,14,1,1,10,,1,23,4,2,12,,1,3,2,,,,,,,1,,
566586,3,61,24,2,,2,2,,2,7,1,2,2,,1,2,,,,,1,,,,,
566586,2,72,31,,1,1,3,1,,6,,2,4,,2,2,2,,,,4,3,,,,
566586,1,112,60,7,4,1,6,,1,17,1,1,11,2,,1,2,,,,5,,,1,,
566608,1,127,36,4,,,7,1,,6,2,,7,,2,2,3,,,,,1,,1,,
566616,9,118,18,,,,6,,,6,1,,,,2,,3,,,,,,,,,
566616,8,188,36,3,,,4,,,7,,,16,,2,,2,,,,,,,2,,
566616,7,290,50,1,1,,7,,3,22,2,,7,,,,5,,,2,,,,,,
566616,6,386,99,7,2,2,19,,4,29,2,1,13,1,2,3,11,,,2,1,,,,,
566616,5,662,179,15,1,6,35,,12,37,3,3,45,3,1,5,7,,1,,3,,,2,,
566616,4,642,167,6,,4,48,1,5,44,2,2,40,,1,4,5,,1,,,1,1,2,,
566616,3,1092,206,14,3,4,40,1,7,41,9,3,51,,6,4,17,2,1,,,,2,,1,
566616,2,787,159,13,1,2,19,3,12,29,6,3,38,1,11,4,11,,1,1,2,1,,1,,
566616,1,824,239,25,,7,40,1,11,53,13,6,49,2,5,10,11,1,2,,1,1,1,,,
566624,4,39,9,,,,2,,,4,,,2,,,,1,,,,,,,,,
566624,3,1115,196,3,1,4,30,1,5,68,5,5,25,5,11,7,10,3,2,1,3,2,,4,,1
566624,2,1130,281,18,2,3,32,1,6,106,12,5,43,6,16,5,16,1,,2,3,,1,1,1,1
566624,1,670,169,13,1,3,26,1,1,63,7,5,30,2,4,5,5,,2,,,,1,,,
566624,5,95,30,1,,2,2,,,16,2,,3,1,,3,,,,,,,,,,
566624,9,52,25,,,,3,,,11,,,5,,3,1,2,,,,,,,,,
566624,8,119,20,2,,1,3,,,4,,,7,,1,,1,,,,1,,,,,
566624,7,114,26,5,,,,,1,9,2,,2,,3,1,2,,1,,,,,,,
566624,6,60,18,,,1,3,,1,6,,,3,2,2,,,,,,,,,,,
566624,12,120,22,1,,,2,1,,11,2,,2,1,,2,,,,,,,,,,
566624,11,98,34,1,,,8,,2,8,,,12,1,1,1,,,,,,,,,,
566624,10,88,14,,,,3,1,,4,,,2,3,,1,,,,,,,,,,
566659,1,199,75,3,,2,12,,4,13,3,3,21,,1,2,6,,1,,3,,,1,,
566667,3,39,21,3,,,5,,,2,,1,6,,4,,,,,,,,,,,
566667,2,40,20,7,,,8,,,1,1,1,1,,1,,,,,,,,,,,
566667,1,396,143,24,2,4,32,,3,23,3,4,24,,5,6,11,,,,,,1,,1,
566713,1,418,154,13,5,2,15,1,11,47,3,4,30,3,3,4,10,1,,,1,1,,,,
566721,1,341,127,12,2,2,13,,19,34,3,9,15,2,5,4,3,,2,,2,,,,,
566829,1,242,50,2,3,,5,,,12,2,3,15,1,1,,,1,,,3,,,2,,
566853,3,75,35,,,1,5,,3,15,2,1,7,,,,,1,,,,,,,,
566853,2,82,46,,,3,6,1,,14,2,,11,,,1,5,3,,,,,,,,
566853,1,401,123,6,10,4,14,1,2,40,6,4,21,1,3,3,3,2,1,,1,,1,,,
566870,1,263,60,1,,4,5,1,,20,1,,11,,1,2,4,,1,,3,,1,5,,
566896,1,319,87,3,,2,7,,26,19,3,,10,1,5,5,5,,,,,,,1,,
566900,1,429,160,15,1,1,12,,8,23,7,56,8,5,2,4,10,1,,,6,,,1,,
566918,1,212,93,9,,5,10,,2,32,7,4,19,,3,1,1,,,,,,,,,
566926,1,153,50,11,,2,7,,2,13,2,,9,,,,,,1,,1,1,,1,,
566934,2,767,178,13,4,2,16,,2,82,6,2,25,1,5,5,6,2,,,,,5,1,1,
566934,1,748,208,5,1,6,18,1,4,82,1,5,43,2,8,3,20,2,,3,,,1,3,,
566951,2,79,19,1,,,2,,2,8,,,5,,,1,,,,,,,,,,
566951,1,311,88,5,2,,14,,,26,4,1,12,1,4,2,4,4,1,,4,1,1,1,1,
566977,2,86,39,1,,2,6,,1,14,4,,4,,,1,5,,,,1,,,,,
566977,1,128,53,6,,1,1,1,3,18,4,2,10,,1,1,,,,,,,,5,,
566977,3,74,32,4,,,8,,,7,2,,4,,1,1,1,,4,,,,,,,
566985,13,678,164,6,1,2,20,1,10,54,7,1,39,,4,10,4,,,,4,,,1,,
566985,12,734,218,13,6,1,20,4,6,71,16,3,37,1,9,12,16,,,,,,,1,,2
566985,11,1270,172,15,3,1,14,,14,47,20,4,17,2,7,10,12,,,,4,,1,1,,
566985,10,826,169,32,3,2,12,1,1,52,13,4,25,4,2,7,7,,,,,2,2,,,
566985,9,940,246,20,3,3,32,1,7,86,13,1,39,1,9,9,16,,,,3,,1,2,,
566985,8,1018,271,7,5,5,44,5,5,79,8,3,55,4,10,17,18,,1,1,,,1,3,,
566985,7,899,206,9,4,3,22,,6,60,8,2,36,2,6,14,24,1,,,,,4,5,,
566985,6,770,144,8,1,5,14,,7,38,8,6,22,1,4,8,18,1,,,2,,,1,,
566985,5,982,264,23,1,5,40,4,7,64,11,6,57,,7,16,12,2,1,,2,1,3,2,,
566985,4,930,255,29,2,1,31,4,5,81,11,8,35,4,5,16,12,,1,1,3,,,5,,1
566985,3,835,249,38,5,4,27,4,9,65,10,6,36,7,1,9,15,3,,1,1,2,2,3,,1
566985,2,946,320,30,10,1,24,5,9,99,23,11,61,5,5,13,13,1,,,5,2,2,1,,
566985,1,909,227,6,3,7,35,2,12,52,9,7,53,3,6,11,13,1,1,1,3,,,2,,
566985,18,735,202,12,3,7,34,,5,53,4,7,46,,8,4,9,,1,2,4,,1,2,,
566985,17,706,183,14,2,1,21,1,,63,13,6,30,6,2,9,11,2,,,2,,,,,
566985,16,730,190,20,12,7,14,2,5,61,15,3,19,1,3,7,12,2,,1,1,,3,1,,1
566985,15,743,189,26,1,1,13,1,9,48,13,,38,6,6,11,7,,,,1,,4,1,,3
566985,14,786,226,12,5,3,29,,10,59,9,3,46,2,3,16,19,,1,1,2,1,4,1,,
567019,1,328,80,4,,,5,,1,25,1,2,14,1,2,3,6,1,,,2,7,2,4,,
567027,41,1101,292,14,4,6,32,30,10,49,10,9,43,12,16,13,31,1,,,1,,8,2,1,
567027,40,657,162,12,1,1,9,16,3,36,5,3,32,3,5,6,17,,3,,2,1,4,3,,
567027,39,800,198,12,,6,28,27,3,32,6,2,37,,12,10,7,,,,8,,2,6,,
567027,38,385,126,14,1,,11,19,2,23,2,5,22,,8,8,4,1,,,1,,5,,,
567027,37,714,207,10,3,8,34,19,3,38,7,2,40,1,9,8,10,1,,,1,,10,3,,
567027,36,738,189,9,,3,28,21,4,24,2,4,45,1,5,10,21,1,3,,,,5,2,,1
567027,35,545,141,7,1,1,21,9,2,38,2,2,18,2,14,3,8,3,2,,2,1,4,,1,
567027,6,1061,385,64,2,3,30,30,25,47,6,11,67,5,17,31,16,3,,2,15,,8,3,,
567027,5,646,211,26,3,1,17,21,2,43,9,3,37,3,7,12,13,1,,,2,3,5,3,,
567027,4,512,203,17,4,2,12,24,7,39,9,4,36,,4,27,12,,,,1,1,1,2,1,
567027,3,774,301,42,3,4,13,30,14,50,12,11,62,2,6,19,13,1,1,,11,,5,2,,
567027,2,554,196,29,1,1,10,29,9,26,13,7,22,3,8,14,9,,,,4,1,8,2,,
567027,1,439,183,20,1,3,17,20,2,37,8,6,31,2,6,5,13,,,2,,,3,7,,
567027,34,807,206,12,4,4,28,23,2,30,2,3,38,2,9,17,19,1,1,,2,,8,1,,
567027,33,835,230,14,1,5,37,21,5,38,1,6,38,3,10,14,21,,,1,2,2,6,3,,2
567027,32,768,239,20,1,4,32,33,4,49,2,4,46,,12,8,14,1,,,3,1,1,3,1,
567027,31,904,243,17,1,8,28,25,8,40,1,4,42,4,8,19,19,3,,,5,1,3,5,1,1
567027,30,1023,260,12,3,10,34,27,7,52,3,2,42,3,19,15,18,2,,,4,1,4,2,,
567027,29,1097,321,24,4,7,32,49,9,59,7,7,57,2,15,22,16,,3,,2,,2,4,,
567027,28,1091,323,28,3,6,35,35,17,85,6,9,38,10,14,19,12,,,,1,1,4,,,
567027,27,1137,279,14,,7,31,34,3,50,7,7,45,2,26,14,24,2,,,4,1,5,3,,
567027,26,1038,256,11,3,7,28,29,6,71,3,6,44,1,10,12,10,1,,,4,,5,5,,
567027,25,1066,315,21,1,11,32,36,7,72,3,8,44,8,10,17,23,1,3,,8,,3,7,,
567027,24,1135,296,16,6,4,18,46,5,71,7,6,50,1,4,24,24,2,,,4,1,6,1,,
567027,23,878,229,13,1,2,16,24,3,39,5,10,59,1,13,18,10,3,1,,1,2,1,7,,
567027,60,1294,283,12,3,2,38,45,3,47,6,6,41,3,16,15,28,1,1,,3,,9,4,,
567027,59,1014,216,11,1,14,30,15,3,32,6,1,42,1,14,6,19,2,1,,2,1,13,2,,
567027,58,1113,250,6,1,6,28,24,7,40,2,6,41,5,22,21,24,2,,,,1,8,6,,
567027,22,1065,254,18,1,11,39,37,4,38,3,5,44,7,7,10,11,1,,1,4,,6,4,,3
567027,21,992,238,12,3,2,35,23,8,44,2,3,47,1,23,13,15,,1,,2,,2,2,,
567027,20,851,24,1,,2,2,,,,,,18,,,,,,,,,,,1,,
567027,19,182,64,9,1,1,7,5,,15,,1,8,,2,4,6,2,,,2,,1,,,
567027,57,1305,219,10,,4,22,24,3,56,4,8,31,3,16,6,21,1,1,,1,,2,6,,
567027,56,1354,345,28,7,2,37,29,2,59,3,11,69,3,14,18,36,,1,,3,,16,7,,
567027,55,1050,374,66,2,8,17,42,17,66,12,12,41,8,12,18,30,,,,8,1,,13,1,
567027,54,1032,294,14,1,6,41,46,7,54,4,11,59,,7,9,13,,1,2,6,1,5,6,,1
567027,53,869,278,11,1,12,32,32,6,70,2,8,43,3,7,10,29,,,,,,11,1,,
567027,52,1110,236,13,1,5,23,13,8,50,7,5,43,2,13,18,23,,2,,,,6,4,,
567027,51,607,173,7,2,3,19,23,3,39,3,3,34,4,9,4,6,1,3,,1,,7,1,,1
567027,50,929,227,7,1,9,27,29,2,45,2,3,38,1,11,10,23,,3,,4,,10,2,,
567027,49,761,204,6,,6,26,14,1,57,3,,45,,12,6,19,,2,,3,,4,,,
567027,48,874,140,8,,5,15,15,2,30,1,1,28,,4,7,14,,,,2,,8,,,
567027,47,879,195,16,1,2,33,15,5,24,6,7,29,2,13,11,9,1,,4,1,,13,3,,
567027,46,896,164,9,2,5,18,9,6,37,1,1,31,3,4,9,12,,,,3,,5,8,,1
567027,18,776,255,23,2,7,21,39,2,48,1,5,59,2,4,10,21,,,,3,2,2,4,,
567027,17,851,201,21,,10,37,19,5,28,2,4,25,3,9,11,15,1,1,,2,1,2,5,,
567027,16,2518,164,9,1,1,21,15,3,38,,6,17,5,16,5,17,2,,,,2,2,4,,
567027,15,781,222,25,5,7,17,24,9,38,3,9,36,2,10,11,11,2,1,1,2,,8,1,,
567027,14,778,223,24,4,5,22,20,3,36,3,1,24,1,11,18,25,2,1,2,6,5,6,3,,1
567027,13,780,115,10,1,2,11,10,4,29,2,,14,,11,7,11,,1,,1,,,,1,
567027,12,1027,158,16,2,2,14,18,5,29,4,2,26,5,5,7,14,1,1,,,,4,3,,
567027,11,882,287,37,4,8,22,45,11,32,10,10,47,2,7,20,17,,2,,4,1,5,2,1,
567027,10,691,87,9,,2,6,5,3,19,1,3,12,,6,5,6,,1,2,2,,5,,,
567027,9,887,153,20,2,5,8,12,11,20,7,10,20,3,5,6,5,1,2,,7,,5,4,,
567027,8,528,226,48,5,2,8,24,11,42,13,10,9,4,4,18,3,,,1,10,,10,4,,
567027,7,491,161,28,,2,14,13,5,33,7,7,14,1,6,7,12,,,2,2,,2,6,,
567027,45,970,271,22,1,,27,26,4,52,12,7,50,1,5,17,31,,,,5,,7,4,,
567027,44,876,234,18,2,6,28,18,5,42,3,8,38,2,12,13,19,2,1,2,1,,4,10,,
567027,43,919,228,15,3,3,23,19,6,45,6,4,45,5,9,8,18,,,,5,1,10,2,,1
567027,42,1122,243,15,2,3,29,18,7,51,7,1,31,,13,17,25,,,1,4,,19,,,
567043,2,623,142,6,16,4,19,4,3,37,2,3,25,3,3,3,4,,,1,1,2,6,,,
567043,1,622,123,4,25,5,26,3,1,23,1,3,11,2,6,2,7,,3,,,,1,,,
567051,1,158,63,1,2,1,6,7,1,11,4,2,17,,2,1,2,2,,,2,,2,,,
567060,1,982,225,10,2,10,17,6,6,41,4,5,56,1,14,22,19,2,,1,4,,2,3,,
567078,1,206,74,5,1,3,1,1,1,8,,5,28,,5,4,5,,,,,,,7,,
567108,1,68,34,1,,3,9,1,,11,,3,4,,,,2,,,,,,,,,
567141,2,52,15,,,1,5,,,3,,2,4,,,,,,,,,,,,,
567141,1,420,154,6,1,,55,6,2,28,4,3,22,2,5,2,7,4,,,1,,4,2,,
567167,1,353,138,9,1,2,25,8,2,25,6,9,12,2,,14,6,1,,,,,3,13,,
567175,3,200,63,,1,,4,3,,19,2,,5,1,6,20,,,,,,,,1,1,
567175,2,752,151,5,2,3,12,6,6,32,2,4,19,,4,36,11,2,1,,1,1,1,3,,
567175,1,812,263,6,2,1,20,8,5,66,4,13,21,3,10,84,7,1,,,1,,3,8,,
567191,1,109,39,4,1,1,7,3,,4,1,3,5,,3,1,2,,,,1,,,3,,
567221,1,155,66,8,2,,4,3,3,9,1,6,13,1,3,5,2,,,,5,,1,,,
567248,1,181,54,13,1,1,6,,,13,,6,6,,2,,4,,,,2,,,,,
567256,12,495,145,4,2,2,20,10,2,40,5,6,28,1,3,4,4,1,,,8,,1,4,,
567256,11,209,47,,3,,2,2,,10,2,8,5,1,1,2,3,2,1,,,1,2,2,,
567256,10,492,151,7,3,3,21,5,3,43,5,23,13,1,4,6,4,,1,,1,,5,3,,
567256,9,648,245,27,2,3,22,6,4,50,6,37,25,1,12,29,7,,1,1,5,1,,6,,
567256,8,807,251,17,2,6,26,6,,65,11,19,39,2,21,17,9,4,,,2,,,5,,
567256,7,647,131,7,1,2,16,3,,29,5,1,33,,10,3,6,,,,,,8,7,,
567256,6,683,170,9,1,4,32,4,3,42,6,3,30,,9,11,11,,,,,1,2,2,,
567256,22,821,263,12,4,7,37,11,1,68,8,24,35,3,9,21,11,,,,,,4,7,,1
567256,21,636,172,6,4,2,13,3,1,58,,9,36,2,5,6,7,1,,1,1,1,9,6,,1
567256,20,700,201,7,4,2,20,10,5,61,5,15,37,10,3,8,2,,2,3,,,5,2,,
567256,19,764,240,13,6,3,40,3,2,78,11,10,27,2,2,17,7,,,,3,1,8,7,,
567256,18,515,150,3,1,2,22,9,5,48,1,5,27,,8,5,7,,,,3,,,4,,
567256,17,831,217,17,4,8,27,8,5,53,5,9,37,,7,13,8,1,1,,5,,3,5,1,
567256,16,784,223,10,2,4,41,3,4,57,2,5,48,2,9,11,11,3,,,1,2,6,1,1,
567256,15,1760,201,17,3,2,28,8,1,49,5,10,37,,10,4,12,3,1,,2,,5,4,,
567256,14,834,253,7,3,9,50,11,5,62,4,18,52,2,5,13,4,,1,,1,2,1,2,,1
567256,13,596,149,4,3,6,25,,2,42,3,8,30,1,3,5,8,2,,,1,,1,5,,
567256,5,1026,176,6,3,4,29,6,,37,1,6,33,1,14,6,4,2,1,,,,19,3,1,
567256,4,525,23,,,2,4,6,2,5,,,1,,3,,,,,,,,,,,
567256,3,443,16,,1,1,1,,,2,1,,5,,,1,1,,,,1,,1,1,,
567256,2,520,80,2,1,,10,1,,19,1,2,7,,5,6,9,,,,,2,13,2,,
567256,1,463,127,9,1,5,32,2,,24,4,4,16,2,6,9,4,,1,1,,4,1,2,,
567256,28,470,121,5,,1,14,3,4,18,4,12,20,1,12,7,5,1,1,,2,1,7,3,,
567256,27,845,269,24,5,3,39,8,7,57,9,22,40,3,7,26,10,2,,,2,,2,3,,
567256,26,697,217,15,6,3,30,11,3,55,11,7,18,1,7,23,13,,,,3,1,,10,,
567256,25,841,268,18,6,5,22,3,6,76,4,22,38,2,11,22,12,2,,,4,1,2,12,,
567256,24,840,275,16,3,3,30,12,4,71,8,24,26,6,11,25,9,1,1,1,6,,8,10,,
567256,23,667,252,11,2,8,33,9,5,63,16,16,48,,4,13,8,3,1,,1,,5,6,,
567264,4,776,268,17,1,7,32,61,6,27,7,17,36,9,17,5,14,1,2,,3,1,,5,,
567264,3,793,146,4,1,6,21,20,1,29,7,3,23,3,6,4,4,3,2,,1,1,4,3,,
567264,2,673,241,30,2,2,27,21,2,43,6,16,36,1,7,14,18,2,,,2,,3,9,,
567264,1,757,253,12,2,9,36,27,5,52,2,12,42,3,12,9,9,,2,,1,,3,15,,
567272,1,574,156,4,4,8,19,7,,34,1,7,29,4,6,1,20,2,,,1,2,4,3,,
567281,1,416,147,10,,7,19,8,8,23,4,10,35,2,4,10,2,,,,1,,3,1,,
567299,1,185,65,4,2,3,14,3,2,10,1,2,10,,6,1,4,,,,,,,2,,1
567302,1,363,115,3,1,3,8,,5,19,5,11,38,,5,2,6,1,,1,2,2,,3,,
567311,4,1087,299,16,2,7,83,9,5,69,2,8,26,3,16,9,28,1,2,1,2,,3,4,,3
567311,3,974,303,21,4,7,69,9,9,64,7,19,40,1,6,14,19,1,,1,5,,3,4,,
567311,2,918,252,9,3,12,62,2,1,44,2,8,51,,16,16,14,1,1,,4,1,,3,,2
567311,1,933,307,10,8,10,81,10,,54,3,19,47,5,18,8,19,,,,4,3,2,4,1,1
567329,1,392,144,8,,1,11,1,10,18,1,4,27,4,6,4,7,,1,,1,,1,39,,
567337,3,216,74,11,1,3,8,5,1,13,1,3,13,2,3,4,3,,,,,,,3,,
567337,2,900,143,49,2,9,11,4,,17,,,34,3,3,4,6,1,,,,,,,,
567337,1,542,82,29,2,2,6,1,,12,,,10,,5,3,6,1,1,,,,2,2,,
567345,1,376,139,14,3,1,22,7,2,30,1,5,26,1,6,8,6,1,,,1,,1,4,,
567353,1,185,78,15,,1,7,5,6,15,5,2,10,1,4,2,4,,1,,,,,,,
567361,1,206,84,7,10,1,9,9,5,12,,3,14,3,2,5,1,,,,,1,1,1,,
567426,1,412,144,12,2,1,13,7,,32,,4,26,1,19,4,10,1,,1,5,2,,4,,
567442,19,949,212,20,2,1,37,,14,59,9,2,32,1,7,7,10,,,,7,,,3,,1
567442,18,970,127,24,,1,8,1,12,26,10,4,10,1,1,10,14,1,,,3,,,1,,
567442,17,855,242,29,2,2,24,5,29,50,25,4,31,2,5,13,11,2,1,,5,,,2,,
567442,16,1761,197,29,,2,31,,9,37,7,3,34,2,9,11,11,,3,,5,1,,3,,
567442,15,859,348,60,4,1,30,3,48,60,38,9,43,,5,22,9,1,,,10,2,,3,,
567442,14,1151,340,32,,3,40,5,36,81,30,11,44,6,7,18,16,,,,7,2,,2,,
567442,13,747,242,35,5,1,6,3,36,53,11,7,30,4,8,5,16,3,1,,10,2,2,1,1,2
567442,12,799,246,35,,6,25,2,25,60,6,4,24,2,10,14,21,1,,,6,2,,3,,
567442,11,892,351,44,8,1,41,,30,94,18,6,31,6,11,24,22,1,,,6,,2,5,1,
567442,10,866,207,24,2,1,18,3,29,39,13,3,11,7,5,14,22,4,3,,4,4,,1,,
567442,9,851,216,32,2,2,18,1,22,46,8,3,26,5,3,16,5,9,1,,13,,,1,1,2
567442,8,727,235,28,1,1,12,5,30,70,16,3,26,5,3,16,9,2,,1,4,1,,2,,
567442,7,879,247,33,2,1,34,3,29,48,5,4,39,1,5,10,18,5,,1,7,1,1,,,
567442,6,710,185,22,,2,21,2,23,45,7,,27,4,2,7,10,3,,2,7,,,1,,
567442,5,882,197,17,,3,27,3,7,53,6,5,36,2,3,8,17,2,1,,4,,,3,,
567442,4,697,235,24,,4,31,5,15,58,7,4,38,6,3,8,13,2,2,2,7,3,,2,,1
567442,3,711,236,29,4,1,27,2,22,61,2,2,46,1,4,14,7,4,,,7,,,3,,
567442,2,789,267,57,1,3,27,4,23,68,6,3,35,6,3,11,12,2,,,4,,,1,,1
567442,1,431,115,19,,,17,3,10,26,4,2,5,,9,2,13,1,,,1,,,3,,
567442,32,912,266,29,1,,24,2,39,56,19,4,22,4,11,10,26,3,2,,11,,,3,,
567442,31,799,276,38,2,3,35,6,8,90,9,3,30,3,9,16,10,1,1,1,4,1,1,5,,
567442,26,509,141,25,1,2,8,1,26,28,3,2,15,1,1,15,2,1,,3,4,1,1,1,,
567442,25,918,216,29,,,14,3,29,40,11,3,29,2,4,17,17,10,,,7,,,1,,
567442,24,660,235,37,6,1,16,2,31,50,23,6,28,3,1,13,10,1,1,,1,,3,2,,
567442,23,721,253,47,,1,14,,32,40,26,7,29,1,3,10,10,9,,,13,3,,5,,3
567442,22,1065,261,49,5,4,25,3,27,50,17,2,35,,10,13,9,1,1,,6,,2,2,,
567442,21,826,188,14,,3,36,4,10,35,5,2,34,2,9,6,17,6,,,2,,1,1,1,
567442,47,958,316,56,6,2,26,1,26,73,19,2,53,2,12,12,12,6,,,3,1,,3,1,
567442,20,861,113,12,,2,19,1,9,25,4,1,17,1,4,8,6,1,,1,1,1,,,,
567442,30,615,203,33,3,3,31,4,9,52,8,5,17,3,1,12,5,,2,,10,,1,3,,1
567442,29,671,276,29,5,3,17,3,20,96,21,4,33,2,7,17,11,2,1,1,,,1,2,,1
567442,28,789,188,23,,,19,3,30,29,8,8,17,1,6,19,11,3,1,,7,1,1,1,,
567442,27,727,259,30,1,2,26,3,27,59,21,4,24,5,3,17,14,2,5,,10,,,6,,
567442,46,754,190,19,,2,21,1,14,40,8,5,32,,3,12,21,,,,6,1,,5,,
567442,45,740,224,13,2,2,39,3,18,46,9,6,41,,7,13,17,,,,6,1,,1,,
567442,44,873,214,27,4,,39,2,5,59,5,3,31,4,3,10,11,2,2,,5,,1,1,,
567442,43,903,230,29,2,,24,4,16,43,15,8,33,6,6,16,15,,1,1,7,,1,1,,2
567442,42,1085,304,33,4,5,25,6,26,67,14,6,54,1,13,5,31,3,6,,4,,1,,,
567442,41,924,226,27,,3,34,4,23,52,7,5,40,1,3,7,9,,1,1,7,,,1,,1
567442,40,1147,241,32,,1,40,5,15,64,7,2,22,2,6,9,24,3,,,3,,,5,1,
567442,39,980,248,24,2,9,36,3,18,56,8,4,33,,3,16,14,4,5,,5,,,8,,
567442,38,1085,298,33,4,3,32,7,19,76,16,8,49,3,8,8,10,7,2,,8,1,1,1,,2
567442,37,1032,180,18,,2,23,4,13,37,10,2,20,5,4,14,12,4,,,5,,1,6,,
567442,36,710,234,36,2,3,13,4,28,59,5,5,43,2,6,11,10,3,,,4,,,,,
567442,35,775,269,25,4,4,34,4,10,85,10,4,36,,2,13,22,3,1,,6,3,3,,,
567442,34,652,254,22,3,7,32,2,19,80,5,5,34,3,7,9,15,2,1,,6,1,,1,,
567442,33,857,278,22,5,1,24,4,31,69,10,10,46,2,7,15,7,7,,,9,2,3,2,,2
567451,8,849,79,3,1,1,16,,,12,,,29,,7,1,3,1,,,3,2,,,,
567451,7,790,208,8,,6,21,2,2,43,8,4,70,,17,5,13,,3,,3,,,3,,
567451,6,748,214,22,2,2,14,5,4,41,13,6,67,1,8,2,13,1,,,9,,,3,,1
567451,5,779,169,15,1,2,12,1,1,30,1,5,64,2,10,6,10,1,1,,6,,,,,1
567451,4,592,173,7,1,1,12,,5,38,6,5,58,5,7,7,8,,,1,7,,,5,,
567451,3,947,254,12,2,5,10,4,8,63,7,3,84,,11,10,22,1,,,11,,,1,,
567451,2,976,313,31,,2,21,4,15,56,10,18,90,12,19,6,15,,3,,9,,,2,,
567451,1,1147,213,16,,3,7,3,8,31,12,4,44,5,21,15,21,,,,22,1,,,,
567451,15,802,239,7,,3,18,2,6,45,7,7,100,1,10,4,15,,2,,10,,,2,,
567451,14,598,158,8,,4,11,,3,19,3,1,68,,11,3,21,,1,,3,,1,1,,
567451,13,775,177,7,1,4,18,8,1,25,5,2,66,,17,3,13,1,,,2,,1,2,,1
567451,12,731,193,7,,,11,2,6,47,8,1,60,,25,7,9,,,,8,,,2,,
567451,11,650,156,7,1,3,12,3,4,36,1,,50,,22,3,4,3,,,7,,,,,
567451,10,940,307,22,2,7,21,1,4,62,3,4,113,2,18,11,21,3,,,10,2,,1,,
567451,9,732,87,3,,4,9,,,12,2,,31,,9,3,8,2,,,4,,,,,
567469,1,332,151,12,2,,14,1,4,24,6,11,25,4,3,28,6,1,,,7,2,,,,1
567477,2,633,203,22,3,3,30,,3,58,11,5,36,1,4,3,13,3,1,1,5,,,1,,
567477,1,1050,267,27,3,5,38,,19,72,7,,34,2,6,13,23,1,1,,5,3,2,4,,2
567485,2,184,72,4,1,,7,,11,22,3,2,8,,2,6,1,,,1,,,,4,,
567485,1,514,176,16,1,1,14,2,10,34,6,9,49,1,3,10,11,,3,,4,,,,1,1
567507,7,570,194,15,4,9,17,37,10,33,8,2,15,2,7,17,4,9,,3,,,,1,1,
567507,6,1020,176,14,1,2,19,21,5,38,7,1,32,2,13,3,13,,,,4,,,1,,
567507,5,1100,300,42,4,5,26,27,21,57,7,10,37,4,9,8,22,5,1,1,5,,,8,,1
567507,4,792,271,19,6,2,24,30,26,55,17,4,55,,6,7,7,5,2,,3,,1,2,,
567507,3,815,261,16,,3,29,25,12,52,12,7,45,3,7,11,24,5,1,2,2,1,1,1,,2
567507,2,1149,270,20,4,1,32,25,15,61,8,9,49,4,9,6,16,4,1,,1,,1,4,,
567507,1,865,235,15,10,2,34,21,15,38,11,4,28,4,10,14,18,2,,,3,,,6,,
567515,3,843,254,6,3,3,53,5,5,65,10,2,41,1,18,12,19,2,1,,4,,,3,,1
567515,2,1213,192,13,5,7,25,1,3,50,12,6,18,1,19,4,14,1,1,2,2,2,,5,1,
567515,1,989,150,12,1,3,17,1,3,41,3,,21,4,25,4,8,,,,,,2,1,,4
567515,7,922,247,17,2,6,50,5,2,47,9,4,41,,29,,16,4,1,,7,1,,5,1,
567515,6,957,225,16,3,2,37,5,1,58,6,4,50,2,18,,18,,1,2,1,,,1,,
567515,5,875,234,12,4,5,61,4,3,46,2,,42,1,19,,29,2,1,,1,,,2,,
567515,4,928,326,26,5,6,49,6,11,89,6,11,63,3,20,2,17,3,1,1,2,,1,4,,
567523,1,934,276,27,9,4,36,9,7,69,3,20,40,3,4,9,19,,,2,10,,1,4,,
567531,1,968,263,6,,8,27,2,7,52,3,2,69,4,12,5,25,1,2,1,36,,,,1,
567558,3,394,136,29,3,5,9,1,6,32,1,5,25,,2,3,10,,,,1,,1,3,,
567558,2,644,211,23,5,,19,10,11,47,6,3,44,3,5,7,18,4,1,,4,1,,,,
567558,1,592,174,7,2,2,20,9,6,54,3,1,39,,8,4,12,,2,,4,,,1,,
567566,1,872,252,7,,7,11,3,6,42,9,35,74,3,7,12,23,,,,7,2,,4,,
567582,1,737,215,20,1,3,26,8,6,56,7,5,30,3,11,19,11,,,,5,,,3,1,
567604,1,249,68,7,,2,4,2,8,20,3,1,7,,1,3,2,,,,1,1,2,3,,1
567612,1,730,233,8,4,6,20,2,2,45,10,6,63,2,9,14,19,1,1,,20,,,1,,
567621,5,680,161,17,1,3,22,9,7,42,8,1,25,1,1,9,7,1,1,,4,,,1,,1
567621,4,475,106,4,,1,13,6,5,32,3,,23,2,5,3,9,,,,,,,,,
567621,3,636,145,6,2,3,23,12,2,42,3,1,20,1,4,1,18,1,1,,5,,,,,
567621,2,512,156,15,2,4,24,5,2,39,9,3,24,3,2,6,12,1,,,4,,,1,,
567621,1,211,61,3,,,9,1,2,15,5,,9,,1,3,8,,1,,4,,,,,
567639,11,247,75,6,2,,19,,2,21,,,12,2,4,,3,,1,,2,,,1,,
567639,10,1042,390,27,2,2,81,6,29,97,20,6,50,1,15,19,28,1,,,2,,,4,,
567639,9,1085,134,10,2,2,36,,1,27,1,1,15,,10,6,13,3,1,,1,2,,3,,
567639,8,1097,190,6,4,3,72,2,8,25,9,3,28,4,13,1,9,,1,,1,,,1,,
567639,7,995,275,17,3,4,46,,16,68,8,2,55,,12,6,29,3,,,3,1,,2,,
567639,6,1034,294,9,1,5,70,3,13,78,6,3,50,6,11,13,15,4,1,,1,,2,2,1,
567639,5,1089,342,12,2,5,120,2,33,49,8,5,48,5,6,7,23,4,,,3,3,,6,1,
567639,4,1527,427,40,2,8,107,1,28,85,11,5,66,1,12,12,28,3,3,1,5,,1,7,1,
567639,3,1057,352,17,2,6,106,4,17,80,21,4,57,1,9,4,16,2,,,,1,,4,,1
567639,2,727,231,13,1,2,66,2,16,57,5,,34,2,7,7,13,2,1,,3,,,,,
567639,1,645,245,20,2,,66,1,9,57,8,1,36,1,10,8,12,1,1,,8,1,,3,,
567647,1,499,136,4,1,4,13,4,2,33,1,4,32,1,15,3,8,3,1,,3,,,4,,
567655,1,435,114,,2,4,12,3,6,24,4,5,33,,4,1,11,,,,3,,,2,,
567698,1,265,78,1,,1,4,,,3,2,3,11,,2,4,4,1,,,41,,,1,,
567701,1,173,75,19,1,1,8,,3,11,3,9,8,1,2,,3,1,,,4,,,1,,
567710,1,824,272,18,4,,21,1,12,56,12,25,22,6,17,9,25,9,1,,16,1,9,8,,
567728,1,122,48,5,1,1,8,1,,4,2,,2,1,,11,8,,,,4,,,,,
567752,1,999,225,14,4,,44,6,9,45,12,2,32,2,5,17,15,3,,,10,,,3,1,1
567752,2,789,262,21,4,2,36,8,21,57,8,8,55,6,1,7,13,,,2,10,1,,2,,
567761,2,209,70,1,1,2,4,,4,8,,2,23,,6,6,7,,,,2,,,4,,
567761,1,388,113,12,1,,19,,2,25,2,,29,,8,9,2,1,1,,1,,,1,,
567779,4,1159,298,22,1,3,30,26,9,86,3,9,51,6,5,8,28,1,2,,,,4,3,1,
567779,3,1272,329,19,3,6,33,14,9,93,12,19,68,3,11,7,16,1,1,3,2,,1,7,,1
567779,2,803,215,4,1,,27,15,1,57,7,3,69,,6,3,8,2,4,1,5,,,2,,
567779,1,760,220,5,,4,44,5,2,51,3,3,59,2,10,4,21,2,,,1,4,,,,
567787,3,182,75,8,4,,10,,16,12,4,,7,,1,7,3,,1,,1,,,1,,
567787,2,872,288,26,2,2,16,7,51,66,23,6,45,5,11,8,11,,1,,6,,1,,,1
567787,1,1103,329,26,6,,28,5,44,88,12,8,44,3,12,15,22,3,1,,8,,1,3,,
567809,1,636,200,20,,6,25,,6,41,3,6,41,4,7,10,21,1,3,,3,1,,1,,1
567833,1,294,107,19,1,5,3,2,1,29,7,2,12,,4,2,11,2,,,4,,1,2,,
567841,1,793,247,13,1,3,28,4,6,36,7,6,63,1,17,2,15,2,,3,36,,,3,1,
567850,1,737,166,17,4,6,17,,9,33,11,3,44,4,1,1,7,,,,5,1,,3,,
567868,1,937,235,8,9,5,22,4,10,49,10,10,48,2,12,10,24,3,2,,1,3,,2,1,
567876,1,426,128,13,1,2,5,,7,21,3,9,19,,4,29,9,3,,,2,1,,,,
567884,1,143,46,,1,1,6,,3,11,,,3,2,,4,1,,,1,12,,,1,,
567931,1,474,209,20,5,10,15,2,12,55,7,8,29,,8,15,11,,,,10,1,,1,,
567957,1,182,47,4,,3,2,2,,5,,1,13,2,3,1,9,1,,,1,,,,,
567973,1,307,129,8,3,4,14,9,2,34,11,3,22,,2,3,8,1,,,5,,,,,
568007,3,773,241,21,23,5,16,6,11,37,12,8,33,2,11,19,10,2,1,,21,,2,1,,
568007,2,1034,305,22,22,12,28,7,16,57,15,9,47,1,11,10,26,1,7,1,11,1,,1,,
568007,1,200,69,3,7,,4,,2,13,5,,22,,1,3,3,1,,,1,,2,2,,
568015,4,214,47,2,3,2,,3,1,6,5,3,9,,1,6,,,,1,3,,,,,2
568015,3,1099,301,19,9,7,12,9,7,78,20,16,55,7,14,8,25,4,1,,8,,,1,1,
568015,2,1009,323,19,7,7,39,25,11,75,10,9,48,4,9,10,23,1,,,20,,,6,,
568015,1,1310,389,28,11,6,45,10,25,79,33,13,54,6,7,22,18,,1,,23,1,2,4,1,
568023,2,163,52,8,2,1,7,5,4,5,1,1,6,1,3,,3,,,,3,,,2,,
568023,1,669,254,30,10,7,8,1,13,73,15,2,39,3,12,16,9,,1,,12,1,,,,2
568058,1,812,215,19,7,3,11,13,11,52,16,9,37,2,5,4,17,,,,9,,,,,
568091,2,109,22,,,,4,,3,8,,,3,,,1,,1,,,2,,,,,
568091,1,328,102,10,1,2,11,,5,28,7,3,19,1,3,4,8,,,,,,,,,
568104,3,79,17,1,,1,2,1,,5,2,,1,,,2,2,,,,,,,,,
568104,2,390,178,18,7,5,12,,7,41,12,6,39,3,4,5,13,,,1,5,,,,,
568104,1,82,40,5,2,2,3,,3,7,1,2,9,,1,,,,1,,4,,,,,
568104,4,89,30,1,,,3,3,1,10,,1,4,1,1,4,,1,,,,,,,,
568147,2,97,24,2,,,1,,1,8,,,3,2,,4,1,,,,,,,,1,1
568147,1,469,135,11,7,3,9,3,8,23,5,11,29,,1,7,7,1,1,1,4,,,3,1,
568155,3,291,53,4,5,4,4,2,2,10,4,1,7,3,1,4,2,,,,,,,,,
568155,2,503,128,11,5,,23,2,1,29,8,3,20,1,4,5,11,1,,,2,,,1,,1
568155,1,1064,291,23,14,7,38,2,17,67,16,10,32,1,7,10,20,1,1,,19,1,,1,2,2
568201,1,544,171,11,6,6,18,1,4,40,21,4,27,,7,6,7,,3,,8,,,2,,
568201,3,330,113,6,4,3,5,2,8,27,13,4,13,1,3,4,8,,,,10,,1,1,,
568201,2,224,63,,,1,5,4,,14,3,4,10,1,4,6,5,,,,3,,,3,,
568287,1,107,52,2,1,2,6,,4,19,,8,7,,,1,2,,,,,,,,,
568295,1,568,245,10,2,10,23,17,13,51,10,10,49,1,7,7,19,,,,12,,1,3,,
568309,1,726,307,37,6,3,13,,34,40,56,18,41,2,5,14,22,1,,1,7,,,4,,3
568350,2,479,171,21,5,1,12,6,8,42,7,9,25,1,4,5,10,,1,1,12,,,1,,
568350,1,1283,445,42,7,5,61,11,15,119,22,5,64,3,23,14,27,1,1,1,10,,,2,3,9
568384,1,205,82,5,,3,5,7,3,11,10,1,20,,4,4,2,,2,,4,,,1,,
