OBEC,OKRSEK,VOLICI,HLASY,HLASY_1178,HLASY_53,HLASY_7,HLASY_47,HLASY_659,HLASY_720,HLASY_1114,HLASY_768,HLASY_1,HLASY_1438,HLASY_715,HLASY_1220,HLASY_1206,HLASY_98,HLASY_759,HLASY_1177,HLASY_600,HLASY_785,HLASY_1119,HLASY_1390,HLASY_1125,HLASY_1209,HLASY_1218,HLASY_1200,HLASY_1219,HLASY_1440,HLASY_1052,HLASY_40,HLASY_1222,HLASY_762,HLASY_794,HLASY_1190,HLASY_1179,HLASY_123,HLASY_83,HLASY_764,HLASY_1223,HLASY_1224,HLASY_1439
513890,1,133,47,1,3,6,4,4,8,4,16,1,,,,,,,,,,,,,,,,,,,,,,,,,,,,,,
514161,1,72,20,,4,,2,2,,2,8,,1,1,,,,,,,,,,,,,,,,,,,,,,,,,,,,
514195,1,98,27,1,1,,3,5,2,3,11,,,,1,,,,,,,,,,,,,,,,,,,,,,,,,,,
514276,1,334,77,,7,2,10,6,6,9,28,,4,,2,1,1,1,,,,,,,,,,,,,,,,,,,,,,,,
530387,1,180,69,,4,2,3,18,13,6,14,,,,2,,,,2,1,2,1,1,,,,,,,,,,,,,,,,,,,
530425,1,156,45,,7,,,8,9,3,9,1,,,6,2,,,,,,,,,,,,,,,,,,,,,,,,,,
530433,1,289,72,,,4,9,10,4,5,24,3,1,1,,2,,,,2,,,2,3,1,1,,,,,,,,,,,,,,,,
530468,1,713,198,2,27,9,13,32,26,20,27,6,8,2,16,2,,,,1,1,,1,,,,3,2,,,,,,,,,,,,,,
530484,1,413,140,1,26,,3,21,29,5,28,,1,2,7,6,,,,1,,1,3,1,,,2,,1,2,,,,,,,,,,,,
544337,2,178,43,,4,3,6,4,7,,9,,,1,4,1,,,1,2,,,,,,,,,1,,,,,,,,,,,,,
544337,1,177,58,1,7,5,2,10,17,1,8,2,,1,,,,,,,,,,,,,1,,2,,1,,,,,,,,,,,
544345,1,309,123,3,18,,13,12,20,11,24,1,,1,7,2,,,,,2,,1,,1,,2,,,1,1,1,2,,,,,,,,,
544353,1,228,71,,7,4,11,7,7,3,15,,1,1,2,2,2,,,,,,,3,,,,,1,,,,4,1,,,,,,,,
544477,1,1811,571,2,95,13,17,94,87,45,154,12,4,6,13,8,,,,2,1,3,2,,,,6,2,3,1,,,1,,,,,,,,,
544531,1,418,132,1,13,8,2,14,24,18,31,2,6,1,9,1,,,,,,,1,,,,1,,,,,,,,,,,,,,,
544582,1,232,105,,17,2,5,8,23,6,21,6,2,1,5,,1,,,,,,1,,,,2,,1,1,,,,,1,1,1,,,,,
544604,1,124,45,,2,,1,18,11,1,8,,1,,1,,,,,,,,,,,,,1,,,,,,,,,,1,,,,
545937,1,191,81,,12,3,6,9,16,17,8,2,,2,1,1,,,,,,,,,,,,,1,1,,,,1,,,,1,,,,
545953,1,270,102,1,11,3,5,16,11,14,21,2,2,2,6,2,,,,,,,1,,,2,,1,1,1,,,,,,,,,,,,
545996,1,268,94,,7,1,13,4,9,16,19,8,3,,4,4,,,,2,,1,,1,,,,,,1,,,,,1,,,,,,,
546232,1,126,50,,7,,2,3,5,9,18,,,,,1,,,,,1,,,,,,1,,,,1,1,,1,,,,,,,,
546259,1,188,35,,3,2,1,1,3,4,17,,,,,,,,,,,1,,,1,,1,,,,,,,,,,,,1,,,
546267,1,222,82,,5,1,10,6,4,6,18,2,4,1,5,5,,,1,1,1,5,2,1,,,,,1,,,2,,,1,,,,,,,
546275,1,107,52,,5,,3,6,8,7,15,3,,,2,,,,,,1,,1,,,,,,1,,,,,,,,,,,,,
546283,1,200,77,,20,1,,19,10,3,12,1,3,1,1,2,,,,,,,2,,,,2,,,,,,,,,,,,,,,
546577,1,332,83,1,9,1,3,21,14,8,8,,,3,11,,,,,,,,,,,,1,,1,,,,,,,2,,,,,,
546585,1,429,121,2,9,4,8,9,13,18,38,1,3,1,2,9,,,,,,,,,,2,,,,2,,,,,,,,,,,,
546593,1,696,164,2,13,7,16,13,19,27,43,2,3,,6,5,2,1,,1,,,,,,,2,,1,1,,,,,,,,,,,,
546607,1,552,100,,6,5,12,8,9,9,34,3,4,,,1,,,,,1,2,,2,,,,,,,,,,,1,3,,,,,,
546631,1,565,131,,12,10,5,13,21,22,25,1,8,3,,2,2,1,,,,,,1,,1,,,2,,,,,2,,,,,,,,
546658,1,135,42,,7,1,1,9,1,3,15,1,1,,2,,,,,,,,,,,,,,,,,,,,,,,1,,,,
547476,1,213,89,,16,3,,18,25,,11,5,2,,1,1,,,,1,,3,,,,,1,1,,,,1,,,,,,,,,,
547484,1,160,67,,14,2,6,5,7,5,10,5,6,,1,1,4,,,,1,,,,,,,,,,,,,,,,,,,,,
553638,1,148,36,,3,1,1,2,3,5,17,1,1,,,,,,,,,,,,,,,,1,,,,,,,,,,,1,,
561380,9,536,161,,15,7,15,10,22,32,43,2,2,,3,3,,,,,,,1,,,,2,1,2,,1,,,,,,,,,,,
561380,8,636,181,1,21,9,17,22,25,15,47,2,2,1,5,8,,,1,,,,1,,,,,1,1,2,,,,,,,,,,,,
561380,7,950,227,1,38,5,9,30,31,29,51,,3,2,10,2,1,,4,,,,2,1,1,,2,,5,,,,,,,,,,,,,
561380,6,584,172,,21,6,14,16,21,17,59,1,1,1,6,4,,,,1,1,1,,2,,,,,,,,,,,,,,,,,,
561380,5,776,294,1,57,6,19,35,38,31,75,12,1,,8,4,,,,,1,,1,,1,,2,,,2,,,,,,,,,,,,
561380,4,975,299,1,35,14,10,47,51,25,82,4,,2,10,5,2,,1,,,,1,,,,3,,2,2,,,1,,,1,,,,,,
561380,3,340,83,1,12,5,3,17,15,6,18,1,1,,,,,,1,,,,,,,,1,1,,1,,,,,,,,,,,,
561380,2,583,155,2,22,4,9,25,21,11,48,3,,2,2,4,1,,,,,,,,,,,,,,,,,,,1,,,,,,
561380,1,2450,223,1,35,2,9,27,37,31,44,9,,4,1,4,1,,1,1,1,,,2,1,1,3,1,1,1,2,,,1,,2,,,,,,
561380,12,728,189,1,23,13,11,18,27,27,42,4,,2,5,1,1,1,,,,,2,,1,1,,3,2,1,,,,,,1,,,,,2,
561380,11,405,136,1,27,1,11,23,13,11,27,7,1,,2,,2,,,,4,,,1,,,,1,2,2,,,,,,,,,,,,
561380,10,627,100,2,13,5,6,9,9,5,35,4,3,,1,4,,,,1,,,,,,,,1,,,,1,,1,,,,,,,,
561380,34,759,136,,16,8,4,11,16,25,46,,,3,,1,2,1,,1,,,,,,,1,,,1,,,,,,,,,,,,
561380,33,578,114,,15,2,8,9,23,18,26,1,,,1,5,,,,1,1,,2,,,,2,,,,,,,,,,,,,,,
561380,32,621,138,,14,8,4,8,18,27,43,1,2,,1,,,,,,,,,,,,2,1,5,1,,1,,,,1,,1,,,,
561380,31,550,104,,11,3,6,5,16,9,33,2,4,2,1,,,,,,,,,,,,,2,4,,1,,2,,,,,1,,,2,
561380,13,755,202,1,23,8,13,21,33,30,47,4,1,1,11,4,,,,,,,,,,,,3,,,,,,2,,,,,,,,
561380,44,84,27,,4,,2,6,2,3,7,,,,,,,,,,,,,,,,1,,,1,,,,,,,,,,,,1
561380,43,1055,205,,23,4,14,15,29,30,58,6,2,4,6,2,,1,2,1,1,,,,,,3,1,1,,,,,,,,,2,,,,
561380,42,1148,234,,17,13,13,27,37,27,53,9,3,2,7,6,,,2,2,,,,,2,1,2,2,,4,,,3,,,,,,,1,1,
561380,41,972,229,1,15,8,12,16,43,34,57,8,4,6,4,5,,1,2,,,,1,,,1,5,,2,,,1,1,1,,1,,,,,,
561380,40,275,81,,9,,2,8,16,13,19,3,1,,3,2,,,,,,,,,,,4,,1,,,,,,,,,,,,,
561380,39,349,128,1,39,2,8,16,19,11,21,,1,1,,1,,,,,,,,,,,,,,,3,,,,,1,,,,,3,1
561380,38,467,107,,11,1,11,12,17,14,29,2,,1,,1,2,,,,,,,1,,1,1,,,,,,1,,,,,,,,2,
561380,37,296,54,1,2,1,5,6,7,11,13,,2,,,1,,,,2,,,,,,,,,,,,,,1,,,,,,1,1,
561380,36,501,138,,20,1,7,16,18,21,37,1,3,,3,3,,,,,1,,,,,,,1,,3,1,1,1,,,,,,,,,
561380,35,407,56,,7,2,6,6,10,3,16,1,,,,,,,,2,,,,1,,,2,,,,,,,,,,,,,,,
561380,21,1066,154,1,8,14,10,7,15,30,54,,1,,1,7,1,,,1,,,,,,,1,,1,,1,,,1,,,,,,,,
561380,22,849,109,3,3,4,5,8,10,28,33,2,2,1,,1,,,1,1,,,,2,,,,,,,1,,2,2,,,,,,,,
561380,20,824,135,3,12,7,10,10,12,22,40,2,,2,3,3,,,1,,3,1,,,,,3,,,1,,,,,,,,,,,,
561380,19,500,111,1,14,3,3,15,15,11,33,1,,,4,2,2,,,,,,,1,,,2,4,,,,,,,,,,,,,,
561380,18,430,132,1,7,7,6,19,20,11,49,7,1,,,,,,,,,,,,,,1,,2,,,,1,,,,,,,,,
561380,17,306,92,,9,8,12,11,7,2,32,2,,,,6,,,,,,,,,,,2,1,,,,,,,,,,,,,,
561380,16,684,189,2,28,4,10,17,20,24,59,6,1,3,5,3,,,1,,1,,,,,,,,,,,,2,,,2,,,,,1,
561380,15,387,112,,13,3,11,12,15,12,35,,,1,5,3,,,,,,,1,,,,,1,,,,,,,,,,,,,,
561380,14,690,179,,20,11,15,13,27,26,39,3,2,1,7,4,,1,1,,,,1,,,,4,,1,3,,,,,,,,,,,,
561380,30,360,69,,8,2,,9,11,13,16,3,1,,,,,,3,,,,,,,,,1,2,,,,,,,,,,,,,
561380,29,630,114,2,4,5,9,9,15,23,33,2,2,,3,2,,,,,,,,1,,,,,2,1,1,,,,,,,,,,,
561380,28,923,178,,18,3,12,20,26,30,53,1,,1,3,3,,,,,4,,,,,,2,,,1,,,,,,1,,,,,,
561380,27,703,154,2,16,7,15,16,21,25,40,1,,1,2,3,,,,,,,,,,,2,1,,,,,,,,,,,,,2,
561380,26,723,120,,11,2,7,15,19,27,26,1,3,,2,,,,,,,,1,,,,1,,1,3,,,,,,1,,,,,,
561380,25,241,47,,1,1,1,3,2,14,18,,,3,1,1,,,,,,,,,,,,1,,,,,,,,,,,1,,,
561380,24,860,127,1,10,4,11,9,15,19,35,2,5,2,3,1,,,,,1,1,2,1,,1,1,,,1,,1,,1,,,,,,,,
561380,23,490,73,1,8,4,6,4,14,9,17,1,2,1,,3,,,,,,,,,,,,,1,,,,,,,,,,2,,,
561398,1,301,90,,25,,3,10,6,15,16,,4,,5,2,1,1,2,,,,,,,,,,,,,,,,,,,,,,,
561401,1,110,53,,5,,1,10,13,1,13,,1,1,4,1,,,,,,,,,,,,1,,,1,,,,1,,,,,,,
561410,1,481,91,,20,5,6,6,11,6,25,,1,,,1,,,,,1,1,4,,,,,2,,,,,,,,,,,,,2,
561428,1,164,41,,12,1,1,10,4,5,4,,1,,,1,,,,,,,,,,,,,2,,,,,,,,,,,,,
561444,2,304,68,,9,,9,6,6,10,17,2,4,2,,1,,,,,,,,1,,,,,,,,,,,1,,,,,,,
561444,1,631,115,,6,5,13,3,13,17,34,8,3,,2,5,1,,,3,,,,2,,,,,,,,,,,,,,,,,,
561444,3,122,33,2,,,1,4,4,6,11,,,,,3,,,,,,,,1,,,,,,,1,,,,,,,,,,,
561479,5,1003,218,5,33,5,14,28,23,21,48,4,5,1,7,4,3,,,,2,,,,1,,2,,2,,,,,10,,,,,,,,
561479,4,844,174,,21,5,20,15,29,28,33,2,3,2,1,3,1,,1,1,,2,,,,1,2,1,,2,,,,,,,,,,,1,
561479,3,1307,311,,43,14,22,29,51,39,56,14,3,2,4,6,2,1,2,,1,,1,,,,1,1,2,1,2,,,11,1,1,,,,,,1
561479,2,336,82,,18,2,3,13,12,2,18,3,1,1,6,,,,,,,,,,,,3,,,,,,,,,,,,,,,
561479,1,155,38,,3,,8,2,5,4,7,6,,,1,2,,,,,,,,,,,,,,,,,,,,,,,,,,
561495,6,124,32,,8,2,2,3,6,3,5,,,2,,,,,,,,,1,,,,,,,,,,,,,,,,,,,
561495,5,169,44,,3,1,3,3,3,3,21,,1,1,,,,,,,,1,3,,,,,,,,,,,,,,,,,,1,
561495,4,500,153,1,22,2,4,15,25,13,51,1,3,1,7,5,,,1,,,1,,,,,,,,1,,,,,,,,,,,,
561495,3,1009,318,2,50,11,20,57,41,19,90,7,2,1,1,3,,,,,1,1,1,,,,6,3,,1,,,,,,,,,,,1,
561495,2,1067,245,,40,7,26,16,40,24,59,7,2,3,4,3,,1,,1,1,4,2,1,,,2,,,,,,,2,,,,,,,,
561495,1,1391,305,,47,11,22,30,35,35,83,16,5,,7,5,,,1,,,,,2,,,1,,,3,,,1,,,,,1,,,,
561533,3,118,26,,6,4,2,3,5,1,2,,,,,,1,,,,,,,,,,,,,1,1,,,,,,,,,,,
561533,2,162,56,,10,,4,10,8,4,11,2,1,,,3,,,,,,,1,,,,,,,,,,,2,,,,,,,,
561533,1,1136,275,2,47,4,15,28,37,34,75,2,3,4,6,3,,1,,,1,,,2,,3,1,1,2,2,,,,,,,,,2,,,
561541,1,528,124,,5,7,8,16,13,16,45,2,1,,3,2,,,,,1,,,,,,2,,,,,1,2,,,,,,,,,
561584,1,435,100,1,10,3,8,16,13,13,20,1,5,2,3,2,1,,,1,,,,,,,,,,1,,,,,,,,,,,,
561592,1,597,181,5,31,4,10,19,22,26,28,5,3,,7,5,,,1,,,3,2,,,,1,2,1,2,,1,,,,2,,,,1,,
561606,1,545,122,,17,2,15,4,15,25,25,1,4,,7,3,,,,,1,1,,,,1,1,,,,,,,,,,,,,,,
561614,1,203,54,,6,2,7,9,6,6,8,1,1,1,,,3,,,1,,,,1,,,1,,1,,,,,,,,,,,,,
561622,1,132,43,,6,2,5,15,5,2,4,,,,2,,,,,,,,,,,,,2,,,,,,,,,,,,,,
561631,1,1209,263,1,26,10,23,36,17,28,71,13,,3,4,10,1,,3,1,3,1,,1,1,,5,,,3,,1,,,,,,,1,,,
561631,7,105,24,,2,,1,2,8,1,4,,,3,1,1,,,,,,,,,,,,,1,,,,,,,,,,,,,
561631,6,132,53,,5,1,7,5,8,4,5,7,2,,,2,1,,,,1,1,,1,,,1,1,,,,1,,,,,,,,,,
561631,5,109,34,,7,,,5,7,4,7,,,,2,,1,,,,1,,,,,,,,,,,,,,,,,,,,,
561631,4,107,25,,2,2,1,5,7,1,2,1,2,,1,1,,,,,,,,,,,,,,,,,,,,,,,,,,
561631,3,191,45,,9,1,3,6,2,8,10,,,,1,,,,,,,,,,,,,5,,,,,,,,,,,,,,
561631,2,1040,288,6,26,8,30,33,33,28,92,3,2,1,7,7,,,2,,,,,,1,,5,2,,1,,,,,,1,,,,,,
561657,1,83,36,,1,,3,8,8,1,8,2,,1,2,1,,,,,1,,,,,,,,,,,,,,,,,,,,,
561665,1,625,128,,18,2,14,7,17,23,28,10,1,,,2,,,,,,,,,,,2,1,,1,1,,,,,1,,,,,,
561681,5,700,170,1,20,4,13,18,14,26,57,3,2,,4,2,,,,2,,,,,,,2,1,,,,,,,,,,,,,,1
561681,4,390,79,,3,5,7,7,7,13,31,2,,1,,2,,,,,1,,,,,,,,,,,,,,,,,,,,,
561681,3,869,182,2,22,5,16,19,16,20,47,12,6,1,1,7,1,1,,,1,,1,,,1,1,,2,,,,,,,,,,,,,
561681,2,840,174,1,19,13,8,18,24,26,46,4,2,,3,,1,,1,,,,,,1,,2,3,1,1,,,,,,,,,,,,
561681,1,347,73,1,11,,3,17,13,5,13,3,,,6,,1,,,,,,,,,,,,,,,,,,,,,,,,,
561720,2,114,26,,5,,5,6,2,,5,1,,1,,1,,,,,,,,,,,,,,,,,,,,,,,,,,
561720,1,522,124,,20,4,8,8,17,9,38,2,1,4,,5,,,,,1,,,3,,,1,,,3,,,,,,,,,,,,
561738,1,175,99,1,13,3,11,20,10,2,25,3,2,3,1,2,,,,,,,,,,,,2,,,,,,,,1,,,,,,
561746,1,481,95,1,14,9,10,6,10,8,21,2,1,1,5,,,,1,,,1,,1,,,,2,,,,,1,,,1,,,,,,
561827,2,79,36,,6,1,3,2,1,5,14,2,1,,,,,,,,,,,,,,,,,,1,,,,,,,,,,,
561827,1,204,79,1,12,,6,16,8,15,14,,,,,3,1,,,,,,1,,,,,,,,,,,,,2,,,,,,
561835,6,282,57,,9,1,6,7,7,8,5,5,,,,3,,1,1,,3,,,,,,1,,,,,,,,,,,,,,,
561835,5,1021,234,2,25,4,24,16,41,31,61,6,2,1,5,4,,2,,1,1,,,,,2,2,,,1,,1,2,,,,,,,,,
561835,4,1091,159,3,13,7,17,8,15,32,36,8,1,1,3,2,2,,,,,1,1,,,,,,1,5,,,,3,,,,,,,,
561835,3,1001,236,2,24,16,17,14,22,31,79,1,2,1,5,3,2,1,,,,,,,1,,4,3,,3,,,3,,,1,,,1,,,
561835,2,823,191,,16,15,17,12,14,16,75,2,,4,3,6,2,,2,1,1,,1,1,,,,,,1,,,1,,,,,1,,,,
561835,1,972,230,1,11,14,21,17,24,44,74,2,3,2,2,5,,,1,1,,,,,,1,3,,,2,,,2,,,,,,,,,
561851,1,250,66,,6,1,10,6,9,7,14,4,1,2,3,1,,,,,,,1,,,,,,,,,,,,,,,1,,,,
561860,13,652,204,6,35,6,6,28,27,15,58,2,1,,5,3,,,,2,2,,1,,,,3,1,1,,,,,,,,,,,1,1,
561860,12,612,159,2,17,6,7,29,33,10,29,3,2,2,9,6,,,,,1,,1,,,,,,,,,1,,,,,,,,,1,
561860,11,551,169,2,18,5,10,25,23,17,50,4,,,6,2,1,,2,,,,,,,,2,1,,,,,,,,1,,,,,,
561860,10,513,131,,16,8,5,21,10,12,39,,1,,2,2,1,,1,1,1,,1,1,1,,2,3,,,1,,,1,,,,,,,1,
561860,9,469,149,,23,2,9,25,17,25,31,5,2,1,2,1,,,1,,,,3,,,,,,,,,2,,,,,,,,,,
561860,8,650,153,,11,11,12,12,10,32,46,1,,1,4,8,,,,1,1,,,,,,1,,,,,,,2,,,,,,,,
561860,7,740,217,,28,5,8,30,35,31,57,2,1,2,8,6,,,,1,,1,1,,,,,,,,,,,1,,,,,,,,
561860,6,621,192,,27,9,10,19,24,13,57,3,2,1,8,2,,1,,,,,,,,,1,,2,,,,,12,,,,,,,,1
561860,5,597,152,,21,6,12,13,17,14,36,3,1,3,2,3,2,,,,,,,1,,,1,,,,,1,,15,,,,,,,,1
561860,15,733,223,,25,5,12,41,30,30,48,3,,1,6,4,,,4,,,1,,1,,,1,,1,2,1,2,,5,,,,,,,,
561860,14,756,240,,26,8,6,31,30,25,68,4,3,1,7,4,,,2,,,,,,,,3,2,1,1,,,1,15,,,,,,,,2
561860,2,862,170,,20,3,3,31,38,13,35,3,1,1,2,1,,,1,4,1,,,1,,,,1,1,,,,,8,,,,,1,,,1
561860,1,529,114,2,5,5,7,21,18,3,41,,1,1,3,2,,,,,,,1,,,,,,1,,,,,1,1,,,,,1,,
561860,4,662,229,1,36,9,8,28,32,19,60,2,1,1,5,5,,,1,1,1,1,,,,,4,4,,1,,1,,4,,1,,,,,3,
561860,3,670,157,,16,4,8,23,22,22,44,1,,3,1,1,,,2,,,,,,1,,1,,,1,,,,7,,,,,,,,
561878,1,620,174,,19,4,20,18,33,20,42,,5,2,,4,,1,,,3,,1,,,,,,,,1,,,,,,,,,,1,
561886,1,256,83,,5,3,12,9,3,11,25,4,2,,1,2,,,1,,,,,,,,1,,1,1,,1,,,,,,,1,,,
561894,1,488,169,,30,2,4,30,26,12,41,1,2,2,5,3,,,1,,3,,,,,,,,1,1,,,,,,,,,1,,4,
561959,1,340,96,,7,2,3,28,21,4,26,,2,,,,,,,,,,1,,,,1,1,,,,,,,,,,,,,,
561983,1,607,149,2,20,4,12,3,12,22,50,8,,1,2,4,,,,,,1,1,1,,,2,,3,,,1,,,,,,,,,,
561991,1,358,89,1,13,,5,24,14,9,14,2,,,,2,,,,,,,1,,,,2,,1,,,,,,,,,,,,,1
562017,3,797,92,,4,,15,3,9,14,27,1,4,,,1,,1,,,,,,,,,1,,,,,,4,4,2,1,,,,,1,
562017,2,519,102,,10,15,13,7,1,14,26,1,3,1,2,3,,1,,,,,1,,,,,,,1,,,2,,,1,,,,,,
562017,1,245,46,,5,,6,6,4,7,11,,2,1,2,1,,,,,,,,,,,,,,,,,,,,,,,,,,1
562025,1,1229,262,1,30,5,14,52,20,27,92,1,,3,1,4,,1,,,1,,1,,,,3,2,,1,1,,,2,,,,,,,,
562050,1,626,160,3,14,3,7,29,38,16,26,4,3,,,4,1,5,,,1,,3,,,,,1,,,,,,,1,,,,,,,1
562076,1,574,176,,29,2,12,25,24,20,33,4,5,2,5,4,,1,2,,,,1,,1,,2,,2,,,1,,,,,,,1,,,
562092,3,862,299,5,26,8,21,13,82,22,36,6,2,3,2,10,3,1,2,4,3,2,3,4,,,11,6,,3,3,2,,14,,1,,1,,,,
562092,2,1348,248,2,26,7,16,17,23,46,80,,5,1,6,7,1,,,,1,,,,,1,5,2,,1,,,,,,1,,,,,,
562092,1,926,195,1,16,6,19,18,19,32,55,3,4,2,,5,1,,,3,1,,,1,2,,5,,,,,1,1,,,,,,,,,
562106,2,238,58,,20,3,1,2,2,8,18,,,,2,1,,,,,,,,,,,,,1,,,,,,,,,,,,,
562106,1,570,125,1,17,2,18,9,18,10,30,5,3,1,2,1,,,,,1,,2,,1,,,2,,2,,,,,,,,,,,,
562114,1,252,52,,3,2,2,5,11,3,16,3,,,2,3,,,2,,,,,,,,,,,,,,,,,,,,,,,
562131,1,535,108,,14,3,9,19,12,21,23,2,1,,2,,,,,,,,,,,,,1,,1,,,,,,,,,,,,
562173,1,142,27,,2,,3,6,6,4,5,,1,,,,,,,,,,,,,,,,,,,,,,,,,,,,,
562203,1,157,31,,3,,5,1,8,4,5,2,,1,,,,1,,,,,,,,,,1,,,,,,,,,,,,,,
562220,1,537,84,,7,1,3,6,11,13,34,1,,1,1,2,,,1,,,,,,,1,,,,,1,,,,,,,,,,1,
562238,1,87,12,,1,1,3,1,4,2,,,,,,,,,,,,,,,,,,,,,,,,,,,,,,,,
562246,1,560,156,,36,5,7,19,25,19,32,3,,,2,1,,,,1,,,1,,,,1,1,,1,,,,,1,1,,,,,,
562262,3,398,64,1,2,3,12,4,5,3,11,1,2,1,,1,2,1,1,2,3,1,,1,,,,,2,2,2,,,1,,,,,,,,
562262,2,820,212,1,17,9,23,49,20,24,36,4,1,,9,5,1,,,,4,,,,,,4,3,,,,,,,,2,,,,,,
562262,1,1047,231,2,13,6,21,42,26,17,68,5,4,1,6,5,1,,,,2,,,2,,,2,4,,4,,,,,,,,,,,,
562297,3,112,17,,2,,5,1,1,1,4,1,,,,1,,,,,,,,,,,,,1,,,,,,,,,,,,,
562297,2,687,178,,25,6,21,15,21,22,47,3,4,,2,5,1,,,,2,,,,,,1,,1,,,,,,,2,,,,,,
562297,4,146,28,,6,1,5,1,7,,7,,,,,,,,,,,,,,,,,,,,,,,,,,,,1,,,
562297,1,622,123,4,22,10,21,5,19,10,19,3,1,1,2,1,3,,,,,,1,,,,1,,,,,,,,,,,,,,,
563510,15,784,224,,37,3,9,31,38,33,43,1,3,2,9,10,,,,1,,,,,1,,,2,,,,,1,,,,,,,,,
563510,14,762,216,,32,9,4,20,45,21,50,9,,,17,3,,,,,1,,1,,,,1,,2,,,,,,,,,,1,,,
563510,13,673,262,1,36,7,23,22,35,24,59,6,1,2,23,11,,,2,1,1,,1,,,,1,3,,,,,,,,3,,,,,,
563510,12,692,182,,33,5,11,20,39,17,38,3,1,2,4,5,,,,,1,,,,,,,2,,,1,,,,,,,,,,,
563510,11,657,186,,27,4,11,17,28,21,42,3,4,1,17,2,,,1,,,,2,,,,5,,,,,,,,,1,,,,,,
563510,10,574,194,1,21,12,8,22,18,13,64,4,1,,11,3,1,,,1,1,,,,,,4,3,2,3,,,,,1,,,,,,,
563510,9,518,134,1,13,6,5,15,9,20,34,7,,2,9,1,,,,,,,,1,,,5,3,,,3,,,,,,,,,,,
563510,8,663,130,,19,3,12,6,16,15,33,6,3,3,6,3,,,,,1,,,,,1,1,,,1,,,1,,,,,,,,,
563510,7,817,245,1,48,6,3,31,45,26,47,4,2,1,12,7,,,1,,,1,,,1,,1,1,1,3,,,,,,,,,,,3,
563510,6,792,230,1,29,2,17,25,51,24,49,2,2,1,18,1,1,,2,1,,,,,,,,1,2,,1,,,,,,,,,,,
563510,5,843,167,1,39,3,8,16,28,12,23,3,,,13,3,3,,1,,,,,,,1,3,6,2,,,,1,,,,,,,,1,
563510,4,600,155,2,11,8,12,6,26,16,41,2,2,,16,2,1,1,,,,,1,1,,,4,,1,,,,1,,,,,1,,,,
563510,3,703,189,,38,4,12,11,30,26,46,6,2,2,5,1,,1,1,,,,,1,,,,,1,1,,,,,,,,,,,1,
563510,2,813,210,,51,5,6,22,41,19,28,13,1,,12,4,,,,,,,1,,,,3,2,,,,,,,,2,,,,,,
563510,1,1967,145,,30,1,5,21,30,19,12,2,,1,10,4,,,2,,,,,,,,2,,3,1,,1,,,,,,1,,,,
563510,46,660,184,,37,2,5,25,28,23,32,6,3,,15,1,,,1,,2,,1,1,,,,1,,1,,,,,,,,,,,,
563510,45,615,217,,46,6,2,28,40,9,42,14,,1,17,3,,,,,,,,,,,1,4,2,1,,1,,,,,,,,,,
563510,44,621,209,,44,5,11,17,32,24,51,2,1,2,12,2,,1,,,,1,,,1,,1,1,1,,,,,,,,,,,,,
563510,31,461,170,1,26,8,9,22,32,26,21,4,,2,13,1,,,,,1,,,,,,1,,,2,1,,,,,,,,,,,
563510,30,627,188,1,22,6,14,31,24,25,45,1,,1,5,3,,,2,,,,,,,1,2,2,1,1,,1,,,,,,,,,,
563510,29,906,273,2,38,10,8,35,27,29,56,5,1,3,32,9,1,1,1,,,,,,,1,2,2,3,6,,,,1,,,,,,,,
563510,28,745,168,,9,5,10,18,16,23,57,,4,2,13,6,,,,,,,,,,,5,,,,,,,,,,,,,,,
563510,27,618,187,,24,7,13,22,28,18,46,5,,,16,,,,1,1,1,,,,1,,,,1,1,1,,1,,,,,,,,,
563510,26,674,206,,33,3,10,18,30,21,61,2,1,4,14,2,1,,2,,,,,,,,,2,,,1,,,,,1,,,,,,
563510,25,831,179,2,29,9,5,19,40,18,28,2,2,,14,4,,,,,2,,,,1,,1,1,,1,,,,,,,,,1,,,
563510,24,826,290,2,41,11,18,29,51,33,69,5,4,3,7,4,1,,,,1,,,,2,1,3,,2,,,,1,,,1,,1,,,,
563510,19,580,241,,57,5,6,27,32,13,55,5,2,1,26,,,,,,3,,,,,,3,,1,3,1,,1,,,,,,,,,
563510,18,683,164,1,21,6,9,15,20,18,36,4,2,2,21,2,1,,1,,1,,,,,1,2,,,,,,1,,,,,,,,,
563510,23,759,146,,21,3,4,20,22,9,35,2,,1,13,4,,2,3,1,,,1,,,,2,2,,,,1,,,,,,,,,,
563510,22,898,273,,43,9,11,36,60,35,42,5,1,,11,1,,,,,,,,3,,,3,4,7,1,,1,,,,,,,,,,
563510,21,594,138,,14,,3,11,29,17,43,3,,,11,,,,,2,,,,,,,,2,1,2,,,,,,,,,,,,
563510,43,236,51,,21,,3,4,6,5,2,,,,5,,,,2,,,,,,,,1,1,,,1,,,,,,,,,,,
563510,42,1018,259,5,39,2,7,25,52,52,38,3,4,1,16,3,,,,,2,,1,1,,,2,3,,2,,,,,,1,,,,,,
563510,20,750,264,2,38,8,11,21,41,26,61,3,2,1,24,4,2,2,1,,,,1,1,1,,1,2,2,5,,1,,,,,,,2,1,,
563510,17,836,226,2,36,7,6,30,26,20,50,3,4,1,25,7,,,,,1,1,1,,,,3,,3,,,,,,,,,,,,,
563510,16,703,232,3,44,6,10,21,27,27,51,3,2,,22,3,,,2,1,,,1,,,,3,2,,1,,,,,1,,,2,,,,
563510,41,788,291,,55,5,17,18,51,13,51,9,3,3,16,14,2,3,,3,1,,,1,2,1,3,2,,5,1,3,1,3,1,1,2,1,,,,
563510,40,916,249,1,33,8,17,13,32,28,65,5,3,1,23,5,,,1,,,,1,,1,,3,1,4,1,1,,,,,,,,,,,2
563510,39,685,158,,19,4,6,13,22,15,48,2,6,2,9,2,,,,1,,,1,,,,1,4,,3,,,,,,,,,,,,
563510,38,567,159,1,21,5,5,13,33,18,31,4,1,1,17,2,,,1,,,,,,,,1,,1,1,,,,1,1,,,1,,,,
563510,37,711,169,2,12,3,8,17,32,18,47,3,1,1,14,5,,1,,,,,,,,,2,,,3,,,,,,,,,,,,
563510,49,691,158,,32,4,2,25,19,24,19,5,,1,15,2,,,,,2,,1,,,,1,2,1,2,,1,,,,,,,,,,
563510,48,730,217,,29,4,4,37,54,16,41,6,,3,6,3,1,,,3,,,1,,,,2,1,2,3,,,,,,,,,,,1,
563510,47,817,232,,31,6,12,39,35,29,49,2,2,4,15,4,,,,,,,,,1,,2,,,,,,,,,,,,,1,,
563510,36,664,184,1,34,5,7,20,26,19,42,4,,1,15,5,,,,1,,,,,,,1,1,1,1,,,,,,,,,,,,
563510,35,565,200,,36,2,5,23,22,24,35,5,3,2,27,2,1,1,3,,,,,,,,1,2,4,,,2,,,,,,,,,,
563510,34,899,282,1,64,4,13,32,32,29,56,,6,1,28,4,,,,,2,,,,1,,3,2,3,,,,,,,1,,,,,,
563510,33,618,155,,13,1,19,12,22,18,47,3,3,1,10,3,,,,,,,,,,1,2,,,,,,,,,,,,,,,
563510,32,608,222,,30,3,14,12,32,27,51,11,3,1,22,7,,,1,1,,,,,,1,3,1,2,,,,,,,,,,,,,
563528,1,282,97,,26,5,9,14,14,13,11,2,1,,2,,,,,,,,,,,,,,,,,,,,,,,,,,,
563536,1,303,141,,37,1,6,30,27,2,13,6,,,12,2,,,1,,,,,,,1,,2,1,,,,,,,,,,,,,
563552,3,556,105,,6,4,9,15,12,17,28,,1,,3,3,,1,1,1,,,,1,,,2,,,,,,,,,,,,1,,,
563552,2,1155,290,3,20,14,33,32,39,35,71,6,5,3,6,4,4,,,3,1,,1,1,,,2,1,,2,,,1,,,1,,,,1,1,
563552,1,787,178,1,12,8,9,19,22,25,51,8,2,3,2,3,1,,,,3,,1,,,,2,3,,1,1,,,,,1,,,,,,
563561,1,478,114,1,17,4,12,6,13,13,22,,1,6,5,1,,,,,1,,,1,,4,3,,1,,1,,1,,,1,,,,,,
563579,3,160,54,,7,,1,9,11,2,14,,,1,2,1,,,,,,2,,,,,3,,,,1,,,,,,,,,,,
563579,2,268,101,1,21,2,3,8,24,9,21,2,,,2,1,,,1,,2,,1,,,,1,1,,1,,,,,,,,,,,,
563579,1,274,103,,20,5,2,28,11,2,25,,,1,4,2,,,,,2,,,,,,,,,1,,,,,,,,,,,,
563595,1,1080,323,1,39,6,10,26,82,37,63,7,1,,25,3,1,,1,,1,,,,,,5,6,4,1,,,,,2,2,,,,,,
563609,2,170,45,,6,1,6,5,15,5,5,,,,1,,,,,,,,,,,,,1,,,,,,,,,,,,,,
563609,1,721,242,2,41,3,19,43,46,24,35,8,2,1,9,,1,,,,1,,,1,,,,,3,2,,,,,,1,,,,,,
563617,1,170,40,,9,4,4,3,2,6,8,,1,,1,1,,,,,,,,,1,,,,,,,,,,,,,,,,,
563633,1,761,227,3,49,6,11,24,26,10,55,5,3,1,15,5,2,,,,,,2,1,,,,4,2,2,,,,,,,,1,,,,
563641,3,115,56,,6,4,2,8,7,3,17,,5,,1,,1,,,,,,,,,,,2,,,,,,,,,,,,,,
563641,2,197,70,,12,1,1,14,13,2,9,2,1,1,7,2,,,,,1,1,,,,,2,,1,,,,,,,,,,,,,
563641,1,531,185,,37,9,4,26,34,12,33,5,4,1,,3,,1,2,1,,1,3,,,,4,3,1,,,1,,,,,,,,,,
563668,3,218,106,,15,1,3,21,10,7,16,24,1,2,3,,,,,1,,,,,,,1,1,,,,,,,,,,,,,,
563668,2,329,126,,20,3,12,14,20,19,23,5,,,2,1,,,,,,,,,1,,4,,2,,,,,,,,,,,,,
563668,1,302,89,,19,3,11,13,11,9,18,,1,,2,,,,,,,,,,,,,,,1,,,,,,,,,1,,,
563676,1,205,54,1,9,7,6,8,4,4,7,1,,2,2,,,1,1,,,,,1,,,,,,,,,,,,,,,,,,
563684,1,185,91,,20,2,5,17,19,2,9,2,1,,5,,,,,,2,,,,,,3,,,,,,,,1,3,,,,,,
563692,3,144,48,,12,,,20,4,1,6,1,,1,2,,,,,,,1,,,,,,,,,,,,,,,,,,,,
563692,2,95,41,,5,1,,11,14,5,2,,,,2,,,,,,,,,,,,,,1,,,,,,,,,,,,,
563692,1,1263,326,2,39,9,13,46,55,42,68,3,3,,17,6,,,,1,,1,1,2,,,1,6,2,3,,,,,,5,,1,,,,
563706,3,135,46,,8,1,2,4,6,6,9,,,1,4,1,1,,,3,,,,,,,,,,,,,,,,,,,,,,
563706,2,134,53,1,8,4,1,5,14,4,5,2,,,5,,,,1,,,,,,,,,1,,1,,,,,,,,,,,,1
563706,1,723,329,1,76,2,11,72,58,23,32,7,3,,19,3,3,,2,,,,4,,1,2,2,2,3,2,,,,,,,,,,,1,
563714,1,491,157,1,28,1,1,20,32,16,37,,1,1,9,,,,2,,3,,,1,,,,1,1,,,,,,,1,,1,,,,
563731,1,627,181,1,33,,6,20,41,24,34,4,3,,11,1,,,,,,,,,,,,1,1,1,,,,,,,,,,,,
563749,4,451,145,,16,1,20,16,42,7,21,,5,1,3,1,,,,,1,1,,,,,4,2,,3,,,,,,1,,,,,,
563749,3,415,107,,16,,12,9,16,6,25,2,1,3,8,2,,1,,,,,,1,,,2,1,,2,,,,,,,,,,,,
563749,2,214,69,,14,3,4,5,15,13,6,1,1,,3,1,,,,,,,,,,,1,1,,,,,,,,,,,,1,,
563749,1,427,143,1,16,5,19,31,31,6,18,3,1,,8,,1,,,,1,1,,,,,,1,,,,,,,,,,,,,,
563757,2,409,107,,11,7,3,12,14,18,18,1,2,4,6,2,1,,,,,,2,,1,,2,2,,,1,,,,,,,,,,,
563757,1,431,122,,17,5,10,18,16,11,31,1,2,2,1,1,,,,1,,,2,2,,,1,,,,,1,,,,,,,,,,
563773,1,134,48,1,16,2,4,5,9,2,3,,,1,,,,,,,1,,1,,1,,1,,,,,,,,,1,,,,,,
563781,1,697,195,4,27,4,6,39,34,5,30,12,2,3,15,7,1,,,,,,,1,,1,,,2,,,1,,,,1,,,,,,
563790,1,2109,518,2,88,13,15,87,102,58,76,10,7,3,16,9,2,,2,1,3,1,,2,,1,5,3,4,4,,1,,,,3,,,,,,
563803,1,464,166,1,22,5,6,18,29,24,33,6,1,,8,1,,,2,,5,,1,,,,2,,,1,,,,,,,,,,,1,
563811,3,334,117,,22,2,,24,19,8,21,4,2,,3,3,,,1,1,,,,,,,2,1,,3,,,1,,,,,,,,,
563811,2,929,260,1,41,1,15,21,44,25,55,9,,,20,7,1,,1,,3,,2,1,,,3,3,3,2,,,,,,2,,,,,,
563811,1,1224,334,4,78,10,25,27,54,29,66,6,4,1,10,6,,,2,1,2,1,,1,,,2,1,2,,,,1,,,1,,,,,,
563811,4,398,79,,13,5,7,3,6,16,19,2,1,1,2,1,,,,,,,,1,1,,,,1,,,,,,,,,,,,,
563820,7,69,28,,5,1,2,6,3,6,3,1,,,1,,,,,,,,,,,,,,,,,,,,,,,,,,,
563820,6,200,65,1,12,3,4,6,7,7,14,3,2,1,4,,,,,,,,,,,,,1,,,,,,,,,,,,,,
563820,5,1234,400,2,51,12,33,40,47,58,96,14,6,4,7,6,2,,2,1,1,,1,,1,,2,3,5,,,,,2,,2,,,2,,,
563820,4,1219,221,3,17,16,9,11,39,48,44,2,5,2,9,3,1,1,,1,1,,,,,,2,5,1,,,,,1,,,,,,,,
563820,3,927,260,3,23,12,23,15,16,53,79,4,7,2,10,1,,,2,,5,,,,,,,,2,1,,,,,,1,,1,,,,
563820,2,938,219,,25,9,13,13,31,40,58,9,1,,6,5,,,,1,,,,,1,,4,2,,,,,,,,,,1,,,,
563820,1,401,83,3,11,2,11,9,14,12,10,4,,,,,,,,,1,,,,,,1,,2,1,,,1,1,,,,,,,,
563838,3,578,157,1,14,9,16,22,23,17,31,1,3,2,3,6,,,,,,1,,1,,1,,,,1,1,,,,,,1,2,,1,,
563838,2,892,189,1,23,7,11,28,29,28,40,4,4,,4,2,,,,,1,,,1,1,1,1,1,,,,2,,,,,,,,,,
563838,1,718,138,,12,4,10,15,16,16,40,5,2,1,7,3,,2,,,1,,,,,,3,,1,,,,,,,,,,,,,
563846,1,103,30,,4,1,1,4,1,1,12,,,,1,3,,,,,1,,,,,,,,,1,,,,,,,,,,,,
563854,1,708,225,,43,3,16,49,20,28,30,8,1,7,4,2,,2,,,1,,,,,2,1,1,,1,1,,,,,2,,,,1,1,1
563862,3,38,23,,3,2,2,1,4,8,1,,,1,,,,,,,,,,,,,,,,,,,,,,,,1,,,,
563862,2,27,12,,1,,,9,1,,,,,,1,,,,,,,,,,,,,,,,,,,,,,,,,,,
563862,1,344,137,,12,2,13,26,21,16,28,3,3,1,4,3,,,,,,,1,,,,1,,2,,,,1,,,,,,,,,
563871,2,1048,279,1,33,7,12,24,48,27,87,8,3,1,14,1,1,1,,,,1,1,,,,1,1,2,1,2,1,,,,1,,,,,,
563871,1,784,237,,45,3,8,32,38,19,50,13,,1,7,5,,,1,1,2,,,2,,,1,4,2,3,,,,,,,,,,,,
563871,9,281,99,,10,,5,18,17,7,21,1,3,,5,5,,,2,,,,3,,,,,,,,,,,,,,,,,,2,
563871,8,269,104,1,19,3,9,15,15,7,18,6,,,6,,1,,,,,,2,,,,1,,1,,,,,,,,,,,,,
563871,7,221,74,,17,2,3,5,20,2,10,,1,4,2,3,,,,,1,,,,,,,,,3,,,,,,,,,1,,,
563871,6,95,31,,2,,,3,10,8,4,,,,,2,,,1,,,,,,,,1,,,,,,,,,,,,,,,
563871,5,274,103,,21,1,4,3,29,13,11,3,2,,11,,,,,1,,,1,,,,2,,,1,,,,,,,,,,,,
563871,4,781,229,1,27,5,12,26,51,33,50,3,3,1,5,1,,,,,,,,,,,4,,3,3,,1,,,,,,,,,,
563871,3,1081,299,1,64,14,17,24,42,26,60,6,6,1,17,1,1,1,,,2,,,2,1,,4,2,4,,,,,1,,1,,,,,1,
563901,4,121,48,1,,1,2,5,5,8,16,1,,,2,,,,,,,3,,,1,,1,,2,,,,,,,,,,,,,
563901,3,188,79,,6,2,6,15,9,6,28,,,,2,,,,,,,1,,,,,2,,1,,,1,,,,,,,,,,
563901,2,156,36,,6,2,,6,4,,12,,,,3,2,,,,,,,,,,,1,,,,,,,,,,,,,,,
563901,1,266,88,,8,4,4,13,12,8,27,1,3,,2,1,,,,,,2,,1,,,1,1,,,,,,,,,,,,,,
563919,1,806,232,3,21,,25,43,23,36,58,1,3,2,6,5,,,,1,1,,,,,,,2,,,,2,,,,,,,,,,
563935,2,242,41,,7,2,5,11,1,2,9,,,,,1,,,,,2,,,,,,,,,1,,,,,,,,,,,,
563935,1,484,125,,11,2,14,20,6,23,22,1,2,2,,8,,,,2,2,,1,1,,,1,1,1,1,,,1,2,,1,,,,,,
563943,1,85,30,,5,,1,8,4,1,8,,1,,1,,,,,,,,,,,,,,,,,,,,,,,,,1,,
563960,6,47,21,,,2,1,4,2,2,6,,,1,,,,,,,,,,,,,1,,2,,,,,,,,,,,,,
563960,5,238,63,,3,3,5,15,8,10,11,,2,,2,,1,,,,,,,1,,1,,,,1,,,,,,,,,,,,
563960,4,82,19,,2,1,,2,5,1,6,,2,,,,,,,,,,,,,,,,,,,,,,,,,,,,,
563960,3,84,18,,3,,4,2,3,,5,,,,,1,,,,,,,,,,,,,,,,,,,,,,,,,,
563960,2,881,250,3,32,16,16,28,30,38,55,5,3,2,4,3,3,1,,1,,,,,,,2,2,1,,1,,2,,,,,,2,,,
563960,1,788,199,,26,6,13,28,34,21,38,3,,1,7,3,1,2,1,1,,1,,,,,2,1,9,1,,,,,,,,,,,,
563994,1,416,51,3,7,3,1,5,4,12,10,1,,3,1,1,,,,,,,,,,,,,,,,,,,,,,,,,,
564028,1,790,236,,39,7,15,19,13,26,82,3,5,,9,2,,,2,,4,,,,,,,3,6,,,,,,,,,,,1,,
564028,6,1033,287,,51,14,22,29,26,45,73,3,3,5,2,5,,,1,,,,,3,,,1,2,,2,,,,,,,,,,,,
564028,5,733,185,2,24,3,8,22,26,20,45,9,4,1,2,4,,2,1,,,,2,2,,,1,3,1,,,3,,,,,,,,,,
564028,4,1255,276,,42,4,26,33,34,14,81,6,1,2,9,11,1,1,2,,,1,,1,,1,3,1,,2,,,,,,,,,,,,
564028,3,1308,202,,39,5,13,31,22,21,38,7,1,,6,4,,,,2,3,,,1,,1,1,1,,1,1,1,1,1,,,,1,,,,
564028,2,809,168,,32,11,9,15,14,24,45,3,,5,3,2,,,1,,,,,,,,2,,,,,,1,,,1,,,,,,
564036,1,367,99,,5,3,7,19,4,8,42,,,2,,3,1,,,,,1,,1,,1,,,,1,,,,,,,,,,,1,
564044,4,214,76,,6,,,18,7,15,19,4,,1,,2,1,,,,,,1,,,,2,,,,,,,,,,,,,,,
564044,3,420,90,,2,2,10,15,5,10,28,6,1,1,1,3,,,,,,,,,,1,,1,2,,,,,,,2,,,,,,
564044,2,732,137,2,10,6,8,25,10,22,32,7,1,,5,3,,,2,,1,,1,1,,,,,,,,,,,,,,1,,,,
564044,1,851,190,1,23,9,7,39,13,25,39,9,2,,7,8,,1,,,,,1,,,,,1,1,2,1,1,,,,,,,,,,
564052,1,187,68,,8,5,3,10,7,12,13,4,,,1,1,,,,,,,1,,,,3,,,,,,,,,,,,,,,
564061,2,1142,328,4,36,10,8,57,60,24,66,12,6,2,8,5,2,1,1,,3,,2,,1,,10,1,4,3,,1,,,,,,,1,,,
564061,1,1139,260,,20,8,14,24,58,36,68,12,4,4,2,2,1,,3,,1,1,1,,,,1,,,,,,,,,,,,,,,
564079,1,184,59,,2,2,5,11,4,14,12,,1,,,,,,,3,,,,1,,1,1,,,,,2,,,,,,,,,,
564095,8,375,119,3,6,6,9,23,17,17,20,2,1,1,1,3,,,,,,,,1,,,2,3,1,2,,1,,,,,,,,,,
564095,7,221,43,1,1,1,4,6,6,10,12,,,,,1,,,,,,,,,,,1,,,,,,,,,,,,,,,
564095,6,240,59,,1,1,8,18,4,7,13,2,3,,,2,,,,,,,,,,,,,,,,,,,,,,,,,,
564095,5,899,180,2,8,,16,43,20,18,43,3,2,10,1,,2,,,2,,,,2,1,,,,2,2,,,,,,1,,2,,,,
564095,4,781,216,1,12,5,15,49,20,41,48,4,2,2,1,2,,,2,3,1,1,,1,,,1,,3,1,,,,,,,,1,,,,
564095,9,178,34,3,7,1,1,8,,3,7,,1,,2,,,,,,,,,,,,,,,,,,,,,,,1,,,,
564095,3,1091,200,1,9,4,27,48,23,21,48,2,4,,4,1,1,,1,,1,,1,1,,,1,1,1,,,,,,,,,,,,,
564095,2,1013,305,1,17,11,16,83,31,43,81,3,1,,3,2,,,3,1,2,,,,,1,3,1,1,,,,,,,1,,,,,,
564095,1,1338,338,1,19,9,20,80,31,56,71,10,6,4,8,8,,,,1,,,,2,,,7,,1,1,,1,,1,,,,,1,,,
564109,1,781,224,6,12,6,5,65,17,23,54,3,3,4,3,7,,,1,2,,,1,1,,,3,1,,2,1,,,2,,1,,,,,1,
564117,5,293,88,,6,4,7,11,26,11,14,,,1,,,,,1,,,1,,,,2,,,3,,1,,,,,,,,,,,
564117,4,998,269,2,27,10,17,27,38,18,84,12,5,3,2,6,1,,1,,,,,3,,2,5,2,2,1,,,,,,,,,,1,,
564117,3,1017,274,,30,8,28,37,38,25,81,5,3,3,3,1,,,,2,,,1,1,2,,1,,1,2,,,,1,,,,,1,,,
564117,2,1361,257,1,36,4,12,36,33,33,72,4,2,,6,3,1,,1,1,1,,2,,,,2,,,,,1,,,,3,,,2,,,1
564117,1,1226,312,,31,7,24,66,36,31,98,4,3,2,,2,1,,1,,,,,2,,,1,,1,1,,1,,,,,,,,,,
564133,1,522,128,1,16,3,12,20,15,12,23,8,,,3,3,1,,4,,1,,,,,,,2,2,,,,,1,,,,,,,1,
564141,1,277,105,1,10,6,7,12,11,15,21,2,,1,4,6,,,,2,,,,3,,,,,4,,,,,,,,,,,,,
564168,1,384,97,,20,2,9,16,9,12,22,2,1,,1,,1,,,,,,,,,,,,,2,,,,,,,,,,,,
564176,1,298,119,,24,,5,29,22,7,20,6,,1,,1,,,,1,,1,,1,1,,,,,,,,,,,,,,,,,
564184,2,213,55,,4,3,9,6,8,3,15,1,,1,1,,,,,,,,,1,1,,1,1,,,,,,,,,,,,,,
564184,1,458,134,2,23,3,5,13,26,14,27,2,,1,6,5,,,,,,1,,,,,,5,,,,,1,,,,,,,,,
564206,1,378,130,2,17,3,6,7,8,16,43,7,1,,5,5,,,,1,,,,,,2,,,2,3,,,,,1,1,,,,,,
564231,1,1191,336,2,54,5,14,59,54,48,64,8,,2,8,5,1,,1,3,1,,1,,,,1,,,1,,,1,,1,,,,2,,,
564265,4,125,46,2,3,2,1,4,7,4,12,,1,1,1,4,,,,,,,,2,,,1,,1,,,,,,,,,,,,,
564265,3,555,111,1,13,1,12,20,10,9,30,6,,1,3,1,,,,,,1,,,,,1,,,1,,,,,,,1,,,,,
564265,2,1145,156,,16,5,20,16,8,28,39,2,3,,1,6,1,,1,1,,,,,1,,3,,1,2,,,,2,,,,,,,,
564265,1,1105,231,2,34,5,27,21,12,42,49,9,,2,4,8,2,1,,,1,,,3,,,3,,,1,,,2,2,,1,,,,,,
564281,1,573,184,1,21,2,4,39,33,23,35,4,1,2,5,6,,,2,,,,2,,,,2,,,2,,,,,,,,,,,,
564290,1,923,240,2,27,24,14,31,30,22,65,4,2,2,3,4,1,,,,2,2,2,,,,,,2,,,,,,,,,,,1,,
564303,1,546,199,4,35,11,10,35,32,13,31,1,5,,5,6,,,,,1,2,,,,,4,1,1,,,2,,,,,,,,,,
564311,1,228,36,,4,,7,7,2,4,6,3,,,,1,,,,,1,,1,,,,,,,,,,,,,,,,,,,
564354,1,1017,291,4,29,6,9,47,32,38,82,4,5,1,8,11,,,,3,1,,1,1,,,2,,4,2,,1,,,,,,,,,,
564371,3,520,106,,15,1,10,7,11,15,30,2,,2,4,1,1,,,,,,,,1,,1,1,3,,,,,1,,,,,,,,
564371,2,694,125,,6,5,9,10,20,17,45,3,,1,,3,,,,2,1,,,,1,,1,,,1,,,,,,,,,,,,
564371,1,1062,235,3,29,6,30,31,31,21,53,6,2,3,5,2,1,,,,1,,,,,1,2,4,1,,,1,1,,,,,,,,1,
564397,2,136,55,,6,,1,9,13,12,4,1,1,2,2,,,,,,,1,,,,,,,1,,,,,,,2,,,,,,
564397,1,508,122,,10,1,11,25,11,15,33,2,,,3,3,,1,2,,,,,,,,,,,4,,,,,,,,1,,,,
564401,1,130,65,,12,1,2,7,18,5,4,1,,,4,1,,1,2,,,,,1,,,5,,1,,,,,,,,,,,,,
564427,1,779,279,1,52,3,3,42,49,23,59,8,6,1,7,3,,,1,,2,,2,1,,4,4,2,,3,,,,,,,,,,,3,
564435,1,339,129,,14,4,5,15,26,16,31,,,4,,3,,,2,,,,,,,,2,,3,,,2,1,,,,,,,,1,
564443,1,246,81,,9,1,1,26,10,11,16,,1,,1,2,,1,,,,,2,,,,,,,,,,,,,,,,,,,
564451,2,88,24,,2,1,,8,9,,1,,,,,,,,,1,,,,2,,,,,,,,,,,,,,,,,,
564451,1,75,24,,6,,,4,1,1,6,2,,,3,,,,,,,,,,,,,,,,,,,,,,,,,,1,
564460,1,879,312,1,60,9,7,77,54,26,47,6,1,,7,1,,,,,,,,,,,4,5,3,,,,1,,,1,,1,,,1,
564494,5,481,96,,3,1,6,11,7,15,40,1,,,1,4,,,,,2,,,,,1,,,,1,1,1,,,,,,,,,,1
564494,4,116,37,,4,1,3,6,4,10,6,,,,,1,,,,,,1,1,,,,,,,,,,,,,,,,,,,
564494,3,126,31,,5,2,4,5,3,2,5,1,,1,2,,,,,,1,,,,,,,,,,,,,,,,,,,,,
564494,2,235,64,,13,2,8,7,10,3,14,,1,,1,1,,,,,,,,,,2,1,,,,,,,,,,,,,1,,
564494,1,134,35,,1,1,2,3,8,4,16,,,,,,,,,,,,,,,,,,,,,,,,,,,,,,,
564516,1,259,132,,25,1,6,16,25,13,30,2,,3,3,1,,,,,1,,1,1,,,1,1,1,1,,,,,,,,,,,,
564532,2,79,26,,6,2,2,,3,1,4,,,,1,,4,,,,,,,,,,1,,,,,,1,,,,,,,1,,
564532,1,380,131,,23,6,11,6,23,10,34,1,1,1,3,7,,,,,,,1,2,,,,1,,,,,,,,,,,1,,,
564541,1,230,75,,8,4,2,18,6,7,21,2,1,,1,2,,,,,1,,,2,,,,,,,,,,,,,,,,,,
573400,1,128,40,,5,2,2,5,2,2,9,5,1,2,1,2,,,,,,,1,,,,1,,,,,,,,,,,,,,,
573418,1,487,152,1,25,3,9,24,28,13,25,5,1,1,7,,,,1,,1,,1,,,,1,,2,2,,,,,2,,,,,,,
574201,2,79,35,,,,8,6,5,1,7,1,2,1,,,,,1,,,,1,,,,1,,,,,,,1,,,,,,,,
574201,1,106,31,,5,,,5,4,4,6,4,1,1,,1,,,,,,,,,,,,,,,,,,,,,,,,,,
576964,7,715,233,,24,7,21,37,33,17,67,7,5,,2,1,,,2,,,3,,1,,,,1,,4,,,,,,,,,,,1,
576964,6,607,158,,15,6,14,20,10,13,45,12,3,1,4,5,,,2,,,1,1,,,,3,2,1,,,,,,,,,,,,,
576964,5,682,202,1,23,7,27,22,23,22,45,7,2,2,4,4,,,,,1,,,3,,,1,,2,3,,,,2,,,,,1,,,
576964,4,653,260,2,50,6,13,49,24,18,61,8,1,,13,4,,,,,1,3,,,,,1,1,2,1,,,2,,,,,,,,,
576964,3,662,129,,25,,3,18,18,12,25,8,2,1,4,4,,,,,,,,1,,1,,,2,,,,2,3,,,,,,,,
576964,10,845,269,2,30,10,28,32,27,24,57,19,4,4,4,8,3,1,,3,1,2,1,,1,,1,5,2,,,,,,,,,,,,,
576964,9,974,299,2,29,14,27,38,37,24,72,10,5,4,6,3,1,1,6,,3,,1,1,,,3,2,2,2,,,2,,2,,,,1,,,1
576964,8,720,249,,25,15,17,31,19,37,64,8,1,,7,3,,2,1,,3,,1,1,,2,2,3,3,,,,,,,1,,,3,,,
576964,2,534,184,2,33,6,13,31,29,16,15,9,1,3,11,3,,,1,,,,1,,1,,,2,4,1,1,,,,,,,,1,,,
576964,1,393,115,1,19,2,8,20,15,15,18,8,2,,2,1,1,,,,2,,,,,,,,,,1,,,,,,,,,,,
576972,1,224,79,,15,6,1,8,18,3,19,,2,,,1,1,,,,,,1,,,1,1,,1,,,,,,,,,,,,1,
576981,4,167,78,,7,1,5,8,9,14,10,15,1,1,1,1,,,1,1,,,,,,,,1,1,,,1,,,,,,,,,,
576981,3,163,66,,16,4,1,7,14,9,4,1,1,,2,3,2,,,,,1,,,,,,1,,,,,,,,,,,,,,
576981,2,269,111,,16,1,,14,24,18,19,4,3,2,5,3,,,,,,,,,1,,,,,,,,,,,,,,,1,,
576981,1,309,128,,29,1,1,27,23,6,15,12,,,1,4,,,,,4,,,,,,,,1,,,1,,1,,,,,,,,2
576999,1,688,188,,19,8,12,40,25,18,37,7,2,2,6,2,,,1,1,,,1,2,,1,2,,,2,,,,,,,,,,,,
577006,1,469,170,1,29,5,8,20,24,20,31,14,,,3,2,1,,1,,1,,,,3,,2,1,1,2,,,,,,1,,,,,,
577014,1,186,68,,7,5,7,14,13,2,8,,,1,,3,1,,,1,1,1,,,,,,1,3,,,,,,,,,,,,,
577031,1,173,57,,7,1,6,9,10,2,7,4,2,,7,,,,,,,,,,,,1,,,,,1,,,,,,,,,,
577049,1,91,31,1,3,2,,8,8,1,6,,,,1,,,,1,,,,,,,,,,,,,,,,,,,,,,,
577057,1,447,112,,16,2,4,11,11,15,30,11,,1,2,2,,,,1,1,,,,,,4,,1,,,,,,,,,,,,,
577073,1,532,179,,12,3,16,28,32,24,26,9,4,3,3,4,1,,2,2,2,,1,1,1,1,1,1,1,,1,,,,,,,,,,,
577081,1,1244,455,1,128,7,26,62,78,20,75,9,5,4,16,8,,,1,,2,,,,,,,3,1,4,1,,,,1,,,1,2,,,
577111,1,70,27,,2,2,2,3,6,4,4,,2,,,1,,,,,,,,,,,1,,,,,,,,,,,,,,,
577120,2,556,167,,33,5,,25,24,8,37,9,3,,6,3,,,1,,1,,8,,,,1,,1,1,,,,,,1,,,,,,
577120,1,953,316,2,41,11,16,31,66,25,75,18,3,1,5,5,,1,1,,1,1,2,1,,,2,,5,,1,,,,,2,,,,,,
577146,1,498,182,1,41,3,13,26,38,13,25,11,2,1,,3,,1,,,,,,,,,1,1,,1,,,,,,1,,,,,,
577154,2,126,61,,20,,4,8,3,7,9,1,2,,3,1,,,,,,,,1,,,2,,,,,,,,,,,,,,,
577154,1,663,191,1,43,4,12,41,24,16,24,7,2,,8,,,,1,,1,,,,,,2,1,4,,,,,,,,,,,,,
577162,2,109,25,,1,1,,2,4,5,4,,1,,,1,,,,,,,,2,,,,,2,,,,,,,,,,1,1,,
577162,1,1226,342,5,44,13,14,45,50,33,69,28,3,2,4,12,,,,1,2,,1,1,,,3,1,9,,,,,1,,,,,,,1,
577162,3,48,17,,7,,,3,5,,1,,,,,1,,,,,,,,,,,,,,,,,,,,,,,,,,
577162,4,34,11,,,,,,,,8,,,,,,1,1,,,,,,,,,,1,,,,,,,,,,,,,,
577171,1,393,113,,18,2,6,21,19,11,21,1,4,1,1,4,1,,,1,,,,,,,,,1,,,,1,,,,,,,,,
577189,3,48,15,,,,2,5,5,,1,,,1,,,,,,,,,,,,,,,,,,1,,,,,,,,,,
577189,2,54,30,,1,,1,5,5,1,8,4,2,,,,,1,,,,,,,1,,1,,,,,,,,,,,,,,,
577189,1,104,43,2,4,,5,11,4,6,5,2,,2,1,,,,1,,,,,,,,,,,,,,,,,,,,,,,
577197,5,348,115,1,8,4,5,12,18,7,26,18,1,3,7,1,,,,,,,,,,,1,,,1,,,,,,,,,,,2,
577197,4,1328,483,2,104,13,23,47,66,40,88,40,5,3,28,2,,,5,,2,1,,,,,5,1,2,1,4,,,,,,,,,1,,
577197,3,678,208,1,31,5,17,31,40,18,41,8,2,2,5,2,1,,,,1,,,,,,1,,,,,,,1,,1,,,,,,
577197,2,949,310,1,29,11,23,39,42,20,72,24,1,2,16,5,3,2,2,,3,,,,,,6,3,1,,,1,,1,,,1,,1,,,1
577197,1,1048,343,,50,4,19,49,62,32,75,26,5,1,10,2,1,,1,,,,1,,,,,1,,3,,1,,,,,,,,,,
577201,1,161,68,,8,1,6,15,17,1,15,1,,,,1,,,,,,,,,,,1,,,,,1,,,,1,,,,,,
577219,1,636,241,1,37,11,16,39,28,26,44,10,5,,4,7,3,,1,,2,,,,,,3,1,2,1,,,,,,,,,,,,
577227,1,161,76,,10,1,6,10,7,16,16,2,3,,2,1,,,,,,,,,,,1,1,,,,,,,,,,,,,,
577235,2,250,66,,11,4,6,3,2,8,17,4,,2,3,3,,,1,,,,,,,,1,1,,,,,,,,,,,,,,
577235,1,1064,262,,41,7,18,19,34,25,66,10,10,2,7,5,,1,2,,2,,1,,1,,3,3,3,1,,1,,,,,,,,,,
577243,1,395,137,1,15,9,12,16,17,12,32,8,3,1,1,3,1,,,,,,2,,,,2,,,1,1,,,,,,,,,,,
577294,1,779,257,,56,6,10,22,33,26,49,29,3,,5,3,,,3,,,1,,,1,,2,1,2,2,1,,,1,,,,,1,,,
577308,4,845,300,,47,15,19,39,44,19,58,15,2,2,9,6,2,1,4,1,1,,2,,1,1,3,3,2,4,,,,,,,,,,,,
577308,3,1189,351,,61,29,25,54,43,26,47,18,3,2,17,1,,,2,2,2,,,,,,,5,7,2,,1,1,,,,,3,,,,
577308,2,1079,362,2,63,21,10,42,57,20,67,23,7,,19,2,,,1,,,2,6,,1,,7,3,4,,,2,1,,,1,,,,,,1
577308,1,946,288,1,54,11,10,38,43,17,73,13,2,1,8,1,2,,,,2,,1,,2,,3,2,2,,,,,,,,,,1,,,1
577308,7,129,25,,2,1,2,4,2,3,8,1,,,,,,,,,,,,,,,1,,1,,,,,,,,,,,,,
577308,6,66,22,,1,,2,1,2,3,6,,,1,3,,,,,,1,,2,,,,,,,,,,,,,,,,,,,
577308,5,164,52,,9,,3,8,7,7,14,1,,,1,,,,1,,,,,,,,,1,,,,,,,,,,,,,,
577316,4,312,134,,19,4,3,34,29,8,21,2,2,,5,1,,,,,,,,,,,,2,2,,,,,,,1,,,1,,,
577316,3,65,22,,3,2,,4,4,1,,5,,,2,,,,,,,,,,,,,,,1,,,,,,,,,,,,
577316,2,436,138,6,22,4,6,27,19,9,16,14,3,2,3,4,,,,,,,,,,,1,,2,,,,,,,,,,,,,
577316,1,533,229,,42,7,10,37,48,29,29,4,2,,3,3,3,,1,,,,4,,,,1,3,,1,,1,1,,,,,,,,,
577324,1,345,128,,24,5,6,21,32,10,14,2,,2,4,1,,,,,2,,2,,,,1,,,,,1,,1,,,,,,,,
577332,1,458,121,,28,3,3,13,12,6,31,7,3,,3,4,,,,,,,1,,,1,2,2,2,,,,,,,,,,,,,
577341,1,511,168,,24,8,2,17,27,19,40,13,,2,2,1,,,2,1,,1,,,1,,5,1,1,,,,,1,,,,,,,,
577359,1,899,276,3,40,5,10,33,65,23,60,9,2,,3,5,8,,,,1,1,,,,1,1,1,2,,,1,,,,2,,,,,,
577367,1,155,62,,5,3,1,14,5,8,11,3,,,2,5,2,,,,,,,,,1,1,1,,,,,,,,,,,,,,
577375,2,41,11,,1,,,3,,3,3,,,,,1,,,,,,,,,,,,,,,,,,,,,,,,,,
577375,1,255,77,,13,1,7,11,11,8,10,11,,,2,1,,,,,,,1,,,,,,,,,,,1,,,,,,,,
577391,1,200,63,,12,2,4,9,8,2,10,7,3,,2,3,,,,,,,,,,,,,,,,,,,,,,,1,,,
577405,1,935,260,,26,11,30,21,36,28,36,18,7,4,4,5,1,1,,5,2,4,4,2,,,8,,,5,,,1,,,,,,1,,,
577413,1,727,269,1,36,16,12,34,49,28,65,1,4,,10,,,,1,,,,3,,,,5,,1,,1,,,,,,,,1,1,,
577421,1,211,74,,5,,7,9,16,6,17,2,2,,,3,,,1,,,,2,,,,,1,1,,,,,1,,,,1,,,,
577430,1,345,114,3,27,1,2,16,22,13,10,12,,2,2,,,,,,1,,,,,,1,,2,,,,,,,,,,,,,
577448,1,77,28,,6,2,1,7,2,,2,1,,,2,1,,,,,2,,,,,,,,,1,,,,,,1,,,,,,
577456,2,872,277,1,46,6,13,41,46,37,37,17,2,3,9,1,3,,,,,,,,,,1,3,2,5,,,,2,,1,,,,,,1
577456,1,1348,427,2,63,13,18,66,80,56,78,19,6,1,4,1,3,,,1,4,,,1,,1,3,,2,1,,1,,,,1,,1,,,,1
577464,1,214,84,,17,1,5,13,14,8,16,,,1,3,,,,,,,,,,,,1,,,3,,1,,,,,,,,,,1
577472,1,1035,270,1,51,11,16,28,50,20,62,9,3,1,3,3,,,,,,,,,1,1,1,1,3,,,1,,2,,,,,,,2,
577481,1,86,42,,7,1,,6,5,5,8,,,,9,1,,,,,,,,,,,,,,,,,,,,,,,,,,
577499,1,812,303,,50,3,15,39,49,24,66,20,1,4,8,5,2,1,,2,4,1,,2,,,,1,,3,,1,,,,1,,,1,,,
577529,1,542,152,,9,3,12,28,29,15,31,7,1,4,4,2,,,1,,,,,,,,1,2,1,1,,,,,,1,,,,,,
577545,2,81,23,,2,2,1,2,1,1,11,1,,1,,,,,,,,,,,,,1,,,,,,,,,,,,,,,
577545,1,497,148,,12,7,7,22,22,18,39,4,3,2,5,2,,,1,,,,,,,,,2,,2,,,,,,,,,,,,
577553,2,330,105,,7,6,4,6,12,15,38,7,2,,4,,,,,,,,,,,,1,2,,,,,,,,,,,,,,1
577553,1,1111,401,,39,8,14,51,47,21,45,144,2,3,13,5,,2,,3,,1,,,,,,,,2,,,1,,,,,,,,,
577561,1,141,46,,5,4,,3,8,8,6,5,1,,3,1,,,,,,,,1,,,1,,,,,,,,,,,,,,,
577570,1,174,74,,3,4,2,15,6,6,18,10,1,,2,1,1,,,,,,,,,,,1,2,2,,,,,,,,,,,,
577596,2,86,31,,14,,,4,5,2,1,,,,2,,,1,,,,,1,,,,,,,,,,,,,,,,,1,,
577596,1,371,130,1,21,1,4,18,18,15,34,3,1,1,2,4,,,,1,1,,,,,,1,1,,1,,,,2,,,,,,,,
577600,1,90,43,,5,1,,8,8,5,12,,,,3,,,,,,,,,,,,,,,1,,,,,,,,,,,,
577626,6,481,153,,15,9,11,23,30,12,39,2,,1,1,1,,1,,,2,,1,2,,1,1,1,,,,,,,,,,,,,,
577626,5,1004,378,,80,8,5,75,63,26,70,14,1,1,6,5,,,,,1,,2,,,,8,5,5,2,,,,,,1,,,,,,
577626,4,832,311,2,63,10,14,53,42,28,49,13,3,,10,4,2,,,,,,2,,,1,8,3,1,2,,,,,,,,1,,,,
577626,3,1412,421,2,105,5,6,81,77,29,43,12,5,1,23,6,1,,3,1,,,2,,,,2,7,7,1,,,,,1,1,,,,,,
577626,2,892,332,1,73,19,8,43,70,23,49,11,8,2,10,1,,,4,,1,,1,,,,3,1,1,1,,,,,,1,,,,,1,
577626,1,1463,544,3,95,19,23,90,101,53,94,23,2,2,8,9,,,3,,2,1,3,,,,3,1,5,3,,1,,,,,,,,,,
577626,13,518,190,,32,2,15,36,46,11,31,8,,,4,,,,2,1,,,,,,,,,,1,,,,,,,,,,,,1
577626,12,874,277,,36,12,7,38,57,27,51,20,3,1,4,4,,,1,,,,7,1,,,1,1,2,1,,,2,,1,,,,,,,
577626,11,1047,403,2,61,11,20,72,69,32,94,13,2,1,8,4,,,1,,,1,2,1,,,5,,1,1,,,,,,,,,2,,,
577626,10,541,164,2,29,4,2,21,25,17,35,12,1,1,3,4,,,,,1,,2,,,,1,2,1,1,,,,,,,,,,,,
577626,9,851,296,3,41,14,21,27,43,47,70,3,5,,8,2,,,,,,,1,,,,1,,7,2,,,,,,,,,,,1,
577626,8,674,193,1,27,14,5,29,32,17,34,6,,2,4,4,,,1,,1,3,4,,,,5,1,,,1,1,,,,1,,,,,,
577626,7,916,359,1,78,18,18,46,61,25,59,17,2,1,8,2,1,,1,,4,1,6,,,,5,,2,,,,,,,1,,1,,1,,
577642,1,182,74,1,9,2,4,6,6,11,15,1,,,5,1,1,,1,,,2,1,1,,,3,2,,1,,,,1,,,,,,,,
577651,1,768,252,,27,2,19,34,53,27,49,14,2,1,5,6,1,,,2,2,2,,,,,2,,1,1,1,,,,,,,,1,,,
577669,1,296,87,,16,2,3,19,13,5,14,10,2,,,1,,,,1,,,,,,,1,,,,,,,,,,,,,,,
577677,1,482,144,1,22,10,9,12,26,19,28,2,1,,5,2,1,,2,1,,1,1,,,,1,,,,,,,,,,,,,,,
577685,1,339,152,,23,6,7,29,13,13,32,1,1,,1,5,,1,,,,,3,,,,2,6,2,2,,1,1,1,,1,,,1,,,
577693,5,30,2,,,,,1,,1,,,,,,,,,,,,,,,,,,,,,,,,,,,,,,,,
577693,4,48,20,,2,,,8,2,,3,1,,,,,,,,,,,1,,,,1,,1,,1,,,,,,,,,,,
577693,3,115,33,,,1,2,10,6,5,6,,1,,,,1,,1,,,,,,,,,,,,,,,,,,,,,,,
577693,2,136,44,,4,2,1,5,12,8,7,1,2,,1,,,,,,,,,,,,,,1,,,,,,,,,,,,,
577693,1,724,248,,35,7,20,29,43,22,38,14,13,,8,3,,,,,7,,,,,,2,4,,,,1,,,,1,,1,,,,
577707,1,410,109,,15,4,3,9,17,13,26,10,1,,3,1,1,,2,,,,,,,,3,1,,,,,,,,,,,,,,
577723,1,144,35,,5,3,3,1,6,1,2,,2,,1,5,,,,,,,,,,,,,,4,1,,,,,,,,,,,1
