A53,A7,A47,A720,A768,A1,A1114,A997,A998,A999,B720,B1152,B7,B1447,B768,B47,B1,B997,B998,B999
12,6,17,12,32,4,25,9,2,49,12,8,1,7,26,6,0,19,0,89
3,14,2,3,14,0,9,9,0,14,6,13,11,1,1,1,0,3,3,29
3,8,4,17,6,2,15,4,0,29,2,3,20,6,4,1,1,4,5,42
11,22,12,9,48,18,19,22,0,74,3,18,7,14,20,2,9,4,4,154
5,6,3,4,23,4,2,4,2,20,2,10,5,9,12,2,5,2,0,26
15,13,18,12,69,12,19,11,12,94,18,6,5,5,16,3,2,15,0,205
9,11,20,4,30,17,24,14,0,77,15,4,5,9,15,2,11,11,0,134
10,11,26,13,93,14,23,21,17,102,16,7,10,4,45,8,16,29,0,195
8,4,5,9,13,19,7,7,5,19,5,2,6,8,7,3,16,6,0,43
1,11,5,3,25,14,4,3,6,24,3,4,5,1,7,1,12,5,0,58
3,5,7,3,16,10,3,9,0,22,2,6,10,2,10,2,6,3,3,34
12,22,6,10,28,8,13,11,0,91,6,2,9,19,7,4,6,15,2,131
9,4,15,22,41,7,11,19,9,46,25,11,4,12,17,2,5,13,0,94
15,1,2,11,20,11,7,7,3,46,13,3,2,10,2,1,6,9,0,77
4,8,7,2,16,9,6,5,0,33,0,12,7,3,7,2,5,7,0,47
25,9,19,8,52,8,16,13,7,37,3,7,26,12,18,6,8,17,0,97
8,26,8,9,22,11,1,15,2,28,12,7,32,5,1,2,7,11,0,53
2,9,2,0,13,6,2,16,0,11,1,8,17,2,6,1,5,0,3,18
3,11,12,1,17,1,7,5,0,13,6,0,9,1,7,4,6,2,7,28
8,9,20,7,44,13,23,10,0,95,1,4,6,4,34,3,7,12,8,150
1,9,7,3,18,5,4,5,0,36,1,0,1,1,11,3,1,3,5,62
1,8,5,14,26,6,6,15,0,49,12,6,5,1,12,2,3,5,10,74
0,6,11,0,6,8,13,3,0,5,3,3,2,13,4,0,0,6,2,19
2,4,3,4,20,13,11,16,0,38,6,4,1,3,10,0,14,2,0,71
2,6,2,1,28,12,7,15,0,46,2,1,4,8,13,1,8,6,14,62
7,5,21,8,22,4,16,25,0,79,2,1,4,6,16,7,7,9,18,117
6,5,8,0,26,2,6,11,4,36,3,1,7,2,7,1,4,8,0,71
7,3,7,3,36,20,8,17,8,39,5,13,5,6,17,7,13,13,0,69
148,93,36,96,179,72,54,119,0,340,82,67,102,95,54,11,45,81,0,600
63,80,48,54,216,64,35,75,0,216,33,43,112,47,84,17,35,51,1,428
52,65,42,37,111,33,25,40,0,225,22,29,64,24,32,23,16,39,28,353
48,63,34,51,132,30,36,58,0,355,31,31,54,30,29,9,19,49,47,508
2,5,4,1,9,2,0,5,0,9,2,3,8,2,3,2,1,2,2,12
7,15,6,5,29,2,6,13,3,37,9,18,11,7,12,3,2,15,0,46
7,12,6,3,16,0,9,7,3,28,3,7,9,1,6,1,0,9,0,55
26,26,16,18,46,7,12,36,0,95,22,24,22,15,13,9,6,14,0,157
10,7,1,6,15,17,1,5,8,28,8,7,9,5,2,1,14,7,0,45
4,16,2,8,25,14,2,4,0,32,6,1,23,2,3,0,13,4,1,54
19,9,1,14,14,60,2,26,3,27,13,7,17,23,11,2,39,16,0,47
15,15,5,11,23,4,5,8,2,59,7,9,5,14,8,4,5,8,0,87
9,19,9,13,31,0,5,14,5,47,22,7,19,4,11,2,1,19,0,67
5,7,3,1,13,2,5,5,0,34,1,2,6,5,6,3,2,1,2,47
148,73,43,89,212,50,58,117,0,348,57,71,101,88,63,12,36,75,20,615
103,91,47,56,145,29,43,90,7,517,36,29,92,61,50,14,23,73,0,750
37,57,33,59,116,21,31,71,0,340,21,27,79,22,41,11,11,31,15,507
76,89,46,72,148,30,38,99,0,353,50,49,101,61,43,10,22,44,50,521
46,91,65,43,178,23,46,55,0,298,28,37,110,27,61,15,16,33,3,515
44,74,31,74,154,37,36,65,5,264,41,41,86,26,39,11,21,40,0,479
11,17,13,5,31,1,2,9,0,61,6,8,20,3,12,4,1,3,0,93
37,60,36,35,73,25,28,34,0,182,15,45,65,7,15,14,12,16,10,311
5,5,9,6,36,3,3,11,0,51,1,15,13,1,10,2,1,3,5,78
30,7,22,20,56,3,14,34,0,89,9,19,27,15,15,2,4,14,0,170
8,13,7,6,18,8,4,6,6,22,4,14,9,5,4,2,4,1,0,55
17,32,21,12,49,29,12,29,16,111,10,6,28,14,21,11,55,11,0,172
5,0,3,5,6,6,3,4,0,13,5,0,5,2,0,1,7,1,1,23
2,5,13,3,12,6,11,8,2,51,7,2,4,1,6,1,10,3,0,79
27,34,59,30,79,19,25,32,16,141,17,9,48,20,17,20,3,16,0,312
2,8,10,2,21,3,4,13,5,68,3,2,6,0,4,4,1,3,0,113
52,96,80,90,198,45,50,103,2,523,76,86,69,23,63,16,55,47,0,804
67,67,34,36,128,38,41,74,0,332,20,44,57,42,31,9,20,24,7,563
6,8,10,10,11,6,4,8,0,23,10,0,9,7,8,3,3,3,3,40
8,0,3,6,9,2,1,2,2,11,3,1,7,3,4,1,1,3,0,21
9,1,9,10,11,1,3,8,0,25,0,4,12,3,6,0,1,6,3,42
22,14,17,18,28,12,22,42,0,64,26,12,16,2,10,4,9,10,31,119
4,14,17,16,50,9,13,21,7,90,11,12,13,3,18,11,5,9,0,159
18,39,39,41,80,10,27,43,0,221,17,32,36,12,32,6,31,16,9,327
74,51,49,69,174,36,74,74,0,358,33,25,48,64,42,18,35,35,31,628
81,79,48,72,172,48,72,60,0,405,41,22,74,48,69,18,35,60,27,643
7,9,24,8,37,1,8,6,0,44,6,2,16,6,14,5,0,3,9,83
21,28,24,27,55,11,30,22,0,84,22,6,33,9,20,4,6,22,0,180
6,1,7,8,39,2,18,12,10,73,8,4,8,15,20,4,3,8,0,106
8,17,11,13,34,8,6,16,0,69,5,12,17,10,10,5,1,2,10,110
3,11,6,16,35,7,11,12,7,94,8,4,11,8,8,1,4,3,0,155
27,18,31,18,83,12,26,26,19,177,16,13,18,23,25,13,10,29,0,290
22,30,36,29,89,16,24,30,0,213,15,8,33,21,37,13,9,14,4,335
37,47,45,38,126,29,32,28,0,213,16,12,45,26,61,23,22,17,24,349
69,57,52,54,162,38,34,70,0,360,35,33,40,42,52,21,21,26,63,563
43,61,55,48,152,19,44,56,0,377,31,17,43,42,84,17,19,28,8,566
119,79,75,100,177,59,77,111,0,427,61,48,51,95,54,25,35,65,66,724
88,56,59,75,144,33,58,89,0,596,41,29,53,88,46,25,25,44,53,794
3,5,2,7,12,2,4,8,0,10,3,6,1,3,11,0,3,3,0,23
38,51,59,43,140,30,38,71,28,238,36,27,44,53,53,21,21,32,0,449
17,21,20,18,47,14,19,24,0,107,15,16,16,7,22,9,6,16,11,169
22,11,6,7,31,10,9,36,0,87,14,25,16,14,5,4,8,11,4,118
11,16,12,14,26,5,11,10,6,85,1,4,9,12,11,4,2,12,0,141
9,6,9,1,12,0,1,7,0,12,5,2,4,1,5,2,1,2,1,34
42,85,56,99,171,23,53,71,0,410,37,21,119,28,67,10,22,49,50,607
42,69,81,59,117,18,38,60,0,311,50,29,81,26,29,19,12,40,8,501
70,62,59,72,127,33,49,91,0,509,47,24,65,42,28,18,18,62,8,760
25,24,15,17,46,13,18,30,32,103,11,11,13,30,18,8,7,21,0,204
3,15,9,4,39,5,3,11,0,48,4,1,13,9,30,4,2,3,3,68
2,9,15,18,26,13,10,12,7,35,12,9,10,3,8,3,10,9,0,83
36,48,14,19,105,17,29,78,0,228,10,54,64,18,17,3,6,20,8,374
6,7,9,13,37,7,19,19,0,51,3,14,6,6,9,1,1,6,14,108
2,3,8,4,11,5,6,1,5,16,6,2,7,4,6,1,4,0,0,31
8,15,9,9,42,8,13,14,0,78,2,7,15,7,6,2,17,1,8,131
15,34,16,22,50,6,13,20,1,100,6,13,32,16,17,3,8,14,0,168
14,8,7,5,12,5,5,7,14,53,5,8,8,13,11,5,3,1,0,76
8,5,2,3,18,2,4,3,0,21,6,2,1,8,10,0,6,4,3,26
6,5,12,8,33,2,8,8,6,20,10,1,4,7,19,6,2,6,0,53
11,4,12,7,23,7,9,17,0,40,5,3,3,9,9,8,11,10,7,65
23,16,13,20,70,15,11,48,8,125,16,20,17,31,28,4,14,18,0,201
1,9,8,14,36,4,3,7,0,35,10,2,5,7,18,2,5,7,0,61
13,10,5,12,29,11,4,20,9,40,15,4,6,15,15,0,11,12,0,75
1,3,13,3,7,7,8,16,3,9,2,1,5,0,1,5,0,14,0,42
35,70,80,54,133,70,24,88,0,297,25,90,79,18,45,23,50,18,21,482
5,3,2,4,6,1,10,1,2,15,5,0,1,3,6,0,0,9,0,25
6,2,9,5,22,19,9,13,7,38,6,8,2,2,9,3,24,6,0,70
11,8,5,4,18,5,4,19,0,30,4,17,8,5,6,1,3,6,9,45
10,12,7,3,15,3,2,3,4,9,8,4,11,3,7,6,3,4,0,22
4,5,2,5,12,3,1,7,3,12,7,0,9,3,9,1,2,1,0,22
5,13,14,17,21,13,9,18,11,41,9,13,12,5,7,3,6,14,0,93
3,5,13,6,22,0,0,12,0,28,3,10,6,0,10,4,3,3,0,50
8,3,34,22,32,3,8,22,0,74,10,5,8,6,5,12,5,16,12,127
2,7,9,18,23,5,6,32,2,66,7,37,9,1,7,4,3,11,0,91
4,13,8,18,67,41,10,15,0,59,5,3,11,4,21,3,40,17,1,130
22,19,15,14,46,4,9,16,3,53,8,11,13,9,26,7,3,17,0,107
9,3,5,3,17,7,1,4,0,25,11,0,2,4,2,2,2,5,2,44
1,1,0,2,6,6,4,8,1,6,3,8,5,1,1,0,6,2,0,9
1,11,3,3,0,2,4,6,1,17,13,7,8,1,1,0,0,1,0,17
3,4,1,2,5,13,1,16,0,7,1,16,6,0,0,0,7,2,5,15
3,9,1,2,14,13,2,6,0,10,4,6,10,2,6,1,6,0,0,25
6,15,18,9,24,7,9,17,0,52,4,7,28,5,11,12,6,9,16,59
32,39,28,16,136,20,25,59,8,228,25,48,44,20,44,16,14,21,0,359
4,6,0,4,0,3,0,2,2,20,2,1,6,2,1,0,2,1,0,26
7,4,8,3,4,3,4,8,4,12,6,3,8,1,7,1,1,6,0,24
6,7,5,12,16,2,14,17,1,35,5,3,9,6,12,2,2,13,0,63
34,50,25,53,103,25,37,52,0,224,38,20,54,22,32,9,17,37,0,374
33,41,28,44,105,19,40,68,0,278,21,56,35,25,28,5,9,17,4,456
8,22,19,7,35,8,6,18,0,71,9,19,38,7,9,5,0,7,11,89
5,5,7,12,24,1,3,19,0,52,0,25,10,4,8,0,1,1,4,75
7,14,9,11,27,6,7,29,0,31,4,43,9,6,7,3,4,2,10,53
1,7,2,7,10,5,4,9,5,30,5,16,5,0,0,0,1,3,0,50
3,2,2,4,6,4,3,13,1,9,0,16,0,4,2,1,2,3,0,19
46,46,37,51,116,27,24,116,0,277,28,136,35,26,22,5,12,25,12,439
55,44,37,56,117,27,15,170,0,266,37,182,48,24,21,9,18,25,21,402
28,45,44,45,117,12,31,112,0,432,19,117,32,10,24,13,9,21,52,569
5,10,3,4,27,16,4,6,2,51,9,3,8,8,11,2,10,3,0,74
6,5,2,4,4,2,0,7,0,8,2,1,6,8,3,0,3,2,0,13
5,8,3,1,17,3,0,7,2,17,1,2,4,1,17,0,2,2,0,34
5,5,12,5,12,6,3,10,11,13,2,8,1,11,11,6,6,2,0,35
55,67,56,83,167,55,77,103,0,428,47,39,101,39,64,13,47,63,27,651
45,92,73,37,219,27,70,86,0,388,26,47,113,36,63,18,19,63,32,620
0,6,4,0,26,6,1,21,0,35,3,8,6,4,11,1,6,6,6,48
22,11,12,18,36,7,9,16,10,52,23,15,10,6,20,5,5,7,0,102
6,24,8,11,28,11,4,34,6,66,8,33,14,13,11,1,3,0,0,115
8,12,3,6,25,2,1,5,4,21,3,4,4,3,10,0,6,5,0,52
2,5,4,5,20,2,2,1,0,14,3,3,0,3,13,0,1,3,1,28
3,7,14,1,29,11,11,8,0,29,2,4,5,0,15,5,12,10,2,58
1,3,12,9,21,7,4,27,1,30,3,1,7,8,9,8,8,6,0,65
5,6,6,4,19,8,1,27,12,29,2,28,3,3,7,0,3,3,0,68
0,4,6,2,13,3,4,9,0,10,1,14,9,0,2,0,1,0,0,24
2,5,2,4,22,4,4,18,0,21,2,17,7,1,2,0,3,6,3,41
12,9,2,12,31,6,6,20,0,31,8,8,13,7,13,0,3,10,13,54
3,7,6,2,13,2,3,2,0,17,0,5,11,0,2,1,1,1,0,34
8,10,15,10,48,2,10,18,15,55,12,9,20,4,14,8,1,12,0,111
3,15,23,10,49,5,8,51,0,67,9,47,18,0,19,5,1,5,5,122
18,6,11,9,23,2,8,15,7,60,7,14,11,15,5,0,1,15,0,91
13,9,19,18,30,19,12,6,0,68,13,7,18,10,14,10,21,7,4,90
5,17,6,7,26,10,0,12,0,22,4,12,4,2,8,2,4,16,1,52
1,6,8,8,20,11,9,3,0,29,3,1,7,1,8,4,13,3,11,44
3,8,17,6,35,2,2,10,0,51,3,17,18,2,10,3,1,8,3,69
6,12,0,4,15,2,3,4,4,11,6,2,12,6,7,0,1,2,0,25
9,4,4,2,8,1,1,3,0,10,2,5,3,7,0,0,4,5,0,16
30,43,19,36,88,11,32,39,0,161,17,31,41,22,30,4,10,26,5,273
32,10,8,14,28,11,11,23,0,61,19,6,15,19,14,5,10,19,0,91
77,56,56,74,142,50,48,110,0,355,46,91,40,44,33,15,38,31,36,594
0,3,6,3,13,0,14,3,0,34,1,0,1,1,1,2,1,2,2,65
7,19,3,2,16,1,0,6,0,36,1,2,14,4,6,1,0,3,11,48
6,9,6,11,17,1,5,0,0,54,8,3,7,0,6,4,1,2,2,76
61,66,63,48,164,27,73,64,0,349,41,11,80,47,72,24,22,38,21,559
84,75,76,73,185,26,84,78,0,424,47,36,78,63,67,27,18,64,26,679
0,4,2,3,8,3,1,3,3,14,1,0,3,0,10,0,4,6,0,17
3,7,11,5,16,8,3,10,3,26,10,1,8,1,7,4,6,8,0,47
9,12,32,8,32,59,12,23,0,91,10,2,17,8,15,6,43,12,18,147
9,14,10,2,37,13,8,7,0,44,5,2,9,7,10,5,13,6,3,84
0,8,1,0,8,7,0,7,0,7,5,4,2,0,2,3,6,1,2,13
4,10,4,7,6,8,3,16,0,26,11,8,5,8,7,0,3,7,5,30
29,12,10,29,83,12,27,51,12,112,33,20,3,30,43,5,11,31,0,201
0,4,1,2,26,9,4,5,6,20,4,4,4,0,8,1,6,2,0,48
2,13,24,11,46,39,9,17,1,44,9,6,7,19,12,7,30,16,0,100
6,4,9,2,20,10,11,14,0,48,3,12,4,8,11,5,2,6,8,65
8,8,10,6,8,11,25,7,6,51,9,14,4,11,7,4,10,16,0,65
6,7,0,4,10,13,5,4,0,39,6,6,2,6,10,0,10,3,0,45
0,5,7,6,14,13,13,5,1,56,4,1,1,1,9,1,4,9,0,90
18,10,28,23,85,21,18,28,8,190,12,23,9,11,26,11,16,18,0,303
11,20,39,21,57,39,19,22,14,85,24,19,18,13,24,12,14,19,0,184
4,6,3,2,11,16,1,4,3,9,6,3,1,8,4,2,17,1,0,17
5,4,2,4,4,9,5,7,1,6,5,2,6,8,1,4,2,7,0,12
5,3,3,8,21,5,7,4,5,30,4,15,3,2,2,0,4,7,0,54
15,19,24,14,50,12,17,13,1,67,18,13,16,17,24,8,6,17,0,113
1,2,6,5,11,4,10,9,2,15,4,8,3,2,1,0,2,9,0,36
3,12,7,14,23,14,19,9,6,27,5,6,7,2,13,2,2,15,0,82
4,4,24,16,27,3,9,12,0,60,16,1,10,6,4,9,2,6,9,96
27,21,21,27,96,20,29,37,6,137,26,19,15,18,40,9,17,29,0,248
45,14,26,39,79,21,28,32,0,140,34,7,12,35,30,10,16,25,19,236
8,9,1,3,18,9,8,3,0,11,2,5,7,2,12,1,4,1,4,32
0,5,2,1,18,4,2,5,2,26,4,1,7,0,7,0,2,4,0,40
2,5,0,4,2,6,6,2,0,18,3,0,5,1,3,0,6,1,2,24
4,11,4,7,18,6,5,12,4,23,5,5,13,3,11,0,4,9,0,44
14,9,3,4,24,0,10,12,8,9,5,6,15,7,15,1,0,8,0,36
2,3,0,5,12,3,4,8,0,15,1,17,3,0,2,0,0,2,4,23
3,1,5,2,8,3,10,6,0,11,1,5,9,2,8,1,3,4,4,12
7,12,1,10,11,4,6,4,4,19,5,12,15,4,5,0,3,7,0,27
6,17,17,9,31,6,9,24,0,59,7,23,20,5,13,0,1,9,9,91
1,1,2,1,11,4,4,8,0,52,1,5,5,2,1,0,1,3,13,53
0,11,2,1,7,5,3,2,0,6,0,3,4,0,6,0,2,1,3,18
1,8,1,1,10,1,1,27,0,17,1,22,2,3,5,0,0,4,7,23
3,9,13,2,12,3,7,10,2,29,1,14,19,0,2,2,0,5,0,47
6,7,4,5,21,11,16,9,7,17,3,15,18,1,5,2,6,13,0,40
1,8,4,7,18,3,10,9,5,10,4,12,8,2,4,0,2,2,0,41
0,9,6,4,14,0,12,16,8,26,1,4,8,0,9,2,5,11,0,55
1,2,0,6,5,1,2,10,3,4,2,6,9,2,3,0,0,1,0,11
3,12,2,4,8,4,5,3,5,11,4,0,16,1,3,1,6,5,0,21
5,2,3,5,8,0,2,11,0,17,0,18,0,0,4,1,0,3,4,23
13,10,2,2,9,3,2,15,1,19,0,11,5,7,3,2,3,17,0,28
35,22,19,15,36,11,15,22,0,47,21,11,21,18,13,6,4,8,4,116
2,3,4,2,17,8,4,12,3,39,4,4,5,1,8,2,3,4,0,63
0,2,2,7,15,3,2,9,0,9,16,2,6,0,2,3,0,7,0,13
2,9,3,0,16,1,1,6,4,21,2,3,13,1,7,0,1,4,0,32
12,10,4,1,27,2,3,10,6,32,6,7,13,10,10,2,6,3,0,50
3,7,7,6,15,8,3,13,1,25,4,7,10,6,6,2,7,5,0,41
15,10,19,12,19,10,14,19,9,47,4,15,19,12,10,5,8,7,0,94
14,2,0,4,9,5,5,12,0,19,9,4,6,6,1,0,2,5,4,33
52,25,18,38,113,33,25,26,7,135,22,27,38,15,40,2,21,22,0,285
13,7,17,10,47,9,12,24,0,51,11,14,13,12,7,7,8,15,7,96
35,26,19,40,99,24,19,84,12,132,34,41,55,38,31,2,16,40,0,233
1,7,13,3,17,6,4,15,0,17,2,11,8,1,5,1,2,3,1,49
4,1,2,3,15,7,0,16,1,9,4,18,1,2,7,0,2,1,0,23
74,26,27,35,72,24,16,42,0,192,34,18,11,37,30,13,23,26,26,290
40,40,55,41,123,14,41,34,0,251,32,15,20,28,51,15,11,34,18,415
49,39,45,59,136,26,31,45,0,267,51,5,18,23,52,17,29,54,13,435
73,42,40,71,141,41,32,66,0,371,57,10,30,46,60,14,38,55,56,511
13,6,7,18,43,9,13,26,8,63,12,4,2,16,24,2,13,26,0,107
58,20,24,39,80,30,19,47,0,138,31,10,5,33,34,11,24,40,39,228
47,34,20,40,105,17,26,31,0,173,25,13,23,31,60,10,16,34,24,257
32,21,19,30,56,27,24,52,66,113,35,13,11,31,19,4,24,47,0,256
32,14,16,25,76,19,16,35,14,140,27,10,11,19,27,6,21,30,0,236
1,2,4,1,17,4,2,3,0,10,0,1,2,2,14,0,1,0,0,24
14,10,22,19,57,8,17,24,18,76,18,4,5,15,23,8,17,16,0,159
35,12,24,15,51,20,15,20,1,96,11,10,11,16,23,12,20,32,0,154
59,18,23,28,75,24,16,34,0,169,38,11,5,40,29,4,31,29,1,258
26,9,19,11,50,16,20,24,0,122,12,3,15,21,20,7,21,16,2,180
86,36,24,68,103,33,28,75,0,209,62,13,21,55,49,10,23,58,16,355
50,51,62,50,162,31,40,83,0,280,46,18,44,37,67,32,33,54,52,426
0,10,2,6,17,7,3,2,0,14,1,2,3,1,4,0,2,4,3,41
18,14,24,8,54,7,27,9,0,105,12,6,11,15,29,7,10,23,0,153
57,48,53,69,146,21,53,58,0,285,62,8,26,31,55,14,30,45,18,501
79,56,43,62,177,36,40,78,0,296,46,21,23,47,65,14,35,56,68,492
63,36,42,50,162,22,58,44,4,243,44,14,34,55,73,20,24,71,0,389
41,18,32,41,101,15,19,49,0,182,30,5,12,25,48,8,14,41,66,249
43,39,37,30,89,12,30,49,0,193,29,16,18,26,49,13,13,38,30,290
67,47,53,69,178,28,55,60,0,325,68,17,22,44,83,24,37,55,0,532
97,50,34,82,134,30,43,83,0,240,51,23,20,62,70,9,49,73,6,430
70,41,45,48,137,48,29,71,0,257,46,15,23,52,54,22,35,52,33,414
125,59,67,122,235,52,64,118,9,359,111,22,45,102,98,34,72,79,0,647
25,7,4,8,49,11,11,19,8,90,5,23,2,9,15,0,11,12,0,155
3,5,7,9,28,3,6,2,0,45,5,0,4,5,6,3,2,12,3,68
4,5,8,9,39,16,13,9,0,50,4,0,6,0,14,1,18,7,16,87
60,48,46,65,157,39,37,71,8,287,67,18,31,58,67,12,31,47,0,487
13,20,27,17,56,13,27,22,0,88,9,14,9,8,26,11,6,13,6,181
24,13,31,20,58,9,21,28,10,118,15,7,12,20,26,6,9,13,0,224
14,20,12,17,61,16,15,24,10,149,14,8,8,7,21,7,27,28,0,218
10,8,6,5,18,1,3,10,0,28,1,1,1,1,8,0,0,5,15,57
27,47,81,47,146,39,27,55,0,206,27,17,33,16,45,32,40,29,17,419
1,4,9,11,35,6,7,15,14,32,15,8,14,6,17,3,14,7,0,50
75,57,60,48,192,23,49,84,0,400,32,22,47,62,52,15,20,41,16,681
73,58,58,64,242,27,35,87,36,489,67,47,49,66,85,25,24,38,0,768
31,43,48,39,192,13,25,80,12,333,24,9,30,83,74,13,5,30,0,548
3,10,12,2,14,3,3,11,0,52,2,5,3,5,11,1,0,8,15,60
2,6,10,0,23,1,5,6,0,13,3,6,6,4,13,4,1,8,2,19
24,21,55,36,125,16,21,48,0,190,29,21,23,24,49,26,12,38,6,308
10,6,13,6,23,1,4,13,0,32,4,11,8,11,8,4,3,8,0,51
29,27,30,20,92,18,32,24,0,207,15,19,14,10,26,6,16,13,3,357
51,20,9,23,68,60,18,48,0,127,28,7,8,56,22,4,61,32,4,202
13,5,13,4,41,9,9,22,0,86,6,14,3,9,10,3,9,3,2,143
4,3,8,6,19,3,8,6,0,37,3,0,6,3,6,1,2,2,4,67
10,15,22,19,43,10,13,7,0,91,10,10,10,12,22,10,5,4,8,139
115,56,48,100,206,33,71,92,0,401,56,40,41,79,68,27,37,87,29,658
79,58,60,76,185,42,73,68,0,343,61,22,32,58,80,32,46,76,21,556
109,53,59,93,205,41,87,103,0,387,50,36,37,80,98,20,32,83,33,668
102,51,58,64,188,42,44,67,0,336,40,20,36,56,75,23,27,53,34,588
70,62,50,101,247,35,49,85,0,333,49,33,50,45,87,28,36,61,77,566
96,56,59,86,242,32,69,111,57,525,50,26,43,65,93,21,28,73,0,934
13,13,14,18,30,14,2,12,0,84,15,8,4,8,10,4,22,6,4,119
7,4,8,5,11,6,3,13,0,47,9,8,1,6,8,3,5,6,4,54
9,7,7,10,34,2,4,8,0,47,12,3,3,10,5,4,3,3,4,81
12,9,19,6,34,8,15,11,0,38,4,5,7,9,15,7,9,11,6,79
16,8,10,12,19,6,7,6,0,41,8,1,5,13,9,9,7,4,4,65
9,4,10,4,14,2,3,6,0,14,9,0,2,9,11,2,3,5,1,24
3,5,7,6,22,5,4,8,0,42,6,1,1,5,6,1,4,5,3,70
3,2,8,2,7,8,5,7,2,24,1,6,0,2,5,5,3,10,0,36
11,12,14,14,55,3,20,26,0,78,5,5,19,13,26,5,3,8,2,147
13,13,35,17,68,26,16,40,0,100,13,6,8,19,24,9,24,10,14,201
18,7,5,6,39,4,11,16,7,97,6,33,5,12,13,4,2,17,0,118
12,8,7,12,31,18,5,16,0,33,8,5,13,10,14,3,18,10,2,59
9,14,27,11,33,14,18,10,0,55,9,14,4,5,12,5,8,14,16,104
0,5,11,9,4,1,10,2,0,17,5,4,4,0,3,3,2,7,3,28
11,7,8,10,21,2,14,8,0,48,3,5,2,9,7,1,5,16,2,79
33,27,38,20,91,19,29,46,0,176,15,31,20,12,39,10,11,21,4,316
21,12,19,22,104,8,14,37,7,183,27,15,8,12,35,8,14,18,0,290
8,5,4,26,24,5,7,3,0,36,8,3,7,3,18,3,6,3,4,63
4,5,2,3,12,2,3,4,0,14,2,1,6,6,7,0,2,0,1,24
9,4,11,6,41,0,8,12,16,53,4,14,6,8,19,2,2,9,0,96
50,50,49,47,200,106,67,118,0,390,29,29,49,67,72,24,97,53,1,656
12,12,16,11,38,4,11,24,0,49,16,10,11,14,20,7,4,10,1,84
1,1,3,1,22,7,11,1,4,21,2,1,1,0,9,0,8,6,0,45
31,50,47,35,181,37,30,69,0,334,16,76,23,19,79,14,19,20,28,520
71,51,45,51,188,36,38,91,0,357,28,109,20,28,74,17,18,33,59,542
51,45,65,43,188,50,33,76,0,350,48,73,28,23,77,17,39,30,41,525
26,30,36,27,91,10,18,36,1,313,18,48,17,12,44,13,11,17,0,408
11,14,14,22,50,8,20,28,5,90,16,26,11,5,14,4,6,10,0,170
41,38,38,48,171,34,42,75,0,321,19,79,29,26,54,10,15,32,28,516
3,8,1,8,12,9,0,7,2,15,3,3,5,7,5,0,11,2,0,29
2,5,5,6,10,1,4,1,0,11,0,1,3,2,3,3,5,0,5,23
4,3,6,1,18,0,1,5,4,6,1,2,0,4,12,7,0,0,0,22
16,12,42,13,62,6,7,30,0,147,11,2,9,12,24,17,10,11,7,232
11,4,13,3,32,18,15,11,10,25,4,0,4,15,19,6,13,10,0,71
10,6,4,12,21,8,7,6,2,28,14,2,7,6,16,3,10,7,0,39
49,52,32,45,156,25,19,46,13,230,40,29,37,34,58,18,17,50,0,384
52,23,37,34,105,7,35,51,0,201,31,13,12,34,47,14,14,41,15,324
48,35,20,16,88,29,33,42,0,188,28,9,12,26,39,8,21,27,1,328
9,11,12,9,56,9,5,15,0,45,6,8,9,6,29,3,11,12,1,86
24,7,8,5,32,4,11,10,0,42,1,0,0,6,12,4,4,14,7,95
1,1,10,1,40,4,6,8,1,23,3,3,1,1,11,12,1,8,0,55
9,30,38,35,97,13,47,37,0,141,16,14,46,12,55,10,14,26,5,249
13,5,2,6,12,8,9,21,0,39,8,1,4,11,8,1,6,7,7,62
11,7,6,12,41,1,2,15,3,32,10,4,6,16,22,1,1,7,0,63
5,7,6,9,14,9,5,14,0,18,12,2,4,5,8,0,7,6,4,39
31,33,34,41,119,16,34,90,12,183,26,9,17,55,56,9,33,43,0,345
8,6,5,13,15,17,5,12,4,63,14,3,3,13,2,2,23,8,0,80
12,12,7,8,61,20,9,31,16,106,20,3,8,12,15,0,22,19,0,183
23,9,22,20,61,31,19,26,0,82,18,17,15,18,26,11,22,16,7,143
8,11,12,6,30,1,19,2,0,49,9,0,5,3,10,2,2,6,2,99
3,3,10,7,25,10,5,10,0,37,4,5,0,1,14,2,8,7,10,59
45,32,33,45,129,23,24,53,0,231,44,18,28,31,49,16,28,34,12,355
5,2,7,9,13,10,5,12,5,45,3,4,1,1,10,0,6,6,0,82
56,41,26,55,102,70,37,74,0,353,53,32,23,49,28,8,64,28,14,515
115,63,41,74,170,96,56,60,0,350,60,26,46,91,80,11,80,51,34,546
136,93,62,81,198,108,55,114,0,488,70,26,64,109,86,33,96,81,4,766
14,19,21,31,64,12,8,35,5,130,9,7,6,10,23,5,14,19,0,246
18,6,6,9,19,1,12,16,6,33,7,5,2,19,4,1,7,5,0,76
22,37,24,35,103,34,24,31,0,106,25,12,22,18,41,5,42,27,4,220
4,16,28,12,51,2,10,6,0,25,2,7,8,5,21,12,2,13,7,77
15,20,16,19,61,19,16,22,0,75,10,13,6,14,16,8,24,8,0,164
10,10,22,10,20,3,12,6,0,61,8,2,7,8,19,10,1,5,9,85
19,6,3,13,60,19,7,20,0,74,11,7,6,19,26,1,16,7,0,128
4,9,1,5,14,14,10,10,2,15,2,11,2,7,11,0,15,0,0,36
2,13,18,8,36,4,15,21,0,55,4,7,10,7,22,6,3,17,12,84
14,11,14,10,34,10,11,16,8,73,11,5,2,11,12,6,8,8,0,138
32,50,66,56,231,23,56,54,0,335,29,16,22,16,87,22,47,47,53,564
5,5,10,12,32,10,4,9,6,49,7,5,1,2,15,3,11,4,0,94
8,2,23,7,25,4,10,10,12,55,5,5,2,1,10,12,13,12,0,96
4,9,15,5,23,7,4,9,4,56,10,0,2,5,12,4,5,3,0,95
8,7,17,6,41,14,12,15,0,77,8,5,4,6,15,9,30,11,20,89
65,60,60,78,218,21,78,93,0,506,57,22,19,45,76,18,65,59,52,766
38,29,61,53,142,34,40,61,0,316,27,10,15,22,50,24,32,42,39,513
38,17,45,43,112,20,30,50,0,301,36,15,12,23,40,12,12,18,21,467
81,57,91,93,284,37,101,128,0,431,76,62,27,76,102,24,33,84,5,814
3,3,14,7,19,1,4,5,0,25,7,2,0,4,3,4,4,4,2,51
4,6,10,6,17,0,7,6,4,33,5,3,8,1,4,10,0,7,0,55
15,10,6,7,71,11,9,22,0,150,7,4,11,15,23,1,15,10,6,209
4,7,4,8,26,4,7,7,7,58,8,3,4,9,12,2,6,3,0,85
0,3,0,4,36,3,0,3,2,24,4,2,5,1,19,0,1,3,0,40
4,3,4,5,19,7,2,4,0,13,3,2,5,4,7,2,5,4,5,24
18,17,24,16,71,9,14,31,0,96,13,9,11,19,28,14,5,17,9,171
38,26,42,36,112,36,33,58,0,200,25,19,12,22,46,18,24,37,19,359
8,8,16,15,48,8,13,33,0,74,15,4,6,40,21,4,11,6,4,112
40,26,30,27,97,16,28,43,8,142,37,10,15,30,32,12,15,44,0,262
7,8,12,3,27,0,5,9,0,18,6,1,7,9,14,4,2,8,9,29
6,6,11,6,21,3,3,7,0,15,4,4,4,5,16,3,4,6,1,31
34,38,26,37,92,30,31,47,0,187,40,13,20,27,36,20,22,23,13,308
23,12,27,8,32,68,20,26,7,121,16,21,7,20,20,4,67,13,0,176
8,2,11,3,67,16,9,19,6,66,7,12,5,8,25,5,10,6,0,129
31,20,35,26,145,30,29,58,0,240,17,23,10,25,62,11,21,36,5,404
18,12,18,12,57,8,11,15,3,39,4,28,2,12,33,4,10,6,0,94
1,5,0,2,7,1,5,7,1,13,7,3,2,2,7,0,1,4,0,16
77,65,65,47,269,46,58,141,0,330,38,129,36,67,91,20,53,42,42,580
95,35,79,52,206,22,64,107,0,409,53,81,22,53,74,34,23,45,21,663
24,22,13,25,60,37,15,14,18,93,14,10,18,22,11,5,19,15,0,207
0,5,9,0,26,3,8,9,0,14,7,1,4,4,5,3,1,0,7,42
2,6,4,7,6,3,3,4,0,29,6,1,3,2,5,2,5,0,4,36
8,13,38,9,51,1,19,19,0,42,7,13,14,2,24,10,2,6,4,118
2,7,15,6,34,8,3,7,0,49,6,8,5,2,16,3,8,6,1,76
7,10,11,10,35,13,6,16,0,42,4,2,14,6,10,6,5,11,3,89
3,3,6,2,14,4,3,8,0,21,1,0,0,4,8,1,5,7,9,29
11,6,14,16,22,11,8,2,0,40,9,4,10,9,18,7,12,7,2,52
99,29,20,55,149,44,54,135,59,244,54,62,25,107,56,13,33,80,0,458
27,11,22,25,53,11,27,41,24,100,16,28,20,29,21,7,8,34,0,178
22,8,13,23,15,6,11,29,0,50,10,25,12,20,1,0,11,15,5,78
31,25,29,39,102,15,45,49,0,265,34,17,20,27,45,8,10,40,7,392
12,20,15,34,59,14,36,38,17,122,25,25,10,24,25,6,7,33,0,212
12,6,4,4,26,0,12,15,5,39,8,4,3,12,12,3,2,12,0,67
75,48,28,48,212,30,71,62,4,221,47,34,40,59,102,12,22,63,0,420
45,37,42,45,162,24,56,78,0,309,30,25,40,41,58,15,13,52,35,489
47,28,14,33,83,23,47,40,0,152,37,24,19,46,31,4,19,30,5,252
41,41,47,54,142,18,62,54,0,315,36,21,30,20,70,12,8,63,35,479
64,58,52,42,169,26,59,56,0,273,59,33,37,55,76,25,15,53,19,427
88,28,29,62,205,47,61,66,0,316,45,43,23,74,110,14,33,52,9,499
19,10,10,18,46,4,12,25,0,119,10,14,7,13,18,5,6,28,22,140
20,19,16,24,54,5,23,39,0,101,14,17,13,16,31,9,8,24,11,158
6,9,13,12,18,2,17,11,1,55,8,7,6,7,17,1,2,20,0,76
54,30,30,35,121,30,51,76,121,332,45,47,35,79,52,5,19,56,0,542
38,60,53,32,154,19,66,65,0,314,18,32,29,26,52,16,12,44,48,524
42,48,40,44,135,17,79,63,0,301,36,23,39,30,61,10,14,48,40,468
47,48,47,49,166,32,110,67,0,334,47,30,28,37,78,13,21,71,27,548
111,50,37,75,198,20,45,109,31,209,64,45,43,120,75,15,23,91,0,409
53,42,44,42,133,28,56,71,0,314,45,29,27,57,52,18,21,54,18,462
12,10,1,9,27,7,11,8,14,41,15,2,7,13,17,0,6,8,0,72
37,33,38,54,119,20,49,85,0,221,27,41,34,25,49,15,28,40,21,376
40,40,60,40,165,11,62,50,0,308,40,21,31,34,66,24,8,39,34,479
83,50,54,66,195,24,67,72,17,280,57,34,46,71,80,14,22,78,0,506
56,30,23,67,103,18,97,74,0,2431,83,21,18,55,39,7,13,100,120,2443
78,24,20,42,63,22,28,55,18,239,39,22,14,61,24,3,24,44,0,358
39,51,52,49,115,35,46,58,0,260,35,33,37,51,52,23,26,38,32,378
53,76,51,47,140,19,65,56,0,265,41,30,40,35,73,9,19,59,34,432
16,1,3,4,21,2,12,4,0,29,1,4,3,12,7,1,1,18,4,41
59,35,20,52,116,25,49,67,0,259,40,28,30,76,38,8,20,45,40,357
35,25,36,33,98,32,69,61,0,164,24,39,30,46,29,13,15,49,26,282
27,38,49,32,99,18,43,39,0,248,32,16,23,30,41,20,4,29,21,377
47,21,23,52,88,36,48,82,0,213,29,33,28,51,40,9,29,55,26,310
55,20,13,70,119,21,59,84,0,300,54,44,18,63,38,2,13,60,30,419
38,14,9,30,40,8,30,54,0,262,33,20,7,39,22,3,7,37,2,315
59,32,12,51,75,33,31,53,0,175,32,30,28,67,29,6,16,30,12,271
78,18,26,53,67,20,46,106,12,229,45,33,19,76,46,9,12,72,0,343
52,44,39,77,156,40,59,120,0,300,43,43,34,81,80,17,40,95,19,435
58,53,47,59,182,36,67,84,0,366,34,24,65,66,77,9,24,54,49,550
44,34,42,41,117,9,46,46,0,271,27,20,34,45,56,12,18,56,12,370
43,26,40,42,130,15,58,60,0,236,42,31,30,41,46,17,8,50,19,366
121,39,48,60,223,58,78,108,0,312,55,51,37,102,101,16,33,94,55,503
39,49,42,46,123,23,67,79,0,340,22,30,42,38,58,14,14,66,47,477
50,36,46,70,107,33,58,86,19,291,45,36,22,68,46,19,26,54,0,480
76,50,41,63,173,36,69,67,0,293,36,42,43,56,104,8,33,62,28,456
75,34,35,83,168,23,59,94,13,281,69,62,50,99,73,21,25,54,0,412
70,57,42,59,160,51,43,77,0,262,38,35,38,63,78,17,31,43,64,414
46,42,28,35,111,18,35,69,0,318,39,28,27,47,49,9,18,49,12,424
31,38,39,36,117,20,52,72,0,224,26,24,24,44,64,13,10,41,13,370
13,9,9,5,37,9,6,8,0,37,7,3,9,7,11,5,4,8,2,77
39,47,68,52,145,43,67,59,0,256,32,18,34,36,92,25,41,55,14,429
31,26,39,42,174,35,45,53,2,299,37,10,22,20,63,19,37,56,0,482
1,2,4,6,20,5,4,6,3,39,4,3,5,1,3,1,10,5,0,58
7,3,9,15,19,29,14,13,0,41,14,5,8,6,13,1,26,11,2,64
8,4,6,10,17,0,3,8,0,33,7,9,0,1,5,0,3,3,7,54
17,14,14,10,49,33,37,35,0,138,7,8,11,20,25,7,20,18,17,214
12,3,4,14,6,12,8,18,0,36,17,6,3,7,5,0,8,10,2,55
4,4,7,5,21,14,21,14,7,34,11,5,14,7,8,0,15,13,0,58
9,11,10,3,20,3,7,10,1,26,3,6,3,8,4,5,3,5,0,63
24,9,9,16,53,39,14,23,0,72,13,11,11,24,23,4,26,9,2,136
1,3,7,0,19,4,8,4,0,27,1,0,3,4,9,7,2,6,0,41
17,17,19,15,39,11,17,12,0,48,13,7,9,16,25,4,11,15,0,95
1,9,4,3,18,8,3,3,3,22,6,1,6,9,13,1,7,8,0,23
6,8,9,4,14,13,5,7,0,42,7,3,8,6,6,1,9,2,1,65
0,11,2,6,17,13,4,4,0,18,4,2,13,0,15,1,8,6,3,23
13,17,18,14,50,19,14,15,0,55,11,5,20,6,28,8,7,15,2,113
66,70,85,69,188,47,70,73,24,399,57,44,34,71,83,39,35,62,0,666
23,5,11,9,50,36,12,10,0,62,11,11,5,21,12,5,16,9,1,127
24,13,16,28,87,9,38,35,0,144,21,10,18,28,40,6,8,42,0,221
16,5,11,5,23,3,19,14,7,39,6,3,9,16,8,8,3,16,0,73
30,17,24,37,126,19,65,52,20,294,32,25,14,26,43,9,19,49,0,467
28,21,50,53,162,37,53,61,0,375,42,14,17,32,55,16,20,55,32,557
19,5,7,21,32,23,12,15,15,77,11,13,4,16,10,5,18,12,0,137
48,40,60,76,226,34,62,104,0,375,58,52,23,37,79,17,23,167,11,558
1,5,3,6,11,6,15,10,0,24,6,4,1,2,8,0,9,6,5,40
5,18,8,8,36,7,11,17,0,38,4,5,21,6,23,4,4,6,0,75
15,14,15,39,67,26,23,38,8,130,16,8,31,19,25,5,14,26,0,231
12,3,13,8,16,10,4,15,0,34,7,19,2,6,11,1,11,3,2,53
31,14,9,15,44,3,12,25,11,71,17,9,18,29,21,1,2,21,0,117
11,6,10,14,30,9,7,11,0,54,6,4,7,17,9,3,6,9,2,89
43,18,28,49,116,52,32,55,0,224,26,18,22,32,44,11,68,15,19,362
13,12,8,15,37,3,4,13,1,21,9,3,6,4,18,1,9,23,0,54
9,10,35,19,46,2,16,21,8,108,6,6,6,3,25,17,4,14,0,193
9,26,16,17,32,7,4,25,0,91,9,11,11,8,16,4,5,11,9,143
5,0,2,6,15,6,7,4,4,20,11,5,2,5,8,1,3,4,0,30
10,5,9,4,19,4,8,9,0,42,6,6,1,12,4,0,4,6,5,66
2,3,2,12,9,3,3,11,2,20,7,4,3,2,2,0,3,4,0,42
2,8,0,17,4,6,2,7,0,10,10,3,4,4,0,0,6,2,4,23
13,6,12,7,24,4,4,19,0,33,2,5,8,14,10,4,2,12,5,60
1,3,1,2,4,12,0,4,0,15,2,2,2,1,8,0,3,0,5,19
8,11,7,7,29,7,25,12,2,45,6,13,3,5,14,0,4,13,0,95
5,18,12,11,33,18,13,14,0,78,7,15,5,6,10,1,38,14,0,106
6,0,10,5,29,0,10,8,0,37,4,4,11,9,6,2,0,8,1,60
8,14,9,3,39,8,15,7,0,75,2,4,12,11,17,2,4,3,17,106
16,5,12,2,8,10,4,5,0,21,2,8,3,8,1,8,7,1,0,45
6,11,9,7,14,7,4,6,0,41,2,7,4,4,2,2,1,11,1,71
8,9,9,13,34,3,10,11,6,41,3,5,14,5,14,3,3,8,0,89
6,19,14,18,39,7,11,24,12,95,12,14,12,6,25,2,3,19,0,152
5,10,6,13,19,20,8,16,0,54,16,0,12,10,2,2,12,10,4,83
12,27,24,35,104,56,48,55,13,173,24,23,28,19,48,7,44,44,0,310
31,37,54,34,103,72,47,45,0,174,35,18,31,35,50,18,56,27,5,322
5,11,16,6,32,4,20,6,0,58,12,10,1,3,26,7,6,8,4,81
5,4,10,1,13,3,4,10,0,13,2,7,4,7,7,3,1,0,2,30
13,14,17,17,16,13,9,7,1,47,11,8,12,17,6,5,7,17,0,71
24,26,43,41,149,16,45,59,0,297,30,22,16,23,52,8,14,50,24,461
1,2,3,15,1,3,1,9,2,14,8,0,0,4,4,1,0,11,0,23
42,29,23,14,71,28,29,33,5,105,20,11,23,42,28,5,13,25,0,212
31,9,28,27,106,13,35,48,0,200,27,22,8,19,27,11,14,22,5,342
1,9,20,17,20,20,4,18,0,59,6,19,6,4,9,2,11,5,2,104
8,9,1,3,16,8,6,7,6,17,1,6,8,8,10,0,7,12,0,29
3,5,11,5,24,2,10,4,0,44,3,1,0,3,12,2,0,6,4,77
73,85,55,71,180,86,94,82,74,469,84,30,61,68,78,24,79,85,0,760
60,54,51,61,155,108,100,115,20,330,74,39,36,75,63,17,90,77,0,583
44,32,20,30,87,27,50,62,0,152,30,21,28,33,30,7,19,49,0,287
19,8,11,5,43,5,19,22,10,65,17,8,6,9,30,10,6,26,0,95
10,13,4,12,18,24,15,5,0,51,9,4,10,2,8,1,17,11,15,75
7,15,7,11,10,8,6,10,10,39,2,5,7,10,6,2,2,13,0,76
6,4,15,9,17,9,13,11,0,64,6,4,11,7,6,8,7,12,15,72
30,23,50,35,133,59,47,43,0,306,21,31,20,30,36,26,40,38,4,480
4,1,13,12,12,7,8,14,0,33,8,6,5,3,3,1,6,1,1,70
8,5,12,9,12,28,6,19,0,61,13,10,4,10,8,4,12,1,3,95
2,9,8,7,39,28,6,6,3,47,8,8,10,8,9,7,10,12,0,83
9,13,9,8,24,11,14,15,4,84,8,7,8,11,15,3,7,8,0,124
8,0,2,1,4,19,1,3,2,16,3,2,2,7,1,0,13,1,0,27
13,12,7,17,19,12,10,22,0,58,14,21,10,7,9,2,7,13,1,86
1,6,2,8,9,4,4,5,0,19,2,2,0,3,1,2,7,0,5,36
0,4,5,3,6,6,11,13,0,25,2,5,3,8,2,4,4,10,2,33
13,7,2,3,19,16,10,14,24,27,11,5,7,13,7,0,15,18,0,59
7,5,22,3,37,7,2,9,0,31,2,3,13,1,17,4,0,11,0,72
0,12,16,3,14,1,9,9,0,35,2,1,12,0,4,3,5,4,4,64
33,29,25,13,50,20,29,24,0,133,14,12,13,29,19,7,13,26,8,215
21,8,10,11,13,6,19,22,0,49,13,19,5,3,8,3,4,22,2,80
15,2,5,6,25,0,24,15,6,36,12,18,2,17,13,2,1,13,0,56
6,24,18,7,44,15,12,13,0,68,8,9,23,8,18,9,6,3,3,120
36,37,38,45,150,28,71,68,31,282,54,45,23,36,55,15,20,47,0,491
62,52,44,75,165,47,59,71,7,320,79,43,34,57,51,17,33,56,0,532
50,48,45,57,147,49,75,79,0,376,53,26,25,33,66,11,39,57,36,580
4,5,6,5,6,7,3,8,3,29,9,4,4,5,2,2,0,2,0,48
37,38,35,25,111,28,61,56,0,281,26,22,22,34,56,5,18,41,8,440
7,2,6,27,30,23,12,20,0,80,21,8,4,8,3,3,23,3,5,129
1,12,6,3,7,10,9,1,0,25,3,1,4,0,4,1,4,2,6,49
34,23,11,20,62,12,33,53,6,104,28,14,9,39,28,3,10,63,0,164
20,24,43,20,70,8,25,27,15,76,19,9,12,19,19,13,12,26,0,199
12,5,13,4,7,21,13,17,0,57,9,2,1,14,1,3,11,6,5,97
16,15,5,21,60,40,13,24,0,85,9,12,6,11,19,4,56,11,2,149
7,10,3,1,14,8,9,11,0,30,2,3,8,6,14,0,13,8,9,30
17,8,4,23,44,10,8,23,0,61,23,8,10,11,11,1,12,9,3,110
13,21,12,8,54,45,8,25,12,83,9,10,15,17,19,8,27,17,0,159
5,1,9,8,7,4,10,12,0,21,8,6,0,1,1,2,7,2,7,43
0,4,4,3,2,15,3,4,2,12,4,0,2,0,3,0,10,7,0,23
3,11,5,6,20,1,6,6,0,36,6,2,3,7,10,5,2,4,7,48
7,7,9,7,17,29,6,11,2,45,8,4,6,5,6,0,21,5,0,85
32,24,33,26,57,61,33,28,0,209,26,20,16,24,18,17,43,25,2,312
49,36,56,39,155,38,66,73,26,318,25,65,28,54,44,10,24,65,0,541
3,2,6,5,7,8,4,5,4,26,2,7,2,4,4,2,1,4,0,44
13,23,20,11,85,8,26,31,23,113,11,20,22,17,34,4,7,27,0,211
13,14,17,16,46,28,11,35,0,90,13,19,8,16,17,5,19,16,11,146
2,2,5,4,2,2,5,7,3,15,0,0,4,0,0,2,0,6,0,35
2,14,16,13,30,3,18,10,2,64,4,7,11,3,10,14,2,15,0,106
2,0,7,4,7,17,3,6,1,19,3,21,0,1,3,4,8,1,0,25
36,27,26,37,86,59,36,62,0,206,22,37,17,27,27,7,53,26,37,322
48,35,61,58,139,71,41,90,0,402,39,53,21,42,56,19,62,26,53,574
87,40,55,73,155,82,50,103,0,375,90,59,21,57,63,13,68,30,32,587
59,36,31,58,107,41,57,75,0,226,58,49,13,62,39,8,44,38,5,374
44,18,15,43,48,33,31,52,0,289,36,18,10,28,13,5,10,11,60,382
8,6,7,5,36,11,4,6,5,42,10,4,6,8,15,1,9,4,0,73
6,16,6,5,19,14,4,10,0,48,1,8,7,3,8,1,23,2,9,66
13,4,0,7,14,10,0,6,0,22,3,2,2,8,6,0,21,2,1,31
66,67,94,71,192,142,78,91,0,394,44,31,22,53,65,31,171,48,11,719
46,42,49,50,181,72,68,89,0,380,34,24,13,34,68,25,115,38,14,612
61,46,66,81,180,145,63,86,0,458,43,15,16,41,56,22,143,34,21,795
72,46,37,61,150,138,84,68,0,361,44,20,24,39,53,16,168,36,49,568
5,9,17,7,15,15,7,14,2,23,11,10,6,10,3,2,16,16,0,40
6,2,5,2,24,9,3,17,3,31,3,3,0,6,8,4,6,11,0,61
9,9,2,10,8,24,4,21,0,20,7,14,5,12,4,3,24,2,0,36
8,8,15,7,49,2,7,20,0,64,4,7,3,5,36,3,4,13,3,102
6,5,6,8,12,6,3,6,0,20,1,8,4,3,5,1,9,2,1,38
5,2,3,2,2,0,3,8,0,5,4,6,0,2,3,3,0,1,3,8
2,4,2,0,2,9,2,1,1,11,1,2,2,1,5,0,6,2,0,15
88,41,53,94,234,53,55,133,0,309,53,43,47,83,105,13,35,75,18,588
57,23,34,35,95,13,42,33,0,155,28,6,13,18,22,6,6,59,4,325
10,8,14,8,19,9,11,10,0,43,6,7,4,7,3,4,10,12,5,74
3,5,2,16,15,7,5,16,0,33,13,7,2,6,5,0,4,5,4,56
15,4,13,22,49,9,36,25,0,94,12,12,9,26,11,8,7,23,1,158
4,3,1,2,17,2,4,8,0,11,2,5,3,6,4,1,4,1,0,26
49,34,36,57,147,15,45,73,29,236,57,32,17,38,56,9,18,61,0,433
15,19,20,30,66,26,18,48,0,85,29,16,15,20,40,8,18,20,4,157
12,5,3,1,11,15,3,11,0,32,4,9,1,15,2,0,11,3,3,45
9,9,19,9,28,28,15,23,2,61,13,14,3,5,20,1,23,11,0,113
11,16,18,11,30,8,15,21,9,30,12,4,14,5,21,8,5,25,0,75
0,2,7,3,10,0,11,5,5,23,5,0,2,0,5,3,1,10,0,40
3,11,11,14,41,22,9,9,8,53,10,11,13,4,11,3,9,8,0,112
0,0,8,0,5,13,3,3,1,17,1,2,2,5,4,7,6,0,0,23
15,15,19,34,56,49,15,39,0,105,19,22,23,13,27,7,31,20,5,180
11,3,2,13,5,11,3,9,0,17,11,4,0,10,1,0,9,1,6,32
8,2,6,9,16,18,4,2,0,30,7,9,7,9,6,0,14,0,1,42
32,11,22,29,59,22,25,34,0,137,33,15,10,20,25,6,21,17,26,198
7,9,14,8,22,15,4,16,0,43,12,10,5,3,6,4,8,10,0,80
8,10,13,8,35,5,4,8,2,55,2,6,3,10,11,2,5,6,0,103
54,57,74,63,189,15,90,65,8,460,41,25,18,39,75,15,10,110,0,742
55,39,46,57,101,27,37,72,0,231,36,33,15,43,59,5,20,55,22,377
131,56,57,76,237,54,108,130,0,382,71,94,33,72,115,24,42,96,30,654
65,47,42,65,158,47,49,52,0,265,42,42,33,40,72,11,26,69,0,455
118,44,49,89,198,55,82,123,0,275,75,71,15,85,74,16,49,99,34,515
91,57,72,73,256,34,108,113,0,374,83,63,21,57,108,17,22,96,30,681
44,53,45,51,134,29,54,72,0,335,49,34,17,31,58,12,13,50,79,474
51,44,35,97,191,28,106,82,0,385,81,50,15,36,58,16,10,86,38,629
101,60,46,86,206,66,64,116,0,246,59,53,33,74,91,16,49,102,8,506
66,35,52,46,116,34,49,64,0,259,42,37,17,53,50,16,27,59,30,390
48,21,25,61,89,44,47,73,0,157,45,32,9,39,34,6,34,59,31,276
66,35,28,74,75,33,81,68,53,1207,51,23,12,47,23,7,12,70,0,1475
61,33,43,95,163,24,73,83,0,289,72,31,20,30,70,16,17,67,19,522
10,7,6,8,59,10,18,21,5,80,11,18,6,9,37,2,4,25,0,112
16,1,13,18,33,17,5,25,0,54,16,13,3,10,13,4,22,9,5,87
6,5,5,25,31,3,14,9,2,56,21,2,2,7,13,0,0,14,0,97
7,7,8,13,23,6,15,14,0,48,10,9,15,5,16,0,6,17,0,63
14,10,2,6,9,4,9,12,0,24,9,8,4,13,4,1,1,9,2,39
12,15,14,10,30,27,15,20,1,55,13,18,7,12,17,4,14,8,0,106
57,52,48,94,192,26,96,113,0,381,43,80,12,42,65,19,19,66,59,654
66,25,39,73,113,41,58,71,1,278,47,44,18,69,42,14,43,44,0,444
48,49,52,42,142,28,46,86,0,243,52,45,23,31,59,23,27,49,17,410
7,3,0,3,8,3,7,6,0,22,5,6,0,3,1,0,3,2,3,36
31,53,34,51,154,37,87,68,0,396,43,24,28,24,59,13,22,81,22,595
74,40,51,56,197,27,96,101,0,330,59,45,32,38,76,17,16,113,0,576
47,46,53,76,151,31,68,88,0,301,46,44,18,42,59,12,16,66,7,551
60,47,62,68,203,66,64,87,0,251,63,71,19,44,72,28,49,74,15,473
42,17,42,59,68,19,40,56,0,232,49,34,6,34,32,7,10,52,25,326
44,35,45,51,132,46,63,76,0,191,41,42,27,41,52,11,39,78,11,341
49,35,46,71,208,36,82,76,0,323,45,49,9,38,94,13,23,81,17,557
38,54,56,50,163,18,74,51,0,346,21,28,21,28,88,23,12,75,25,529
46,26,61,43,135,24,70,61,0,245,41,39,13,30,60,18,12,67,2,429
31,55,52,44,205,26,63,56,0,291,25,40,29,27,88,20,16,64,42,472
40,56,68,43,178,24,38,41,0,279,27,35,30,27,80,20,19,48,9,472
20,37,28,24,103,27,39,29,0,180,17,19,24,9,58,13,15,37,34,261
9,11,9,16,40,19,7,15,0,41,9,3,4,8,9,4,18,14,5,93
1,5,23,5,33,7,14,16,0,61,5,12,4,2,12,7,14,9,0,100
3,15,6,11,41,23,10,8,0,33,10,6,9,2,10,2,13,6,1,91
4,7,13,6,43,14,4,14,1,83,9,5,5,0,11,6,1,11,0,141
7,16,25,9,66,26,20,8,4,126,12,4,7,11,22,9,17,17,0,208
2,8,2,9,42,10,10,19,0,35,7,1,7,7,20,1,12,10,1,71
1,8,6,7,25,6,2,9,0,28,3,7,4,1,5,1,1,5,5,60
19,28,36,27,159,28,66,44,0,152,24,12,7,30,82,11,18,38,9,328
47,82,71,51,151,70,59,60,0,389,49,33,40,38,42,12,56,45,16,649
8,8,15,20,41,43,20,27,0,103,14,9,3,11,28,4,35,20,0,161
2,1,11,2,21,11,8,3,1,14,1,5,4,4,14,3,11,2,0,30
17,23,59,31,84,20,39,40,0,130,15,15,10,10,27,23,17,45,2,279
4,5,23,15,51,6,32,20,25,76,15,7,8,9,26,12,4,11,0,165
6,30,18,22,74,25,17,12,2,45,23,9,25,5,48,4,21,15,0,101
7,10,3,9,39,23,7,12,0,41,9,8,13,6,9,1,13,7,0,85
11,16,17,13,23,21,12,16,5,30,15,15,11,9,10,3,13,11,0,77
9,19,14,11,45,10,11,10,0,72,4,2,23,5,22,4,5,11,5,120
13,4,23,14,30,4,10,18,0,64,10,8,4,4,12,5,3,5,5,124
1,8,13,4,52,14,8,19,2,44,18,18,4,5,18,4,14,8,0,76
17,14,56,17,59,62,48,21,0,202,25,15,8,4,26,18,45,22,20,313
3,2,16,8,18,9,9,11,0,29,7,5,4,7,2,3,5,4,3,65
7,14,13,15,58,29,19,49,0,154,13,8,11,24,23,6,15,14,12,232
10,20,37,23,58,28,19,14,20,114,16,7,18,12,25,7,11,21,0,226
1,9,13,10,61,40,7,20,15,81,8,5,5,24,23,2,22,10,0,158
44,24,64,42,164,29,50,41,17,224,34,26,10,36,66,21,19,37,0,450
16,19,38,22,95,29,29,22,5,182,16,10,10,9,43,13,16,23,0,317
11,30,18,16,58,14,26,32,0,104,20,5,17,11,31,5,10,26,5,179
8,4,9,14,29,14,6,9,0,81,5,7,8,5,8,5,6,5,6,119
17,16,5,15,67,29,13,18,0,87,14,16,7,8,21,0,25,11,12,153
6,10,7,2,27,7,8,10,4,28,6,4,5,6,10,2,7,7,0,62
14,25,15,21,26,17,11,25,0,66,24,12,8,20,13,5,10,24,0,104
2,7,4,7,15,4,5,3,7,19,11,4,7,0,7,0,3,3,0,38
8,3,7,4,6,7,3,8,0,22,3,3,1,9,3,2,8,5,9,25
27,34,36,27,105,46,33,53,0,231,25,37,6,8,46,16,22,32,17,383
40,72,77,28,128,58,41,46,28,350,42,40,10,31,60,26,28,21,0,610
5,12,4,4,6,6,3,9,10,21,3,3,9,3,1,1,5,7,0,48
0,4,7,6,16,1,4,6,8,31,11,3,5,4,6,4,3,2,0,45
3,6,12,17,16,16,8,12,0,34,9,2,6,8,3,3,6,17,8,62
12,19,34,22,111,42,38,38,14,187,17,12,12,99,24,8,21,30,0,294
1,7,2,7,13,4,4,3,0,15,3,0,2,4,8,1,4,7,1,26
8,12,14,2,46,12,20,15,0,49,8,2,12,2,12,6,13,6,3,114
12,6,18,9,20,16,8,11,7,75,12,5,5,10,9,6,8,8,0,119
4,7,7,5,60,4,4,10,0,55,10,4,5,3,28,1,0,9,2,94
2,3,5,4,7,4,11,5,0,43,1,2,0,2,1,3,4,3,12,56
54,39,66,41,169,74,77,56,0,410,55,16,36,43,46,25,52,51,2,660
15,41,61,34,124,36,65,22,0,342,28,11,27,15,35,19,27,35,15,528
5,3,2,0,15,14,1,10,0,22,0,3,2,6,8,0,10,1,4,38
34,45,49,39,129,43,41,65,0,327,33,53,28,47,40,20,27,30,22,472
67,54,79,53,170,51,62,54,29,298,35,48,31,73,75,25,38,29,0,563
25,33,31,28,101,49,22,48,0,240,16,32,9,39,41,10,27,27,4,372
62,41,43,55,130,46,42,75,0,450,31,52,9,70,45,15,33,45,27,617
15,13,16,4,23,13,17,21,11,64,9,12,5,3,10,2,10,25,0,121
10,13,9,9,41,9,19,19,0,53,12,12,5,12,15,6,8,13,6,93
4,5,4,5,19,3,7,14,7,36,9,0,3,10,10,4,2,2,0,64
1,15,15,0,44,12,11,9,8,52,3,11,13,2,24,4,10,9,0,91
71,50,59,36,180,104,77,74,0,465,39,20,35,71,73,16,65,62,24,711
3,8,3,1,1,18,2,1,2,21,3,1,0,1,8,0,12,2,0,33
9,18,17,0,21,8,9,12,11,73,6,4,5,8,16,7,4,7,0,121
1,5,10,10,19,1,9,3,0,43,6,7,5,6,7,2,0,3,11,54
20,13,23,15,98,25,20,30,4,161,17,13,8,16,42,15,14,12,0,272
4,8,9,10,29,14,5,17,0,62,12,5,9,12,12,6,9,8,7,78
10,35,15,23,57,25,24,26,0,97,24,9,25,15,28,5,24,20,5,157
10,5,2,4,11,18,2,8,1,53,4,7,8,8,7,0,9,6,0,65
52,28,50,52,140,36,51,69,0,307,44,31,15,32,45,26,19,35,7,531
7,6,3,4,29,6,7,13,0,36,4,3,1,5,9,0,3,2,9,75
2,5,13,4,33,16,9,15,0,63,6,9,7,4,14,3,8,7,7,95
3,12,15,14,22,17,8,13,2,66,11,6,4,5,20,6,12,7,0,101
0,7,9,8,17,4,5,7,0,20,2,15,3,1,8,6,1,0,5,36
11,14,29,17,79,24,27,29,4,165,15,13,8,17,29,6,14,20,0,277
7,4,10,3,29,18,8,16,0,39,6,3,0,3,10,2,7,14,2,87
18,12,39,17,59,23,21,10,16,99,17,7,10,15,30,16,27,19,0,173
21,10,14,11,38,11,14,21,6,65,19,13,8,25,22,1,6,13,0,104
22,9,18,14,36,11,10,10,0,64,10,15,8,11,17,2,4,27,3,97
3,4,9,2,6,3,1,2,0,45,7,1,5,4,10,2,1,2,0,43
7,8,10,12,56,10,14,13,2,51,12,8,6,9,21,3,8,15,0,101
20,10,14,12,54,37,2,35,0,141,12,8,7,26,21,2,20,15,8,206
68,53,79,43,216,58,73,85,0,444,35,14,16,34,74,24,45,92,7,778
14,8,7,9,17,10,9,7,0,34,7,8,2,12,7,5,5,5,11,53
4,6,9,3,34,6,3,5,0,26,2,2,4,4,10,6,3,12,3,50
57,35,38,45,139,40,42,51,8,280,37,21,15,43,60,8,34,56,0,461
67,47,67,69,175,59,60,110,0,491,59,26,26,63,73,21,80,54,22,721
39,31,33,34,83,40,35,44,0,131,25,20,12,42,35,9,28,15,18,266
53,67,59,64,127,34,50,70,0,323,45,25,22,49,61,27,32,32,13,541
45,50,31,47,82,31,56,80,2,446,43,25,17,37,42,9,21,54,0,622
55,71,77,64,126,42,63,68,0,324,58,32,26,55,62,19,40,47,34,517
77,22,46,44,149,28,44,56,0,225,45,23,18,69,63,13,30,37,6,387
2,2,7,0,7,8,4,3,0,60,0,1,2,0,0,1,1,1,17,70
23,15,24,23,105,18,34,34,14,201,19,13,5,23,20,9,10,17,0,375
5,4,8,12,15,16,6,6,0,23,7,7,3,3,3,2,9,3,1,57
8,0,3,6,8,7,1,3,6,20,7,4,5,7,2,2,5,2,0,28
40,75,87,53,186,29,96,69,0,344,42,31,34,29,72,35,17,56,47,616
48,45,74,55,248,53,82,80,2,288,46,46,31,26,91,21,43,72,0,599
43,43,64,39,175,33,77,67,0,296,36,21,22,35,73,24,36,63,8,519
59,45,76,41,179,38,69,64,7,515,40,36,31,46,72,17,33,44,0,774
5,9,12,10,42,18,20,23,2,44,10,12,13,7,18,6,11,14,0,94
4,4,6,4,24,7,9,16,0,35,2,4,1,2,4,2,2,15,4,73
17,29,48,23,112,27,32,40,0,329,27,3,32,23,37,19,12,24,21,459
4,3,11,7,14,10,9,7,0,27,4,6,2,2,1,1,3,7,2,64
7,5,7,6,11,10,5,5,4,18,2,10,1,4,0,3,5,4,0,49
7,5,14,5,17,0,16,6,4,28,5,7,3,1,12,2,0,9,0,63
39,32,34,32,113,25,25,40,0,186,32,10,26,30,36,9,13,34,7,329
56,47,41,20,92,29,37,46,0,194,26,11,42,47,39,14,26,48,9,300
48,63,47,23,105,31,35,43,0,218,27,22,63,29,33,14,27,34,7,357
24,26,59,35,120,26,47,56,0,240,34,16,25,26,37,22,11,29,14,419
6,11,6,1,20,19,11,15,0,56,4,3,4,3,6,1,17,4,3,100
7,11,11,10,19,5,9,10,0,34,6,4,9,4,12,1,7,17,7,49
8,1,14,6,21,10,6,14,8,14,4,4,2,14,11,0,6,7,0,54
16,13,24,16,45,8,12,71,0,80,16,5,11,43,26,8,3,10,3,160
3,6,16,6,22,11,3,20,4,43,6,8,2,5,9,7,9,2,0,86
18,24,45,40,107,32,38,44,0,227,23,17,14,31,33,22,19,24,7,385
1,7,11,8,33,4,7,6,0,44,0,0,0,3,14,7,2,4,10,81
19,32,62,31,105,71,57,51,0,211,24,31,28,16,56,25,60,53,1,345
2,6,6,3,31,5,14,5,0,61,4,4,0,2,24,0,4,6,7,82
2,2,2,1,6,6,5,11,0,20,1,6,1,0,4,0,4,6,3,30
5,21,28,13,64,46,18,30,0,101,13,10,15,6,32,9,28,11,10,192
1,5,6,2,19,2,6,9,8,13,1,13,3,0,6,4,2,4,0,38
0,6,6,2,6,7,4,6,8,25,4,5,4,3,7,1,4,3,0,39
3,12,9,10,34,16,9,19,0,30,3,9,18,4,21,3,13,11,0,60
3,9,7,6,22,3,2,13,0,37,5,6,13,4,7,5,5,5,2,50
32,35,57,52,134,104,32,43,0,206,23,25,26,23,68,28,109,26,7,360
2,18,5,1,19,4,4,6,0,16,0,2,7,1,5,1,3,8,8,40
42,137,40,49,150,47,79,48,1,291,52,20,60,30,75,8,27,66,0,546
32,27,39,43,132,37,20,51,5,182,29,20,13,17,51,9,50,55,0,324
13,17,23,25,68,22,45,20,2,111,20,10,13,12,32,3,7,12,0,237
8,6,26,4,29,26,25,9,0,65,2,2,1,6,17,6,21,6,3,134
19,19,24,3,27,9,18,13,0,86,8,8,10,9,23,8,7,15,4,126
105,47,69,82,258,66,110,138,35,430,89,64,35,132,108,25,41,76,0,770
11,25,62,21,70,32,35,24,0,180,26,15,14,14,29,29,20,24,7,282
1,12,11,10,9,7,9,9,0,54,10,3,4,5,9,1,6,7,9,68
17,20,37,4,27,21,25,31,0,113,10,9,13,9,12,16,14,18,3,191
14,4,9,14,48,12,3,19,0,82,5,15,9,5,20,2,6,6,1,136
10,17,28,28,87,12,18,27,7,149,13,15,6,7,34,14,11,18,0,265
16,25,28,13,27,20,22,16,0,77,13,6,11,26,19,9,7,15,2,136
2,6,6,3,22,13,5,4,1,24,4,5,12,1,8,4,14,4,0,34
27,35,27,33,74,32,24,87,0,184,34,14,18,15,25,4,20,44,8,341
29,31,24,27,109,56,37,54,0,189,21,20,7,21,41,11,44,32,4,355
18,17,27,23,78,18,22,17,0,150,17,18,6,9,24,5,24,12,9,246
34,33,39,30,131,60,46,36,17,185,22,22,8,29,51,18,44,37,0,380
0,0,5,3,19,3,8,5,0,18,7,2,1,4,5,5,2,3,7,25
4,14,19,6,28,12,15,15,0,44,8,7,2,9,16,12,6,5,6,86
28,37,82,41,148,19,56,82,1,261,24,48,22,51,60,54,20,25,0,451
8,10,6,10,16,17,7,7,3,29,9,3,1,5,9,0,4,5,0,77
4,3,2,10,21,2,1,9,2,33,11,8,2,2,9,0,1,3,0,51
26,24,16,42,131,59,34,47,10,201,35,17,23,19,48,6,28,27,0,387
2,4,9,4,29,9,10,4,8,36,0,1,5,2,12,2,7,8,0,78
7,8,8,3,28,6,3,12,6,22,5,7,5,9,16,8,7,5,0,41
3,5,9,7,24,6,7,16,4,25,3,13,12,5,8,2,3,1,0,59
8,9,21,10,39,20,12,17,0,61,8,4,1,2,19,6,8,12,18,119
5,12,8,10,20,26,2,12,0,44,6,4,17,2,10,2,21,4,7,66
9,8,14,6,20,13,11,8,0,50,11,15,3,13,4,7,6,2,6,72
3,26,24,33,41,19,26,23,0,132,9,7,14,5,25,9,11,21,8,218
26,13,8,14,25,19,12,18,1,77,14,15,7,17,7,6,14,9,0,124
5,4,24,16,49,10,14,13,4,68,8,15,6,6,15,11,8,14,0,124
66,65,42,53,148,51,25,63,0,162,42,44,54,55,60,18,44,46,29,283
31,44,35,39,111,23,29,48,0,186,18,23,39,23,54,14,30,30,14,301
31,41,46,24,122,32,30,58,0,224,31,16,29,18,28,21,24,30,34,377
43,50,28,24,112,44,30,50,0,166,24,23,25,22,53,13,26,31,16,314
30,37,51,29,116,25,39,53,0,321,32,25,35,26,49,23,14,50,32,415
83,58,38,71,134,56,26,107,35,292,53,67,48,74,58,12,49,65,0,474
25,37,26,22,101,9,23,44,0,242,19,23,19,21,45,6,9,35,33,319
28,30,35,32,126,12,28,35,0,351,13,21,23,21,48,13,4,34,23,477
19,34,22,34,91,16,37,33,0,233,19,19,19,12,25,6,13,37,42,327
43,40,37,43,112,31,27,52,0,224,32,33,27,31,25,14,20,47,34,346
124,41,43,91,189,66,38,103,0,366,70,51,45,69,61,14,54,44,11,642
101,58,50,70,170,52,50,69,0,256,48,48,36,61,69,27,39,38,42,468
45,73,48,79,195,41,52,95,3,363,45,47,53,22,91,33,26,62,0,615
50,40,41,72,155,35,43,53,0,316,35,32,43,38,60,14,29,40,24,490
98,35,28,59,111,66,44,92,0,920,36,58,42,57,36,13,48,56,34,1073
64,55,27,58,158,34,43,77,0,274,43,34,46,42,59,13,26,49,9,469
31,44,37,38,117,35,28,50,0,231,16,21,28,16,50,11,35,27,12,395
36,45,39,43,126,33,56,52,0,290,33,28,22,26,41,17,25,25,21,482
31,33,49,23,116,34,32,73,0,173,23,19,36,29,50,19,22,34,8,324
50,61,42,41,170,41,37,70,0,277,27,38,48,40,77,16,26,36,40,441
55,45,32,56,152,63,33,61,0,201,31,31,50,36,52,14,48,50,18,368
30,38,17,42,106,46,32,43,0,154,25,34,35,11,41,6,28,31,26,271
8,6,8,8,12,8,5,16,1,31,3,4,0,5,5,1,5,6,0,74
2,7,8,8,8,5,6,6,2,28,4,4,2,1,6,5,2,4,0,52
5,8,18,5,28,11,19,17,2,40,4,3,16,6,15,2,11,19,0,77
53,66,36,28,112,46,31,53,8,281,31,14,19,38,37,6,35,38,0,496
16,8,10,6,39,39,11,22,1,58,7,5,15,4,21,7,19,19,0,113
7,15,18,8,32,36,13,18,0,97,10,7,9,7,11,6,19,16,1,158
4,10,9,10,33,9,13,21,0,64,13,13,5,3,10,2,4,7,8,108
51,43,37,34,144,42,57,55,9,277,36,18,48,34,42,7,30,32,0,502
8,15,16,4,45,28,8,10,4,71,11,5,13,12,19,1,17,13,0,118
6,8,2,5,37,6,7,12,5,71,15,5,12,1,7,0,3,3,0,113
4,7,10,9,21,12,3,2,12,45,5,2,8,4,4,3,13,6,0,80
8,9,9,9,30,20,8,13,0,48,3,5,5,4,10,2,11,10,2,102
8,15,5,19,45,15,8,28,13,61,16,11,21,6,9,4,13,12,0,125
8,11,14,8,13,15,10,10,0,68,6,0,3,5,12,3,14,10,13,91
11,7,6,10,31,25,3,21,0,42,10,5,10,4,6,1,25,9,3,83
7,7,11,12,38,13,5,7,0,57,7,6,10,1,7,4,6,9,7,100
30,20,12,9,48,27,7,15,0,88,22,7,21,7,13,6,9,26,2,143
52,77,37,37,149,39,43,62,24,227,38,29,55,17,76,9,17,29,0,477
40,61,47,50,159,55,70,83,0,532,31,27,64,27,53,10,33,39,22,791
16,67,44,34,133,20,55,40,0,395,31,9,52,10,40,14,3,30,46,569
28,78,53,34,163,23,67,42,0,422,30,15,60,8,65,14,10,40,42,626
54,85,56,48,130,70,43,67,13,312,38,15,69,34,54,20,37,42,0,569
5,50,40,23,107,8,40,26,0,290,14,7,38,9,27,7,6,26,23,432
31,75,49,44,147,22,68,55,0,308,33,19,61,11,45,15,12,46,10,547
7,2,11,11,11,16,5,3,6,36,11,5,11,9,2,5,10,6,0,49
1,1,4,5,7,10,2,7,0,22,5,2,2,1,1,3,5,4,0,36
7,8,1,7,18,5,5,6,0,11,0,0,7,6,10,0,1,11,3,30
2,8,8,6,12,6,3,9,1,14,8,2,9,0,1,1,3,12,0,33
1,5,1,2,21,15,2,9,2,36,1,4,4,1,9,2,14,8,0,51
7,12,4,6,12,8,8,12,2,16,7,4,8,5,5,3,6,2,0,47
7,6,9,9,35,11,13,7,3,34,4,4,16,4,15,4,2,12,0,73
10,7,15,8,49,18,16,17,0,96,12,4,6,9,14,5,10,10,5,161
17,32,29,31,112,41,24,54,0,217,24,28,16,19,21,8,31,16,12,382
9,8,7,15,36,42,8,13,6,51,9,13,13,2,10,1,27,9,0,111
10,18,23,26,41,35,4,21,4,100,24,9,8,9,26,10,33,16,0,147
24,21,30,15,56,18,16,54,0,173,33,8,16,11,16,3,10,8,3,299
4,17,11,1,23,18,0,12,1,38,0,8,4,3,12,3,8,4,0,83
16,51,31,20,93,29,32,27,0,217,16,10,25,11,26,18,19,25,5,361
35,12,24,11,60,17,32,19,0,86,13,4,17,11,18,6,17,21,25,164
135,98,77,83,222,43,64,124,45,371,102,72,64,103,76,33,28,81,0,703
58,84,80,57,229,79,82,67,7,344,48,23,54,67,82,25,53,67,0,668
11,24,7,10,30,24,8,14,1,45,6,5,14,8,12,1,19,8,0,101
8,7,5,8,20,12,8,10,14,39,3,6,5,8,11,1,5,4,0,88
5,34,24,38,118,65,30,60,3,260,27,18,19,15,42,12,54,37,0,413
3,4,13,2,35,7,11,14,2,74,5,3,7,2,4,3,2,9,0,130
5,4,2,5,24,1,4,8,0,24,7,4,2,2,7,3,3,1,1,47
3,5,10,3,11,12,3,14,0,11,2,0,1,2,4,3,3,14,4,39
2,1,0,3,7,0,1,6,0,16,3,0,0,3,2,0,0,2,5,21
7,10,19,5,17,12,4,15,0,49,6,1,11,3,9,3,4,10,0,91
5,12,18,15,32,5,8,16,7,60,7,6,10,6,13,6,5,10,0,115
15,18,14,12,28,30,9,32,0,118,14,10,17,13,14,8,18,12,8,162
9,2,6,8,20,4,2,10,0,27,8,2,6,4,14,1,5,5,1,42
11,30,40,37,69,82,23,33,14,125,35,20,24,9,28,13,65,29,0,241
11,16,25,6,39,7,7,34,0,88,14,8,18,14,20,5,3,11,6,134
42,61,48,56,122,65,28,58,0,259,44,17,41,25,40,12,54,19,15,472
8,19,20,11,32,42,11,24,3,58,15,5,16,5,8,4,39,17,0,119
3,9,13,4,19,9,4,15,0,67,5,1,10,1,8,2,5,3,6,102
13,13,5,17,28,7,6,15,0,39,9,6,10,13,13,1,1,3,12,75
6,10,5,10,19,4,4,4,6,14,3,3,8,4,6,4,10,11,0,33
9,0,11,3,16,33,10,8,0,37,3,3,0,6,9,3,22,11,0,70
11,11,15,12,27,22,17,13,1,76,7,9,20,8,15,2,17,4,0,123
0,6,5,7,15,9,7,13,4,36,11,5,5,3,3,0,8,11,0,56
0,15,9,7,24,11,2,19,0,76,6,1,8,0,18,5,9,8,4,104
0,9,1,7,17,5,2,14,5,26,2,5,7,4,6,2,0,8,0,52
5,12,9,7,39,48,18,18,6,59,4,6,9,9,15,3,36,5,0,134
51,21,23,27,62,9,16,35,0,110,12,9,16,31,33,6,6,14,31,196
77,61,71,80,229,129,88,123,0,639,60,25,51,56,72,18,84,70,106,955
3,10,13,12,46,5,2,11,0,53,12,2,10,6,28,5,3,9,8,72
7,11,11,3,33,16,6,13,0,61,4,4,5,8,6,2,11,6,18,97
0,10,6,3,2,4,0,3,0,9,4,2,5,0,6,0,2,0,4,14
18,9,12,22,65,85,25,32,8,157,19,10,18,14,26,5,63,23,0,255
21,21,10,6,26,12,8,20,0,38,4,10,12,10,12,1,9,14,0,90
9,35,10,12,41,46,15,14,0,107,18,2,31,3,13,1,31,9,7,174
3,8,8,1,5,2,2,6,0,20,0,4,6,2,3,5,0,4,6,25
12,11,5,9,47,39,12,25,0,65,8,8,8,13,13,1,34,6,4,130
33,31,18,18,74,35,14,29,11,97,19,6,31,21,32,3,27,5,0,216
12,12,6,8,40,17,9,18,0,59,16,11,5,8,20,2,6,19,6,88
27,44,36,46,173,84,48,67,0,261,49,16,27,28,71,14,60,31,20,470
34,39,55,73,152,73,32,60,33,267,58,27,31,39,64,25,57,29,0,488
9,4,7,7,13,9,14,15,0,37,2,2,7,10,7,1,6,12,7,61
22,33,25,26,85,63,32,36,0,215,40,9,21,17,30,5,41,13,41,320
1,5,1,5,6,2,5,6,3,10,3,1,2,4,6,0,0,9,0,19
18,19,15,18,36,32,14,36,5,85,10,11,10,22,12,4,37,14,0,158
2,23,6,2,21,28,7,7,3,30,8,5,12,4,3,7,21,3,0,66
38,30,57,34,102,78,26,53,0,220,31,19,23,32,23,30,68,27,2,383
6,12,18,1,32,18,8,8,0,38,8,3,10,3,10,4,17,6,5,75
30,30,4,26,81,161,12,22,0,136,20,19,30,18,33,3,139,15,6,219
84,100,32,76,152,60,40,69,0,331,72,33,80,63,65,8,50,30,9,534
45,86,44,46,134,25,42,57,0,325,54,16,65,28,58,17,20,28,15,503
83,85,30,77,175,97,41,78,19,432,68,25,91,63,71,14,66,38,0,681
7,16,6,8,26,43,12,11,0,77,11,5,9,3,8,3,27,6,6,128
0,16,15,11,26,28,6,9,2,59,11,9,11,1,10,5,24,3,0,98
1,12,10,15,14,40,3,10,0,35,3,3,8,3,1,4,26,3,2,87
12,32,22,20,71,44,22,16,12,100,23,12,25,8,26,6,38,4,0,209
16,14,7,11,36,20,5,14,8,60,6,8,9,8,17,0,19,6,0,118
18,29,9,7,36,10,13,28,0,62,4,5,18,21,12,1,5,14,20,112
17,12,16,16,63,20,12,30,0,108,20,3,14,16,21,12,15,13,8,172
19,35,17,14,65,15,31,11,7,167,10,3,46,15,43,6,14,18,0,226
40,86,48,45,125,34,50,67,0,333,50,19,63,31,52,16,24,43,25,505
112,79,41,64,156,59,33,88,53,226,65,28,83,87,79,10,50,60,0,449
43,74,37,40,133,33,33,61,0,407,39,15,59,41,52,11,19,33,34,558
59,100,23,75,99,54,41,66,0,289,51,19,92,35,39,17,40,28,24,461
13,2,13,13,35,12,9,21,18,57,17,8,2,15,17,4,13,10,0,107
84,60,66,82,194,90,40,135,18,291,74,39,62,57,79,20,114,60,0,555
2,2,5,4,13,11,1,7,0,13,5,3,7,0,12,2,0,2,8,19
6,16,4,7,5,23,10,10,2,47,6,10,10,0,2,1,16,4,0,81
16,15,27,16,62,57,12,21,4,109,21,7,17,10,26,5,40,24,0,189
8,23,23,16,48,24,15,20,0,89,11,15,12,4,22,8,11,11,3,169
32,40,21,32,94,69,23,69,0,172,35,5,28,12,28,7,121,35,13,268
25,38,38,38,148,76,40,49,0,256,21,15,18,22,62,13,69,25,11,452
6,0,1,0,20,5,2,8,11,16,5,0,2,6,9,1,3,4,0,39
54,40,44,56,151,68,39,54,0,258,36,43,31,40,27,18,47,31,6,485
8,18,9,12,53,31,13,19,12,75,20,5,12,5,13,2,25,24,0,144
3,10,14,13,49,40,10,9,5,39,5,3,13,2,10,10,40,11,0,98
12,11,12,16,24,14,18,13,29,70,22,6,9,21,7,3,9,11,0,131
10,10,2,15,35,17,4,23,6,41,10,6,10,11,10,0,14,3,0,99
3,11,10,9,41,7,8,16,8,70,17,1,6,7,14,6,5,12,0,115
0,3,6,3,19,2,1,11,1,32,5,4,4,0,5,0,2,2,0,56
2,5,4,7,20,10,9,9,0,61,8,5,7,0,7,1,4,10,2,83
84,58,47,45,94,23,34,45,0,223,38,46,44,44,29,15,14,31,0,392
9,8,4,5,15,17,7,6,0,41,0,3,7,4,5,0,8,3,5,77
5,8,4,11,22,13,9,20,3,63,4,6,6,0,4,1,10,5,0,122
7,3,4,5,5,4,2,2,0,9,1,1,0,6,1,3,4,3,4,18
3,6,8,9,24,11,5,12,8,48,14,3,6,2,7,4,7,2,0,89
8,11,8,5,12,11,7,9,0,30,2,3,9,8,6,3,8,10,3,49
16,30,26,51,65,65,23,34,6,163,51,26,17,12,20,6,50,26,0,271
1,13,6,5,12,16,2,3,2,22,9,1,5,1,11,3,12,2,0,38
12,9,10,24,50,52,15,20,0,58,15,5,9,9,16,4,42,12,10,128
16,11,10,4,35,2,5,11,0,42,9,7,3,13,12,2,6,4,10,70
19,41,36,26,124,168,34,50,0,212,32,24,25,12,24,14,147,27,4,401
5,6,9,1,15,11,7,7,0,33,1,3,5,3,8,6,8,2,10,48
2,6,6,2,10,4,2,0,2,20,1,0,0,3,4,4,3,2,0,37
37,22,33,33,97,13,27,27,0,185,21,9,24,28,28,13,3,19,1,328
2,6,8,5,20,6,3,5,0,26,3,1,6,0,8,5,6,4,1,47
6,2,2,0,22,6,10,9,0,18,2,5,6,6,7,0,2,12,3,32
0,4,7,5,16,3,7,2,0,33,3,0,2,2,8,4,1,9,4,44
12,30,21,17,113,32,12,32,9,146,16,16,36,7,43,6,20,23,0,257
25,67,40,33,140,41,30,49,0,209,20,17,64,16,39,10,10,28,4,426
9,13,13,15,36,56,10,29,11,131,15,4,10,10,16,2,47,20,0,199
4,8,8,6,30,16,8,17,0,74,4,3,8,8,7,3,18,13,2,105
24,14,21,20,75,63,17,28,0,112,26,10,14,8,34,4,48,16,7,207
42,47,16,28,98,64,28,47,0,155,34,18,33,32,29,6,41,34,5,293
10,7,4,2,23,15,16,25,0,35,9,7,6,12,4,0,3,12,4,80
18,13,13,2,37,17,14,20,14,53,8,2,11,16,22,5,24,4,0,109
9,4,21,3,16,9,2,11,0,18,5,6,9,2,9,5,8,3,4,42
13,14,10,12,24,5,13,20,0,84,7,7,11,8,16,2,2,17,9,116
11,4,12,2,8,3,10,9,0,52,1,0,2,6,3,3,1,4,11,80
19,13,1,16,20,7,4,5,0,41,11,4,5,5,8,2,6,4,8,73
63,35,38,36,106,29,29,57,0,223,24,20,33,50,31,11,14,24,32,377
3,15,13,4,26,7,3,22,0,30,4,9,7,2,8,4,0,10,14,65
2,1,1,6,17,31,5,13,0,17,7,0,4,4,7,1,19,10,2,39
13,16,15,32,84,20,27,39,3,140,35,16,9,10,32,5,21,22,0,239
0,10,6,0,12,5,2,2,0,29,2,0,7,1,3,0,2,4,4,43
4,11,18,5,28,22,6,8,0,44,3,3,7,3,7,2,24,8,10,79
16,32,32,24,94,51,23,25,0,225,16,6,20,12,29,10,32,20,27,350
7,8,4,9,38,21,2,11,0,53,4,2,5,4,25,0,15,2,13,83
12,23,24,11,86,18,30,27,5,135,20,6,36,13,25,8,17,16,0,230
13,3,9,2,13,10,8,5,6,23,3,0,1,6,2,1,4,0,0,75
124,78,66,71,212,83,74,77,0,410,84,19,51,121,116,26,43,45,53,637
39,32,39,28,135,31,48,57,0,172,27,22,30,25,44,17,19,36,32,329
33,58,53,21,100,27,24,27,0,222,6,12,30,31,37,17,15,10,5,402
20,22,32,20,53,47,10,30,0,145,19,4,18,15,8,6,29,10,11,259
15,12,11,14,23,37,8,21,0,66,9,13,3,5,11,2,28,19,1,116
9,14,10,8,26,9,19,16,0,56,11,2,9,9,12,0,5,5,2,112
17,15,27,16,62,23,4,23,0,82,10,5,16,17,17,7,17,15,4,161
1,10,11,5,22,2,4,7,0,42,3,3,13,1,7,4,2,7,6,58
11,16,8,5,22,9,4,5,0,28,8,5,10,5,9,2,6,3,1,59
7,17,16,24,21,22,9,12,4,62,13,6,18,3,16,9,12,11,0,106
3,12,3,7,12,19,4,15,0,22,6,3,10,2,7,0,14,7,11,37
8,9,4,0,11,11,2,11,9,11,3,2,16,7,7,0,7,4,0,30
9,23,16,15,59,23,14,28,0,90,14,12,13,6,14,8,22,13,9,166
51,52,41,49,102,53,18,77,19,219,27,20,27,58,47,11,58,27,0,406
42,40,61,54,97,61,38,49,0,313,40,11,21,32,43,20,38,35,2,513
82,56,47,65,134,84,55,115,7,299,49,43,27,51,30,17,88,72,0,567
60,60,51,53,132,71,59,106,0,469,48,24,22,40,55,15,61,59,6,731
5,8,12,11,19,3,9,12,3,50,5,4,1,6,6,8,5,9,0,88
12,5,1,0,8,8,8,5,11,24,3,0,3,6,3,0,8,5,0,54
1,5,7,6,17,9,7,8,0,32,8,5,4,3,7,4,3,9,0,49
13,8,24,9,25,13,15,20,0,61,5,3,11,13,6,10,6,9,3,122
44,50,36,44,140,130,64,61,19,326,31,24,24,45,40,14,72,39,0,625
1,5,4,10,13,18,3,16,9,27,10,4,6,5,9,2,16,3,0,51
54,71,62,61,184,73,50,100,0,363,49,22,39,44,66,16,73,45,52,612
45,54,37,79,143,41,46,97,6,294,56,16,34,45,56,9,38,56,0,532
13,9,8,18,20,34,9,20,3,84,9,1,13,13,15,4,28,9,0,126
24,31,28,29,85,47,29,57,0,162,19,11,9,19,36,6,39,25,28,300
17,27,24,15,60,31,21,31,13,99,22,13,18,15,9,4,26,20,0,211
7,13,14,13,34,18,12,29,3,72,9,10,9,5,6,5,10,11,0,150
57,51,54,60,182,45,41,111,0,363,56,23,34,39,49,19,30,57,42,615
41,81,51,73,168,41,30,79,0,299,46,20,58,23,66,9,35,49,36,521
46,71,67,69,207,30,61,75,0,361,51,7,50,26,82,17,35,44,38,637
63,52,48,87,146,51,49,125,0,597,65,23,27,48,38,10,45,45,6,911
126,82,54,94,229,82,77,149,34,459,81,35,52,87,84,13,74,83,0,877
10,26,17,13,81,59,9,32,14,81,19,17,10,8,33,3,43,12,0,197
5,4,4,2,11,4,11,5,0,23,4,3,7,2,3,0,2,2,2,44
12,2,7,5,11,1,7,5,1,16,5,2,2,6,2,5,0,6,0,39
5,11,17,12,42,29,6,9,9,49,25,6,9,5,13,5,16,11,0,99
18,18,10,25,53,59,17,41,5,104,20,21,12,14,14,0,60,20,0,189
1,15,8,4,26,16,7,6,0,50,3,4,8,2,15,0,10,9,1,81
6,19,17,9,31,29,12,18,0,68,4,9,5,9,13,5,18,10,2,134
29,50,48,32,128,25,51,45,0,208,37,12,18,17,45,21,63,54,14,335
4,10,16,7,48,19,5,14,18,42,12,4,6,1,20,4,7,14,0,115
1,5,17,3,19,21,6,7,0,25,3,2,10,0,8,10,19,2,1,49
3,6,8,6,30,37,10,13,0,51,14,5,5,4,11,1,21,10,2,91
20,30,22,19,85,56,19,37,27,86,26,29,19,16,48,10,43,23,0,187
6,6,9,8,15,4,6,3,0,26,6,3,5,2,6,7,5,2,2,45
14,18,11,5,29,31,8,23,0,30,3,5,11,16,10,1,40,2,9,72
10,17,23,8,65,28,11,12,0,99,15,2,21,6,25,11,12,7,1,173
10,9,3,20,46,11,26,4,1,50,16,9,20,8,20,1,5,11,0,90
3,4,0,0,2,3,8,5,3,13,2,6,2,2,1,0,8,2,0,18
5,5,5,8,27,4,11,12,0,33,2,15,3,1,13,0,5,3,3,65
21,19,15,22,55,32,5,29,0,62,10,15,25,20,19,6,12,15,6,132
24,19,7,13,38,9,9,22,0,66,8,9,18,16,13,3,4,16,5,115
16,23,11,19,40,11,9,35,0,63,14,15,23,9,19,0,3,33,0,111
5,10,9,10,27,3,3,5,0,28,4,8,6,1,6,1,1,6,1,66
0,2,1,1,13,0,14,1,1,9,1,2,9,2,3,0,0,6,0,19
15,5,3,14,28,5,15,15,11,33,17,14,7,7,3,0,2,16,0,78
