A53,A47,A659,A720,A1114,A768,A1,A997,A998,A999,B166,B720,B53,B7,B768,B1058,B766,B997,B998,B999
2,2,2,1,9,6,2,12,6,121,3,4,3,6,10,5,0,4,0,128
11,0,4,2,0,11,3,1,0,37,7,4,6,3,6,3,1,4,1,34
8,5,6,3,4,8,5,4,0,110,1,6,12,8,13,4,1,4,6,98
0,1,4,4,2,15,2,5,0,27,1,4,1,7,5,0,0,6,2,34
1,0,0,5,1,8,1,8,1,40,3,5,7,4,9,0,0,11,0,26
3,5,3,5,1,6,3,1,0,70,1,3,4,7,5,4,1,13,5,54
4,5,2,15,11,12,8,14,8,293,0,7,13,8,20,20,3,45,0,256
5,3,3,4,0,13,8,8,0,70,1,7,4,5,4,9,1,4,6,73
7,5,6,6,7,14,1,10,0,106,2,4,2,4,24,1,3,12,9,101
1,3,11,11,3,14,6,14,5,107,2,11,9,5,25,11,14,8,0,90
5,8,3,20,10,29,6,30,0,370,9,27,4,14,32,14,7,49,5,320
5,2,2,3,2,12,9,11,0,95,0,3,8,7,12,9,0,11,1,90
21,7,17,17,6,19,5,17,0,238,6,17,21,11,25,8,9,34,13,203
2,1,6,5,3,3,2,2,2,42,2,5,5,1,5,1,9,3,0,37
14,5,16,26,18,20,1,25,1,255,9,22,24,12,26,11,11,44,0,222
18,11,4,28,8,16,2,9,0,154,7,17,20,8,15,9,2,28,6,138
0,4,1,13,7,12,14,14,0,104,0,10,2,7,16,14,2,16,3,99
14,5,1,11,23,18,1,17,4,181,4,19,15,2,27,4,1,48,0,155
9,2,4,9,8,10,0,6,0,116,3,11,12,7,15,1,0,12,9,94
1,2,8,6,1,11,3,4,0,58,2,9,1,6,9,7,0,9,1,50
5,3,1,5,7,3,0,10,0,43,5,3,5,1,10,1,2,4,2,44
6,9,7,17,5,12,2,21,3,198,4,21,16,6,9,15,6,22,0,181
11,1,3,8,2,2,5,9,0,43,1,5,12,3,2,8,5,3,4,41
6,0,5,8,5,4,6,12,8,109,11,11,8,2,7,11,2,7,0,104
0,6,1,23,1,18,13,12,1,249,9,19,20,14,33,14,1,26,0,188
5,3,2,11,4,5,3,7,5,56,6,8,15,5,8,4,1,7,0,47
0,3,1,3,4,4,0,3,2,43,0,3,2,4,7,3,2,7,0,35
3,2,0,5,4,9,5,7,0,49,1,2,5,2,7,2,10,11,1,43
3,4,0,2,6,4,0,5,0,36,4,3,3,7,0,0,1,4,2,36
4,9,0,4,3,2,6,2,0,45,2,2,3,16,3,6,0,13,0,30
6,2,1,1,5,9,2,5,0,45,6,7,1,1,7,3,1,6,6,38
1,3,1,4,3,4,0,1,1,36,4,2,3,0,6,0,1,5,0,33
5,5,0,5,13,2,4,5,3,58,2,9,5,0,6,6,1,8,0,63
3,4,3,10,4,4,3,12,0,89,4,9,5,8,6,8,1,10,3,78
4,5,3,6,5,5,3,14,1,107,3,6,9,5,11,5,0,11,0,103
1,0,1,8,0,5,2,10,0,32,2,6,0,8,2,0,1,6,3,31
8,8,6,22,4,17,1,11,0,212,6,17,31,3,23,13,6,22,0,168
3,5,8,0,2,5,1,3,0,36,8,1,5,2,5,2,3,5,2,30
18,4,9,6,9,20,3,7,12,129,8,10,32,10,15,9,3,16,0,114
50,19,60,47,24,53,13,49,0,838,41,66,137,38,65,51,23,59,20,653
54,22,51,43,26,60,21,45,0,619,54,44,120,35,74,46,20,68,3,477
14,1,9,6,0,24,4,0,0,78,6,8,15,8,12,8,1,11,3,64
16,5,17,7,7,12,4,11,5,175,13,9,34,19,25,13,6,19,0,121
3,3,16,14,3,19,5,6,3,170,7,15,14,13,29,11,2,19,0,132
21,5,20,16,5,16,10,14,0,243,13,27,41,12,20,29,12,16,6,174
4,10,0,10,7,7,1,8,0,128,3,8,15,11,12,3,2,16,8,97
13,4,4,10,2,12,2,11,0,111,16,15,10,8,12,3,0,15,4,86
16,1,6,8,3,15,8,22,2,214,16,19,18,8,23,15,7,13,0,176
0,2,13,4,0,6,10,9,0,33,4,9,8,3,1,14,1,1,1,35
19,5,13,14,11,28,9,8,7,268,17,22,35,9,35,12,55,24,0,173
4,4,1,14,4,5,8,7,0,89,4,11,6,6,7,5,1,15,5,76
12,8,25,15,6,14,5,8,9,132,18,22,19,2,8,16,7,30,0,112
9,0,7,13,2,14,1,7,7,26,11,13,15,6,12,2,3,4,0,20
16,7,9,5,11,7,12,9,6,136,15,6,19,10,7,18,0,32,0,111
9,1,4,1,2,10,1,17,0,59,9,4,7,2,17,12,1,17,4,31
24,10,31,26,19,51,2,26,28,384,20,60,59,21,68,17,13,45,0,298
11,7,14,23,6,21,7,16,0,138,13,25,28,9,17,17,9,30,5,90
4,1,7,19,1,5,0,6,3,64,6,7,17,3,6,10,3,14,0,44
5,3,8,12,11,13,10,7,0,168,1,8,4,8,11,7,3,98,7,90
23,5,26,22,7,46,10,33,27,288,25,27,67,20,51,26,11,34,0,226
18,10,30,21,7,17,8,16,13,331,42,31,47,9,23,18,13,38,0,250
14,7,14,10,11,15,2,13,7,192,22,25,36,6,21,8,8,27,0,132
26,9,10,7,30,19,8,13,0,210,13,13,42,15,30,9,8,38,7,157
16,2,7,16,9,23,2,12,6,226,8,34,38,10,31,5,9,36,0,148
20,3,23,23,8,16,4,28,1,289,29,15,45,6,22,13,9,31,0,245
39,21,15,32,15,51,13,29,0,503,39,34,94,21,38,21,20,54,6,391
7,4,5,6,6,8,3,9,1,39,6,6,5,5,12,4,0,6,0,44
6,2,5,9,2,3,10,7,0,81,8,6,11,8,4,10,0,2,3,73
14,13,8,9,10,14,14,13,1,177,16,14,17,3,19,17,7,28,0,152
14,5,10,17,9,20,13,26,1,233,9,27,31,19,31,10,7,26,0,188
0,1,8,14,6,17,22,15,6,112,16,22,10,7,18,19,6,14,0,89
0,2,1,2,1,4,1,12,0,15,3,5,3,1,4,1,0,8,0,13
3,1,1,5,12,16,7,7,0,119,2,7,4,6,21,2,7,25,2,95
7,5,12,16,14,22,14,16,0,155,14,23,15,8,28,23,4,20,1,125
2,6,2,6,4,9,2,12,0,198,1,3,7,7,17,2,1,17,2,184
3,7,10,11,4,7,2,13,0,147,9,14,17,10,10,12,1,14,5,112
11,0,18,10,12,13,4,14,1,230,50,21,10,8,7,10,5,27,0,175
18,16,5,22,6,27,6,14,7,271,16,31,24,14,29,16,5,35,0,222
4,1,0,0,2,10,0,5,0,30,0,0,4,6,11,0,0,5,0,26
15,0,10,3,8,10,2,3,9,78,12,13,26,1,6,7,3,10,0,60
3,4,4,3,3,0,10,8,1,108,2,5,10,4,5,12,9,11,0,86
12,4,2,5,3,6,2,7,0,52,3,3,6,1,8,11,3,3,3,52
4,1,2,6,3,8,4,2,1,57,5,0,2,1,9,2,3,8,0,58
4,6,1,8,2,7,0,4,5,66,1,8,9,3,6,1,0,7,0,68
6,0,3,11,2,5,11,2,0,32,3,10,13,4,3,11,1,8,3,16
0,1,1,4,1,4,10,5,0,51,2,0,1,0,3,22,0,4,3,42
24,5,4,12,4,21,1,12,0,175,8,13,34,12,22,6,10,21,4,128
8,2,1,6,7,12,1,17,2,195,1,9,13,3,9,3,0,20,0,193
7,0,0,7,1,15,0,6,0,110,4,4,5,4,14,4,0,14,12,85
2,1,5,2,0,8,27,4,1,67,4,8,9,2,9,33,2,8,0,42
1,2,3,0,4,6,3,6,4,58,7,1,4,2,8,8,1,6,0,50
5,1,2,3,1,9,9,3,0,27,2,2,0,12,4,9,2,3,2,24
3,1,3,3,0,4,0,2,0,20,0,2,5,0,2,1,0,1,3,22
0,1,0,4,3,1,2,7,0,17,5,1,1,0,2,5,1,4,0,16
2,5,6,8,2,8,1,12,0,203,1,13,8,16,8,3,3,10,4,181
5,2,2,7,7,8,2,5,0,52,3,6,4,3,12,4,1,6,0,51
1,2,2,2,3,3,0,0,0,44,0,3,0,1,0,4,0,4,6,39
8,0,2,1,0,3,3,0,0,33,3,1,4,1,2,5,0,2,3,29
2,1,1,3,4,7,4,6,5,126,3,4,5,6,5,3,2,9,0,122
5,0,6,0,7,6,3,4,0,32,11,1,5,0,7,1,0,1,5,32
4,7,9,2,2,4,3,3,6,66,11,6,8,4,6,2,1,9,0,59
8,2,5,0,3,13,5,6,1,71,2,6,6,4,6,6,6,4,0,74
1,5,9,10,13,13,5,7,3,121,9,9,4,11,24,11,7,7,0,105
6,4,5,15,10,12,4,16,0,126,3,12,15,13,21,8,4,17,5,100
5,4,2,3,3,14,7,7,0,86,5,8,6,18,15,6,4,10,0,59
2,12,0,3,2,6,6,8,0,41,0,1,0,4,6,4,0,16,0,49
3,1,0,2,4,7,3,12,8,94,6,4,9,5,10,13,2,4,0,81
4,0,0,1,4,6,7,5,1,35,0,1,5,6,5,4,0,4,0,38
5,3,1,5,1,9,3,2,0,53,1,4,4,8,7,3,2,5,1,47
6,3,4,4,9,4,2,9,1,45,1,7,11,3,7,5,4,6,0,43
7,3,7,6,5,12,5,4,0,86,6,10,7,4,19,11,2,5,2,69
3,7,1,10,4,4,1,5,2,57,4,9,5,0,6,4,0,5,0,61
5,2,6,2,12,14,2,2,4,78,3,4,7,3,10,4,6,8,0,82
7,2,5,3,1,8,0,10,0,67,2,4,10,5,8,3,1,10,0,60
6,2,2,2,4,8,0,1,0,39,3,4,7,3,5,0,1,6,1,34
3,5,0,3,0,10,3,6,0,106,0,5,0,5,14,7,0,4,3,98
1,2,3,3,0,6,0,4,0,78,3,3,0,5,5,3,4,8,2,64
4,3,1,3,2,6,1,4,0,49,2,4,3,5,6,3,3,8,2,37
20,2,15,10,3,26,6,15,4,245,11,11,32,12,19,23,18,13,0,207
20,8,10,9,4,10,2,11,0,121,10,12,16,5,13,11,3,11,2,112
4,1,0,3,6,2,1,2,1,34,1,3,1,3,1,2,0,5,0,38
12,2,22,28,5,29,7,6,0,156,9,20,19,7,25,7,5,9,19,147
1,4,1,4,4,6,2,6,0,77,2,8,2,5,6,5,0,8,4,65
0,2,3,0,2,1,0,11,0,21,0,0,0,17,2,1,0,2,5,13
1,5,1,3,0,7,0,6,0,39,4,1,4,1,8,2,1,6,2,33
4,2,5,7,5,20,0,12,0,129,2,15,8,3,9,3,0,8,10,126
3,1,0,0,1,4,18,2,1,45,0,5,1,4,9,21,2,2,0,31
2,1,0,1,6,4,3,3,0,38,0,4,2,4,11,5,2,11,0,19
8,2,11,12,8,1,7,3,2,120,45,10,3,5,6,7,0,6,0,92
4,0,3,13,0,3,0,6,2,18,1,8,4,6,1,6,2,2,0,19
6,6,1,3,6,16,0,12,0,108,1,2,7,9,8,0,26,15,1,89
3,0,3,5,1,4,1,2,0,25,4,2,9,0,3,3,1,2,1,19
5,1,3,3,7,0,7,4,1,46,5,6,7,4,5,7,2,5,0,36
1,1,2,7,4,14,1,2,0,50,1,5,2,2,14,1,3,10,1,43
4,1,1,3,0,6,1,7,2,36,1,2,3,6,6,1,5,8,0,29
10,6,8,9,2,19,9,14,3,173,6,12,16,11,20,11,14,24,0,139
3,4,0,7,0,5,0,9,2,66,2,6,10,7,5,3,1,10,0,52
2,0,0,2,1,0,0,5,0,29,5,1,1,0,0,4,0,2,4,22
2,0,2,3,5,2,2,0,0,28,2,5,6,0,6,0,0,7,2,16
2,2,4,7,10,14,4,13,4,74,5,8,7,3,20,3,1,23,0,64
3,1,1,2,0,4,2,3,6,120,2,4,3,12,7,1,1,5,0,107
14,18,10,9,8,11,4,13,0,147,13,7,18,10,15,7,1,27,2,134
6,1,1,1,1,2,0,3,0,23,2,1,7,2,1,1,3,2,2,17
1,2,1,8,0,5,2,3,1,45,0,5,5,1,5,2,6,4,0,40
4,2,1,1,6,10,1,6,18,74,0,6,9,1,15,3,3,11,0,75
75,24,62,51,20,85,22,45,4,552,44,60,122,34,95,57,35,73,0,420
17,17,21,25,21,81,12,14,14,516,25,43,62,28,85,22,8,44,0,421
84,17,79,57,22,97,39,68,34,769,50,88,149,50,106,78,40,83,0,622
31,16,39,41,26,66,22,40,0,567,33,83,92,36,72,54,24,50,2,402
33,14,28,34,23,56,12,27,0,448,17,34,72,16,65,32,27,46,9,357
70,9,60,55,17,59,25,42,0,492,32,56,123,18,74,57,28,53,13,375
45,15,32,30,23,53,31,27,11,445,19,48,79,29,52,53,16,49,0,367
33,9,33,35,40,56,16,31,0,662,21,62,76,30,77,22,39,70,25,493
17,21,19,12,15,33,16,26,0,353,9,36,35,13,55,26,14,37,8,279
19,8,10,13,10,24,3,16,0,223,4,20,29,12,33,11,29,23,3,162
51,25,31,55,20,70,18,55,67,677,43,100,120,49,91,46,35,91,0,494
46,4,45,33,22,52,18,32,48,484,31,50,85,20,65,40,26,48,0,419
42,14,26,31,16,44,11,28,0,481,22,48,63,15,65,34,19,37,2,388
45,22,54,67,18,65,16,58,5,646,43,75,105,41,76,57,41,76,0,482
122,15,81,58,37,94,22,78,0,916,51,97,216,49,100,78,61,110,18,643
40,11,55,58,35,44,16,52,6,707,43,74,85,25,51,53,26,57,0,610
50,4,62,47,21,19,16,29,11,473,35,64,82,18,38,56,25,48,0,366
45,6,27,24,22,30,28,44,0,559,34,43,62,21,50,40,17,49,16,453
34,14,28,37,19,55,15,37,2,565,20,45,56,31,79,30,21,41,0,483
28,16,18,26,19,41,13,21,0,394,11,36,55,22,48,26,13,45,3,317
58,14,43,63,29,45,13,41,0,3500,24,73,124,22,43,41,21,69,36,3353
24,12,29,27,11,42,19,25,0,336,20,33,45,12,30,40,22,34,18,271
36,22,23,32,22,53,27,40,0,471,20,30,61,33,70,40,11,53,10,398
48,9,65,46,32,34,25,39,0,486,36,42,93,35,60,49,45,49,11,364
35,11,46,30,16,48,11,28,13,422,25,50,74,21,41,23,17,37,0,372
60,10,49,71,29,30,18,31,19,575,31,84,107,28,42,55,16,62,0,467
54,10,43,54,24,59,30,41,29,765,33,77,118,36,56,67,34,56,0,632
24,23,33,38,16,47,11,25,0,518,17,39,56,16,40,33,9,58,35,432
13,10,12,16,10,10,5,9,0,203,12,21,17,13,23,14,8,25,5,150
47,17,33,51,20,52,18,38,0,679,26,51,107,55,66,38,27,64,8,513
16,16,14,21,15,55,7,29,1,450,18,22,37,14,70,17,15,48,0,383
31,24,26,21,23,41,7,32,36,522,17,48,53,32,60,29,24,71,0,429
40,16,33,30,22,55,9,36,28,535,27,50,82,29,70,30,21,47,0,448
13,15,11,20,13,38,5,23,31,434,15,34,38,14,44,18,12,42,0,386
34,21,35,41,14,43,10,36,34,500,20,62,71,31,57,18,16,67,0,426
31,22,17,38,18,69,23,34,20,480,23,54,64,34,62,27,19,48,0,421
35,16,31,27,12,52,10,24,27,456,19,37,68,25,61,27,25,49,0,379
25,24,31,32,17,50,19,45,44,526,29,54,84,35,54,38,29,59,0,431
28,16,28,26,22,45,11,35,31,519,26,45,74,22,45,29,17,44,0,459
19,21,22,22,15,33,20,35,24,406,22,35,55,26,60,16,11,48,0,344
41,9,28,32,26,56,16,24,44,536,32,43,84,30,67,29,25,50,0,452
19,21,24,28,23,49,5,30,0,471,20,36,45,22,64,10,7,46,7,413
21,17,15,25,34,45,7,19,0,494,15,33,42,24,62,13,20,52,5,411
24,14,15,22,25,66,10,26,0,594,18,39,59,27,76,23,10,54,7,483
25,30,23,27,21,54,2,23,0,628,17,42,73,26,69,13,16,47,37,493
30,16,33,17,22,48,18,34,0,482,26,27,62,23,54,34,14,48,6,406
53,8,31,41,18,55,14,30,0,475,27,67,82,35,52,26,20,55,2,359
37,22,33,39,18,43,8,45,0,401,28,36,60,16,50,25,18,50,40,323
45,12,55,65,24,49,29,56,0,517,35,67,96,27,64,70,37,69,13,374
21,8,26,29,14,20,16,13,0,246,20,31,47,5,29,21,14,35,11,180
29,9,32,34,19,47,16,36,0,458,26,51,66,15,41,34,13,35,6,393
43,5,53,34,15,49,11,25,0,436,27,56,74,29,53,32,27,32,21,320
32,8,33,37,15,20,7,20,0,455,18,48,49,15,31,14,16,54,16,366
31,11,20,38,17,30,21,23,0,443,20,42,57,11,34,46,19,45,16,344
18,25,23,28,29,51,6,40,0,705,18,42,57,32,56,21,18,82,26,573
16,13,19,37,30,23,14,33,0,714,15,52,49,31,35,24,25,68,18,582
28,12,14,39,26,47,21,39,0,735,23,66,66,33,64,27,27,58,21,576
36,25,24,41,38,60,21,50,0,791,33,59,70,36,72,25,15,85,0,691
25,8,13,23,22,27,5,23,14,937,14,37,40,21,36,28,8,58,0,855
12,16,17,30,36,44,10,23,0,810,14,33,35,17,46,24,13,60,7,749
37,25,31,41,40,77,17,45,0,993,38,54,118,40,107,21,25,98,33,772
19,19,23,33,23,49,2,12,0,647,28,42,57,15,53,21,10,40,6,555
29,28,21,23,35,65,13,34,31,635,41,41,65,42,93,25,13,67,0,527
94,25,113,89,27,84,26,58,157,1089,56,146,266,52,118,84,51,106,0,883
22,11,17,17,26,35,5,40,0,435,22,24,75,11,59,22,21,31,4,339
52,16,47,51,34,67,30,48,0,957,39,85,102,43,70,72,24,90,7,770
30,20,25,43,41,53,13,52,2,865,29,67,83,35,80,21,26,91,0,712
26,23,30,44,27,64,16,38,0,660,24,62,48,34,64,33,24,67,18,554
62,15,66,46,30,55,23,47,0,698,38,68,121,59,69,62,52,72,8,493
37,9,15,11,6,32,3,13,0,246,25,12,47,17,54,11,15,16,3,172
14,23,24,28,33,47,8,29,0,588,24,40,47,25,40,20,20,64,3,511
23,14,10,26,25,48,10,20,4,602,18,47,51,20,70,13,20,47,0,496
24,28,31,27,18,49,14,32,0,648,23,36,62,24,72,41,10,77,7,519
16,20,25,19,25,66,9,34,0,552,24,44,46,30,90,27,16,57,14,418
27,7,16,30,8,19,11,14,13,268,18,27,53,5,35,28,13,26,0,208
35,22,26,33,27,64,13,23,0,525,43,37,65,23,74,12,42,62,4,406
21,25,12,16,23,58,12,40,0,603,15,27,57,48,78,19,17,63,18,468
19,19,34,27,16,45,10,28,0,595,20,47,59,37,79,18,19,43,35,436
17,26,20,26,12,55,15,41,0,502,16,37,61,43,67,19,12,63,8,388
24,30,24,18,20,47,7,34,0,536,26,38,42,30,62,17,11,57,20,437
20,46,13,33,21,65,6,33,0,508,24,42,43,27,61,17,18,78,11,424
14,9,24,22,17,27,7,32,3,327,8,33,55,21,36,32,14,28,0,255
25,5,17,23,8,32,1,12,0,333,13,39,30,9,35,13,8,30,13,266
11,12,13,25,23,32,7,31,0,364,19,36,36,13,46,15,16,39,4,294
19,4,40,29,6,17,13,20,0,369,14,47,64,8,22,37,22,20,3,280
22,17,22,28,24,52,16,27,0,436,18,36,55,36,62,30,24,51,9,323
47,12,31,45,28,74,7,35,0,663,52,57,102,37,89,27,51,72,7,448
61,13,30,38,19,48,16,28,0,512,25,58,101,23,55,36,32,65,1,369
56,42,35,35,20,61,11,55,3,698,34,62,124,37,76,35,30,86,0,532
72,18,48,56,28,60,21,43,0,605,39,55,96,42,84,42,39,61,12,481
56,28,62,65,35,101,34,64,15,786,55,85,122,59,106,74,83,103,0,559
4,1,2,5,2,14,2,11,0,93,0,6,9,20,12,0,0,7,2,78
2,3,0,2,2,4,0,3,0,51,1,5,0,10,9,0,0,2,1,39
6,1,2,1,2,4,3,5,0,56,3,2,7,5,4,5,1,5,2,46
8,5,8,11,9,12,8,21,1,110,3,17,16,13,27,10,3,23,0,81
5,7,4,8,3,6,2,3,0,103,7,8,4,11,8,5,2,9,3,84
17,3,9,7,9,20,3,13,8,260,11,11,20,29,21,8,7,38,0,204
32,14,24,38,17,58,55,48,0,780,23,31,63,98,71,72,14,75,19,600
34,26,29,38,21,79,50,65,0,954,25,49,67,102,115,65,18,126,5,724
32,6,22,17,15,34,16,33,22,436,20,26,56,38,45,43,25,39,0,341
6,0,7,12,6,7,4,9,1,73,2,14,24,5,12,7,4,11,0,46
48,12,22,31,9,39,31,26,15,509,25,45,88,23,63,65,24,55,0,354
4,8,8,3,4,23,4,5,0,231,9,12,18,6,23,4,5,16,0,197
18,21,21,8,10,21,5,19,11,314,18,18,20,25,24,16,4,42,0,281
3,0,3,1,2,3,2,3,0,15,5,0,4,1,2,0,0,1,0,19
7,0,3,0,0,4,4,2,0,24,0,0,7,2,2,3,0,2,2,26
1,0,10,2,4,3,9,2,0,35,7,4,3,0,7,6,2,6,4,27
4,1,8,4,4,4,1,1,3,53,10,2,2,3,3,5,1,8,0,49
2,3,1,1,2,7,0,5,2,25,0,3,9,5,1,0,1,11,0,18
4,2,1,9,0,6,6,3,4,51,16,3,3,3,7,5,2,6,0,41
23,19,26,29,33,55,15,28,2,743,58,45,40,25,64,22,11,63,0,645
22,9,11,15,8,17,12,18,0,271,16,20,37,12,22,21,6,26,4,219
3,2,0,3,6,7,2,5,6,22,10,3,4,0,3,3,0,6,0,27
6,3,2,5,1,9,0,4,0,30,4,5,4,3,5,0,0,6,4,29
7,5,1,6,3,7,3,6,0,52,2,4,10,2,8,2,1,7,5,49
5,6,7,8,11,7,3,6,0,68,1,10,11,5,10,9,1,17,0,57
2,3,5,4,4,7,8,10,0,64,2,9,2,10,6,11,0,5,9,53
15,6,2,3,1,9,3,8,0,65,9,5,22,3,7,2,0,15,3,46
33,13,21,15,19,38,14,47,22,568,31,32,48,30,42,38,12,72,0,485
8,2,0,3,2,2,0,7,0,76,3,2,17,8,5,2,3,11,4,45
14,2,13,16,7,19,15,15,3,259,13,25,28,12,23,40,11,27,0,184
34,4,34,22,14,27,27,26,11,366,17,35,66,22,36,74,11,36,0,268
12,6,11,14,5,12,4,7,33,131,17,20,23,5,14,19,3,18,0,116
6,3,1,5,11,16,3,5,0,218,10,14,6,4,13,8,10,16,8,179
5,12,6,8,0,8,6,3,1,150,19,3,15,14,8,5,3,16,0,116
5,2,3,12,3,6,6,14,0,135,6,23,19,7,15,1,0,20,6,89
5,10,4,4,7,13,2,7,9,121,1,8,8,6,24,5,1,30,0,99
25,4,14,9,8,16,1,12,1,140,15,12,38,12,17,15,4,23,0,94
99,22,65,64,24,76,17,64,0,847,57,63,210,79,96,60,11,86,1,615
65,19,45,36,27,44,17,60,28,761,20,68,175,54,66,50,13,78,0,578
61,13,45,52,29,59,12,57,0,740,31,48,115,61,65,39,12,64,43,590
8,6,11,11,10,6,11,6,7,117,5,17,27,7,13,17,10,20,0,77
71,11,40,61,16,54,20,48,35,700,43,81,158,35,61,49,27,66,0,536
3,6,2,3,4,10,0,4,5,59,0,5,5,2,12,2,0,17,0,53
17,47,13,18,25,39,17,37,0,752,8,28,29,32,73,27,9,146,1,612
14,4,14,5,6,27,1,27,0,118,6,8,17,11,15,3,11,18,9,118
44,14,22,17,17,25,15,30,7,295,29,15,64,21,30,34,13,50,0,230
0,1,2,10,2,8,2,6,0,140,1,10,0,2,7,9,1,4,25,112
74,19,54,68,37,104,37,69,0,807,51,88,136,33,109,79,46,97,2,628
1,5,3,5,3,1,2,4,7,42,5,2,6,4,4,4,1,10,0,37
2,2,1,2,3,2,1,1,0,62,0,0,4,1,5,0,2,9,0,55
8,4,1,8,1,7,8,3,3,56,0,3,16,1,8,8,1,6,0,56
3,9,9,12,2,5,4,11,0,296,9,16,8,11,30,3,5,10,1,258
6,6,3,7,2,3,4,10,3,78,1,11,13,8,7,12,1,25,0,44
10,4,4,9,7,6,2,14,8,133,4,14,14,9,19,6,3,22,0,106
3,11,0,6,4,7,3,7,2,77,0,13,5,6,6,2,1,9,0,78
2,0,0,0,4,4,1,4,0,25,0,0,2,1,11,0,0,7,0,19
0,4,1,1,1,5,2,3,3,50,2,0,1,0,6,0,8,6,0,47
1,1,4,5,1,9,1,6,1,97,2,9,2,9,6,0,0,22,0,76
9,14,12,9,13,26,15,23,4,334,5,19,18,16,37,17,6,63,0,278
96,28,52,52,26,59,39,40,18,667,34,58,158,50,91,73,18,72,0,523
13,3,10,17,4,5,11,9,0,125,8,17,30,9,14,9,3,7,3,97
24,6,38,42,17,31,19,28,21,423,15,43,85,17,42,61,8,38,0,340
11,1,5,14,8,5,13,10,4,101,6,14,13,3,12,24,2,14,0,84
7,3,4,4,2,16,2,7,0,117,5,9,19,3,10,7,1,7,5,96
74,22,42,53,14,89,63,60,3,1117,51,90,126,64,99,70,33,97,0,907
2,0,2,1,2,2,2,10,0,66,3,3,2,10,6,6,2,12,3,40
3,3,0,8,0,0,3,6,4,41,4,2,6,2,5,6,0,8,0,35
11,4,7,2,4,8,3,10,0,45,8,4,17,7,2,5,6,12,0,33
4,4,4,3,0,3,8,6,2,125,12,10,3,6,5,12,5,13,0,93
9,5,4,15,0,12,3,11,2,80,7,14,9,8,8,7,4,16,0,68
17,4,5,14,9,19,8,28,0,274,6,20,34,27,29,10,12,21,15,204
32,16,23,15,18,28,31,15,19,449,45,22,33,22,41,34,14,48,0,387
5,9,13,9,12,11,1,8,6,174,27,13,15,5,19,9,5,22,0,133
45,25,29,39,43,49,31,43,0,865,59,34,78,40,59,66,15,76,13,729
68,33,48,56,46,85,38,64,1,1011,111,78,111,34,102,91,22,106,0,795
45,13,26,35,16,32,12,37,35,427,29,58,89,23,49,38,27,51,0,314
86,13,43,36,27,47,7,31,0,540,43,70,174,36,59,30,16,61,2,339
37,4,18,24,5,19,2,20,14,305,17,23,69,11,24,26,24,20,0,234
7,4,18,4,8,13,0,9,0,72,6,14,13,4,19,5,2,15,3,54
22,9,14,16,5,21,9,19,14,318,18,13,49,24,38,14,7,20,0,264
0,2,1,4,3,6,1,9,0,26,2,3,1,5,4,1,0,6,9,21
6,1,7,8,4,17,1,7,0,138,2,10,4,8,19,14,4,21,3,104
4,0,1,9,1,10,1,5,1,62,3,6,4,6,10,2,0,10,0,53
8,0,4,36,5,13,21,11,0,190,12,26,34,5,23,29,12,9,6,132
5,11,1,7,5,7,4,9,1,146,2,3,5,8,17,6,0,23,0,132
26,33,26,44,43,71,30,51,8,706,16,61,75,92,92,38,10,101,0,553
9,42,8,26,25,19,2,33,0,636,12,35,29,42,48,9,8,82,9,526
3,7,2,3,6,19,0,5,0,58,0,1,4,0,14,1,0,20,2,61
14,4,26,12,10,25,18,19,12,412,6,22,44,23,40,17,12,43,0,345
10,4,9,2,3,9,7,2,3,89,4,2,14,4,9,12,2,12,0,79
14,9,13,14,13,13,4,20,0,405,12,17,28,34,21,7,15,42,1,328
7,2,7,5,1,18,1,14,4,88,14,1,8,7,20,6,2,4,0,85
61,8,67,33,19,44,8,36,20,672,51,56,135,28,63,53,25,77,0,480
6,2,9,7,10,12,2,6,0,86,7,6,22,6,13,1,4,12,4,65
41,24,38,31,24,64,29,40,12,630,35,45,88,32,72,42,16,73,0,530
65,15,32,48,54,63,15,52,0,621,28,60,115,38,71,35,35,90,4,489
61,18,25,36,16,36,19,30,13,458,26,59,89,33,40,51,20,67,0,327
1,0,9,12,1,8,2,8,0,36,7,12,6,7,6,2,2,8,1,26
3,1,9,3,3,13,1,5,3,35,10,10,6,3,4,7,3,2,0,31
13,7,15,7,3,22,5,17,1,171,15,16,23,16,24,13,6,15,0,133
8,2,2,7,10,6,4,2,8,84,4,12,14,1,10,7,4,20,0,61
6,11,8,1,6,21,6,10,5,251,4,15,9,4,26,8,5,25,0,229
4,0,3,4,2,7,1,6,0,66,0,5,2,5,7,0,1,6,6,61
49,5,50,28,25,32,25,28,21,492,44,51,109,23,54,40,11,48,0,375
63,9,64,53,24,62,24,41,34,951,113,76,170,29,83,65,34,82,0,673
67,12,47,50,27,44,10,61,61,612,56,76,117,46,60,55,14,81,0,486
28,10,12,17,15,32,8,22,8,252,9,19,40,9,38,11,14,50,0,214
13,1,16,8,5,9,3,14,0,112,9,9,27,8,9,9,4,10,9,87
19,4,6,24,8,25,7,16,8,346,10,32,42,23,42,23,9,32,0,250
42,11,33,40,31,77,28,43,9,803,34,69,88,36,88,38,19,81,0,664
25,11,17,19,19,39,18,26,18,516,32,23,49,17,47,38,7,45,0,450
0,2,1,6,3,7,3,2,0,51,0,11,5,7,5,2,0,6,3,36
2,0,0,1,1,1,6,4,0,27,2,1,4,1,1,3,0,6,4,20
2,4,2,3,2,3,0,3,1,53,1,8,2,6,3,1,1,8,0,43
2,6,2,2,8,12,1,3,0,85,0,7,5,3,10,2,1,19,2,72
1,0,0,2,7,9,0,1,0,41,2,3,2,1,7,0,0,7,1,38
17,13,2,10,5,14,5,12,0,256,6,11,17,11,18,8,4,32,7,220
20,12,13,17,27,57,8,23,6,505,22,44,29,37,80,11,11,53,0,401
46,12,19,29,21,45,20,35,5,730,16,43,32,35,66,37,27,64,0,642
4,8,8,9,16,31,2,11,0,244,10,10,22,9,37,5,9,20,4,207
19,20,18,18,23,46,21,30,0,431,7,21,37,32,63,16,17,77,4,352
21,15,17,28,21,48,14,28,0,409,11,24,36,29,51,12,20,54,1,363
19,4,3,4,9,18,4,13,9,271,14,19,31,7,21,13,2,31,0,216
6,2,2,2,1,6,9,8,0,54,3,2,6,3,6,22,4,9,1,34
1,0,1,4,1,5,6,3,6,57,4,2,6,7,7,3,2,8,0,45
0,5,0,3,1,7,0,0,0,44,5,0,3,1,6,1,6,11,1,26
4,11,4,1,5,7,3,7,4,74,0,4,12,2,8,6,0,33,0,55
1,11,1,8,15,24,0,10,12,155,5,17,10,2,19,2,8,34,0,140
7,18,24,16,8,23,12,19,0,249,2,13,27,12,23,16,5,38,9,231
25,18,14,26,20,54,7,22,0,556,20,30,47,8,64,18,10,67,18,460
12,13,15,21,13,31,7,26,4,417,12,22,26,17,43,11,8,40,0,380
21,6,9,18,19,44,14,33,0,494,14,24,39,14,41,32,6,60,16,412
33,11,13,47,42,42,13,31,0,788,17,53,48,15,45,36,11,90,4,701
14,19,20,32,25,32,3,31,2,583,21,44,21,19,25,18,10,82,0,521
61,31,49,30,21,74,33,61,0,636,30,50,85,48,92,53,28,80,22,508
2,2,7,3,0,9,0,5,0,33,0,4,10,8,7,5,3,5,2,17
4,1,7,5,1,5,2,9,6,57,7,7,13,4,8,0,1,7,0,50
2,3,2,2,2,6,1,5,0,61,0,5,10,4,3,7,3,13,0,39
15,12,4,12,6,10,1,7,0,133,1,10,9,3,10,6,4,24,6,127
30,16,16,43,18,26,15,30,15,718,8,26,62,11,35,28,8,48,0,701
111,18,74,73,37,108,36,69,30,1174,72,125,261,61,139,91,40,118,0,823
36,13,36,25,20,21,17,29,7,421,31,53,80,18,36,32,15,58,0,302
6,1,3,3,1,19,3,8,0,69,1,8,6,1,27,2,1,4,10,53
3,2,2,8,0,4,4,5,1,67,3,9,7,1,8,4,5,5,0,54
16,6,11,23,18,36,3,28,15,381,9,34,36,21,56,19,7,25,0,330
20,3,0,16,6,9,4,14,2,74,7,19,30,2,7,3,4,10,0,66
9,4,11,12,11,7,2,29,11,216,12,20,20,12,14,5,7,24,0,198
16,16,22,25,34,58,6,36,0,639,25,28,48,28,71,23,6,74,9,540
41,24,37,46,28,62,13,58,0,1007,60,65,109,51,88,50,13,76,15,789
23,22,16,18,32,48,8,29,3,573,28,37,43,29,66,11,6,81,0,471
9,4,11,14,3,22,2,13,10,258,14,15,28,10,23,9,2,28,0,217
3,3,3,11,11,14,0,12,0,239,4,11,13,7,30,1,4,35,7,184
1,1,2,1,0,4,2,0,0,20,2,2,0,0,6,3,0,0,2,16
0,1,0,6,5,7,3,8,0,51,4,2,0,4,9,3,0,12,1,46
0,1,1,4,7,11,2,3,0,75,1,7,6,4,11,2,4,14,4,51
2,4,0,1,0,3,0,7,3,11,0,0,1,3,7,1,0,4,0,15
3,5,1,11,4,12,3,9,1,172,7,11,13,7,16,6,0,15,0,146
0,3,6,1,0,1,0,0,0,17,2,0,3,1,1,2,2,3,0,14
2,2,3,2,0,2,0,1,1,13,2,2,1,0,0,1,0,5,0,15
27,15,11,23,15,40,6,24,0,529,11,28,44,32,58,12,5,45,8,447
15,5,10,21,13,49,8,24,9,377,11,39,28,11,51,6,7,28,0,350
20,0,14,25,7,12,7,21,0,219,3,29,30,12,12,7,7,20,28,177
52,19,35,25,12,44,40,30,0,453,27,42,78,34,42,61,8,38,7,373
44,1,36,34,6,21,12,26,0,371,16,37,75,17,27,35,6,28,8,302
58,3,61,32,21,20,22,28,0,520,7,28,68,11,17,44,5,41,44,500
25,8,21,21,5,35,16,34,0,351,21,36,45,22,38,29,5,22,11,287
30,8,25,37,23,26,13,25,0,627,12,45,55,30,29,27,11,63,18,524
27,15,22,38,23,47,14,34,0,753,20,57,59,31,68,37,9,78,20,594
21,19,28,27,26,39,7,23,0,443,6,38,44,25,53,27,7,33,8,392
28,24,20,36,18,50,10,45,0,570,22,45,42,26,66,17,15,62,3,503
30,15,17,18,18,37,7,22,0,296,14,19,54,12,47,19,9,42,7,237
28,30,31,29,15,33,10,38,14,491,17,51,86,22,47,39,7,60,0,390
52,10,20,24,5,34,22,20,0,323,19,28,77,15,30,39,13,38,11,240
29,14,14,22,14,27,9,17,0,370,12,23,46,16,30,18,8,54,15,294
22,25,19,22,15,58,20,29,0,617,18,31,34,32,57,28,15,62,9,541
23,17,10,24,33,68,16,27,0,800,6,21,35,20,95,40,8,73,3,717
40,20,19,15,16,27,17,33,0,467,9,19,52,25,55,38,11,48,3,394
38,13,26,28,21,35,22,31,13,622,19,39,48,28,54,33,20,57,0,551
5,16,4,13,6,19,3,14,7,335,4,15,10,19,37,11,3,34,0,289
25,27,33,17,13,52,4,29,0,488,13,31,36,6,42,13,13,58,37,439
18,25,17,17,28,45,9,23,20,825,18,22,34,16,60,18,4,63,0,792
1,1,0,1,2,9,2,3,0,88,2,1,11,5,13,2,1,4,0,68
43,11,31,38,30,53,28,31,18,650,52,48,79,31,49,68,19,64,0,523
56,23,45,59,38,81,15,47,0,718,21,100,84,21,93,25,5,73,33,627
45,29,32,45,28,53,19,48,19,544,37,50,94,52,60,51,32,74,0,412
12,9,7,4,10,16,1,16,0,311,6,6,15,23,15,5,1,13,9,293
43,20,17,25,14,49,8,32,0,673,32,23,48,11,54,7,5,44,42,615
28,36,13,21,14,46,8,30,0,695,32,25,40,20,75,23,4,53,0,619
22,12,14,14,17,35,3,26,23,533,12,28,29,8,50,18,9,39,0,506
29,22,25,28,34,68,6,28,0,774,20,45,54,24,94,28,17,57,24,651
31,11,23,20,23,51,24,37,23,594,16,41,72,34,76,33,14,61,0,490
22,8,15,20,11,36,10,16,4,437,10,48,52,8,32,32,4,33,0,360
23,19,7,17,39,41,14,20,0,481,7,35,28,22,53,29,11,64,5,407
19,14,11,14,22,32,8,23,4,746,7,26,31,16,44,23,6,57,0,683
27,23,13,23,27,73,22,23,14,625,10,42,53,30,83,38,24,60,0,530
8,9,7,11,17,24,4,7,3,178,3,14,8,10,17,15,5,28,0,168
12,23,9,6,24,39,8,15,0,377,6,16,29,25,46,19,8,51,2,311
3,4,8,3,13,19,12,3,1,191,6,5,11,4,19,31,3,16,0,162
12,10,6,9,15,25,6,18,1,383,5,21,18,18,44,10,7,48,0,314
20,24,10,18,13,39,9,14,0,483,4,27,31,16,51,19,14,54,26,388
11,6,14,15,20,35,16,26,0,435,7,20,26,17,36,27,15,45,8,377
10,5,2,13,13,11,5,13,0,189,5,17,19,4,17,5,8,13,6,167
29,20,21,35,21,32,29,32,20,440,13,40,53,26,34,39,34,59,0,381
62,23,33,88,46,81,35,45,0,930,30,87,133,45,94,54,49,72,17,762
35,4,18,20,15,32,1,22,16,310,17,29,58,8,29,18,9,22,0,283
11,12,9,8,14,21,3,11,0,599,6,13,24,5,33,15,4,33,6,549
2,19,8,19,13,40,2,27,0,515,10,27,15,10,57,5,6,40,16,459
15,26,8,8,18,54,2,25,4,886,28,43,36,23,74,13,21,62,0,746
14,2,9,16,2,12,23,7,0,273,10,17,24,1,11,22,2,20,3,248
13,11,9,10,9,26,8,18,2,286,15,20,14,20,29,21,9,29,0,235
10,8,3,8,16,42,3,10,0,324,5,16,6,9,47,19,6,35,0,281
16,0,4,5,3,12,1,6,15,141,0,4,15,4,11,6,0,13,0,150
15,6,9,4,5,19,2,7,0,123,5,2,19,10,18,2,3,17,26,88
12,3,10,15,17,20,20,16,0,406,7,15,37,14,28,24,5,26,8,355
17,2,5,11,1,7,0,6,0,115,9,13,19,7,10,8,6,6,7,79
22,7,16,15,3,18,1,17,0,202,7,13,24,5,29,12,3,12,3,193
7,14,7,6,15,25,4,20,0,246,5,10,22,16,31,7,9,42,0,202
7,5,8,10,7,20,20,11,4,207,1,7,21,17,18,30,7,15,0,183
5,3,4,4,10,6,9,12,3,136,0,3,15,1,8,17,2,23,0,123
22,17,32,24,24,58,14,36,30,742,10,49,50,17,79,44,16,63,0,671
46,26,32,29,19,50,34,50,0,717,28,54,70,40,69,63,16,58,29,576
47,22,42,40,29,57,51,59,6,822,23,73,88,42,75,87,24,89,0,674
16,37,13,31,41,61,8,39,0,795,2,31,33,93,78,30,5,96,24,649
18,21,12,29,21,33,9,45,1,820,7,34,42,91,47,19,5,81,0,683
22,10,3,20,28,36,2,29,0,835,6,24,31,81,40,17,6,45,3,732
44,22,35,27,18,29,12,50,0,583,19,51,58,18,54,47,11,39,7,516
36,22,24,21,20,48,17,40,0,772,27,46,63,20,53,23,12,58,25,673
21,12,29,22,10,27,16,37,4,453,12,23,41,22,36,33,28,49,0,387
9,0,2,9,4,9,83,13,0,197,9,14,23,13,9,55,0,12,3,188
13,10,16,24,11,49,7,24,0,437,11,28,27,7,42,14,7,81,2,372
13,3,18,21,14,31,12,27,8,264,16,19,23,8,25,17,7,51,0,245
22,8,25,26,15,33,5,48,7,377,17,31,48,20,29,25,13,84,0,299
30,37,17,30,21,62,15,34,0,741,36,45,44,23,51,17,12,129,12,618
49,16,28,47,17,76,16,42,0,475,23,48,55,11,73,33,9,120,6,388
61,13,65,38,28,101,19,63,19,760,53,37,78,29,87,56,9,196,0,622
25,14,29,30,32,56,4,36,0,584,24,24,24,20,65,11,14,124,10,494
3,15,2,17,5,8,1,11,3,99,4,11,3,10,13,7,7,30,0,79
7,2,10,9,1,12,4,14,9,123,6,6,11,4,18,11,6,35,0,94
10,3,5,19,5,11,2,9,2,156,1,11,19,5,13,2,2,48,0,121
8,14,4,9,6,11,0,12,3,129,3,8,2,8,10,7,4,20,0,134
5,1,3,3,1,5,0,0,0,28,2,3,2,1,6,1,1,5,1,24
10,8,6,3,10,25,1,23,0,107,4,4,10,6,12,2,0,58,0,97
6,3,1,13,5,24,7,20,0,140,5,8,8,3,21,3,5,62,0,104
31,13,32,38,13,39,11,40,8,507,9,35,44,16,38,20,18,102,0,450
17,7,4,29,15,31,9,37,0,570,15,39,22,18,29,14,3,106,6,467
19,19,14,20,20,60,5,42,9,518,12,26,24,21,44,13,5,108,0,473
10,24,15,10,27,57,10,39,0,635,10,14,18,18,50,11,11,103,16,576
17,38,14,17,19,65,4,35,5,486,7,18,29,16,69,17,6,111,0,427
6,8,10,19,10,39,7,21,0,333,18,20,15,9,29,9,8,47,19,279
55,19,69,43,32,76,23,46,0,681,27,45,67,33,68,60,19,143,14,568
17,26,21,44,20,34,8,41,0,558,18,36,23,17,37,20,8,101,32,477
61,23,42,43,20,63,7,57,6,1261,22,39,88,23,43,39,14,140,0,1175
25,7,27,15,22,12,11,40,0,310,15,16,31,14,17,21,4,62,11,278
14,16,8,10,12,44,3,30,0,376,5,14,18,19,50,9,2,56,0,340
8,12,5,17,13,42,5,21,0,323,8,20,9,15,28,9,6,54,8,289
7,15,5,14,8,29,3,15,0,305,4,14,9,9,29,8,9,56,8,255
21,13,19,25,20,36,8,30,0,297,9,14,23,9,37,21,11,72,15,258
14,11,8,21,14,30,6,28,0,305,6,13,19,15,21,5,13,46,32,267
27,13,21,28,23,45,13,43,12,352,22,25,28,16,33,24,12,102,0,315
15,6,8,11,8,9,3,11,0,157,7,1,12,12,9,3,2,12,9,161
11,5,8,3,0,9,8,10,11,112,5,6,13,0,11,16,2,16,0,108
2,1,3,1,2,8,10,6,5,87,2,4,2,4,4,9,0,10,0,90
24,1,7,17,5,27,27,24,0,305,8,27,20,6,32,41,0,15,0,288
11,5,3,30,6,38,7,16,0,325,4,28,15,12,33,18,1,41,5,284
9,12,12,9,13,14,2,13,0,364,8,11,7,8,22,7,4,45,20,316
28,15,22,25,29,41,10,39,0,778,26,48,44,34,60,14,2,79,10,670
7,17,16,17,22,38,7,30,0,860,13,36,16,32,55,22,4,72,7,757
5,6,0,5,11,16,0,6,2,93,5,6,3,7,23,5,0,14,0,81
29,16,17,31,13,33,25,19,0,458,12,28,34,12,41,33,2,39,28,412
4,4,14,7,5,8,2,6,7,118,4,11,1,3,21,3,31,13,0,88
8,6,1,13,19,26,1,21,0,329,4,18,5,8,24,8,31,41,1,284
25,25,6,15,9,34,29,17,0,369,7,21,43,14,37,50,1,47,4,305
21,16,17,16,18,35,12,13,0,310,5,30,37,3,29,29,4,42,8,271
19,9,4,19,10,12,5,8,6,230,4,15,23,4,14,11,2,25,0,224
5,3,6,6,12,38,9,11,5,215,4,7,6,9,42,22,3,21,0,196
6,7,2,5,3,9,12,4,0,190,3,3,9,5,10,13,1,25,3,166
0,4,4,2,7,22,24,10,0,157,1,5,2,9,32,33,0,19,1,128
12,17,4,15,10,35,11,19,0,301,2,21,19,15,46,29,1,43,25,223
20,10,12,21,16,21,11,25,4,294,10,16,23,15,32,35,1,44,0,258
26,13,15,9,12,39,20,15,0,353,2,16,30,16,53,46,3,44,11,281
36,5,7,24,10,21,19,18,0,431,14,25,41,7,26,54,3,34,2,365
7,16,4,14,9,32,16,5,0,258,3,15,14,5,33,29,1,33,2,226
20,14,17,24,16,29,15,25,5,361,4,13,33,9,32,46,4,50,0,335
23,13,7,23,17,34,21,28,1,471,1,27,26,10,51,38,3,43,0,439
26,9,13,26,12,36,68,17,3,316,1,38,38,9,48,83,0,34,0,275
9,6,2,11,11,21,3,17,4,415,8,13,10,10,28,6,2,32,0,390
32,11,18,24,16,20,15,23,3,443,6,37,70,13,35,21,4,42,0,377
0,1,1,1,4,2,3,8,0,32,6,1,6,2,3,0,1,7,1,25
7,5,8,2,1,12,0,10,5,79,5,11,7,9,12,4,5,14,0,62
1,0,1,7,4,11,2,8,4,36,1,1,2,0,11,12,2,10,0,35
15,0,3,5,0,4,0,5,0,60,5,4,4,3,8,3,0,4,5,56
11,20,6,14,2,33,2,25,0,293,9,21,15,12,33,8,2,46,10,250
5,3,10,10,6,8,1,11,5,145,7,18,3,6,20,2,2,11,0,135
3,14,15,8,15,19,2,12,0,252,8,4,9,3,27,12,4,47,4,222
11,3,8,20,5,22,27,10,2,160,8,22,9,7,18,41,2,21,0,140
1,4,4,4,3,9,0,10,0,40,0,5,2,5,12,2,0,2,4,43
0,6,0,3,9,13,0,7,7,91,2,1,3,6,25,4,2,18,0,75
4,3,3,2,5,7,0,5,2,48,1,3,10,2,7,6,2,4,0,44
16,26,21,21,32,70,21,23,0,672,19,36,25,20,76,22,12,56,38,598
18,13,6,7,13,29,8,20,0,384,5,10,26,8,47,10,1,33,17,341
4,6,0,2,6,2,1,4,0,104,2,8,3,6,4,4,7,21,1,73
1,4,3,3,3,1,0,1,0,50,0,4,2,0,1,1,7,8,2,41
5,2,2,2,2,7,2,6,4,38,3,0,4,1,5,4,3,11,0,39
28,14,23,31,23,37,14,38,0,435,18,42,26,23,42,23,28,113,7,321
8,5,3,5,6,13,2,10,0,89,1,6,6,3,16,2,2,18,3,84
6,1,3,5,0,5,6,6,0,41,16,5,0,3,4,1,0,7,6,31
58,37,37,53,42,93,18,70,11,1179,41,80,85,48,114,36,15,109,0,1070
7,0,6,4,0,7,6,1,0,54,2,9,6,1,0,4,2,1,5,55
6,0,2,10,4,6,7,10,0,49,2,4,10,1,5,10,6,16,5,35
33,40,27,56,26,54,33,43,0,711,29,58,58,27,41,50,22,119,11,608
9,10,9,15,8,32,9,17,0,343,3,17,6,18,47,12,5,30,4,310
5,3,0,11,0,8,0,8,6,102,1,5,5,0,8,0,2,18,0,104
11,6,5,13,5,22,3,13,6,322,11,18,4,8,28,5,2,31,0,299
54,22,39,38,47,82,22,73,0,1107,18,49,76,75,112,31,43,104,1,975
21,11,8,8,9,24,26,16,0,288,5,30,16,9,29,25,2,23,11,261
0,11,9,0,2,6,1,5,0,159,5,2,1,3,9,4,1,18,5,145
12,22,10,27,18,18,3,18,0,489,13,22,22,25,39,2,10,59,20,405
19,7,12,17,19,27,0,19,11,535,11,22,40,19,38,8,9,63,0,456
52,37,29,35,26,40,2,52,19,887,19,51,51,30,60,18,18,105,0,827
26,15,16,20,23,56,6,30,0,705,8,33,26,19,80,17,2,84,11,617
25,19,12,42,15,52,15,40,13,733,14,48,40,21,62,19,9,75,0,678
5,3,0,1,6,7,4,2,14,74,1,2,7,1,4,0,9,13,0,79
4,3,10,3,1,9,0,3,0,75,1,1,1,6,13,6,10,19,1,50
17,16,15,16,7,29,5,19,0,235,8,13,27,6,18,5,50,41,10,181
9,12,4,15,10,22,3,19,0,328,11,24,7,15,27,9,0,24,20,285
2,0,1,3,1,7,4,3,3,77,1,3,2,1,7,6,3,4,0,74
4,1,4,13,11,6,5,7,0,95,3,8,6,1,2,2,2,16,1,105
8,6,4,6,5,23,2,6,1,188,5,12,14,11,15,7,0,20,0,165
3,7,0,6,1,7,0,5,5,32,1,3,4,3,8,1,2,8,0,36
6,8,6,11,12,14,1,11,0,269,11,13,14,9,24,9,3,19,6,230
16,11,8,9,15,36,3,22,0,339,7,12,23,22,37,9,3,43,0,303
8,0,8,8,7,9,3,11,10,123,8,10,16,3,12,11,7,36,0,84
14,12,12,13,19,37,3,22,0,173,4,21,15,11,35,6,4,57,12,140
39,33,14,24,21,26,12,17,0,449,17,15,34,10,40,20,2,72,11,414
23,45,4,22,30,51,5,43,0,532,24,27,34,19,75,17,2,98,25,434
20,21,15,24,13,17,12,9,0,500,20,21,25,6,34,14,4,39,27,441
11,12,5,3,17,23,12,13,27,320,5,16,12,3,32,24,4,37,0,310
9,10,9,16,5,16,1,11,0,310,2,15,15,6,40,1,1,20,6,281
4,5,2,8,9,12,3,7,0,64,1,6,4,3,21,3,8,18,7,43
21,11,18,24,8,30,8,36,15,437,12,23,33,16,25,19,38,37,0,405
2,4,3,3,7,12,3,8,3,141,8,8,5,3,14,1,1,7,0,139
41,19,29,28,17,60,13,62,0,748,62,30,37,14,60,25,1,81,28,679
3,5,0,2,1,10,2,6,0,33,4,1,1,2,11,2,0,8,1,32
4,5,1,5,6,12,1,6,2,63,0,3,8,6,17,0,3,16,0,52
10,10,5,3,11,24,2,7,0,162,0,9,10,4,19,0,3,26,18,145
4,5,1,5,1,1,1,3,2,29,0,4,2,0,6,2,2,9,0,27
1,1,2,4,2,8,13,7,0,33,1,4,1,0,3,14,5,1,5,37
3,3,0,16,2,3,5,4,2,53,6,4,6,2,1,4,0,10,0,58
4,4,3,4,1,11,1,2,0,61,3,6,4,1,14,4,1,2,2,54
19,13,9,16,4,12,16,9,1,305,6,18,16,6,16,17,24,16,0,285
35,15,12,28,22,48,20,22,9,396,21,17,30,8,62,24,19,61,0,365
5,11,2,4,6,10,4,2,0,60,1,4,9,0,10,4,0,23,1,52
12,18,10,17,18,31,4,14,7,271,3,23,11,11,36,16,13,25,0,264
3,1,1,1,1,2,5,0,0,21,0,1,3,1,0,4,1,4,2,19
2,1,2,2,0,2,2,3,0,12,0,4,1,2,7,0,0,2,1,9
14,8,3,19,4,21,3,7,0,147,0,19,16,16,19,4,2,13,10,127
13,7,4,10,8,18,0,9,0,182,5,5,8,4,13,5,5,34,6,166
0,2,0,3,4,9,1,10,0,71,1,5,11,7,8,0,1,16,1,50
4,2,0,1,2,2,1,3,0,34,2,0,5,4,5,1,0,2,0,30
19,22,14,20,19,40,9,26,0,703,12,19,41,25,49,9,4,106,4,603
22,22,18,27,24,33,6,25,22,553,9,34,25,20,48,16,4,102,0,494
27,7,23,18,20,18,19,28,0,517,9,23,36,28,32,27,6,63,4,449
21,4,13,18,7,26,6,26,0,349,15,28,35,16,36,10,5,35,1,289
32,17,32,49,19,41,28,42,0,590,36,52,63,44,55,52,10,48,10,480
63,17,31,56,26,55,21,45,0,759,18,58,117,28,45,47,9,64,47,640
53,22,30,39,42,56,23,43,0,712,6,34,94,39,45,26,12,72,61,631
31,12,44,38,23,50,21,47,0,513,30,52,53,22,49,46,10,43,33,441
54,19,37,68,17,46,21,32,0,479,31,52,106,24,44,53,21,42,2,398
7,4,11,12,5,21,8,11,1,223,7,18,20,8,21,18,10,18,0,183
6,2,3,3,9,6,3,4,2,68,0,6,14,7,9,7,2,13,0,48
29,19,26,25,12,49,5,26,1,459,12,34,44,31,44,19,14,66,0,387
19,3,5,8,4,14,6,18,4,189,2,14,28,12,20,18,3,16,0,157
4,8,3,6,0,3,2,4,0,39,0,4,3,0,4,12,0,9,2,35
10,3,1,12,2,6,5,17,0,85,6,9,8,10,10,11,0,12,3,72
14,0,0,8,2,0,7,1,0,89,2,11,9,4,3,14,0,5,0,73
14,4,7,20,7,9,14,12,2,165,6,11,14,7,16,27,4,14,0,155
18,6,6,9,3,11,2,11,0,142,8,6,13,9,16,3,12,24,11,106
5,4,4,2,2,10,0,7,0,62,0,2,4,2,11,3,4,7,4,59
53,20,36,49,38,56,37,41,0,680,24,75,71,44,67,49,29,62,11,578
23,8,15,20,13,10,2,23,6,214,14,16,27,8,17,10,8,39,0,195
26,12,15,22,6,30,5,25,7,287,15,31,36,6,37,12,21,30,0,247
16,29,16,39,20,48,6,18,0,511,14,41,24,17,60,13,15,51,1,467
18,27,8,18,24,52,10,21,0,473,6,30,20,24,56,25,14,46,9,421
54,7,44,27,8,40,8,38,12,477,28,35,88,23,38,55,27,47,0,374
33,11,29,38,22,58,14,47,0,747,18,48,43,34,56,37,23,74,3,663
30,30,15,22,28,64,7,31,0,659,12,32,40,32,96,21,17,53,32,551
18,35,20,34,12,48,15,23,0,438,11,35,27,22,41,26,12,53,11,405
41,18,29,44,20,69,16,41,0,525,16,44,37,29,64,33,23,56,6,495
68,20,32,36,39,89,10,45,0,733,22,46,62,33,98,48,23,69,1,670
35,4,22,20,10,20,12,28,0,307,14,30,33,14,6,34,9,26,11,281
31,16,19,19,19,37,19,40,0,357,14,21,51,18,35,29,10,32,15,332
59,34,51,40,35,74,14,35,1,513,21,61,66,31,67,55,32,61,0,462
43,19,27,30,14,25,4,12,15,431,13,33,63,17,31,29,19,44,0,371
49,6,35,45,16,33,24,40,32,1127,29,43,77,22,39,65,26,35,0,1071
63,21,46,62,41,89,17,68,9,758,46,84,94,39,88,61,29,84,0,649
40,14,45,41,26,39,14,33,0,772,30,65,54,25,40,54,26,67,4,659
17,37,19,22,43,33,7,28,0,767,14,24,24,20,57,26,25,88,10,685
18,42,19,29,14,39,9,30,0,804,21,39,39,32,58,34,17,60,4,700
36,34,21,38,32,79,3,42,0,898,24,68,45,49,85,23,14,87,17,771
32,27,21,23,19,55,7,31,16,458,12,24,38,20,50,26,20,54,0,445
31,22,35,21,14,58,13,39,3,545,17,35,47,21,63,46,26,54,0,472
71,20,50,49,29,66,21,52,0,734,29,66,80,34,66,70,55,59,9,624
34,9,33,45,30,30,19,53,0,751,20,48,49,21,41,40,28,64,17,676
47,9,35,31,15,30,20,21,18,554,19,34,59,21,33,45,23,32,0,514
20,11,36,28,13,23,19,26,0,471,15,33,48,19,22,46,18,37,6,403
80,16,64,32,26,47,31,42,0,576,26,48,83,23,39,94,48,48,8,497
5,4,2,7,5,8,3,5,2,78,3,5,3,4,8,7,2,16,0,71
3,4,8,5,7,8,4,3,5,47,2,4,10,2,4,6,2,36,0,28
2,2,1,3,8,5,3,3,6,59,1,2,7,0,5,4,1,13,0,59
21,13,7,13,11,17,6,20,8,331,9,22,22,14,23,4,8,53,0,292
5,3,0,0,2,5,0,4,0,53,2,2,6,6,4,0,1,7,0,44
1,4,3,3,7,8,2,4,2,67,2,2,4,16,7,0,4,12,0,54
49,20,31,41,10,52,8,38,7,683,12,47,76,50,51,22,30,39,0,612
26,2,17,17,13,10,5,15,0,212,14,22,27,10,11,18,4,12,15,184
5,14,1,6,5,9,4,12,7,178,1,13,3,15,7,7,12,38,0,145
3,5,12,7,5,14,1,9,0,70,4,11,4,2,15,6,6,11,2,65
6,4,3,4,0,9,0,2,0,47,2,2,3,2,6,0,6,6,1,47
20,14,18,28,19,28,8,27,0,596,14,30,35,15,40,24,28,44,3,525
28,13,40,46,25,49,6,38,17,708,39,47,40,35,54,49,26,55,0,625
13,6,4,12,4,12,0,8,16,77,4,22,17,5,14,5,4,11,0,70
4,8,2,5,3,2,3,7,0,76,4,4,2,4,15,3,2,3,1,72
4,4,4,5,2,3,0,3,6,90,1,6,5,8,12,3,3,8,0,75
23,11,15,14,13,9,4,8,4,266,6,17,28,10,41,13,12,41,0,199
9,10,7,3,7,11,8,8,10,146,3,6,9,7,17,15,8,28,0,126
5,3,5,6,4,5,0,3,0,57,4,3,7,3,9,5,3,3,0,51
6,6,5,1,3,9,5,14,0,128,4,9,7,6,11,6,5,11,2,116
7,5,5,3,2,7,2,6,6,44,7,3,10,6,6,5,10,7,0,33
6,4,10,6,4,5,3,5,5,64,8,6,7,3,6,19,1,7,0,55
6,1,7,11,2,15,2,15,5,156,5,13,19,12,20,5,2,11,0,133
12,3,3,18,4,7,4,15,0,164,4,16,31,22,3,8,14,13,7,112
12,0,2,0,2,12,9,6,0,71,1,3,6,14,7,11,18,2,5,47
15,7,13,19,8,9,6,15,0,180,6,18,17,15,11,12,30,9,0,154
1,2,8,5,5,5,5,9,2,156,2,7,8,6,5,11,8,6,0,145
20,11,16,36,10,58,37,26,0,458,17,29,24,24,54,37,30,28,18,411
8,15,2,9,7,13,1,1,5,166,2,14,11,15,21,3,4,30,0,127
7,7,3,9,5,12,1,12,10,88,2,8,14,5,14,6,3,20,0,82
8,8,11,19,20,17,10,13,9,297,18,26,13,12,22,21,16,29,0,255
21,8,17,7,13,25,10,16,8,356,6,15,31,11,32,15,12,26,0,333
0,1,4,0,0,3,1,3,0,46,0,2,3,3,2,0,6,1,0,41
2,1,5,1,1,0,0,5,0,33,0,2,0,4,1,5,3,1,0,32
15,4,4,6,1,13,0,8,0,178,2,9,16,18,15,5,8,8,2,146
13,5,8,8,4,10,8,4,0,114,3,5,8,8,4,3,29,6,7,101
11,6,13,12,4,5,6,14,0,175,1,20,7,6,15,10,36,9,4,138
35,13,39,45,19,47,37,26,0,565,12,38,53,36,32,54,128,23,0,450
2,9,2,8,14,19,1,16,0,102,3,6,4,12,19,10,6,16,6,91
19,6,1,6,8,10,10,4,0,83,3,3,20,7,8,7,9,17,7,66
4,5,5,10,1,11,2,7,1,178,6,10,7,5,12,5,5,14,0,160
3,1,3,8,0,5,3,3,1,87,0,5,6,4,5,3,5,3,0,83
8,0,6,3,1,6,4,5,0,62,3,2,3,3,8,2,14,2,7,51
23,24,20,20,18,59,15,36,5,542,11,35,40,52,68,28,31,32,0,465
30,21,37,31,18,106,15,46,0,740,29,34,46,73,108,33,50,33,18,620
26,19,22,27,25,70,24,31,14,661,22,25,48,63,60,25,24,41,0,611
53,27,24,39,32,69,13,29,0,695,18,35,65,87,57,23,25,47,8,616
44,25,29,31,19,41,7,35,15,855,27,36,76,53,37,21,39,42,0,770
65,29,30,33,29,61,18,27,0,671,21,36,104,62,54,32,31,45,15,563
45,31,26,48,15,51,19,34,0,677,18,28,102,45,33,40,36,44,10,590
3,0,2,4,2,5,2,2,3,47,0,2,1,0,3,3,6,2,0,53
5,0,15,7,7,6,7,6,8,23,9,11,8,4,5,7,5,5,0,30
31,9,18,39,19,43,8,37,0,601,19,33,54,22,49,12,34,28,6,548
2,1,9,6,1,5,2,10,4,59,1,6,4,5,3,4,2,6,0,68
44,36,25,22,38,66,15,53,6,854,21,31,49,32,80,30,34,67,0,815
3,8,3,2,8,4,8,8,9,163,3,9,10,6,10,4,14,11,0,149
8,3,1,4,6,4,1,1,0,54,1,2,3,0,2,1,3,13,5,52
18,6,27,28,14,18,26,29,0,411,17,28,29,19,28,44,16,30,2,364
16,4,2,5,2,9,1,8,0,81,1,1,9,3,10,12,8,7,2,75
12,1,11,9,12,22,3,13,4,162,13,9,11,5,24,8,11,14,0,154
2,1,1,3,1,3,1,8,1,36,2,1,0,4,1,5,3,5,0,36
28,5,10,8,5,14,0,14,9,120,6,3,33,16,10,7,7,12,0,119
8,12,11,37,3,18,11,9,0,175,11,12,10,8,17,12,9,17,0,188
11,4,6,13,9,11,4,6,0,243,5,20,16,4,19,11,3,22,0,207
50,18,15,33,27,75,18,48,0,863,15,47,60,37,74,25,12,58,4,815
15,16,13,22,19,59,12,45,0,632,14,37,30,33,75,26,7,52,32,527
38,39,17,20,22,81,15,30,0,805,16,44,84,26,84,27,5,57,15,709
3,2,7,2,0,3,0,2,3,45,8,3,7,5,2,7,1,3,0,31
4,3,0,1,2,7,0,1,0,23,0,3,3,0,8,0,2,4,3,18
7,4,10,4,6,12,3,8,0,151,5,9,9,6,18,9,6,13,4,126
6,3,6,4,4,11,5,10,0,132,4,2,6,6,12,9,1,10,11,120
2,2,1,4,2,1,3,3,0,49,2,4,6,1,7,2,1,3,1,40
3,0,3,6,2,1,5,8,0,86,4,4,4,8,2,5,2,3,4,78
2,2,3,3,7,5,0,5,0,117,0,4,1,10,8,4,0,14,2,101
1,1,2,4,1,4,0,12,0,47,2,4,2,3,6,3,0,9,1,42
7,7,5,7,3,6,6,10,1,186,4,7,15,7,15,5,7,10,0,168
16,7,11,22,3,36,15,15,0,302,5,26,23,5,42,25,3,46,7,245
9,4,6,13,13,23,4,11,0,247,4,16,12,5,29,15,6,18,2,223
5,2,7,11,2,6,4,14,0,104,8,2,5,9,8,5,11,11,0,96
38,23,30,34,11,41,10,33,12,745,13,28,68,54,63,34,31,42,0,644
10,20,6,13,3,11,6,15,8,143,6,7,20,11,23,5,5,27,0,131
9,7,6,15,7,24,12,9,0,202,2,16,18,11,33,21,5,14,8,163
9,3,12,17,7,12,4,13,0,143,9,12,12,9,23,6,11,10,7,121
3,5,6,14,1,19,1,4,0,89,6,11,6,5,5,1,4,16,3,85
5,8,5,5,10,4,1,14,0,127,3,5,11,3,8,5,1,17,5,121
10,8,9,16,15,19,5,11,0,180,8,11,11,10,22,7,5,15,5,179
5,2,6,9,3,10,5,8,7,93,5,13,9,7,5,6,3,9,0,91
25,21,13,21,13,47,17,35,0,454,8,30,26,21,52,25,13,39,0,432
8,9,6,10,1,20,2,9,1,229,56,17,8,4,15,11,4,14,0,166
1,2,0,7,0,7,0,7,0,115,1,2,4,4,5,0,3,1,4,115
23,5,8,18,5,15,4,10,0,175,9,16,21,17,17,12,11,12,5,143
19,13,9,7,14,31,11,13,0,294,7,20,26,29,27,13,20,16,6,247
66,12,41,40,14,51,20,32,10,635,22,39,114,42,61,34,38,41,0,530
69,18,48,50,22,75,21,51,0,1030,33,66,121,68,63,44,32,59,27,871
23,31,20,27,28,63,6,31,0,773,12,28,38,51,68,17,31,60,34,663
28,28,15,21,20,53,12,58,0,535,13,39,57,36,39,28,36,58,12,452
42,32,35,34,15,49,35,36,0,625,25,51,90,32,68,40,46,41,12,498
46,19,49,43,16,60,25,32,0,642,30,74,70,53,44,46,33,64,9,509
53,23,56,46,33,73,29,37,2,757,42,73,110,39,97,53,41,61,0,593
40,19,35,48,36,53,22,43,0,1140,29,64,84,31,60,38,34,57,11,1028
12,4,2,8,9,15,2,8,0,195,16,12,6,10,14,7,6,13,2,169
7,7,14,11,0,16,7,17,5,196,14,11,12,13,18,14,5,9,0,184
5,10,7,10,13,17,0,13,3,148,12,8,9,10,13,4,8,10,0,152
1,0,2,3,0,5,4,6,0,17,11,5,0,2,2,5,0,2,0,11
8,1,0,2,2,5,0,5,0,52,1,0,8,5,5,1,0,8,0,47
12,2,1,1,6,7,4,1,5,78,14,5,12,4,6,7,1,8,0,60
37,15,36,31,21,48,18,40,13,789,70,45,63,19,51,32,24,46,0,698
7,8,7,11,4,26,4,16,1,226,13,10,6,12,21,6,13,21,0,208
9,6,7,10,7,5,2,8,0,253,10,8,8,5,11,4,1,19,6,235
8,4,18,15,10,19,8,14,5,302,8,25,18,14,27,18,7,25,0,261
30,23,34,41,32,79,24,42,0,814,26,62,62,24,114,43,16,67,17,688
10,7,2,8,7,16,13,10,6,205,5,12,20,1,11,10,1,21,0,203
25,10,8,7,10,12,2,34,0,322,12,13,27,25,20,11,10,40,4,268
13,11,3,7,7,22,6,12,0,311,3,9,17,4,15,7,2,19,3,313
5,4,6,8,9,13,6,18,0,182,9,18,7,12,22,8,11,7,4,153
31,19,20,29,15,14,7,16,0,421,23,30,33,13,17,13,10,38,15,380
18,17,21,29,17,32,19,16,0,489,10,32,56,21,41,34,13,42,13,396
41,12,32,39,12,53,14,22,33,681,8,40,84,40,64,37,16,35,0,615
8,1,2,10,1,14,5,3,0,114,10,8,18,15,24,9,3,4,4,63
5,2,2,4,10,3,5,2,0,56,2,6,8,6,2,5,2,7,3,48
6,4,5,2,0,3,3,5,3,74,3,2,4,4,10,8,4,5,0,65
2,1,2,6,3,9,0,3,0,65,0,9,5,3,10,1,1,9,3,50
4,2,6,6,11,17,5,16,0,176,6,7,13,7,36,9,1,22,2,140
3,3,10,24,8,16,8,13,0,206,11,22,12,12,14,5,15,12,2,186
16,5,11,11,17,34,6,24,1,339,15,21,29,33,22,11,16,31,0,286
23,15,16,19,25,26,18,21,0,487,19,34,41,13,35,26,6,53,22,401
25,17,16,8,12,36,11,21,0,365,14,20,36,21,34,17,12,35,9,313
24,5,14,16,14,20,8,7,13,447,9,15,33,9,32,24,5,36,0,405
10,7,10,9,15,20,4,15,0,270,6,12,21,6,30,3,6,28,11,237
24,17,19,11,12,26,3,15,0,296,7,20,24,12,20,7,5,25,29,274
6,7,3,6,5,8,5,10,8,78,6,12,3,4,7,9,3,7,0,85
2,1,1,0,0,1,9,9,7,49,3,1,4,5,4,5,1,14,0,42
6,3,2,1,0,6,1,3,4,65,0,5,6,2,4,8,2,4,0,60
24,9,14,14,10,16,6,17,5,239,16,14,29,4,33,17,2,15,0,224
19,25,19,14,7,19,10,21,0,319,16,16,21,10,21,15,5,42,21,286
18,7,11,22,3,12,1,9,13,79,7,8,11,2,5,4,7,14,0,117
8,9,10,7,9,4,2,8,0,176,12,10,3,9,4,3,2,23,16,151
19,13,14,21,18,44,39,27,0,534,10,31,31,26,52,46,7,29,3,494
9,0,4,2,0,6,5,5,1,70,3,6,11,9,10,6,0,4,0,53
1,0,0,5,3,4,5,11,4,66,1,7,4,7,6,11,3,5,0,55
1,3,0,0,4,2,3,2,0,51,0,0,4,6,4,10,2,5,1,34
17,14,12,15,10,33,14,9,0,362,36,16,32,10,40,18,1,28,16,289
17,10,14,22,6,17,19,22,3,209,20,23,18,9,26,14,3,25,0,201
2,2,4,8,7,11,10,6,0,76,5,7,5,7,5,16,3,9,0,69
3,2,6,5,6,8,8,6,0,80,4,2,4,4,4,10,4,14,2,76
4,5,1,0,3,5,2,8,4,71,5,1,1,1,2,3,7,12,0,71
2,0,1,1,0,1,2,3,2,37,1,5,6,2,0,2,0,3,0,30
14,4,2,5,1,3,0,3,0,114,2,4,15,0,4,2,0,3,10,106
2,10,4,6,5,4,1,7,0,32,2,2,5,3,5,1,2,5,2,44
2,2,6,4,7,11,0,9,0,60,5,3,5,3,11,3,1,7,6,57
3,10,2,1,11,7,4,6,0,75,8,2,6,5,10,3,5,13,6,61
6,7,4,3,4,6,1,1,0,60,1,3,10,0,7,4,2,13,4,48
46,28,13,25,12,46,10,19,0,420,17,18,66,12,41,17,4,29,5,410
20,11,20,26,32,48,9,15,0,777,55,44,33,23,44,12,8,38,8,693
26,15,16,24,33,40,12,38,0,938,62,41,37,17,52,19,6,42,10,856
18,8,16,18,19,42,10,29,0,566,28,21,22,16,42,13,3,34,7,540
27,11,11,14,23,32,15,18,0,562,38,20,31,15,29,13,2,30,2,533
34,17,21,25,16,49,30,47,16,639,57,35,64,27,48,48,17,36,0,562
11,10,13,12,7,28,18,16,0,399,30,14,24,11,34,14,6,25,4,352
46,3,33,31,20,35,21,20,18,848,81,31,70,13,27,37,2,33,0,781
13,5,7,15,7,25,3,20,3,296,16,14,19,9,36,11,10,13,0,266
53,38,40,44,41,65,38,49,0,983,34,70,76,30,79,55,21,106,4,876
34,25,24,29,18,48,7,20,0,938,27,35,41,31,58,32,10,65,17,827
21,27,15,25,21,46,7,20,0,741,6,22,25,27,65,16,4,79,8,671
13,15,15,23,5,39,16,9,0,797,15,36,18,11,57,30,6,38,7,714
10,10,7,9,5,12,10,16,0,219,9,7,19,13,11,4,2,19,18,196
3,1,4,10,0,4,2,0,0,37,4,13,0,0,4,1,0,3,0,36
17,1,2,3,3,13,3,8,5,145,13,7,21,2,12,5,1,7,0,132
3,1,4,3,7,18,2,8,7,220,0,21,10,3,24,8,3,15,0,189
3,5,8,2,5,25,5,11,0,87,11,2,7,7,18,11,4,13,2,76
7,3,2,4,1,7,2,6,0,71,7,2,5,1,3,5,2,2,4,72
2,5,11,3,0,14,0,4,0,40,10,7,9,2,7,1,0,6,3,34
3,3,3,3,4,10,2,5,0,72,11,9,5,3,1,6,2,6,4,58
35,27,17,15,19,57,12,21,1,756,52,33,56,20,55,25,9,42,0,668
3,4,3,4,0,11,0,6,3,65,0,5,4,5,11,0,0,7,0,67
21,12,18,13,9,35,13,12,0,275,4,20,29,9,31,30,14,15,4,252
22,22,19,23,29,70,14,42,15,514,6,32,41,27,59,21,18,50,0,516
39,17,25,21,32,64,9,30,1,565,17,32,54,24,57,32,16,45,0,526
25,17,33,28,18,51,3,21,0,434,9,31,39,29,44,24,10,29,20,395
9,6,0,2,4,4,5,8,3,153,2,9,12,9,5,10,1,10,0,136
33,11,7,19,8,31,16,8,0,210,8,20,41,12,33,19,8,14,2,186
48,21,24,43,31,92,24,43,137,701,16,59,75,23,88,59,38,66,0,740
57,18,43,29,27,77,17,38,130,683,17,52,108,34,88,58,38,69,0,655
1,2,10,16,6,28,3,10,11,195,7,11,21,5,26,9,2,13,0,188
35,11,16,34,13,32,11,22,0,415,5,29,47,22,33,29,10,36,4,374
21,23,14,25,31,76,11,30,0,591,11,49,29,22,49,25,21,64,23,529
24,25,29,38,38,64,7,28,0,651,16,41,45,26,67,38,24,42,23,582
21,17,12,31,23,53,12,22,0,649,10,26,35,26,45,28,14,50,8,598
15,16,16,20,32,58,7,33,7,554,25,20,30,24,58,21,15,40,0,525
18,14,7,11,12,67,8,25,6,405,7,13,16,12,58,23,23,24,0,397
37,9,24,23,15,54,4,15,0,469,8,29,37,16,60,24,30,32,8,406
44,25,16,28,23,74,12,39,22,527,17,37,50,22,51,31,20,41,0,541
22,17,14,25,21,52,13,34,0,453,10,22,39,29,51,24,11,48,4,413
37,21,32,26,36,95,15,39,0,600,17,36,68,31,90,41,6,66,6,540
34,10,28,27,17,46,20,36,9,973,17,42,46,18,32,41,17,64,0,923
28,22,30,26,6,68,10,30,0,448,19,30,43,28,51,31,22,32,6,406
19,11,29,21,27,53,17,39,0,597,14,33,26,33,49,38,13,51,17,539
17,18,17,22,8,26,9,22,0,405,11,20,30,15,34,29,8,32,4,361
27,17,21,17,9,59,22,22,0,531,5,30,43,17,55,39,18,45,14,459
19,28,26,36,29,75,24,51,26,997,19,42,45,67,85,35,12,85,0,921
2,3,0,2,0,2,2,6,0,29,0,3,4,1,2,2,0,4,4,26
24,13,17,28,25,47,10,43,0,565,18,27,22,19,44,23,11,49,10,549
5,2,4,2,2,18,4,2,0,121,8,5,9,3,21,5,0,6,3,100
5,0,2,2,0,4,0,0,0,4,0,1,5,1,4,1,0,1,1,3
2,0,0,0,0,4,0,3,0,38,0,2,2,2,9,0,1,1,0,30
2,0,4,5,1,7,1,4,0,17,2,5,3,2,3,0,0,2,3,21
2,4,3,3,4,1,1,5,0,46,1,6,2,3,1,5,3,12,0,36
1,1,0,4,2,7,4,8,0,41,1,8,1,11,1,4,1,2,3,36
12,1,1,3,3,6,1,3,0,60,3,6,12,7,4,0,0,8,0,50
50,20,35,45,23,37,6,33,0,774,19,53,72,78,35,28,8,45,9,676
77,13,42,42,28,87,18,49,28,737,22,60,114,82,89,58,10,53,0,633
45,36,21,41,18,52,9,64,0,800,15,44,82,116,61,28,9,69,5,657
60,31,50,48,32,48,21,55,0,679,20,57,99,66,56,54,12,53,13,594
21,18,16,30,11,54,11,45,0,529,9,23,32,67,39,22,3,32,29,479
4,2,1,0,5,8,0,5,0,28,6,2,1,1,6,0,1,9,4,23
9,6,3,6,9,18,3,19,0,274,17,13,16,10,25,10,7,23,4,222
2,3,0,4,6,16,3,11,1,93,9,1,2,9,10,1,5,8,0,94
5,6,10,28,15,24,10,27,5,465,52,45,6,16,33,24,7,45,0,367
5,5,4,6,3,8,0,9,5,114,5,4,8,9,9,5,7,6,0,106
0,8,0,3,5,10,2,5,0,54,2,7,1,6,4,1,0,5,0,61
11,1,5,2,1,3,2,6,5,78,1,7,12,6,1,6,4,6,0,71
28,12,16,21,10,46,11,32,0,365,19,24,31,14,36,30,34,32,17,304
7,4,11,10,3,33,0,14,0,285,11,10,20,12,33,8,2,17,7,247
4,0,2,11,3,1,2,2,2,23,1,4,1,0,1,4,2,5,0,32
1,8,1,9,4,7,4,5,1,138,2,7,3,6,8,12,2,18,0,120
1,2,12,8,7,23,8,13,6,219,13,9,6,11,19,18,6,15,0,202
4,5,6,0,2,6,2,3,1,49,4,2,6,3,10,6,4,7,0,36
4,4,2,0,0,4,0,3,0,39,0,1,7,1,2,0,0,2,1,42
2,4,2,2,2,7,0,1,0,50,1,2,2,10,8,0,0,5,4,38
0,2,0,3,1,5,0,3,0,47,1,4,1,1,6,0,0,6,3,39
6,8,7,12,0,9,1,7,0,104,5,13,6,4,7,5,9,13,4,88
0,1,0,1,1,5,0,1,0,31,0,3,0,2,7,0,0,3,0,25
0,1,0,1,14,15,1,5,0,25,0,2,2,5,10,0,1,12,3,27
6,6,1,2,1,4,0,7,0,52,3,1,6,3,7,0,1,8,2,48
6,4,6,10,5,18,3,7,0,83,3,9,3,3,12,7,1,3,13,88
12,6,14,7,3,12,3,7,2,205,6,11,18,12,21,11,4,12,0,176
0,0,4,2,1,0,0,4,1,26,0,2,4,0,1,9,1,5,0,16
12,4,7,1,12,6,4,5,5,123,1,3,19,4,8,21,4,16,0,103
3,0,2,2,13,13,2,11,0,112,9,8,4,3,18,7,1,8,0,100
1,1,4,5,7,7,0,5,0,52,3,11,1,5,7,2,0,7,2,44
4,2,0,4,0,10,0,0,0,42,0,2,3,2,8,0,0,7,1,39
2,4,4,1,4,10,3,5,0,29,2,5,4,4,9,3,0,4,0,31
6,3,3,4,0,3,4,14,0,71,7,5,2,3,7,3,6,6,13,56
53,23,30,46,42,53,42,46,0,762,24,60,149,27,66,53,8,73,2,635
9,6,3,7,11,13,4,7,3,130,8,12,12,3,18,4,2,11,0,123
1,2,2,5,0,6,0,7,0,47,5,2,3,2,6,3,0,8,4,37
9,2,1,4,0,6,9,3,0,67,0,5,8,1,6,7,2,3,1,68
3,3,1,9,3,12,6,9,4,156,3,2,4,5,15,12,5,13,0,147
5,6,4,15,2,8,18,14,1,154,14,5,14,6,13,21,1,19,0,134
1,1,3,5,1,4,5,8,1,51,2,2,2,7,0,13,0,2,0,52
12,11,15,18,15,32,4,16,0,395,6,32,20,16,38,9,4,19,19,355
10,10,20,25,11,23,11,16,9,432,29,31,35,17,33,24,9,30,0,359
6,7,5,6,9,23,3,17,0,146,1,4,5,12,20,10,3,26,6,135
2,6,6,7,13,11,2,8,0,172,3,4,5,10,15,8,2,19,9,152
15,2,19,25,4,2,6,10,0,154,13,21,15,10,7,15,5,6,7,138
12,0,7,6,6,6,7,8,5,144,9,13,20,10,4,21,1,12,0,111
9,9,9,4,4,25,5,12,3,122,9,11,6,11,25,9,4,18,0,109
10,7,7,14,3,3,5,14,0,185,8,7,13,1,9,10,2,22,1,175
11,8,16,10,10,27,5,15,0,206,4,16,36,9,28,21,3,19,9,163
10,11,1,14,5,27,4,8,0,209,4,14,22,5,20,16,0,22,1,185
9,12,3,21,17,21,7,29,6,413,11,16,19,5,20,32,10,35,0,390
1,0,3,4,3,15,1,6,0,57,7,3,2,4,7,3,0,3,5,56
4,0,9,5,5,3,2,6,0,72,3,17,4,10,3,9,1,3,1,55
20,3,5,12,8,23,3,9,0,139,6,17,25,7,19,11,11,10,5,111
3,8,8,6,6,14,2,8,2,212,9,13,15,7,14,13,4,19,0,175
0,2,0,1,6,10,0,3,0,30,0,1,0,4,4,0,0,7,0,36
6,4,0,7,7,9,5,10,0,158,5,7,7,10,17,2,3,13,4,138
3,2,3,12,6,15,1,10,2,152,7,13,4,9,10,5,3,12,0,143
10,1,4,3,7,14,2,8,12,50,5,9,8,5,8,3,1,5,0,67
9,2,11,19,9,16,1,7,3,196,11,11,13,6,22,18,7,8,0,177
3,0,2,0,0,4,1,6,0,24,2,0,2,1,11,5,1,4,0,14
3,0,3,0,4,17,4,5,0,30,4,0,2,6,12,7,0,7,0,28
2,2,3,4,6,3,1,0,0,28,1,1,2,0,5,7,0,4,3,26
21,14,24,28,20,40,21,43,0,645,27,39,46,39,68,112,20,63,7,435
2,1,3,2,2,16,1,3,0,28,0,2,3,0,15,1,3,1,1,32
1,1,1,5,1,5,10,6,0,53,0,7,4,2,9,13,0,5,3,40
20,8,5,17,12,24,6,18,10,254,11,23,30,14,19,19,10,24,0,224
0,2,2,9,3,17,2,5,1,67,4,5,2,5,9,3,0,7,0,73
20,17,23,30,28,68,17,38,0,671,41,44,35,28,63,37,14,54,7,589
10,11,5,3,7,8,6,3,3,123,9,4,11,12,14,10,0,16,0,103
7,5,6,3,7,8,8,13,1,163,10,6,11,7,9,11,3,10,0,154
0,2,0,4,5,2,1,4,0,30,3,4,1,6,0,0,3,5,1,25
3,6,0,3,2,18,0,5,0,69,5,2,1,4,18,0,0,13,5,58
3,0,1,3,0,2,1,5,0,35,0,1,2,2,1,2,1,1,5,35
3,4,2,2,4,9,1,2,2,42,1,2,3,0,11,2,2,6,0,44
4,1,5,6,0,8,2,3,2,61,3,3,6,2,13,4,1,3,0,57
24,6,13,17,15,23,5,16,4,379,10,27,31,8,25,12,3,21,0,365
7,8,4,12,8,7,0,8,2,195,13,16,12,12,18,6,1,10,0,163
2,0,0,2,0,2,0,2,0,36,0,0,10,2,0,1,0,0,2,29
2,3,2,5,8,9,1,6,0,59,5,6,4,10,4,2,0,9,2,53
21,3,7,25,11,27,12,16,0,444,18,16,23,14,31,19,4,24,21,396
1,4,7,2,0,10,1,5,3,97,8,6,2,3,14,4,0,10,0,83
3,3,3,8,6,12,12,5,0,76,9,4,2,7,5,21,0,8,0,72
2,2,4,5,0,13,0,9,0,67,3,6,10,12,7,3,0,8,6,47
45,19,30,23,23,69,17,31,7,660,37,46,71,21,72,35,15,49,0,578
20,19,21,20,12,45,7,19,0,364,23,24,36,17,46,22,3,21,11,324
38,11,20,22,9,22,11,30,0,488,8,30,38,9,14,28,4,23,20,477
35,17,35,51,11,64,23,51,0,671,50,56,85,21,65,61,12,42,14,552
15,7,21,8,6,23,7,14,0,245,25,15,11,19,27,20,1,29,16,183
14,7,7,7,6,10,4,10,0,276,14,16,20,4,18,16,3,11,1,238
32,16,18,27,12,50,14,29,4,587,37,26,51,23,60,34,9,36,0,513
6,4,11,6,2,16,4,4,11,207,7,9,11,1,18,17,1,15,0,192
7,9,7,10,6,16,5,9,0,198,9,10,14,8,20,14,0,14,1,177
8,1,2,5,3,5,4,12,5,58,8,5,8,2,4,1,2,3,0,70
2,1,0,1,1,6,4,7,0,111,0,6,1,6,7,7,3,8,2,93
3,1,3,3,4,5,5,8,0,65,3,2,0,6,3,12,3,18,1,49
5,12,12,8,13,21,3,10,1,260,3,18,26,7,25,14,8,19,0,225
25,25,32,35,33,59,9,30,0,508,51,33,45,51,56,42,3,53,7,415
36,33,34,37,24,66,21,37,0,497,56,51,50,51,53,42,5,54,21,402
25,14,23,26,16,28,18,25,4,535,34,40,39,15,26,26,4,38,0,492
3,2,1,8,7,6,0,11,0,65,8,8,5,10,3,1,0,16,4,48
6,1,1,8,4,1,1,10,2,43,9,10,6,3,3,1,1,5,0,39
4,1,5,9,4,13,0,21,0,209,7,8,4,16,21,3,2,18,5,182
7,1,11,7,5,17,1,12,0,206,2,10,8,1,17,6,22,14,2,185
9,1,4,5,3,19,9,7,5,77,6,3,10,3,16,18,4,10,0,69
38,8,38,40,21,45,8,38,29,560,14,44,75,32,47,56,79,41,0,437
53,8,47,56,28,84,10,27,15,516,12,52,72,23,84,28,58,48,0,467
14,4,10,17,11,21,2,25,7,193,11,33,25,9,18,19,20,17,0,152
11,8,9,8,7,23,5,18,9,169,4,14,19,9,15,8,26,14,0,158
9,7,13,12,6,24,3,17,0,168,7,11,28,13,16,7,23,10,0,144
60,6,34,34,23,54,5,35,8,572,17,37,80,20,55,29,46,46,0,501
27,3,33,34,17,49,3,19,0,413,25,31,53,18,44,33,17,34,13,330
8,7,4,9,3,9,7,13,1,134,6,14,10,10,13,7,5,14,0,116
7,1,12,10,8,16,3,3,3,111,3,4,12,4,17,9,8,15,0,102
65,14,65,51,22,81,14,45,17,695,28,60,100,32,73,50,66,63,0,597
33,12,41,18,14,34,9,33,4,295,12,40,39,12,32,36,51,39,0,232
28,18,13,9,23,50,4,23,0,467,7,14,23,18,55,15,24,43,1,435
15,14,16,24,27,46,2,22,0,526,6,19,24,30,75,11,20,34,19,454
18,29,30,43,35,62,5,38,0,464,11,29,28,29,74,17,38,60,14,424
43,15,36,36,25,55,12,50,0,503,15,46,53,31,47,33,63,55,3,429
30,6,43,15,10,24,10,16,0,231,11,22,24,7,25,37,43,21,0,195
34,14,31,33,21,31,14,29,0,477,10,48,38,13,38,30,43,39,31,394
35,7,52,46,16,49,5,30,2,567,22,71,52,9,47,39,41,47,0,481
20,26,14,16,26,47,3,29,0,529,12,21,26,8,61,12,37,50,2,481
18,14,26,31,26,42,4,33,0,615,7,38,32,15,31,19,39,58,20,550
15,11,23,34,17,42,2,31,0,624,11,35,27,19,52,6,28,32,14,575
35,23,25,29,23,50,3,38,0,612,20,28,56,19,57,11,37,50,7,553
12,12,11,33,18,45,1,20,0,619,8,37,18,24,35,7,26,37,7,572
33,17,20,19,29,56,5,35,7,629,9,27,32,25,65,16,23,61,0,592
31,11,17,13,18,56,4,30,0,368,11,16,29,21,66,7,37,33,2,326
21,9,39,32,13,26,5,41,8,472,8,41,34,10,28,13,58,47,0,427
71,11,95,86,20,43,12,55,0,1324,27,72,96,20,34,56,128,78,2,1204
36,10,36,54,19,61,4,33,0,647,19,40,58,24,70,35,49,46,26,533
11,22,12,17,9,40,10,35,0,456,8,23,21,9,51,18,25,47,13,397
52,17,32,26,21,76,18,30,0,642,19,43,71,22,62,37,69,42,24,525
15,26,21,30,17,53,1,25,0,502,10,38,23,19,69,18,26,28,17,442
30,17,14,14,21,49,5,29,0,438,13,20,25,31,47,15,25,48,21,372
25,17,13,23,28,72,8,23,0,419,12,24,26,9,49,20,25,54,14,395
25,49,23,23,12,81,6,46,0,516,8,34,25,28,75,24,36,80,19,452
16,30,15,22,24,60,5,33,0,630,16,36,19,27,68,9,37,50,6,567
23,14,25,26,21,53,7,43,0,448,17,37,25,23,55,24,47,41,22,369
17,9,20,24,21,47,7,23,0,429,17,36,22,12,43,23,39,46,17,342
42,11,33,33,27,78,13,54,0,669,21,40,61,34,64,37,83,41,8,571
38,18,41,48,17,37,8,25,0,481,11,51,51,7,42,39,49,30,10,423
19,33,14,15,24,41,12,28,0,502,34,13,21,18,47,19,18,54,46,418
23,23,15,21,14,32,5,23,0,542,55,28,29,14,46,19,9,34,19,445
22,25,25,26,23,38,5,22,11,455,40,28,46,13,49,20,8,48,0,400
36,16,36,13,26,40,12,22,0,450,28,19,48,8,37,24,10,45,22,410
40,26,20,22,20,46,17,27,0,423,37,20,26,16,44,35,8,48,14,393
35,45,20,34,21,46,20,40,0,530,60,36,61,20,63,32,7,66,8,438
4,1,4,5,0,10,2,1,0,78,11,12,5,5,10,0,3,5,0,54
23,5,8,10,7,15,2,10,0,123,8,8,25,2,14,5,6,16,10,109
20,13,22,22,11,37,10,29,0,363,24,24,24,9,47,23,18,27,1,330
1,1,1,3,0,7,0,3,0,29,1,1,0,0,6,1,1,0,1,34
8,4,6,10,1,17,1,3,0,131,14,5,11,8,18,7,4,6,2,106
7,3,10,12,1,20,4,25,1,230,13,14,15,6,25,22,7,19,0,192
2,4,2,7,1,7,0,12,3,50,4,6,5,8,7,2,9,7,0,40
15,1,12,16,2,22,1,11,1,173,8,17,21,10,19,6,11,10,0,152
3,4,11,1,8,11,0,7,0,72,3,4,1,3,15,2,3,7,21,58
16,9,12,14,11,49,2,19,1,549,7,29,28,16,55,9,6,30,0,502
6,5,7,6,4,13,1,17,0,152,5,9,6,16,24,4,11,13,9,114
21,10,12,27,25,44,11,23,3,468,12,39,34,24,54,26,28,48,0,379
10,1,2,6,1,7,1,2,11,82,4,14,8,2,8,5,1,15,0,66
29,6,15,11,7,10,18,10,12,198,11,14,22,6,19,33,3,16,0,192
4,2,2,4,3,5,2,13,0,57,0,1,12,4,7,7,3,10,0,48
35,8,26,42,32,41,14,39,6,432,26,60,41,30,61,28,26,37,0,366
10,4,4,3,1,6,0,6,0,77,4,2,2,1,2,4,1,7,7,81
17,7,26,36,13,43,7,7,4,460,19,49,36,11,57,33,9,30,0,376
10,2,0,5,0,7,4,0,1,55,3,5,9,5,6,7,1,4,0,44
16,9,12,13,5,18,9,9,0,234,10,17,22,10,29,5,5,13,11,203
11,6,6,13,11,17,2,10,7,235,18,13,11,8,23,10,11,14,0,210
36,11,22,21,19,37,11,31,8,466,21,38,72,26,52,17,12,35,0,389
60,22,46,45,24,43,23,38,0,672,37,51,98,17,87,42,25,55,1,560
3,5,1,16,3,5,5,8,0,95,4,13,5,6,11,9,1,7,5,80
13,6,15,2,9,21,14,13,7,260,11,9,23,21,36,35,7,17,0,201
6,6,7,11,6,21,2,16,6,154,6,6,2,10,28,9,11,11,0,152
18,10,15,22,7,17,9,14,3,308,6,37,26,21,27,20,13,21,0,252
15,6,18,25,10,27,28,20,0,353,15,31,24,21,33,45,14,9,8,302
25,13,12,34,13,34,12,24,7,441,17,55,40,13,56,27,26,25,0,356
19,7,25,16,14,28,2,21,0,466,2,17,27,20,33,61,9,21,0,408
53,14,43,34,12,67,8,33,0,603,23,41,43,20,51,81,22,38,9,539
29,15,13,22,15,37,10,30,0,558,6,26,27,16,37,19,16,37,4,541
30,19,15,31,7,37,12,30,13,556,12,31,30,15,32,26,14,30,0,560
28,22,14,20,12,53,9,29,0,501,10,22,44,17,40,6,21,30,4,494
3,4,2,10,1,5,1,8,0,73,5,8,3,2,8,3,3,12,3,60
7,15,24,9,3,9,0,12,5,247,7,9,20,10,17,13,17,19,0,219
7,3,3,19,7,7,3,13,0,166,7,18,11,4,12,3,10,12,3,148
20,4,3,14,4,19,17,9,0,164,9,9,31,6,17,13,15,13,13,128
13,7,3,3,6,17,2,9,0,127,2,5,12,12,17,5,10,10,4,110
9,8,4,4,2,3,3,7,0,46,4,5,10,5,7,2,3,12,1,37
5,4,2,5,0,4,1,3,2,51,3,8,5,2,2,3,3,6,0,45
1,3,3,6,2,5,2,6,2,25,1,6,1,7,0,7,5,9,0,19
0,4,4,2,6,9,1,5,0,87,2,8,0,2,10,1,3,13,0,79
30,21,27,47,23,76,13,48,5,526,25,41,35,23,89,18,52,57,0,476
1,0,2,9,3,10,1,9,0,179,3,7,3,3,4,1,3,9,10,171
53,28,68,54,26,61,22,46,65,815,113,66,71,21,90,57,58,73,0,689
56,22,25,22,30,61,13,41,0,721,75,37,56,15,73,34,30,63,10,598
65,11,36,33,22,31,10,32,7,572,82,53,48,17,37,32,39,42,0,469
2,4,0,3,1,9,2,5,0,41,1,6,5,0,8,2,2,8,1,34
0,2,0,1,1,10,0,5,0,75,2,3,1,3,7,0,0,5,1,72
5,7,7,15,6,11,1,4,0,200,4,14,10,3,26,7,4,19,6,163
7,3,5,15,9,17,5,17,6,322,14,27,12,12,14,21,7,15,0,284
6,3,7,8,0,20,5,7,6,137,13,10,6,3,23,9,15,9,0,111
16,7,16,21,7,30,1,24,3,200,5,27,18,13,26,21,29,16,0,170
9,6,17,10,3,10,0,11,2,64,5,9,14,18,14,5,10,9,0,48
5,5,16,8,3,22,2,6,0,99,8,5,10,7,15,6,4,17,0,94
15,14,15,16,7,37,7,18,8,482,17,22,32,9,44,16,29,32,0,418
19,15,16,15,12,30,3,23,0,323,4,22,25,14,28,8,55,27,16,257
5,5,5,7,11,14,4,8,9,163,6,8,13,11,25,8,7,11,0,142
36,17,27,25,12,40,7,28,0,287,8,16,58,16,29,26,40,29,0,257
45,17,43,41,39,86,13,49,0,778,12,46,51,11,92,34,90,44,22,709
34,22,32,40,19,90,15,54,8,554,27,39,44,27,73,28,108,41,0,481
25,8,25,22,17,55,5,41,0,425,13,19,30,17,43,14,53,31,9,394
26,18,36,50,22,57,7,41,0,391,15,35,37,18,60,28,72,45,3,335
29,14,32,36,17,46,10,33,0,560,22,30,49,18,50,31,66,31,17,463
48,16,17,30,18,52,8,36,1,239,5,25,59,9,50,22,48,29,0,218
57,13,21,51,12,79,9,49,0,573,18,48,58,30,79,29,103,47,7,445
14,3,9,28,7,21,0,7,2,101,10,12,13,6,24,12,4,5,0,106
3,3,5,9,4,7,2,7,0,104,9,8,5,1,11,6,6,6,1,91
5,1,1,3,0,17,2,11,0,39,7,0,1,6,15,2,2,8,1,37
2,0,4,1,3,3,10,8,0,27,4,0,2,3,2,10,1,9,5,22
3,2,2,6,2,2,3,7,4,54,5,9,4,1,0,5,6,5,0,50
9,14,9,6,7,10,4,13,0,227,8,13,8,8,25,12,8,16,3,198
23,22,33,27,6,41,12,39,14,626,23,42,21,19,41,26,24,54,0,593
3,3,2,3,6,15,3,8,2,101,1,13,5,10,14,1,0,8,0,94
0,0,2,3,0,1,0,1,0,74,1,2,1,4,2,3,3,3,1,61
24,22,15,26,11,80,9,39,0,570,15,29,38,28,91,27,61,53,27,427
22,15,28,14,15,53,3,36,19,490,13,36,40,25,56,25,34,38,0,428
21,5,12,20,16,56,4,16,0,463,6,25,36,16,56,11,15,42,18,388
47,48,25,25,17,91,7,41,0,621,8,38,72,39,97,34,27,72,3,532
48,20,45,33,28,63,19,47,0,698,21,49,61,19,75,57,33,49,9,628
32,12,24,26,9,41,12,34,0,427,11,34,43,25,50,26,23,25,16,364
5,3,3,1,8,6,0,2,0,51,4,3,3,7,5,0,2,4,5,46
10,8,14,10,3,8,7,7,1,210,21,20,19,13,11,9,5,19,0,161
2,1,0,2,0,11,0,5,0,28,2,4,2,1,9,1,0,2,1,27
4,1,6,4,0,6,2,5,1,33,12,6,3,4,7,3,1,1,0,25
18,4,19,19,7,28,7,24,7,237,19,21,23,11,18,26,16,21,0,215
5,4,7,6,3,1,2,4,1,82,4,8,6,5,1,4,2,14,0,71
3,0,2,4,3,10,3,7,0,93,3,5,1,8,7,3,1,11,3,83
11,4,3,10,5,11,8,13,6,166,5,10,10,6,16,11,5,15,0,159
12,5,14,15,5,6,18,15,2,173,12,16,21,23,12,25,4,17,0,135
9,5,7,9,5,7,3,12,1,245,3,8,8,7,31,5,6,10,0,225
7,1,4,12,6,5,1,5,0,67,5,7,9,1,8,2,7,8,0,61
23,7,11,26,19,21,3,19,8,402,20,19,51,7,31,12,20,32,0,347
10,9,8,11,4,15,4,21,0,134,9,17,5,15,16,7,3,13,7,124
11,3,12,7,5,9,3,15,0,164,4,7,11,6,13,10,10,10,7,151
44,8,28,20,36,72,20,51,0,645,17,55,54,45,78,44,25,41,6,559
40,8,14,24,36,57,12,37,0,755,9,44,42,34,76,25,26,42,38,647
34,17,34,29,32,67,38,41,2,649,12,33,86,32,79,63,44,41,0,553
23,8,14,17,20,39,13,40,0,528,6,27,46,30,36,27,7,39,0,484
2,0,3,4,6,17,1,9,0,114,2,10,6,6,23,1,3,9,1,95
44,20,21,29,40,47,11,36,0,603,20,54,49,39,55,20,22,75,11,506
8,10,7,12,12,44,13,29,0,522,8,19,14,23,45,16,11,23,19,479
4,1,3,5,4,9,5,3,0,93,5,3,3,4,11,3,7,4,3,84
12,6,11,6,3,21,0,3,0,207,10,7,12,12,26,4,3,16,5,174
6,6,7,9,6,9,2,10,0,84,5,9,3,13,9,3,5,10,0,82
11,9,2,4,5,7,2,10,0,88,4,2,9,6,11,2,7,15,3,79
5,4,6,8,5,19,8,12,0,142,5,6,11,3,12,11,5,15,7,134
7,4,7,13,4,19,1,20,4,245,11,38,8,15,30,6,6,13,0,197
47,20,29,45,11,41,4,19,13,432,31,43,51,15,52,30,25,41,0,373
2,2,0,6,3,9,0,4,0,59,0,2,11,9,12,1,2,2,1,45
2,0,5,3,1,11,0,11,2,40,1,3,9,3,12,3,6,7,0,31
0,1,1,3,0,6,4,4,1,15,2,6,2,3,6,2,1,4,0,9
6,0,6,5,1,4,3,2,0,29,3,6,5,0,4,2,0,6,6,24
4,4,2,4,3,15,1,3,1,45,5,2,9,2,10,0,1,10,0,43
1,3,2,6,4,13,0,12,5,106,2,13,6,6,10,5,4,6,0,100
8,4,5,8,3,14,0,2,3,64,3,6,9,2,12,6,1,8,0,64
7,6,2,6,11,13,3,15,0,150,6,11,5,8,15,5,3,23,5,132
4,0,3,2,6,2,2,5,1,5,2,3,5,2,2,1,3,6,0,6
2,3,4,5,2,14,3,6,3,77,6,6,4,3,20,4,0,7,0,69
8,0,10,6,1,8,5,8,0,97,6,9,17,0,12,10,8,5,1,75
4,8,9,5,2,17,8,16,0,101,4,7,9,7,20,13,5,19,9,77
5,0,11,6,0,10,8,13,0,81,6,7,9,4,9,8,10,5,5,71
8,3,5,7,3,10,2,4,0,36,5,4,5,1,8,3,8,7,3,34
0,6,5,7,5,12,7,5,1,70,5,10,2,6,14,8,5,6,0,62
0,3,0,1,5,6,0,4,1,26,1,1,0,9,1,0,2,9,0,23
0,7,0,10,0,2,0,8,1,56,0,3,1,2,7,1,5,3,0,62
3,2,1,3,3,5,2,2,0,72,2,5,0,14,5,2,0,7,0,58
5,2,16,2,0,12,6,5,0,71,3,3,5,7,12,13,1,3,2,70
0,1,2,2,2,3,1,7,2,24,0,7,2,0,3,1,0,10,0,21
3,1,3,1,4,6,2,8,0,32,4,3,0,2,8,4,1,7,3,28
6,3,6,7,2,11,2,9,0,69,5,7,4,12,6,5,1,12,4,59
5,0,5,4,6,7,1,6,0,39,3,3,5,2,5,3,0,6,4,42
6,1,3,0,1,9,2,5,0,68,0,2,5,2,8,2,8,2,3,63
6,10,6,6,8,14,1,10,0,93,3,6,4,1,12,2,1,27,0,98
9,4,5,16,6,5,1,8,15,81,16,9,13,3,9,7,1,18,0,74
3,2,2,4,6,8,1,13,0,53,5,8,8,3,2,0,5,20,3,38
14,6,13,13,10,8,2,21,0,135,10,13,10,6,9,7,8,26,7,126
0,4,10,0,3,7,1,4,1,29,1,2,1,1,12,4,5,6,0,27
2,3,3,6,2,7,0,13,0,84,0,4,12,12,5,2,13,6,0,66
3,2,5,6,5,5,3,0,0,83,4,3,2,1,9,7,12,3,2,69
3,0,10,3,3,5,2,2,0,19,2,2,2,2,9,6,1,4,1,18
3,0,5,4,9,4,0,4,0,60,3,3,6,2,5,1,1,8,10,50
1,3,6,0,3,13,3,2,0,42,2,3,1,3,11,5,0,5,0,43
6,2,9,7,3,12,2,7,4,67,11,11,6,3,12,13,0,3,0,60
3,1,5,3,1,4,0,7,0,61,3,8,2,0,1,0,1,4,8,58
0,2,5,1,0,7,1,3,1,13,1,2,0,1,2,7,0,3,0,17
1,4,0,7,3,6,0,1,1,30,1,4,5,2,5,0,0,4,0,32
0,4,0,1,6,11,0,3,1,88,0,0,1,0,10,2,3,17,0,81
4,2,6,6,12,20,2,11,0,159,6,7,5,7,25,5,4,29,1,133
3,4,3,3,9,10,1,8,0,51,1,3,1,1,9,2,0,20,6,49
10,5,9,15,7,16,0,11,0,210,6,13,18,12,22,1,6,27,4,174
4,3,2,7,8,9,4,10,1,128,4,8,4,7,11,8,10,6,0,118
7,3,0,3,0,7,4,7,0,73,1,2,8,3,8,5,3,4,3,67
10,0,8,7,8,10,2,8,1,101,11,11,14,3,8,0,5,5,0,98
9,3,3,1,0,2,1,0,0,13,1,0,5,2,1,0,4,7,0,12
13,4,2,6,7,6,3,2,0,50,2,3,11,4,8,1,11,13,2,38
14,6,10,20,7,10,8,2,0,99,3,12,16,9,8,10,6,23,8,81
22,6,2,6,5,21,0,8,1,78,2,9,35,1,20,2,8,12,0,60
1,4,2,4,5,8,3,5,6,65,1,5,7,7,8,4,6,14,0,51
9,7,5,18,3,10,0,8,0,116,2,4,2,14,20,3,10,13,10,98
4,0,7,6,4,14,1,6,1,103,3,5,8,3,11,6,2,11,0,97
11,1,2,4,5,15,0,3,0,57,0,6,10,6,7,6,0,5,0,58
0,0,8,7,1,5,1,4,0,49,1,4,1,1,14,0,0,0,5,49
11,1,3,13,2,10,5,11,9,116,3,13,13,8,13,9,4,22,0,96
6,3,0,4,1,4,9,5,0,84,2,8,6,3,16,10,1,4,6,60
6,8,6,5,3,9,45,11,3,149,3,16,7,7,7,62,1,9,0,133
8,7,3,6,10,20,3,8,0,210,6,11,7,3,23,7,3,29,2,184
10,0,16,4,5,10,3,10,0,132,4,8,8,11,10,3,3,12,9,122
11,9,1,8,10,21,5,8,0,225,9,10,15,2,30,6,4,24,5,193
1,0,0,1,0,0,11,1,2,22,0,3,0,2,0,10,0,3,0,20
0,1,2,3,1,2,0,1,1,32,1,3,1,3,6,0,0,3,0,26
4,1,10,3,3,14,0,7,0,57,5,4,10,3,8,2,5,11,4,47
20,5,11,28,7,17,5,17,0,185,17,21,33,3,15,8,6,28,5,159
10,3,6,4,6,19,1,10,10,106,3,5,15,6,19,4,9,22,0,92
3,2,0,6,4,11,0,10,5,40,2,9,2,3,17,2,0,9,0,37
6,4,4,7,0,5,0,3,2,61,6,10,5,3,8,0,3,8,0,49
4,11,6,5,4,17,1,14,0,129,2,6,9,8,13,2,3,30,4,114
4,12,3,10,7,7,1,7,0,71,4,5,11,7,10,0,3,21,5,56
1,2,6,4,5,7,0,2,4,73,0,3,8,0,6,1,5,11,0,70
5,3,2,3,0,14,1,9,0,89,3,11,8,5,15,1,3,4,2,74
6,1,2,8,0,8,0,2,1,41,4,8,5,5,4,0,0,4,0,39
4,1,1,4,2,10,0,4,0,76,2,3,2,2,8,0,4,16,1,64
10,8,8,9,2,15,0,4,0,98,2,5,13,3,14,3,8,21,6,79
2,1,3,3,1,4,1,9,0,18,4,2,2,1,7,1,0,7,1,17
8,0,6,6,4,1,17,4,4,41,3,4,7,1,3,29,4,3,0,37
7,1,1,6,2,1,1,10,0,78,2,6,15,3,7,4,0,4,2,64
1,0,0,3,2,12,2,4,3,51,1,2,1,0,5,2,0,3,0,64
3,4,6,3,4,9,0,9,4,57,6,4,1,2,16,3,2,17,0,48
0,8,0,0,3,7,1,4,0,42,1,2,0,1,10,2,0,10,5,34
8,3,5,8,12,23,4,14,3,74,4,7,10,11,22,4,1,24,0,71
7,1,6,9,10,13,4,6,0,122,3,8,8,6,13,4,4,19,6,107
3,0,3,1,2,9,2,6,0,42,0,3,3,10,8,2,0,2,3,37
21,1,6,15,5,15,8,8,0,245,16,18,22,12,12,14,6,24,18,182
6,3,1,2,4,3,0,6,0,82,4,1,10,5,7,1,0,8,0,71
3,1,1,9,1,14,6,0,2,75,5,10,6,5,12,14,0,5,0,55
2,1,8,1,6,5,6,5,4,33,8,3,1,1,7,4,10,6,0,31
12,1,3,1,0,9,0,6,0,35,4,6,13,3,5,0,7,0,4,25
7,4,5,18,3,5,8,6,1,70,7,13,7,6,6,12,6,16,0,54
4,3,9,6,2,18,3,11,0,67,5,8,1,6,23,7,6,6,1,60
9,0,3,2,0,13,0,5,0,28,3,3,3,1,11,1,3,3,5,27
2,2,5,2,0,8,1,11,0,12,2,3,2,7,9,2,0,4,0,14
10,1,3,3,4,12,1,9,0,15,0,0,1,4,7,4,8,13,2,19
6,3,3,2,2,6,1,12,1,93,2,6,12,4,9,7,5,4,0,80
9,3,3,6,6,5,3,4,3,65,0,10,8,4,4,5,6,11,0,59
10,3,3,10,3,18,4,11,15,110,2,8,15,11,23,4,15,7,0,102
5,1,5,2,4,1,1,9,0,35,1,7,8,5,1,7,1,8,1,24
7,0,4,1,1,7,0,2,3,75,7,3,5,1,18,4,1,0,0,61
2,3,1,0,1,12,0,5,3,54,4,0,1,5,10,0,2,6,0,53
2,5,5,7,0,8,2,9,0,120,3,14,3,3,12,2,2,1,3,115
7,5,7,13,4,5,6,9,4,39,3,6,11,5,6,14,3,12,0,39
12,5,6,9,3,10,1,11,0,79,2,8,14,5,10,24,5,9,0,59
2,2,6,6,2,5,0,4,0,33,6,2,2,3,7,0,1,4,1,34
6,4,5,11,5,10,5,3,0,90,5,13,7,2,7,6,8,12,4,75
5,7,3,0,4,7,1,2,0,50,3,2,3,1,4,0,3,16,6,41
9,2,3,3,2,22,4,16,0,70,12,7,10,10,9,2,9,7,3,62
6,3,3,2,10,21,7,13,0,129,6,3,12,3,16,10,12,10,0,122
1,3,0,0,1,2,0,0,0,23,0,0,0,2,2,0,0,2,1,23
5,0,2,0,0,2,2,3,5,38,5,8,4,1,4,2,2,0,0,31
11,1,16,8,2,6,0,6,0,38,9,10,8,3,1,3,0,6,10,38
20,12,9,27,5,26,2,24,22,366,11,42,33,16,44,21,20,26,0,300
9,7,8,8,6,7,5,15,0,92,3,15,20,5,13,8,3,31,0,59
30,1,23,25,5,12,6,13,8,190,13,24,51,12,17,15,6,20,0,155
1,2,0,1,4,4,12,2,0,42,2,4,4,0,4,7,2,6,1,38
17,2,4,7,6,6,15,6,9,127,0,9,22,3,7,21,23,20,0,94
3,0,3,4,3,4,0,9,0,35,1,2,2,3,5,1,1,6,2,38
1,1,1,7,6,2,0,2,0,26,0,3,3,0,4,0,0,6,4,26
2,1,6,2,8,13,2,3,0,53,1,1,2,2,11,2,0,7,9,55
3,7,3,2,4,12,3,15,0,129,1,6,8,24,15,2,9,19,1,93
5,10,3,4,2,10,2,5,0,52,2,5,3,9,8,3,1,12,5,45
6,3,2,12,1,3,2,5,0,79,6,7,3,6,3,1,13,7,3,64
4,4,11,3,5,23,1,13,1,107,1,2,18,12,12,8,9,10,0,100
2,3,0,2,1,12,0,4,0,97,2,1,2,12,14,2,1,2,2,83
6,4,14,6,4,10,6,13,4,147,8,9,14,9,9,19,1,11,0,134
5,1,6,6,4,5,2,2,3,33,1,3,5,3,10,5,3,3,0,34
11,14,23,13,10,17,1,10,4,181,14,22,21,20,15,9,1,35,0,147
9,5,5,6,3,7,1,5,2,20,6,9,10,3,5,2,2,2,0,24
0,2,4,6,1,9,1,6,0,50,1,7,0,8,2,3,0,8,2,48
2,1,1,2,0,4,1,9,0,26,2,2,3,5,4,6,2,1,0,21
0,6,0,3,13,1,1,2,1,58,2,2,1,1,7,2,3,18,0,49
7,4,3,5,0,9,1,0,0,22,4,1,6,1,11,2,0,5,2,19
0,5,2,13,0,9,2,3,0,87,0,8,6,7,13,3,3,7,2,72
2,0,1,3,2,5,0,5,0,58,4,2,3,0,8,1,3,1,1,53
24,5,6,23,4,22,8,20,3,264,11,23,33,15,29,7,22,19,0,220
13,13,19,13,8,12,2,7,0,171,9,10,19,12,19,10,9,19,0,151
23,8,8,17,3,24,3,19,0,188,12,13,20,6,31,14,16,13,5,163
0,1,2,4,0,12,5,4,0,56,1,1,4,1,12,3,0,3,3,56
6,3,5,1,2,5,0,2,11,91,3,3,28,7,2,4,3,6,0,70
11,4,10,14,2,23,5,23,0,133,11,12,20,5,27,16,9,16,1,108
2,6,3,7,4,7,4,6,0,67,1,9,3,4,5,5,3,13,2,61
2,0,2,4,3,1,2,3,2,18,5,7,4,1,2,4,1,4,0,9
