OBEC,OKRSEK,VOLICI,HLASY,HLASY_1,HLASY_2,HLASY_3,HLASY_4,HLASY_5,HLASY_6,HLASY_7,HLASY_8,HLASY_9
500020,2,698,414,16,32,32,7,1,1,185,52,88
500020,1,263,159,4,10,11,1,1,0,85,9,38
500135,2,80,46,0,2,1,0,1,0,36,4,2
500135,1,135,64,1,4,7,0,0,0,38,2,12
500151,1,95,60,0,5,4,0,0,0,46,1,4
500160,2,84,41,1,0,1,0,0,0,25,2,12
500160,1,408,187,2,9,12,3,0,0,120,4,37
500496,95,925,508,13,45,56,6,11,0,224,32,121
500496,94,838,595,35,43,49,4,3,3,241,50,167
500496,92,767,441,21,36,76,10,3,2,133,42,118
500496,90,739,485,29,29,60,5,1,4,163,47,147
500496,91,836,514,13,32,45,5,1,1,272,42,103
500496,93,707,391,12,23,49,5,4,4,146,34,114
500496,27,672,418,19,35,32,7,1,1,182,29,112
500496,26,893,525,16,30,51,7,7,6,201,63,144
500496,25,1142,689,22,54,92,11,1,7,275,62,165
500496,24,389,241,5,15,24,3,1,1,99,21,72
500496,55,762,448,38,34,38,3,3,1,162,42,127
500496,54,360,226,16,18,27,3,3,1,95,11,52
500496,53,879,616,33,50,56,4,5,2,255,63,148
500496,52,970,572,22,62,78,8,3,4,186,60,149
500496,23,909,632,22,45,84,17,3,1,234,43,183
500496,22,790,580,35,54,103,5,2,4,129,40,208
500496,21,979,545,14,36,59,5,6,3,269,44,109
500496,20,1440,982,52,77,137,16,3,1,319,101,276
500496,51,638,427,21,33,67,5,5,1,120,40,135
500496,50,771,464,8,40,57,10,2,2,188,37,120
500496,49,809,506,14,41,67,9,1,3,229,34,108
500496,48,893,530,30,53,55,10,3,1,210,44,124
500496,47,1209,755,42,79,73,14,6,2,278,68,193
500496,6,494,311,13,25,72,1,0,2,74,28,96
500496,5,625,408,22,30,101,2,2,1,65,49,136
500496,46,809,537,20,40,65,7,6,2,214,47,136
500496,45,1492,915,37,92,114,19,4,4,323,76,246
500496,44,982,580,25,47,54,8,3,3,265,32,143
500496,43,904,544,14,37,68,4,1,1,253,34,132
500496,42,858,532,22,45,50,8,3,3,225,33,143
500496,41,910,536,9,50,50,8,3,1,238,47,130
500496,40,767,502,15,49,56,3,5,0,222,38,114
500496,39,744,401,14,29,34,5,0,1,178,38,102
500496,38,289,189,19,19,21,3,0,0,60,16,51
500496,37,1054,709,33,63,92,8,4,4,273,52,180
500496,4,755,463,38,34,72,7,3,2,135,34,138
500496,3,499,317,26,21,89,2,0,1,45,30,103
500496,2,3943,528,39,68,84,10,0,2,138,63,124
500496,19,706,367,26,33,55,4,2,0,107,37,103
500496,18,923,557,38,54,76,6,2,2,177,44,158
500496,17,983,680,31,54,115,10,2,6,219,58,185
500496,36,796,470,11,31,39,3,1,2,262,32,89
500496,35,867,604,32,56,97,10,0,1,162,55,191
500496,1,610,370,32,24,75,2,5,2,97,28,105
500496,34,967,620,22,42,67,6,3,2,266,48,164
500496,33,783,480,33,38,49,3,3,1,194,40,119
500496,32,661,452,30,32,65,2,0,0,178,30,115
500496,31,1022,665,28,32,81,5,7,2,298,37,175
500496,30,1114,718,38,71,102,15,2,2,211,46,231
500496,29,678,434,21,29,43,6,2,4,176,35,118
500496,28,569,334,22,23,47,5,3,0,129,23,82
500496,11,551,380,18,23,75,4,1,1,113,35,110
500496,10,809,533,17,40,86,9,2,1,160,57,161
500496,9,716,455,18,39,66,4,2,1,137,36,152
500496,8,830,553,38,60,83,5,1,4,150,43,169
500496,7,871,603,69,74,84,5,3,3,128,53,184
500496,16,905,601,31,44,76,12,4,4,213,57,160
500496,15,711,451,10,30,57,8,5,0,175,32,134
500496,14,763,459,19,38,54,5,2,2,171,41,127
500496,13,611,410,29,32,58,7,3,1,161,28,91
500496,12,875,615,39,34,106,8,6,3,200,44,175
500496,72,819,558,30,49,75,6,2,3,161,42,190
500496,71,1061,663,34,72,81,12,5,4,223,50,182
500496,70,1547,708,25,58,98,10,1,4,254,65,193
500496,69,1002,611,25,45,105,7,3,2,195,54,175
500496,68,884,548,35,51,90,10,3,3,155,42,159
500496,67,859,518,8,30,50,4,4,1,244,35,142
500496,66,1023,660,40,52,77,3,0,0,273,59,156
500496,89,1338,845,32,69,100,8,7,2,281,93,253
500496,88,386,268,11,19,22,5,0,4,104,22,81
500496,87,872,588,34,78,66,12,3,3,187,81,124
500496,86,268,193,8,15,47,4,2,0,48,17,52
500496,85,574,414,14,40,51,10,0,0,141,47,111
500496,84,623,468,26,41,79,4,2,5,156,20,135
500496,83,1010,646,30,42,86,5,2,1,207,60,213
500496,65,921,501,28,53,54,3,3,2,176,51,131
500496,64,375,216,7,19,21,2,2,0,91,22,52
500496,63,543,328,18,32,53,7,3,3,127,14,71
500496,62,677,447,12,33,80,7,1,0,169,40,105
500496,61,842,564,25,56,102,4,4,2,158,54,159
500496,82,1020,573,33,47,72,6,3,1,211,61,139
500496,81,1002,618,21,45,75,5,3,2,260,48,159
500496,80,869,579,23,41,95,9,1,6,204,45,155
500496,79,975,663,36,46,87,7,4,4,210,55,214
500496,78,707,452,32,41,75,4,1,2,129,36,132
500496,60,680,408,19,38,53,6,5,2,132,33,120
500496,59,647,406,28,31,72,5,0,1,114,46,109
500496,58,861,527,16,41,64,3,0,2,247,28,126
500496,57,500,312,14,23,49,8,5,2,108,31,72
500496,56,623,407,21,26,54,8,3,0,159,31,105
500496,77,925,592,42,50,90,11,6,3,153,53,184
500496,76,614,427,23,35,67,4,0,0,154,24,120
500496,75,983,591,30,58,82,10,2,6,196,54,153
500496,74,1056,673,37,56,89,10,6,5,270,41,159
500496,73,873,508,23,45,66,7,2,2,191,42,130
500526,1,1778,1094,47,107,103,14,6,6,457,101,253
500623,7,95,60,5,3,4,1,0,0,35,3,9
500623,6,161,100,1,8,8,1,1,0,54,10,17
500623,5,228,146,6,8,15,0,0,1,66,10,40
500623,4,75,38,1,0,0,2,0,0,20,2,13
500623,3,113,84,0,4,4,2,0,0,47,5,22
500623,2,112,75,0,0,10,3,0,0,27,3,32
500623,1,147,75,0,4,5,0,0,0,36,13,17
500801,1,507,336,13,45,30,3,2,6,136,34,67
500852,1,2036,1400,52,92,164,30,9,5,540,132,376
500861,4,152,83,2,3,4,1,2,0,44,5,22
500861,3,91,57,2,6,0,0,0,0,29,4,16
500861,2,57,42,4,4,4,0,0,1,13,6,10
500861,1,513,319,14,21,45,3,3,3,113,45,72
500861,7,93,71,1,5,9,1,0,0,34,3,18
500861,6,107,79,3,8,4,1,0,0,38,11,14
500861,5,69,58,2,9,0,0,2,1,22,11,11
500861,9,110,73,3,10,9,1,1,0,25,6,18
500861,8,66,47,1,3,6,0,0,0,19,5,13
500879,1,630,420,22,43,38,3,1,3,182,46,82
501476,3,143,92,0,11,7,1,0,0,40,6,27
501476,2,785,397,20,36,30,1,0,5,186,39,80
501476,1,624,346,13,46,32,1,3,2,160,30,59
501646,3,179,126,0,4,19,1,2,0,63,12,25
501646,2,220,140,3,16,11,2,0,0,81,8,19
501646,1,1672,1083,41,91,195,12,9,4,330,121,280
501751,4,121,76,3,3,2,0,0,0,51,3,14
501751,3,223,145,4,15,12,5,0,2,69,8,30
501751,2,316,224,10,15,29,0,2,0,120,15,33
501751,1,740,425,21,27,55,9,6,0,177,43,87
501794,1,1274,771,13,51,95,21,6,4,333,69,179
501841,1,1188,788,27,61,84,16,3,2,345,65,185
502146,4,220,119,5,10,7,0,2,2,51,9,33
502146,3,1256,660,22,52,48,7,11,0,323,48,149
502146,2,592,262,8,11,24,3,4,3,136,23,50
502146,1,1465,876,16,55,88,24,4,5,409,86,189
502235,1,1352,854,30,63,78,16,5,5,334,71,252
502405,1,484,308,21,26,39,6,3,3,123,19,68
502545,2,973,653,37,43,82,12,1,4,266,59,149
502545,1,964,615,24,50,68,5,3,4,289,51,121
502839,1,582,382,9,27,38,2,1,1,191,31,82
503142,1,471,294,7,17,29,3,2,0,144,35,57
503304,1,674,446,7,40,70,8,5,1,170,45,100
503444,6,403,240,22,12,19,8,2,3,92,32,50
503444,5,1239,519,26,41,37,3,3,3,244,39,123
503444,17,113,61,3,3,4,0,0,0,29,6,16
503444,16,154,111,2,8,7,1,0,1,57,11,24
503444,4,1122,706,19,50,78,7,1,2,342,67,140
503444,3,964,558,13,41,60,9,4,3,262,35,131
503444,2,674,420,17,31,27,6,0,3,209,28,99
503444,15,322,218,10,8,22,0,0,1,98,21,58
503444,14,166,107,4,7,19,1,1,1,54,5,15
503444,13,177,105,0,10,8,2,0,1,48,7,29
503444,12,295,202,3,6,44,0,0,1,73,18,57
503444,11,187,112,5,12,6,0,1,0,56,8,24
503444,1,1254,709,16,52,69,8,4,3,311,92,154
503444,10,392,251,11,15,32,6,1,0,115,21,50
503444,9,79,53,8,8,6,0,0,1,23,2,5
503444,8,218,119,2,12,8,2,1,0,54,9,31
503444,7,245,165,1,5,14,4,0,1,76,8,56
503622,2,117,87,0,3,10,0,1,0,45,12,16
503622,1,435,283,12,13,20,1,1,0,162,26,48
503622,4,82,54,9,0,8,1,1,0,26,2,7
503622,3,56,41,0,3,2,1,0,0,23,1,11
503657,4,553,385,7,18,32,4,4,0,194,34,92
503657,3,691,362,4,20,40,5,5,1,174,47,66
503657,2,497,306,6,22,27,3,1,1,173,25,48
503657,1,822,460,16,38,38,4,3,1,213,26,121
503738,1,948,580,19,32,44,12,5,1,258,69,140
504246,2,196,115,4,8,7,1,0,0,70,8,17
504246,1,427,210,14,14,27,3,0,2,117,8,25
504441,3,102,62,1,4,6,1,0,0,27,8,15
504441,2,274,180,3,10,20,1,0,0,92,21,33
504441,1,795,489,18,30,83,4,5,0,224,42,83
504505,3,98,65,4,5,5,1,0,0,32,2,16
504505,2,708,471,14,47,52,6,5,1,194,39,113
504505,1,856,529,17,47,67,9,7,1,208,50,123
504785,1,1123,644,18,51,57,7,5,3,292,51,160
505013,2,797,491,24,41,57,4,6,1,179,45,134
505013,1,250,176,1,13,10,2,5,0,109,12,24
505081,2,173,119,1,10,19,2,0,2,51,13,21
505081,1,1099,686,20,41,98,5,4,2,294,56,166
505081,3,200,119,4,3,9,1,1,0,75,5,21
505111,2,303,211,6,19,19,2,0,3,110,17,35
505111,1,1076,750,22,39,73,9,7,2,376,63,159
505161,4,362,225,2,10,18,1,2,3,114,20,55
505161,3,1057,527,16,42,55,10,4,2,235,54,109
505161,2,955,681,13,56,57,7,4,2,322,64,156
505161,1,458,276,8,29,18,2,2,0,148,36,33
505188,5,1318,818,27,58,76,14,6,0,389,69,179
505188,4,1012,599,34,66,57,7,0,1,240,45,149
505188,3,900,541,15,34,66,7,4,2,272,40,101
505188,2,959,440,11,28,29,8,2,0,226,37,99
505188,1,1133,684,16,78,95,13,4,2,261,39,176
505188,10,116,74,3,5,5,0,3,0,34,5,19
505188,9,1214,683,36,54,92,16,5,3,281,50,146
505188,8,1359,850,52,85,79,10,6,0,325,74,219
505188,7,1855,803,45,70,97,12,4,3,334,68,170
505188,6,742,483,19,35,52,4,1,1,220,35,116
505188,12,150,74,3,4,7,2,2,0,36,10,10
505188,11,75,47,2,2,9,0,0,0,17,4,13
505188,13,81,55,0,4,4,0,0,0,32,5,10
505218,2,253,147,4,10,8,2,0,2,87,15,19
505218,1,1106,625,21,57,54,10,1,7,269,78,128
505269,1,570,331,15,18,52,3,1,0,122,26,94
505269,3,285,198,12,8,28,3,3,0,86,13,45
505269,2,163,120,3,4,9,0,0,1,53,3,47
505293,3,173,117,0,6,6,1,0,0,63,10,31
505293,2,164,116,5,6,24,1,1,0,35,17,27
505293,1,1179,754,16,38,109,5,5,1,330,75,175
505366,5,108,62,9,5,7,0,0,0,29,4,8
505366,4,102,58,2,3,2,1,0,0,34,3,13
505366,3,69,49,1,0,7,0,0,0,37,0,4
505366,2,107,77,7,5,5,2,0,0,30,4,24
505366,1,844,524,16,42,53,8,5,4,234,53,109
505366,6,91,52,4,1,5,1,1,2,24,6,8
505501,1,1155,638,12,43,53,9,6,2,320,59,134
505587,18,113,66,4,4,5,1,0,0,25,6,21
505587,17,95,55,0,2,2,1,0,0,36,2,12
505587,16,201,114,2,7,5,4,1,0,59,13,23
505587,4,876,518,9,46,46,6,2,2,250,37,120
505587,3,1003,692,26,53,79,2,5,0,276,57,194
505587,2,888,284,8,22,36,4,0,1,117,26,70
505587,12,175,122,6,5,6,3,0,0,54,4,44
505587,11,349,232,3,18,51,5,2,1,86,11,55
505587,15,241,170,3,13,13,1,1,1,74,16,48
505587,14,99,45,1,4,3,1,0,0,21,4,11
505587,13,152,93,1,6,12,1,0,0,53,2,18
505587,10,1008,568,17,38,70,5,1,0,252,56,129
505587,1,562,362,15,40,32,4,0,0,146,20,105
505587,9,707,411,7,30,27,8,3,1,202,30,103
505587,8,434,266,2,18,34,2,0,2,114,27,67
505587,7,788,452,10,20,40,3,2,2,199,44,132
505587,6,741,430,19,42,31,5,3,2,196,48,84
505587,5,924,452,11,39,43,2,0,2,210,42,103
505609,2,1307,903,51,65,148,16,3,1,283,98,238
505609,1,1258,761,35,54,104,11,7,4,270,71,205
505650,3,215,139,7,16,5,1,0,0,57,12,41
505650,2,257,190,10,5,23,1,3,0,80,13,55
505650,1,1714,1129,52,99,145,16,9,3,431,96,278
505668,1,1051,642,19,48,62,9,9,0,273,60,162
505862,1,376,240,5,20,46,8,0,3,74,14,70
506761,1,204,142,7,7,13,3,1,0,65,18,28
506770,1,415,291,9,28,22,1,2,4,123,19,83
511382,17,851,552,23,35,67,5,1,2,272,46,101
511382,16,918,622,35,34,66,5,5,5,294,50,128
511382,15,892,519,12,29,44,9,0,0,289,36,100
511382,14,684,276,12,22,15,6,0,2,150,20,49
511382,47,682,423,26,23,51,3,1,2,197,33,87
511382,46,594,367,20,25,19,5,3,4,167,24,100
511382,45,497,280,8,20,9,6,1,2,152,21,61
511382,27,613,220,4,23,23,2,0,2,102,12,52
511382,26,246,150,5,5,18,1,0,1,74,15,31
511382,25,455,292,3,11,34,3,0,2,154,25,60
511382,24,654,460,24,47,28,9,3,2,208,37,102
511382,23,180,119,4,12,5,0,0,1,63,5,29
511382,13,643,385,14,38,38,3,3,5,149,37,98
511382,12,2406,428,19,24,33,4,3,2,210,39,94
511382,11,996,511,41,38,45,4,0,1,244,44,94
511382,10,811,499,26,28,44,7,3,2,240,47,102
511382,9,1055,666,30,43,97,18,3,0,277,59,139
511382,8,840,556,21,51,42,6,1,3,267,34,131
511382,44,598,347,11,20,26,5,0,1,165,22,97
511382,43,670,395,14,19,36,11,1,1,202,22,89
511382,42,654,379,5,25,25,6,1,2,215,25,75
511382,41,805,488,20,33,32,16,3,3,262,31,88
511382,40,684,424,24,25,33,5,0,0,225,32,80
511382,7,881,505,19,37,57,5,2,1,249,44,91
511382,6,693,423,20,29,30,8,0,1,219,39,77
511382,5,539,334,17,12,32,4,3,0,170,26,70
511382,4,495,311,19,22,24,5,0,4,173,23,41
511382,39,823,550,28,48,40,8,2,5,261,53,105
511382,38,674,438,21,24,37,4,1,0,234,27,90
511382,37,531,302,9,21,14,5,2,0,162,18,71
511382,3,1031,682,26,50,46,7,5,2,363,55,128
511382,2,847,541,33,36,43,11,2,4,265,44,103
511382,1,994,608,18,29,45,13,7,3,341,46,106
511382,36,816,503,14,18,45,3,2,1,267,41,112
511382,35,769,461,13,32,30,4,3,2,270,33,74
511382,34,770,477,9,37,29,8,2,1,255,37,99
511382,33,764,481,24,27,31,12,2,1,260,50,74
511382,32,792,539,12,27,40,3,2,3,307,38,107
511382,51,629,436,40,35,23,5,1,2,191,44,95
511382,50,485,324,11,30,30,4,2,0,141,28,78
511382,49,427,273,8,13,22,9,1,2,128,27,63
511382,48,609,263,10,14,26,2,1,1,140,19,50
511382,31,632,393,10,23,25,2,1,2,227,26,77
511382,30,647,384,9,24,36,3,1,0,209,36,66
511382,29,649,326,17,28,15,3,1,1,189,19,53
511382,28,550,298,11,19,28,2,2,1,136,25,74
511382,22,155,98,2,7,8,0,2,0,55,10,14
511382,21,440,282,5,20,30,6,0,2,137,28,54
511382,20,566,392,24,27,34,12,2,4,190,36,63
511382,19,285,177,4,19,9,4,0,0,96,8,37
511382,18,898,468,18,32,32,4,8,1,239,44,90
512231,4,121,59,1,6,6,0,1,0,34,5,6
512231,3,76,38,1,4,1,2,0,1,18,7,4
512231,2,208,131,3,15,8,1,3,0,64,13,24
512231,1,1049,551,28,43,56,2,3,6,280,34,99
512281,1,546,386,20,36,27,1,2,1,198,38,63
512401,1,146,101,3,6,9,1,2,0,40,13,27
512532,1,791,482,23,33,28,5,4,2,252,32,103
512800,3,151,80,1,0,6,1,0,0,51,3,18
512800,2,688,450,22,27,41,9,2,0,221,40,88
512800,1,765,445,17,29,69,4,2,1,200,33,90
512826,1,313,205,4,17,19,0,2,2,112,13,36
512877,1,316,236,8,16,32,4,0,0,110,25,41
512982,1,458,280,4,15,54,8,1,1,111,29,57
513059,1,91,62,3,6,3,1,0,0,35,6,8
513067,2,200,148,4,14,14,2,0,1,48,21,44
513067,1,450,299,4,19,31,5,0,3,132,24,81
513105,1,183,122,4,9,17,4,0,1,45,9,33
513199,3,226,161,6,13,11,5,0,3,73,12,38
513199,2,298,185,4,11,9,0,0,0,119,15,27
513199,1,457,281,10,25,13,3,1,2,132,25,70
513211,1,439,293,21,19,20,3,4,0,140,25,61
513229,1,1214,694,9,62,41,5,6,3,358,55,155
513491,2,572,372,18,12,37,3,2,2,201,22,75
513491,1,776,488,14,35,39,4,1,4,221,55,115
513636,1,243,184,8,9,23,1,0,0,87,12,44
513733,1,236,169,4,8,25,1,3,0,75,20,33
513750,20,784,525,37,42,58,6,9,4,192,34,143
513750,19,1071,600,16,52,77,6,2,1,261,56,129
513750,18,864,542,17,31,67,6,4,4,256,49,108
513750,17,99,61,3,3,4,1,3,0,34,2,11
513750,16,223,139,6,9,14,0,0,0,80,14,16
513750,15,123,78,8,8,6,1,1,1,34,6,13
513750,14,1250,821,39,58,107,6,9,5,354,74,169
513750,6,881,525,19,29,49,2,2,1,257,39,127
513750,5,618,409,16,30,31,8,0,1,203,35,85
513750,4,497,290,14,21,29,6,0,1,155,22,42
513750,3,908,463,18,23,40,2,1,1,232,27,119
513750,2,897,491,12,28,52,3,1,0,251,44,100
513750,1,837,478,17,29,61,5,1,4,196,41,124
513750,13,456,292,12,13,25,2,2,0,150,27,61
513750,12,648,390,23,18,39,5,0,2,201,24,78
513750,11,771,480,19,31,66,4,1,4,176,37,142
513750,10,1083,302,15,22,32,2,1,1,117,26,86
513750,9,1038,507,17,58,39,5,1,2,240,44,101
513750,8,845,529,18,30,61,7,1,2,254,41,115
513750,7,929,625,40,48,93,7,5,4,205,36,187
513768,3,164,133,2,11,36,0,0,0,43,14,27
513768,2,169,126,7,3,24,2,4,0,43,15,28
513768,1,1055,708,21,54,101,5,3,4,255,75,190
513873,1,373,269,10,5,55,2,0,2,91,34,70
514047,1,209,158,5,10,26,0,0,0,65,21,31
514055,8,117,65,0,1,2,0,0,0,49,5,8
514055,7,130,74,8,6,6,1,0,0,35,3,15
514055,6,883,489,25,33,42,6,3,4,233,35,108
514055,5,988,355,13,36,32,2,4,1,176,21,70
514055,4,782,462,12,28,32,3,10,2,251,49,75
514055,3,589,335,15,28,28,2,2,2,186,17,55
514055,2,785,396,13,32,36,3,1,1,194,42,74
514055,1,621,322,18,15,28,4,1,1,164,24,67
514152,1,921,578,25,33,64,5,4,6,268,65,108
514446,1,179,114,5,10,7,1,1,0,60,9,21
514471,1,467,277,6,19,17,4,2,0,145,33,51
514497,1,270,178,4,17,8,1,2,2,99,10,35
514527,1,48,30,3,0,2,0,0,0,12,4,9
514705,9,89,50,4,4,4,0,0,0,18,5,15
514705,8,168,107,8,1,12,0,1,1,62,6,16
514705,11,259,167,10,10,19,2,2,1,83,13,27
514705,10,391,238,11,14,12,4,5,1,132,14,45
514705,2,520,301,10,27,35,4,2,4,126,27,66
514705,1,697,402,7,29,25,7,2,2,215,38,77
514705,7,942,547,22,46,67,7,4,1,231,46,123
514705,6,737,430,20,49,38,4,3,0,187,30,99
514705,5,926,594,19,45,35,7,3,3,293,43,146
514705,4,843,448,13,31,24,4,2,0,247,32,95
514705,3,985,311,20,25,31,4,2,3,110,28,88
514772,1,234,146,4,9,21,2,1,0,72,4,33
514802,1,197,116,4,7,8,1,2,0,57,7,30
515191,1,607,326,5,24,16,2,0,4,178,23,74
515329,1,298,220,3,15,45,6,1,0,94,19,37
515418,1,342,203,6,9,32,1,2,3,109,12,29
515477,1,194,148,4,15,21,1,2,1,55,9,40
515787,1,157,103,5,8,6,0,0,0,62,6,16
515825,1,90,47,0,3,1,0,0,0,29,3,11
516201,1,658,396,22,24,51,4,6,2,157,30,100
516350,1,73,56,3,6,3,1,0,1,28,8,6
516619,1,987,648,20,46,63,6,5,6,300,48,154
516635,1,316,202,6,27,36,3,1,1,75,17,36
516686,1,398,275,5,11,26,12,3,0,105,30,83
516694,1,595,419,10,20,47,3,2,0,210,43,84
516864,1,167,118,4,7,6,0,0,0,62,12,27
516899,1,412,236,11,16,15,3,0,4,111,22,54
516911,1,204,96,1,6,3,0,0,0,66,3,17
517101,5,73,38,1,5,4,1,0,0,24,0,3
517101,4,116,65,1,3,5,1,1,0,42,0,12
517101,3,98,71,3,3,3,2,0,0,40,3,17
517101,2,75,46,1,5,3,1,0,1,19,2,14
517101,1,621,339,16,23,35,4,0,0,171,29,61
517151,1,674,431,17,25,22,2,4,3,242,24,92
517208,1,108,79,2,9,18,1,0,0,35,1,13
517224,1,225,136,3,7,20,1,0,0,78,6,21
517275,1,122,94,2,3,6,0,0,1,53,9,20
517321,1,190,120,4,12,4,0,1,0,72,7,20
517437,1,129,80,1,1,7,1,1,0,52,5,12
517445,1,148,101,3,7,14,0,1,0,46,6,24
517534,1,919,573,23,45,45,6,1,5,269,53,126
517569,1,225,119,5,8,5,0,1,0,65,6,29
517585,1,321,198,11,8,9,3,1,1,93,27,45
517607,1,1187,754,34,50,72,8,8,2,382,78,120
517615,1,214,138,0,13,30,0,0,2,50,12,31
517666,1,393,212,6,8,24,2,2,1,114,15,40
517747,1,490,286,13,35,36,3,2,1,90,31,75
517836,1,131,83,0,5,1,0,0,0,43,5,29
517844,1,488,337,1,21,43,4,0,1,184,23,60
517887,1,496,284,6,21,36,4,1,1,143,16,56
517909,1,680,461,22,40,63,4,1,2,195,33,101
518026,1,271,197,7,9,15,6,5,2,95,19,39
519031,1,304,264,6,27,31,2,3,1,96,23,75
519146,2,1002,556,25,30,45,8,0,2,276,49,121
519146,1,1037,667,36,49,62,6,6,1,314,61,132
519651,2,816,532,17,21,51,10,9,1,272,43,108
519651,1,844,537,20,45,60,6,9,7,250,42,98
520047,1,348,249,16,16,26,1,2,0,120,21,47
520306,1,439,299,7,17,71,5,1,2,102,30,64
520420,1,722,445,15,51,45,2,2,0,200,21,109
521531,1,729,485,14,42,78,5,4,2,202,34,104
522775,1,193,123,2,13,38,1,4,0,43,11,11
523453,1,184,126,7,13,15,3,0,1,68,4,15
523640,1,452,313,14,16,21,9,1,1,163,26,62
523704,19,695,481,26,40,50,7,2,3,171,54,128
523704,18,697,401,8,33,41,1,3,1,195,40,79
523704,17,787,416,13,43,60,5,3,3,172,35,82
523704,30,125,62,1,1,16,0,0,0,35,3,6
523704,29,857,516,19,53,46,9,4,12,201,41,131
523704,28,895,502,7,50,61,4,6,0,221,39,114
523704,16,704,416,9,35,38,4,1,0,234,33,62
523704,15,555,370,9,23,38,3,1,3,160,23,110
523704,14,830,574,24,52,69,6,1,4,209,44,165
523704,13,646,395,16,33,63,4,0,2,161,39,77
523704,12,627,395,19,28,74,3,1,0,143,32,95
523704,11,715,450,12,38,53,2,1,1,200,26,117
523704,10,703,393,17,36,56,5,3,0,163,19,94
523704,27,749,448,14,43,37,4,7,1,209,44,89
523704,26,592,291,5,20,37,1,3,2,113,32,78
523704,25,774,541,26,38,91,14,3,5,192,46,126
523704,24,745,452,20,31,25,3,3,3,228,35,104
523704,23,556,382,19,40,64,3,0,3,119,30,104
523704,22,820,489,21,32,69,5,2,3,203,29,125
523704,21,751,423,25,38,65,1,2,1,154,42,95
523704,20,799,497,16,55,47,11,3,2,202,45,116
523704,2,755,443,14,39,42,4,3,1,224,43,73
523704,1,1598,420,26,51,67,6,1,1,155,23,90
523704,9,696,387,14,38,43,5,4,1,186,27,69
523704,8,705,411,16,29,49,6,6,2,187,32,84
523704,7,628,351,5,20,34,5,2,1,190,20,74
523704,6,773,479,16,46,46,4,5,2,215,40,105
523704,5,626,364,6,22,24,5,2,3,206,19,77
523704,4,575,361,2,28,29,5,0,0,200,29,68
523704,3,610,391,8,31,53,2,2,1,193,26,75
523917,3,389,240,15,21,28,2,1,2,81,27,63
523917,2,543,295,9,18,33,2,3,1,153,25,51
523917,1,629,410,3,38,33,2,3,1,212,32,86
524891,1,697,346,7,20,17,1,0,0,219,21,61
525227,1,256,130,3,13,20,0,1,1,53,11,28
525588,3,832,601,31,54,76,6,2,2,247,41,142
525588,2,846,524,13,42,69,2,2,7,246,49,94
525588,1,834,551,21,46,69,6,5,1,236,30,137
525804,3,115,74,5,8,3,0,0,1,30,14,13
525804,2,410,250,6,17,15,3,2,0,139,26,42
525804,1,571,330,9,18,29,6,2,1,171,29,65
525880,1,409,269,8,18,26,5,1,0,130,24,57
525979,1,606,379,6,31,41,1,3,3,194,27,73
526169,1,255,152,13,9,23,0,3,1,46,11,46
530727,1,530,313,4,27,33,4,1,1,156,23,64
532894,1,328,237,4,16,33,5,1,1,107,11,59
533491,1,474,261,15,18,17,1,2,1,138,27,42
533688,1,398,253,5,20,26,3,3,0,121,23,52
534927,1,849,575,27,43,68,5,1,3,277,47,104
535532,2,854,482,5,29,26,7,2,2,285,36,90
535532,1,1073,479,10,38,33,8,3,2,293,29,63
535532,3,691,319,4,27,26,5,6,1,172,13,65
535770,1,282,183,11,12,23,3,1,4,65,11,53
535885,1,328,235,4,7,40,1,2,0,117,19,45
536091,1,703,405,18,26,31,5,0,1,215,21,88
536113,1,156,75,2,2,1,3,1,0,54,5,7
536148,3,253,139,2,8,4,1,0,1,91,12,20
536148,2,926,504,19,36,30,4,5,4,275,38,93
536148,1,1074,552,21,31,36,4,6,1,315,46,92
536288,1,552,334,6,31,44,3,2,0,128,24,96
536385,11,577,333,22,24,33,2,5,1,150,24,72
536385,10,1087,716,36,52,64,15,3,1,330,61,154
536385,9,757,387,16,32,19,11,2,0,217,23,67
536385,8,1053,585,22,46,70,7,4,6,253,44,133
536385,7,885,525,15,49,43,1,13,4,243,40,117
536385,6,1033,535,11,52,35,1,5,3,268,40,120
536385,5,547,313,11,31,30,1,4,0,133,29,74
536385,4,1460,522,27,49,44,8,3,1,261,29,100
536385,3,1172,655,21,49,50,10,4,0,337,51,133
536385,2,663,419,31,42,52,2,6,4,150,26,106
536385,1,616,503,17,46,102,2,2,3,113,27,191
536393,2,101,60,1,3,0,0,0,0,36,2,18
536393,1,413,267,2,22,62,2,1,0,112,20,46
536521,3,143,63,1,2,6,0,0,0,32,7,15
536521,2,121,63,1,2,7,0,2,0,32,7,12
536521,1,773,354,7,23,26,4,1,0,221,19,53
536571,1,438,253,4,9,15,2,5,1,153,13,51
536687,2,94,63,1,6,2,2,0,1,30,4,17
536687,1,420,276,12,15,14,7,4,2,133,20,69
536733,1,606,407,10,19,38,4,1,5,194,28,108
536814,1,250,153,1,22,24,0,0,2,56,14,34
537284,1,529,350,7,31,48,8,2,1,167,23,63
537713,1,1039,669,19,58,70,5,2,4,304,54,153
539961,5,174,90,3,7,3,0,1,0,59,7,10
539961,4,435,275,13,27,25,4,0,0,128,32,46
539961,3,577,314,4,40,20,7,4,0,132,41,66
539961,2,1052,551,16,35,45,6,7,0,269,52,121
539961,1,479,244,5,34,26,5,0,1,107,28,38
540005,1,157,91,1,4,7,0,2,0,50,4,23
540030,2,544,325,19,33,25,3,1,0,169,23,52
540030,1,1386,782,38,75,70,5,1,2,360,77,154
540161,1,295,196,3,15,10,3,1,2,102,20,40
540196,4,115,61,0,4,2,0,0,0,43,1,11
540196,3,745,450,8,43,37,3,2,3,206,43,105
540196,5,152,91,2,11,8,0,3,1,32,12,22
540196,2,746,475,14,27,41,8,5,3,208,54,115
540196,1,637,381,13,49,30,3,1,2,174,33,76
540226,2,529,366,13,37,45,4,1,4,131,22,109
540226,1,1072,642,30,55,76,3,3,2,254,61,158
540234,2,163,112,2,13,5,1,1,1,69,9,11
540234,1,541,299,9,28,30,2,2,0,163,19,46
540331,4,117,81,11,5,2,1,0,0,50,3,9
540331,3,88,48,3,4,2,0,0,0,31,2,6
540331,2,100,63,6,8,1,0,0,0,28,7,13
540331,1,132,81,2,1,3,0,2,2,56,4,11
540366,1,312,162,5,14,4,0,0,2,107,7,23
540382,2,315,173,3,20,7,6,3,1,98,11,24
540382,1,1769,921,15,73,48,6,6,3,568,27,175
540471,9,200,130,2,12,10,1,1,0,49,8,47
540471,8,166,113,3,15,14,2,2,0,54,3,20
540471,7,287,161,2,22,13,2,0,1,64,10,47
540471,6,898,559,18,53,51,7,2,1,243,58,126
540471,5,951,586,18,49,48,7,3,3,289,42,127
540471,4,1528,634,23,66,44,4,2,8,291,60,136
540471,3,826,440,16,38,26,8,1,3,228,24,96
540471,2,1012,590,25,56,47,7,2,8,265,53,127
540471,1,1160,762,24,67,63,11,5,9,350,70,163
540471,12,127,72,3,2,1,2,1,0,50,1,12
540471,11,113,71,0,3,7,0,1,0,36,3,21
540471,10,125,88,2,10,3,0,0,1,43,11,18
540471,13,139,103,8,10,16,1,5,0,40,12,11
540480,2,173,106,2,9,3,2,1,1,52,4,32
540480,1,875,567,20,47,62,7,4,3,234,23,167
540501,3,162,104,1,12,3,3,0,0,54,4,27
540501,2,1266,848,37,75,110,15,4,3,319,48,237
540501,1,1185,728,29,52,112,13,9,1,297,45,170
540510,2,192,127,1,10,10,1,1,0,65,7,32
540510,1,704,390,12,36,58,3,0,0,180,27,74
540544,4,106,68,0,2,4,0,0,1,35,5,21
540544,3,111,74,0,3,4,1,0,1,45,9,11
540544,2,155,103,2,10,11,0,0,0,43,8,29
540544,1,717,390,4,37,21,4,1,1,220,30,72
540595,1,281,181,3,5,9,5,1,2,102,9,45
540609,4,67,37,1,3,2,0,0,1,20,3,7
540609,3,74,50,1,2,5,2,0,0,25,7,8
540609,2,113,74,7,4,8,0,0,0,29,4,22
540609,1,244,168,6,5,12,0,0,1,102,17,25
540650,2,87,50,1,2,2,0,0,1,31,3,10
540650,1,481,295,9,15,21,1,1,1,171,25,51
540684,1,808,445,14,44,23,4,3,6,242,36,73
540731,1,175,104,4,8,13,1,1,1,55,6,15
540773,2,1294,788,9,69,108,9,4,5,331,63,190
540773,1,1204,813,27,74,97,5,6,3,370,66,165
540854,1,391,292,3,11,59,2,1,0,116,26,74
540862,1,863,508,20,30,43,4,4,3,280,43,81
540862,3,785,480,9,39,59,11,5,1,213,41,102
540862,2,930,489,17,41,61,6,1,0,221,47,95
540871,3,71,43,3,8,3,0,0,0,18,2,9
540871,2,112,69,3,9,5,0,0,0,35,6,11
540871,1,364,170,1,14,29,5,0,1,70,16,34
540919,1,649,438,4,44,53,4,5,3,196,32,97
540978,5,78,62,1,3,7,2,0,0,23,5,21
540978,4,175,92,7,5,15,1,0,1,26,11,26
540978,3,345,230,6,20,18,4,4,0,119,12,47
540978,2,559,335,11,28,41,5,1,1,147,28,73
540978,1,905,503,17,39,63,7,1,2,243,31,100
540986,2,93,56,3,1,4,1,0,0,37,1,9
540986,1,876,449,14,46,39,5,1,3,224,28,89
541036,1,490,270,8,18,13,5,0,1,181,13,31
541079,4,35,21,1,3,0,0,3,0,9,1,4
541079,3,77,57,2,6,7,0,0,0,20,9,13
541079,2,113,81,1,6,13,1,1,0,20,11,28
541079,1,1308,654,18,53,46,6,4,3,332,48,144
541079,5,56,39,3,3,10,0,0,0,8,5,10
541109,1,914,480,12,32,37,6,2,1,242,42,106
541117,1,547,322,14,13,11,3,5,38,180,23,35
541125,1,337,253,8,13,56,2,1,0,87,17,69
541168,4,72,37,2,0,3,0,1,0,19,4,8
541168,3,195,122,1,9,4,1,0,1,73,10,23
541168,2,98,73,1,0,3,0,0,1,39,4,25
541168,1,1293,738,17,71,75,2,5,1,318,58,191
541214,1,397,233,9,20,14,2,0,0,120,16,52
541222,1,975,566,22,39,45,4,7,2,294,50,103
541249,1,1046,542,18,32,20,2,6,4,334,40,86
541265,4,66,45,3,4,0,0,0,0,19,5,14
541265,3,121,59,3,3,2,0,0,0,45,2,4
541265,2,1000,583,11,62,68,2,1,6,254,40,139
541265,1,1005,604,16,36,59,5,1,4,297,34,152
541265,5,140,86,6,5,9,0,0,0,45,4,17
541303,1,1032,511,10,28,15,5,3,0,303,48,99
541346,1,340,200,4,12,26,2,3,1,104,22,26
541354,8,823,517,23,52,59,7,4,1,213,36,122
541354,7,1045,634,9,47,55,10,2,3,302,59,147
541354,6,1031,635,15,40,62,7,0,4,339,42,126
541354,15,162,94,0,6,19,1,0,0,42,5,21
541354,14,60,42,0,2,10,0,0,0,24,0,6
541354,13,181,102,0,8,21,3,0,0,42,8,20
541354,5,839,559,18,32,83,7,3,6,252,49,109
541354,4,815,443,19,43,72,5,2,1,155,45,101
541354,12,730,482,15,24,50,8,6,6,228,46,99
541354,11,463,323,12,18,55,6,1,0,137,22,72
541354,3,684,450,14,32,88,3,0,3,164,43,103
541354,2,1294,543,25,47,78,5,6,2,189,36,155
541354,1,1201,833,25,72,128,10,3,7,351,54,183
541354,10,835,484,12,41,42,6,3,5,240,34,101
541354,9,983,560,17,60,54,7,3,1,250,50,118
541478,1,685,453,6,37,53,2,4,2,210,46,93
541575,2,171,107,2,5,6,2,0,0,75,6,11
541575,1,862,487,13,40,26,4,2,1,272,30,99
543543,1,192,102,5,5,7,5,1,0,64,3,12
544710,1,107,81,4,10,10,4,0,1,27,9,16
545279,1,402,212,1,10,8,3,0,1,160,6,23
546976,1,117,73,1,5,14,0,0,0,33,6,14
547018,1,476,312,9,18,28,3,1,2,153,14,84
547026,1,786,520,26,65,82,8,2,2,180,29,126
547077,1,1047,731,36,57,134,12,2,1,216,37,236
547093,1,43,26,1,8,0,0,0,0,9,0,8
547123,1,176,124,1,4,13,4,0,0,67,10,25
547433,1,577,428,16,18,52,8,2,1,224,19,88
547450,1,230,141,5,18,15,3,0,0,58,9,33
547514,1,138,96,3,9,7,3,0,0,43,10,21
549967,1,86,73,7,6,4,0,0,1,24,5,26
549983,1,126,87,2,4,11,0,1,1,44,8,16
552011,1,570,354,13,33,39,9,0,0,151,25,84
552020,1,632,422,22,34,62,2,0,2,127,42,131
552038,1,172,96,3,8,8,2,0,0,35,11,29
552062,1,171,122,6,2,30,1,1,1,46,14,21
552071,1,186,119,5,6,21,0,0,1,56,4,26
552089,1,490,341,21,37,40,10,0,1,106,32,94
552119,1,1103,674,20,58,54,7,1,1,329,51,153
552151,1,934,568,18,48,66,21,1,2,237,53,122
552160,1,751,442,10,30,40,2,3,0,215,37,105
552178,1,377,241,21,15,18,3,5,0,106,14,59
552186,1,1193,723,21,45,89,6,1,2,344,66,149
552194,1,155,92,5,3,13,0,2,0,43,5,21
552216,1,390,273,14,30,27,2,1,1,102,23,73
552232,1,537,365,10,21,38,8,4,2,148,29,105
552259,1,187,120,6,6,10,1,1,0,71,9,16
552267,1,288,206,8,10,33,1,0,2,112,17,23
552305,1,140,81,0,8,10,0,0,0,40,2,21
552313,1,261,157,6,15,15,2,0,0,64,20,35
552330,1,166,107,6,12,17,0,0,0,35,9,28
552348,1,558,319,8,27,20,0,1,1,151,39,72
552356,1,366,254,5,22,17,8,1,1,117,19,64
552364,1,343,231,9,16,18,1,6,3,88,12,78
552372,4,78,59,0,3,20,0,1,0,20,4,11
552372,3,142,69,0,7,4,0,1,0,41,6,10
552372,2,188,97,2,4,0,0,0,0,56,9,26
552372,1,855,483,8,38,62,3,4,3,231,47,87
552381,1,642,388,7,30,52,4,1,2,167,35,90
552399,1,186,140,2,8,11,3,0,0,59,13,44
552402,1,534,382,20,35,71,1,0,0,121,36,98
552411,1,1182,676,25,53,74,3,7,2,291,73,148
552429,1,162,107,1,12,6,0,2,0,58,6,22
552437,1,382,251,7,16,36,5,1,2,127,9,48
552445,1,487,319,12,14,27,1,3,0,148,40,74
552755,1,183,123,1,3,5,1,2,0,79,11,21
552771,1,283,190,10,19,14,4,3,1,88,18,33
552780,1,332,215,8,6,23,1,1,2,121,18,35
552810,1,137,82,1,8,2,1,1,2,46,7,14
552836,1,191,111,3,5,20,2,0,1,54,11,15
552844,1,379,260,8,24,21,5,3,3,117,19,60
552879,1,453,267,14,9,16,2,1,3,156,22,44
552887,1,199,127,5,13,7,2,3,1,59,7,30
552909,1,505,253,14,14,39,3,0,2,117,11,53
552950,1,177,110,0,4,5,2,0,0,80,5,14
552968,1,126,99,0,7,20,1,0,0,45,7,19
552984,1,48,42,0,7,6,0,1,0,19,0,9
553000,1,261,152,0,8,7,1,0,0,100,13,23
553191,1,71,33,1,0,0,0,0,1,24,5,2
553212,1,37,28,2,1,0,0,0,0,19,2,4
553221,1,499,334,11,22,30,4,2,2,145,18,100
553247,1,212,114,5,9,5,3,0,0,58,9,25
553301,2,116,64,2,3,2,2,0,1,39,3,12
553301,1,187,101,4,3,16,1,0,1,41,9,26
553336,1,313,216,9,10,17,4,1,1,105,16,53
553344,1,160,108,3,12,5,1,1,0,57,9,20
553352,1,268,178,4,10,20,3,0,2,90,16,33
553379,1,1102,743,24,78,73,7,7,5,349,47,153
553387,1,113,86,8,8,17,0,1,0,27,5,20
553395,1,151,88,5,2,10,0,0,0,51,4,16
553468,1,605,291,7,22,18,4,3,3,185,15,34
553476,1,531,356,7,41,59,2,3,2,125,21,96
553484,1,614,324,3,22,20,1,1,1,201,32,43
554103,1,167,118,3,6,8,1,1,2,62,13,22
554146,1,195,124,8,5,8,0,1,0,50,8,44
554901,2,161,110,7,14,6,2,0,0,38,7,36
554901,1,1192,770,44,56,102,9,6,5,271,67,210
554944,1,556,339,14,40,53,5,2,1,145,26,53
556998,1,548,336,15,22,46,2,0,2,165,23,61
557196,1,233,131,2,10,14,0,2,1,75,6,21
557218,1,333,159,8,6,10,2,1,3,93,9,27
558419,1,1150,749,20,61,70,9,5,1,328,59,196
568392,1,1051,685,32,48,91,12,5,3,265,57,172
568872,1,678,439,13,37,65,9,1,2,189,32,91
568911,1,213,129,3,11,30,4,1,1,41,8,30
568961,1,350,248,6,5,40,10,1,1,115,19,51
569003,1,512,299,7,18,32,3,0,4,126,38,71
569054,1,128,75,0,6,6,3,0,0,38,2,20
569135,1,250,168,3,4,15,4,2,0,101,11,28
569143,1,359,212,9,19,21,0,6,0,86,28,43
569178,1,261,169,6,9,7,3,1,1,104,16,22
569194,1,132,80,4,7,4,2,0,1,43,4,15
569259,1,207,135,7,6,8,1,1,0,72,13,27
569267,1,184,126,1,5,23,1,0,1,69,4,22
569275,1,178,111,1,5,11,0,0,0,54,19,21
569283,1,116,73,1,4,2,2,1,0,39,7,17
569305,1,460,311,11,25,66,5,1,0,116,17,70
569330,1,337,288,19,32,54,2,0,2,58,24,97
569356,2,1094,576,16,37,53,13,5,3,305,36,108
569356,1,872,530,18,58,25,12,2,2,264,32,117
569372,1,151,63,1,2,3,2,0,0,43,6,6
569381,1,531,303,16,32,17,5,4,0,145,19,65
569437,1,500,306,9,35,31,1,3,0,136,26,65
569445,2,933,630,30,64,82,4,6,3,243,40,158
569445,1,937,566,28,68,72,10,1,1,198,57,131
569453,1,456,265,1,12,5,3,3,9,187,14,31
569542,1,353,273,15,14,25,3,1,1,134,25,55
569771,1,141,93,5,5,17,1,0,0,30,13,22
569798,1,268,133,5,3,5,3,1,0,75,10,31
569844,1,310,162,3,15,17,4,0,1,71,15,36
570061,1,230,169,2,6,18,1,0,2,85,8,47
570079,1,685,428,14,36,47,3,2,1,195,37,93
570095,1,187,131,4,4,24,2,2,1,52,12,30
570117,1,30,18,0,0,4,0,0,0,7,0,7
570141,1,281,207,3,14,20,2,3,0,113,7,45
570281,1,113,69,0,6,4,1,0,1,41,5,11
570338,1,178,128,3,7,29,0,6,0,39,8,36
589250,42,952,666,35,63,47,10,0,2,241,62,206
589250,41,1093,746,25,56,70,8,1,6,362,63,155
589250,40,576,400,18,31,44,6,1,1,175,39,85
589250,39,1077,663,25,37,63,9,2,5,312,65,145
589250,38,1028,651,21,79,75,11,9,5,215,57,179
589250,37,797,506,21,31,51,12,4,2,216,39,130
589250,36,819,376,19,23,26,1,2,0,213,27,65
589250,44,419,263,2,20,18,4,5,6,139,13,56
589250,43,929,621,30,67,50,5,2,2,275,51,139
589250,35,666,386,12,32,36,4,2,1,196,31,72
589250,34,467,259,7,14,20,0,0,1,137,15,65
589250,33,693,407,15,24,32,0,6,1,199,48,82
589250,32,608,408,16,26,36,7,5,0,203,21,94
589250,1,2021,413,27,41,32,7,0,1,178,47,80
589250,29,734,410,20,18,34,9,5,0,203,26,95
589250,28,808,523,18,30,59,14,1,2,218,40,141
589250,27,720,437,19,38,40,7,4,1,196,33,99
589250,26,948,574,30,60,44,8,1,0,227,52,152
589250,25,791,499,19,44,52,6,4,1,232,29,112
589250,24,768,449,19,42,39,3,4,2,227,31,82
589250,23,963,527,15,46,30,5,3,2,268,62,96
589250,22,940,568,20,47,42,6,2,1,283,60,107
589250,21,645,357,7,27,31,5,4,4,169,31,79
589250,20,647,391,13,15,30,11,2,3,198,35,84
589250,19,850,517,20,42,59,8,2,1,225,51,109
589250,18,896,517,10,37,37,5,2,0,244,53,129
589250,17,794,469,15,32,45,7,3,4,232,42,89
589250,16,897,571,17,34,54,3,4,1,288,56,114
589250,15,929,522,23,49,53,7,3,3,214,37,133
589250,14,589,370,10,34,39,3,1,1,156,35,91
589250,13,1026,563,17,52,50,11,1,3,243,35,151
589250,12,830,480,15,29,40,10,9,3,232,30,112
589250,11,586,368,21,35,30,2,1,1,172,22,84
589250,10,669,405,16,38,42,5,4,1,151,53,95
589250,9,800,574,27,57,43,8,1,5,242,39,152
589250,8,742,478,13,24,38,4,2,1,263,38,95
589250,7,882,505,22,51,53,5,2,0,191,39,142
589250,6,839,551,24,59,45,10,3,1,205,44,160
589250,5,785,478,17,41,58,1,5,3,194,39,120
589250,4,733,400,12,36,31,8,1,0,164,33,115
589250,3,880,461,18,47,45,2,3,0,202,47,97
589250,2,589,326,14,24,35,3,0,3,148,23,76
589250,31,725,434,12,31,29,7,4,0,201,32,118
589250,30,711,467,15,32,28,3,1,3,255,45,85
589268,1,831,502,20,29,27,1,3,0,291,34,97
589276,2,136,103,1,8,5,0,5,0,58,11,15
589276,1,294,191,1,19,9,3,0,1,103,11,44
589284,1,240,135,7,9,5,1,2,0,63,6,42
589292,1,364,237,9,22,27,4,5,3,109,12,46
589306,1,106,73,2,7,6,0,0,2,34,7,15
589314,2,70,47,0,3,2,2,1,0,24,2,13
589314,1,627,412,4,20,44,3,0,2,218,38,83
589322,2,101,64,10,7,6,0,0,1,30,5,5
589322,1,1115,648,24,31,56,7,5,0,328,57,140
589331,1,177,113,2,4,10,3,4,1,49,14,26
589349,1,327,219,5,10,12,2,2,0,126,14,48
589357,1,264,175,7,5,19,0,0,0,91,11,42
589365,1,422,289,17,21,15,4,2,1,155,11,63
589381,1,812,551,11,24,47,5,1,3,286,52,122
589390,1,435,286,11,6,11,3,1,0,182,24,48
589403,3,126,83,1,10,2,2,0,0,39,11,18
589403,2,104,57,0,3,6,1,1,0,31,2,13
589403,1,824,484,14,41,29,1,2,2,265,43,87
589420,1,426,285,8,19,27,3,1,1,130,13,83
589438,1,267,172,8,13,17,0,1,0,77,16,40
589446,1,627,304,6,33,29,0,0,1,156,14,65
589454,1,457,234,6,5,11,3,2,1,139,20,47
589462,1,433,299,7,20,16,3,1,0,179,34,39
589489,1,378,212,2,11,25,0,0,0,122,19,33
589497,1,212,135,0,4,16,0,1,1,76,9,28
589501,1,288,173,3,10,4,3,2,2,102,17,30
589519,2,68,47,1,3,3,0,0,0,30,1,9
589519,1,680,437,8,28,46,3,3,2,260,20,67
589527,2,160,93,4,9,9,1,1,0,41,5,23
589527,1,164,92,3,7,11,1,3,0,45,8,14
589535,1,181,119,1,4,3,4,0,0,64,10,33
589543,1,610,378,10,25,28,4,3,4,182,37,85
589560,2,69,47,2,4,0,0,0,0,32,0,9
589560,1,354,242,9,12,25,2,8,0,117,26,43
589578,1,385,236,7,30,6,0,3,0,129,16,45
589586,1,235,156,3,9,22,1,3,0,80,6,32
589594,1,289,164,2,8,15,3,0,0,74,14,48
589608,1,670,345,9,17,24,6,2,1,183,30,73
589616,1,236,162,5,5,11,0,0,0,84,19,38
589624,6,107,71,0,2,4,3,1,0,42,5,14
589624,5,113,71,0,2,6,2,2,0,45,5,9
589624,4,147,86,5,0,13,1,1,0,41,7,18
589624,3,128,90,2,5,10,0,1,0,50,9,13
589624,2,846,516,15,45,66,6,0,2,250,30,102
589624,1,948,593,23,32,73,9,3,2,293,35,123
589632,2,961,585,28,26,54,17,1,2,277,39,141
589632,1,1349,756,24,64,48,9,2,1,348,75,185
589641,1,235,159,2,5,24,3,1,0,95,3,26
589659,1,1278,792,28,51,57,11,1,2,389,60,193
589667,1,466,307,7,27,28,2,0,0,157,21,65
589675,2,78,54,5,1,4,0,1,0,28,1,14
589675,1,401,280,8,21,37,6,5,0,132,18,53
589683,1,312,193,3,16,9,3,3,1,103,13,42
589691,3,76,60,1,2,12,1,0,1,24,3,16
589691,2,155,117,1,13,22,0,1,0,48,10,22
589691,1,374,258,4,28,38,0,1,0,105,13,69
589705,4,111,56,2,3,13,0,0,1,22,5,10
589705,3,65,32,1,3,2,2,1,1,16,1,5
589705,2,73,52,1,3,1,0,0,1,32,1,13
589705,1,225,121,3,4,13,0,2,1,63,15,20
589713,1,308,210,9,12,24,2,1,0,103,9,50
589721,1,417,242,4,18,16,2,0,2,135,24,41
589730,1,1271,853,35,66,41,12,9,5,444,64,177
589748,3,156,116,9,14,8,3,4,2,36,11,29
589748,2,105,83,2,7,6,4,0,0,39,17,8
589748,1,312,193,4,17,18,8,0,2,100,13,31
589756,2,923,515,24,25,33,1,2,3,249,46,132
589756,1,661,391,8,17,28,0,3,6,255,24,50
589764,1,1122,627,24,35,58,4,1,1,326,41,137
589772,1,259,169,3,13,3,2,2,0,99,14,33
589799,1,204,96,0,7,4,1,0,0,54,6,24
589802,1,373,270,8,16,46,4,0,1,109,17,69
589811,1,146,106,3,13,24,1,0,0,36,4,25
589829,2,132,80,0,8,0,1,0,0,54,3,14
589829,1,1255,768,27,64,63,13,12,6,369,71,143
589837,1,288,177,5,10,24,2,0,0,88,15,33
589845,1,1017,648,27,40,50,14,3,4,341,35,134
589853,1,226,148,0,9,12,2,0,0,63,17,45
589870,1,595,366,13,17,49,2,2,0,208,25,50
589888,1,565,381,35,21,43,7,3,0,163,27,82
589896,5,115,67,0,10,8,0,0,0,39,5,5
589896,4,175,111,2,8,11,2,0,0,51,6,31
589896,3,243,163,7,11,14,7,0,0,78,12,34
589896,2,703,411,20,31,37,4,6,1,172,30,110
589896,1,667,434,20,43,58,6,7,1,158,40,101
589918,1,243,141,7,10,6,1,4,1,55,17,40
589926,1,804,573,19,35,95,7,1,0,262,58,96
589934,2,113,74,0,3,16,0,0,0,30,4,21
589934,1,914,570,11,27,72,9,10,4,287,45,105
589942,2,190,142,4,19,14,0,0,0,64,17,24
589942,1,680,416,10,23,70,1,2,1,187,33,89
589951,1,161,101,0,10,16,0,0,0,47,9,19
589969,1,83,64,3,3,8,0,0,0,32,6,12
589977,2,80,57,0,2,1,5,0,2,31,2,14
589977,1,414,269,12,19,18,0,1,1,134,31,53
589993,1,210,151,7,20,10,0,4,0,61,18,31
590002,1,265,156,1,5,18,3,0,0,101,10,18
590011,1,455,319,13,29,29,3,1,2,121,30,91
590029,1,1313,789,29,87,49,7,4,6,365,71,171
590045,1,71,34,2,0,1,1,0,0,19,6,5
590053,2,127,91,8,3,4,0,2,0,38,15,21
590053,1,313,195,4,9,15,1,2,1,113,10,40
590061,1,123,86,1,1,18,1,0,0,36,13,16
590070,1,344,239,3,13,15,1,1,3,142,19,42
590088,3,53,41,0,0,7,0,0,0,17,7,10
590088,2,170,132,3,2,27,2,0,0,55,15,28
590088,1,272,202,5,10,28,2,2,1,82,14,58
590096,1,201,110,0,10,3,3,0,0,60,8,26
590100,1,383,230,3,12,10,2,1,2,153,9,38
590118,1,248,145,2,12,13,1,0,1,68,16,32
590126,2,558,302,5,26,22,4,4,0,138,13,90
590126,1,529,322,9,26,18,3,0,0,152,34,80
590134,1,359,196,6,6,14,0,0,2,118,19,31
590142,1,406,267,10,28,18,5,0,1,132,22,51
590151,1,140,87,5,5,9,3,3,0,39,9,14
590177,2,259,164,6,14,13,1,0,2,75,8,45
590177,1,238,166,6,12,21,7,0,4,71,18,27
590185,3,234,156,7,16,7,2,0,2,79,16,27
590185,2,381,243,14,16,28,2,1,0,102,18,62
590185,1,703,454,19,27,36,5,2,2,208,39,116
590193,1,476,285,12,18,31,9,1,0,151,23,40
590207,1,425,277,11,17,46,1,4,0,104,13,81
590215,1,396,262,13,18,34,3,5,0,93,29,67
590223,1,288,192,6,12,10,3,0,0,114,13,34
590240,1,430,285,5,18,21,6,7,0,161,17,50
597414,2,121,58,4,8,0,0,0,0,41,2,3
597414,1,358,166,1,5,5,2,0,0,102,14,37
597678,4,80,34,0,0,0,0,0,0,24,4,6
597678,3,877,477,13,33,26,3,4,4,260,39,95
597678,2,883,391,14,34,14,4,2,1,236,27,59
597678,1,457,203,4,17,10,0,1,1,117,16,37
597678,6,37,27,1,1,3,0,1,0,16,1,4
597678,5,92,39,1,1,6,0,0,0,22,4,5
597686,2,114,47,0,1,2,2,0,0,31,2,9
597686,1,121,60,2,4,3,0,0,0,44,4,3
597996,3,706,374,12,32,20,2,3,1,230,24,50
597996,2,709,385,9,23,36,6,4,1,195,32,79
597996,1,895,338,14,26,16,10,4,2,176,25,65
597996,7,86,64,8,8,13,0,0,0,21,2,12
597996,6,37,24,2,1,0,1,1,0,9,1,9
597996,5,246,133,10,14,7,0,1,0,72,9,20
597996,4,578,303,10,19,18,4,1,1,175,23,52
