OBEC,OKRSEK,VOLICI,HLASY,HLASY_7,HLASY_9
500020,2,706,450,280,170
500020,1,274,183,118,65
500135,2,80,49,44,5
500135,1,136,73,58,15
500151,1,94,67,60,7
500160,2,86,55,43,12
500160,1,409,202,157,45
500496,95,918,575,336,239
500496,94,839,641,321,320
500496,92,761,498,239,259
500496,90,736,528,241,287
500496,91,838,578,379,199
500496,93,742,471,248,223
500496,27,663,460,261,199
500496,26,882,592,322,270
500496,25,1136,749,415,334
500496,24,385,273,154,119
500496,55,754,493,235,258
500496,54,353,245,145,100
500496,53,877,681,367,314
500496,52,969,657,309,348
500496,23,920,701,337,364
500496,22,786,603,195,408
500496,21,980,612,357,255
500496,20,1457,1069,456,613
500496,51,635,448,182,266
500496,50,762,524,288,236
500496,49,807,564,325,239
500496,48,897,604,323,281
500496,47,1210,845,420,425
500496,6,517,328,106,222
500496,5,647,467,122,345
500496,46,804,589,322,267
500496,45,1489,1012,530,482
500496,44,973,674,395,279
500496,43,910,619,365,254
500496,42,852,604,327,277
500496,41,911,599,356,243
500496,40,770,549,276,273
500496,39,724,447,268,179
500496,38,283,189,98,91
500496,37,1041,760,378,382
500496,4,747,505,214,291
500496,3,513,351,86,265
500496,2,4060,775,323,452
500496,19,701,403,188,215
500496,18,920,589,249,340
500496,17,975,692,294,398
500496,36,799,520,348,172
500496,35,845,629,236,393
500496,1,643,437,162,275
500496,34,1005,704,377,327
500496,33,783,528,280,248
500496,32,662,476,243,233
500496,31,1017,704,389,315
500496,30,1098,770,313,457
500496,29,684,476,264,212
500496,28,572,383,193,190
500496,11,541,384,157,227
500496,10,812,567,224,343
500496,9,725,487,181,306
500496,8,818,604,242,362
500496,7,916,676,213,463
500496,16,894,638,337,301
500496,15,708,477,222,255
500496,14,755,471,228,243
500496,13,603,420,219,201
500496,12,883,653,289,364
500496,72,821,604,240,364
500496,71,1063,744,346,398
500496,70,1561,852,427,425
500496,69,993,663,286,377
500496,68,880,596,250,346
500496,67,878,570,318,252
500496,66,1021,692,382,310
500496,89,1332,930,478,452
500496,88,387,295,146,149
500496,87,870,622,296,326
500496,86,270,195,96,99
500496,85,582,450,220,230
500496,84,629,503,214,289
500496,83,1007,737,335,402
500496,65,923,556,277,279
500496,64,373,247,137,110
500496,63,542,381,186,195
500496,62,674,496,244,252
500496,61,832,583,238,345
500496,82,1021,656,348,308
500496,81,1003,678,376,302
500496,80,858,602,315,287
500496,79,970,723,309,414
500496,78,707,489,193,296
500496,60,687,421,181,240
500496,59,686,507,202,305
500496,58,865,590,334,256
500496,57,504,332,166,166
500496,56,612,456,231,225
500496,77,913,631,235,396
500496,76,613,457,196,261
500496,75,960,659,306,353
500496,74,1062,722,385,337
500496,73,870,536,277,259
500526,1,1773,1230,698,532
500623,7,94,68,50,18
500623,6,160,113,79,34
500623,5,229,155,89,66
500623,4,75,47,36,11
500623,3,109,85,59,26
500623,2,112,91,51,40
500623,1,147,84,60,24
500801,1,502,352,202,150
500852,1,2036,1507,818,689
500861,4,149,102,69,33
500861,3,91,64,40,24
500861,2,56,42,24,18
500861,1,504,330,166,164
500861,7,94,75,43,32
500861,6,109,82,53,29
500861,5,67,54,30,24
500861,9,108,73,40,33
500861,8,67,48,27,21
500879,1,638,449,243,206
501476,3,146,92,57,35
501476,2,783,470,297,173
501476,1,621,379,228,151
501646,3,183,129,80,49
501646,2,216,133,89,44
501646,1,1666,1170,552,618
501751,4,116,78,65,13
501751,3,224,158,102,56
501751,2,314,228,155,73
501751,1,744,470,285,185
501794,1,1260,819,499,320
501841,1,1192,840,472,368
502146,4,225,125,70,55
502146,3,1259,776,496,280
502146,2,594,299,187,112
502146,1,1466,993,606,387
502235,1,1359,987,498,489
502405,1,484,317,180,137
502545,2,969,720,406,314
502545,1,973,663,397,266
502839,1,577,422,271,151
503142,1,464,311,198,113
503304,1,668,482,262,220
503444,6,405,275,150,125
503444,5,1244,587,356,231
503444,17,116,82,46,36
503444,16,153,122,80,42
503444,4,1119,766,449,317
503444,3,960,614,387,227
503444,2,678,474,297,177
503444,15,322,226,129,97
503444,14,164,125,95,30
503444,13,173,106,62,44
503444,12,291,193,99,94
503444,11,186,130,82,48
503444,1,1248,793,473,320
503444,10,394,267,166,101
503444,9,80,65,41,24
503444,8,218,130,79,51
503444,7,246,171,101,70
503622,2,116,86,58,28
503622,1,433,294,204,90
503622,4,83,59,34,25
503622,3,56,44,26,18
503657,4,553,420,263,157
503657,3,686,424,278,146
503657,2,501,333,233,100
503657,1,820,497,286,211
503738,1,941,655,409,246
504246,2,196,119,82,37
504246,1,430,230,161,69
504441,3,101,69,44,25
504441,2,269,192,112,80
504441,1,798,561,343,218
504505,3,96,72,45,27
504505,2,702,505,294,211
504505,1,851,576,333,243
504785,1,1116,725,448,277
505013,2,796,529,286,243
505013,1,248,191,155,36
505081,2,176,126,78,48
505081,1,1097,769,434,335
505081,3,198,142,111,31
505111,2,306,230,160,70
505111,1,977,803,506,297
505161,4,363,247,159,88
505161,3,1046,598,356,242
505161,2,948,716,401,315
505161,1,459,303,209,94
505188,5,1308,894,570,324
505188,4,1008,639,335,304
505188,3,900,591,363,228
505188,2,954,514,335,179
505188,1,1112,713,357,356
505188,10,118,83,51,32
505188,9,1208,780,426,354
505188,8,1346,947,481,466
505188,7,1840,886,518,368
505188,6,774,565,312,253
505188,12,148,85,57,28
505188,11,75,53,24,29
505188,13,81,55,42,13
505218,2,254,162,120,42
505218,1,1101,698,409,289
505269,1,571,373,206,167
505269,3,283,201,117,84
505269,2,161,131,63,68
505293,3,172,129,89,40
505293,2,168,131,56,75
505293,1,1173,817,505,312
505366,5,110,73,44,29
505366,4,100,70,47,23
505366,3,69,54,43,11
505366,2,107,88,49,39
505366,1,840,561,369,192
505366,6,92,52,31,21
505501,1,1154,696,468,228
505587,18,111,80,40,40
505587,17,94,60,45,15
505587,16,200,130,90,40
505587,4,880,579,337,242
505587,3,997,722,362,360
505587,2,883,324,184,140
505587,12,170,131,76,55
505587,11,346,243,129,114
505587,15,241,184,112,72
505587,14,98,51,34,17
505587,13,154,101,67,34
505587,10,974,634,375,259
505587,1,569,384,192,192
505587,9,705,479,293,186
505587,8,427,307,179,128
505587,7,787,491,293,198
505587,6,748,471,296,175
505587,5,915,534,331,203
505609,2,1300,954,444,510
505609,1,1246,842,418,424
505650,3,207,149,85,64
505650,2,260,206,121,85
505650,1,1696,1182,642,540
505668,1,1055,708,424,284
505862,1,375,259,115,144
506761,1,201,143,83,60
506770,1,411,307,166,141
511382,17,836,555,364,191
511382,16,914,665,397,268
511382,15,877,595,404,191
511382,14,673,317,207,110
511382,47,672,451,270,181
511382,46,580,412,246,166
511382,45,496,319,224,95
511382,27,607,240,139,101
511382,26,243,160,100,60
511382,25,453,324,221,103
511382,24,639,481,297,184
511382,23,177,135,87,48
511382,13,629,415,228,187
511382,12,2382,534,355,179
511382,11,991,620,395,225
511382,10,801,550,348,202
511382,9,1044,737,424,313
511382,8,838,578,338,240
511382,44,595,403,257,146
511382,43,657,439,289,150
511382,42,651,425,292,133
511382,41,805,557,373,184
511382,40,686,463,290,173
511382,7,880,552,350,202
511382,6,688,481,312,169
511382,5,537,356,220,136
511382,4,490,326,217,109
511382,39,824,587,357,230
511382,38,671,478,322,156
511382,37,531,361,250,111
511382,3,1020,743,506,237
511382,2,836,571,354,217
511382,1,986,665,457,208
511382,36,810,556,353,203
511382,35,763,510,369,141
511382,34,764,517,354,163
511382,33,758,495,334,161
511382,32,791,582,415,167
511382,51,625,489,293,196
511382,50,483,372,221,151
511382,49,430,296,200,96
511382,48,604,310,210,100
511382,31,627,447,303,144
511382,30,645,429,271,158
511382,29,647,355,252,103
511382,28,546,341,210,131
511382,22,155,105,72,33
511382,21,440,303,185,118
511382,20,561,417,271,146
511382,19,287,196,125,71
511382,18,904,567,367,200
512231,4,119,78,63,15
512231,3,76,45,29,16
512231,2,209,143,101,42
512231,1,1037,611,416,195
512281,1,540,395,275,120
512401,1,143,106,66,40
512532,1,786,533,349,184
512800,3,152,100,67,33
512800,2,687,475,311,164
512800,1,759,491,298,193
512826,1,315,230,157,73
512877,1,319,247,162,85
512982,1,457,339,195,144
513059,1,92,63,47,16
513067,2,198,150,71,79
513067,1,452,313,172,141
513105,1,182,130,69,61
513199,3,226,170,126,44
513199,2,298,202,161,41
513199,1,451,300,183,117
513211,1,437,314,196,118
513229,1,1212,785,529,256
513491,2,570,376,263,113
513491,1,774,513,320,193
513636,1,246,191,112,79
513733,1,236,181,113,68
513750,20,788,599,282,317
513750,19,1054,689,425,264
513750,18,860,590,359,231
513750,17,99,62,49,13
513750,16,221,164,108,56
513750,15,123,83,50,33
513750,14,1251,894,517,377
513750,6,881,598,358,240
513750,5,622,446,286,160
513750,4,498,312,209,103
513750,3,902,523,331,192
513750,2,887,575,366,209
513750,1,850,537,293,244
513750,13,451,320,205,115
513750,12,644,434,283,151
513750,11,768,528,252,276
513750,10,1088,366,197,169
513750,9,1022,577,360,217
513750,8,827,554,336,218
513750,7,920,670,313,357
513768,3,166,136,60,76
513768,2,169,122,60,62
513768,1,1056,756,387,369
513873,1,375,281,133,148
514047,1,211,158,89,69
514055,8,119,77,68,9
514055,7,129,76,46,30
514055,6,884,565,382,183
514055,5,983,412,266,146
514055,4,778,499,335,164
514055,3,590,377,247,130
514055,2,786,452,285,167
514055,1,626,369,235,134
514152,1,915,623,396,227
514446,1,179,121,74,47
514471,1,469,312,205,107
514497,1,268,198,137,61
514527,1,46,31,17,14
514705,9,89,60,31,29
514705,8,165,116,84,32
514705,11,258,179,121,58
514705,10,390,270,208,62
514705,2,515,337,215,122
514705,1,691,447,296,151
514705,7,932,570,332,238
514705,6,731,503,278,225
514705,5,919,648,403,245
514705,4,840,524,359,165
514705,3,984,374,211,163
514772,1,236,165,108,57
514802,1,197,139,84,55
515191,1,600,371,245,126
515329,1,292,217,146,71
515418,1,341,242,168,74
515477,1,204,158,86,72
515787,1,158,93,57,36
515825,1,95,58,37,21
516201,1,651,452,248,204
516350,1,76,60,41,19
516619,1,990,715,425,290
516635,1,318,220,112,108
516686,1,399,303,174,129
516694,1,596,445,284,161
516864,1,168,122,73,49
516899,1,407,256,159,97
516911,1,205,114,90,24
517101,5,72,39,28,11
517101,4,116,76,57,19
517101,3,101,74,46,28
517101,2,78,56,28,28
517101,1,617,374,238,136
517151,1,663,464,317,147
517208,1,108,77,44,33
517224,1,224,149,110,39
517275,1,122,100,70,30
517321,1,195,133,106,27
517437,1,130,89,64,25
517445,1,148,113,79,34
517534,1,915,622,401,221
517569,1,225,146,97,49
517585,1,321,215,143,72
517607,1,1169,798,558,240
517615,1,208,144,88,56
517666,1,394,246,166,80
517747,1,486,295,137,158
517836,1,132,89,61,28
517844,1,485,355,240,115
517887,1,497,306,206,100
517909,1,676,499,269,230
518026,1,276,200,136,64
519031,1,407,334,184,150
519146,2,994,602,382,220
519146,1,1030,704,444,260
519651,2,813,584,377,207
519651,1,838,598,371,227
520047,1,351,277,178,99
520306,1,441,313,153,160
520420,1,721,499,308,191
521531,1,727,517,305,212
522775,1,195,123,59,64
523453,1,183,132,96,36
523640,1,441,322,205,117
523704,19,685,521,262,259
523704,18,687,427,266,161
523704,17,786,450,261,189
523704,30,128,55,34,21
523704,29,851,578,320,258
523704,28,884,534,308,226
523704,16,703,452,313,139
523704,15,543,370,189,181
523704,14,823,584,267,317
523704,13,637,414,236,178
523704,12,622,435,205,230
523704,11,722,491,273,218
523704,10,692,437,250,187
523704,27,744,458,291,167
523704,26,588,323,199,124
523704,25,771,567,273,294
523704,24,734,493,298,195
523704,23,542,397,186,211
523704,22,813,534,295,239
523704,21,742,462,236,226
523704,20,800,538,291,247
523704,2,753,508,311,197
523704,1,1608,532,276,256
523704,9,694,419,265,154
523704,8,706,449,286,163
523704,7,626,392,268,124
523704,6,770,517,299,218
523704,5,616,393,261,132
523704,4,579,398,267,131
523704,3,605,413,257,156
523917,3,400,257,128,129
523917,2,626,423,242,181
523917,1,618,426,270,156
524891,1,669,372,283,89
525227,1,261,149,82,67
525588,3,832,643,347,296
525588,2,853,552,335,217
525588,1,850,617,348,269
525804,3,114,80,48,32
525804,2,412,287,203,84
525804,1,566,356,235,121
525880,1,410,297,186,111
525979,1,602,404,276,128
526169,1,309,220,84,136
530727,1,530,347,226,121
532894,1,327,245,139,106
533491,1,480,282,187,95
533688,1,393,251,161,90
534927,1,843,614,390,224
535532,2,848,559,398,161
535532,1,1094,588,433,155
535532,3,689,380,264,116
535770,1,282,193,99,94
535885,1,328,254,154,100
536091,1,698,441,300,141
536113,1,157,84,73,11
536148,3,252,164,124,40
536148,2,918,563,400,163
536148,1,1066,623,420,203
536288,1,550,353,190,163
536385,11,571,374,246,128
536385,10,1079,775,464,311
536385,9,759,453,300,153
536385,8,989,642,365,277
536385,7,874,553,339,214
536385,6,994,578,351,227
536385,5,540,348,198,150
536385,4,1466,636,374,262
536385,3,1146,709,451,258
536385,2,661,456,236,220
536385,1,500,407,189,218
536393,2,100,67,47,20
536393,1,413,277,161,116
536521,3,139,73,56,17
536521,2,123,79,42,37
536521,1,795,452,335,117
536571,1,438,275,197,78
536687,2,95,66,41,25
536687,1,420,307,201,106
536733,1,599,416,249,167
536814,1,251,161,102,59
537284,1,527,376,237,139
537713,1,1037,722,456,266
539961,5,173,103,80,23
539961,4,432,318,197,121
539961,3,580,361,208,153
539961,2,1055,638,411,227
539961,1,476,287,184,103
540005,1,158,105,69,36
540030,2,588,400,244,156
540030,1,1416,883,518,365
540161,1,293,213,148,65
540196,4,113,72,55,17
540196,3,742,499,316,183
540196,5,154,101,53,48
540196,2,755,527,303,224
540196,1,638,415,253,162
540226,2,411,343,195,148
540226,1,1252,869,444,425
540234,2,165,112,87,25
540234,1,543,336,223,113
540331,4,133,102,61,41
540331,3,90,58,41,17
540331,2,108,71,45,26
540331,1,134,81,62,19
540366,1,311,186,146,40
540382,2,306,192,147,45
540382,1,1753,1052,789,263
540471,9,195,147,82,65
540471,8,163,118,73,45
540471,7,287,178,93,85
540471,6,890,599,357,242
540471,5,952,679,399,280
540471,4,1527,752,439,313
540471,3,824,508,330,178
540471,2,1017,659,415,244
540471,1,1153,834,499,335
540471,12,125,86,69,17
540471,11,115,76,44,32
540471,10,125,90,53,37
540471,13,143,110,61,49
540480,2,172,123,77,46
540480,1,875,616,340,276
540501,3,157,114,78,36
540501,2,1258,912,478,434
540501,1,1194,804,438,366
540510,2,192,132,75,57
540510,1,690,431,259,172
540544,4,108,78,49,29
540544,3,122,99,64,35
540544,2,155,114,67,47
540544,1,715,444,314,130
540595,1,280,200,147,53
540609,4,68,46,34,12
540609,3,74,49,32,17
540609,2,112,81,49,32
540609,1,247,185,140,45
540650,2,86,54,40,14
540650,1,483,312,220,92
540684,1,804,508,345,163
540731,1,173,110,71,39
540773,2,1287,847,479,368
540773,1,1201,838,509,329
540854,1,391,300,152,148
540862,1,892,577,393,184
540862,3,788,525,306,219
540862,2,930,571,331,240
540871,3,71,50,30,20
540871,2,111,70,53,17
540871,1,355,207,123,84
540919,1,635,468,276,192
540978,5,62,51,28,23
540978,4,181,113,60,53
540978,3,345,257,158,99
540978,2,560,385,234,151
540978,1,907,582,357,225
540986,2,93,60,40,20
540986,1,898,515,321,194
541036,1,490,300,248,52
541079,4,53,38,11,27
541079,3,165,153,54,99
541079,2,121,92,32,60
541079,1,1487,919,524,395
541079,5,105,87,18,69
541109,1,921,545,349,196
541117,1,544,338,256,82
541125,1,339,250,133,117
541168,4,75,47,33,14
541168,3,196,129,96,33
541168,2,87,73,45,28
541168,1,1291,827,458,369
541214,1,424,260,165,95
541222,1,959,620,406,214
541249,1,1036,610,436,174
541265,4,68,51,23,28
541265,3,122,82,67,15
541265,2,1034,681,393,288
541265,1,1054,721,435,286
541265,5,144,94,65,29
541303,1,1031,603,444,159
541346,1,330,208,151,57
541354,8,827,565,343,222
541354,7,1037,709,447,262
541354,6,1015,681,449,232
541354,15,160,116,63,53
541354,14,60,53,36,17
541354,13,183,117,70,47
541354,5,832,588,342,246
541354,4,816,503,260,243
541354,12,735,524,326,198
541354,11,463,346,211,135
541354,3,681,496,250,246
541354,2,1288,609,283,326
541354,1,1193,898,498,400
541354,10,845,539,329,210
541354,9,979,606,349,257
541478,1,665,480,297,183
541575,2,172,116,94,22
541575,1,854,522,371,151
543543,1,188,107,82,25
544710,1,108,82,42,40
545279,1,407,247,211,36
546976,1,118,79,50,29
547018,1,474,330,214,116
547026,1,777,570,280,290
547077,1,1064,790,317,473
547093,1,42,28,15,13
547123,1,178,140,85,55
547433,1,570,447,297,150
547450,1,228,137,74,63
547514,1,138,108,69,39
549967,1,86,73,32,41
549983,1,128,90,61,29
552011,1,580,414,244,170
552020,1,629,474,204,270
552038,1,172,95,51,44
552062,1,173,127,65,62
552071,1,186,127,69,58
552089,1,488,366,166,200
552119,1,1100,729,438,291
552151,1,927,628,370,258
552160,1,750,498,326,172
552178,1,377,271,155,116
552186,1,1192,801,457,344
552194,1,152,95,62,33
552216,1,387,277,157,120
552232,1,539,393,217,176
552259,1,192,127,90,37
552267,1,286,208,142,66
552305,1,143,102,66,36
552313,1,257,175,98,77
552330,1,163,108,52,56
552348,1,557,352,218,134
552356,1,365,268,171,97
552364,1,334,243,133,110
552372,4,78,65,29,36
552372,3,140,71,60,11
552372,2,190,104,69,35
552372,1,848,546,347,199
552381,1,638,413,241,172
552399,1,188,151,79,72
552402,1,516,384,167,217
552411,1,1174,745,432,313
552429,1,161,95,67,28
552437,1,388,268,177,91
552445,1,490,350,214,136
552755,1,181,133,111,22
552771,1,279,187,124,63
552780,1,334,240,159,81
552810,1,138,89,61,28
552836,1,187,122,83,39
552844,1,383,272,162,110
552879,1,448,278,199,79
552887,1,199,123,67,56
552909,1,504,270,169,101
552950,1,180,126,104,22
552968,1,129,109,58,51
552984,1,48,39,22,17
553000,1,263,176,144,32
553191,1,85,56,47,9
553212,1,38,32,25,7
553221,1,499,369,211,158
553247,1,211,115,78,37
553301,2,116,79,56,23
553301,1,184,105,61,44
553336,1,313,227,145,82
553344,1,160,104,67,37
553352,1,268,199,126,73
553379,1,1093,810,511,299
553387,1,116,106,38,68
553395,1,154,99,67,32
553468,1,605,325,244,81
553476,1,520,349,180,169
553484,1,608,377,284,93
554103,1,161,120,78,42
554146,1,235,174,84,90
554901,2,162,115,60,55
554901,1,1176,849,431,418
554944,1,554,380,216,164
556998,1,544,358,222,136
557196,1,231,144,92,52
557218,1,333,175,118,57
558419,1,1119,789,451,338
568392,1,1042,749,403,346
568872,1,680,478,277,201
568911,1,212,131,68,63
568961,1,351,267,161,106
569003,1,500,335,195,140
569054,1,126,83,56,27
569135,1,249,183,135,48
569143,1,365,235,140,95
569178,1,264,177,129,48
569194,1,134,93,64,29
569259,1,206,131,93,38
569267,1,188,140,93,47
569275,1,178,132,97,35
569283,1,118,73,48,25
569305,1,452,307,149,158
569330,1,497,454,130,324
569356,2,1084,642,440,202
569356,1,869,571,372,199
569372,1,148,78,59,19
569381,1,531,323,211,112
569437,1,499,328,188,140
569445,2,918,657,343,314
569445,1,920,600,323,277
569453,1,464,291,247,44
569542,1,352,284,177,107
569771,1,138,100,49,51
569798,1,266,153,119,34
569844,1,306,178,101,77
570061,1,224,176,106,70
570079,1,687,459,286,173
570095,1,187,130,75,55
570117,1,35,27,7,20
570141,1,277,213,155,58
570281,1,112,69,52,17
570338,1,174,130,62,68
589250,42,950,702,346,356
589250,41,1075,772,483,289
589250,40,573,411,240,171
589250,39,1077,729,455,274
589250,38,1009,679,330,349
589250,37,784,539,312,227
589250,36,812,431,297,134
589250,44,413,260,168,92
589250,43,926,677,398,279
589250,35,665,429,276,153
589250,34,462,284,179,105
589250,33,702,457,288,169
589250,32,606,434,261,173
589250,1,2012,490,304,186
589250,29,733,472,293,179
589250,28,809,565,307,258
589250,27,728,490,291,199
589250,26,948,671,366,305
589250,25,790,564,349,215
589250,24,762,484,302,182
589250,23,950,596,414,182
589250,22,933,638,407,231
589250,21,646,405,249,156
589250,20,647,420,284,136
589250,19,840,584,350,234
589250,18,895,560,347,213
589250,17,787,512,346,166
589250,16,911,639,420,219
589250,15,928,581,330,251
589250,14,585,401,224,177
589250,13,1038,611,361,250
589250,12,825,542,336,206
589250,11,589,396,235,161
589250,10,666,431,224,207
589250,9,792,589,322,267
589250,8,743,517,335,182
589250,7,876,562,279,283
589250,6,827,601,318,283
589250,5,780,530,290,240
589250,4,730,440,227,213
589250,3,882,519,276,243
589250,2,579,343,196,147
589250,31,720,464,291,173
589250,30,703,489,330,159
589268,1,832,551,398,153
589276,2,133,102,72,30
589276,1,290,191,133,58
589284,1,240,141,91,50
589292,1,365,260,162,98
589306,1,121,88,48,40
589314,2,70,47,33,14
589314,1,629,451,306,145
589322,2,102,68,40,28
589322,1,1112,707,453,254
589331,1,179,118,73,45
589349,1,328,229,159,70
589357,1,269,181,120,61
589365,1,420,304,200,104
589381,1,807,564,371,193
589390,1,438,298,227,71
589403,3,128,84,51,33
589403,2,103,54,36,18
589403,1,822,535,372,163
589420,1,423,316,172,144
589438,1,268,190,119,71
589446,1,623,338,244,94
589454,1,454,265,196,69
589462,1,427,309,229,80
589489,1,377,250,173,77
589497,1,210,155,109,46
589501,1,288,187,124,63
589519,2,69,56,41,15
589519,1,667,466,334,132
589527,2,160,102,71,31
589527,1,167,102,63,39
589535,1,182,123,81,42
589543,1,605,406,256,150
589560,2,69,49,36,13
589560,1,358,264,154,110
589578,1,385,240,153,87
589586,1,231,155,100,55
589594,1,296,191,108,83
589608,1,670,389,262,127
589616,1,237,182,109,73
589624,6,104,80,61,19
589624,5,114,75,55,20
589624,4,148,106,67,39
589624,3,129,103,79,24
589624,2,844,539,322,217
589624,1,942,661,404,257
589632,2,947,654,388,266
589632,1,1335,824,493,331
589641,1,239,170,127,43
589659,1,1270,848,526,322
589667,1,461,322,214,108
589675,2,79,62,44,18
589675,1,400,288,181,107
589683,1,312,198,140,58
589691,3,74,60,32,28
589691,2,154,124,72,52
589691,1,366,272,158,114
589705,4,113,65,32,33
589705,3,67,43,34,9
589705,2,72,55,38,17
589705,1,226,137,92,45
589713,1,309,220,142,78
589721,1,422,267,196,71
589730,1,1255,927,599,328
589748,3,157,113,63,50
589748,2,106,86,64,22
589748,1,311,215,139,76
589756,2,918,588,383,205
589756,1,656,440,336,104
589764,1,1112,684,421,263
589772,1,254,180,134,46
589799,1,203,114,78,36
589802,1,368,285,155,130
589811,1,146,110,57,53
589829,2,132,95,72,23
589829,1,1260,841,523,318
589837,1,286,193,128,65
589845,1,1020,706,471,235
589853,1,224,161,86,75
589870,1,591,396,276,120
589888,1,561,412,236,176
589896,5,128,91,64,27
589896,4,170,123,75,48
589896,3,243,178,109,69
589896,2,692,450,262,188
589896,1,659,463,263,200
589918,1,249,158,96,62
589926,1,807,604,381,223
589934,2,114,80,44,36
589934,1,902,606,384,222
589942,2,192,147,89,58
589942,1,680,440,266,174
589951,1,157,112,75,37
589969,1,83,69,49,20
589977,2,82,59,41,18
589977,1,416,283,184,99
589993,1,210,147,75,72
590002,1,274,181,139,42
590011,1,449,334,179,155
590029,1,1308,861,543,318
590045,1,74,47,37,10
590053,2,128,98,72,26
590053,1,312,215,157,58
590061,1,124,91,51,40
590070,1,342,249,181,68
590088,3,52,43,22,21
590088,2,167,129,63,66
590088,1,272,218,112,106
590096,1,201,119,86,33
590100,1,386,241,179,62
590118,1,247,150,103,47
590126,2,556,340,210,130
590126,1,528,364,213,151
590134,1,367,239,171,68
590142,1,402,283,186,97
590151,1,145,91,64,27
590177,2,260,178,94,84
590177,1,239,174,105,69
590185,3,235,153,105,48
590185,2,383,257,139,118
590185,1,696,486,286,200
590193,1,467,308,219,89
590207,1,427,304,154,150
590215,1,396,274,149,125
590223,1,289,210,152,58
590240,1,429,294,209,85
597414,2,122,65,50,15
597414,1,357,199,154,45
597678,4,80,44,34,10
597678,3,867,549,377,172
597678,2,890,448,249,199
597678,1,452,233,174,59
597678,6,35,30,25,5
597678,5,96,53,38,15
597686,2,117,66,53,13
597686,1,117,71,60,11
597996,3,705,419,335,84
597996,2,702,431,294,137
597996,1,888,383,271,112
597996,7,107,83,32,51
597996,6,49,38,25,13
597996,5,238,149,106,43
597996,4,571,359,253,106
