A53,A7,A768,A47,A1140,A112,A1138,A720,A997,A998,A999,B1114,B1129,B112,B768,B210,B659,B720,B1451,B997,B998,B999
2,3,2,2,1,3,0,0,12,0,147,7,3,4,8,1,2,0,0,6,3,138
1,7,7,4,2,2,3,1,21,0,87,4,4,0,16,0,4,2,12,4,3,86
3,1,16,2,41,1,1,4,33,0,78,2,3,0,9,5,46,11,8,4,1,91
8,13,38,10,12,5,4,10,32,0,154,4,43,1,38,10,12,18,7,19,1,133
9,10,28,18,11,4,7,5,14,7,200,6,13,5,29,13,10,13,12,25,0,187
4,5,10,4,7,1,6,3,16,6,37,9,5,2,12,10,5,5,7,4,0,40
16,21,28,12,16,0,17,9,31,0,288,18,0,7,32,14,12,23,8,88,1,235
33,56,114,57,61,25,23,37,170,0,1018,39,105,43,131,59,75,94,71,91,22,864
58,24,62,17,42,11,11,10,62,65,366,17,13,10,57,52,69,59,70,42,0,339
5,13,32,6,4,18,3,4,24,0,144,5,12,37,21,10,14,11,7,7,0,129
34,27,58,14,32,1,12,12,108,36,380,11,77,8,76,31,46,54,47,41,0,323
4,15,23,8,19,3,3,2,34,13,156,5,5,6,29,5,24,9,33,17,0,147
2,3,24,13,6,6,12,1,22,8,171,10,35,5,19,3,6,12,5,10,0,163
7,6,13,3,5,10,1,0,11,21,79,8,14,3,17,24,7,5,3,7,0,68
3,15,43,13,11,3,9,4,31,11,193,11,32,2,45,7,13,27,19,21,0,159
6,12,28,8,16,6,11,11,129,8,236,2,193,1,25,16,23,7,44,15,0,145
12,18,56,15,27,2,5,6,32,12,383,13,5,15,64,14,53,22,9,29,0,344
37,7,15,13,13,3,10,8,5,17,150,9,3,4,27,25,61,11,7,8,0,123
48,56,95,94,29,14,32,13,69,0,910,34,13,11,125,39,92,36,29,101,6,874
37,41,96,55,32,9,19,10,64,0,723,28,23,7,117,36,83,40,26,74,20,632
0,10,7,0,1,6,0,1,8,3,110,0,2,4,11,2,6,6,2,8,0,105
1,7,15,13,2,146,8,2,4,39,269,9,1,83,30,0,17,7,2,23,0,334
0,3,4,10,0,40,2,0,4,1,96,5,0,23,4,1,3,12,0,4,0,108
7,8,18,7,33,0,7,3,7,12,120,9,57,1,19,4,6,11,0,4,0,111
5,1,23,8,3,0,6,2,16,8,136,6,12,0,14,5,10,6,3,6,0,146
6,12,39,27,3,7,12,4,9,8,214,12,15,1,33,6,25,13,0,26,0,210
0,3,12,13,10,0,2,0,12,18,118,12,3,0,14,1,17,3,0,16,0,122
5,19,23,19,5,2,7,11,18,25,272,6,20,2,27,4,20,17,4,18,0,288
5,14,45,21,9,3,9,24,24,0,328,13,9,1,54,11,21,40,9,20,7,297
19,40,82,28,18,13,6,32,46,0,632,19,12,4,102,38,28,60,10,35,132,476
1,14,6,2,1,1,2,2,8,0,66,1,4,1,8,2,1,2,0,19,1,64
13,12,15,7,18,6,3,14,6,0,180,4,6,0,34,16,22,19,1,19,11,142
4,1,3,4,0,16,2,8,1,8,55,1,7,1,6,4,1,10,2,12,0,58
9,9,50,9,8,9,2,25,11,0,243,7,11,2,48,9,20,27,4,18,3,226
2,1,2,3,3,0,3,6,22,0,53,4,1,0,26,0,4,11,0,3,5,41
6,4,13,11,6,0,3,1,10,6,129,5,12,0,7,10,16,7,5,12,0,115
4,5,7,16,12,0,1,3,2,15,53,3,7,1,13,3,10,5,0,7,0,69
5,14,10,7,17,1,2,0,29,44,123,9,2,6,18,8,20,18,22,9,0,140
5,3,31,11,7,0,3,3,2,6,146,10,1,0,24,1,23,8,2,11,0,137
4,17,14,10,7,0,11,8,14,26,336,13,3,0,18,5,53,17,3,17,0,318
8,61,75,36,17,2,14,5,28,0,482,21,1,0,73,6,61,20,9,42,38,457
21,30,50,25,15,3,11,18,35,0,535,17,7,2,40,16,83,19,6,48,7,498
13,31,84,64,23,0,31,11,42,18,741,42,9,0,110,12,111,35,8,65,0,666
21,19,69,25,15,6,9,3,18,9,350,18,3,4,80,16,73,12,13,22,0,303
1,3,2,10,0,0,6,0,2,0,121,5,3,2,11,1,2,1,1,7,16,96
17,20,53,26,5,0,8,10,20,5,871,9,3,3,36,8,65,14,5,29,0,863
21,27,43,17,10,6,7,14,49,0,593,24,6,1,29,12,79,59,4,37,23,513
34,31,46,16,16,0,10,14,37,0,1456,16,5,1,35,25,64,36,4,30,51,1393
21,35,55,31,23,0,16,14,32,0,655,21,10,1,60,8,88,30,2,29,26,607
15,43,44,44,11,3,12,7,29,0,532,11,6,1,61,8,62,15,4,33,30,509
13,19,48,22,6,0,9,3,19,0,434,18,5,0,45,8,45,19,5,24,26,378
22,23,38,26,11,1,6,15,28,28,492,15,7,0,54,5,92,38,3,29,0,447
21,39,73,28,19,2,10,6,32,0,461,14,5,3,69,13,75,24,6,45,69,368
16,32,74,56,10,1,19,14,34,0,635,13,3,3,82,11,99,31,2,59,5,583
13,48,54,21,12,1,12,5,30,0,417,16,1,1,57,12,76,16,3,28,48,355
16,26,44,29,19,0,5,6,23,0,559,13,4,0,42,10,51,14,3,22,21,547
17,43,53,22,12,3,6,8,31,15,393,21,5,6,32,10,93,30,3,31,0,372
23,27,66,33,31,3,15,15,30,0,560,16,5,2,57,17,88,34,3,43,26,512
25,58,71,27,23,1,14,21,64,0,761,28,6,6,82,18,157,43,8,43,48,626
26,75,117,41,36,3,29,22,68,28,1059,46,8,6,79,22,168,72,7,74,0,1022
35,50,86,39,12,1,16,12,61,0,1000,34,8,4,101,24,129,43,12,28,163,766
32,38,72,50,37,2,13,7,64,33,514,17,10,3,63,32,181,33,20,56,0,447
20,57,66,35,7,1,12,3,32,0,441,17,0,1,46,17,71,19,6,60,6,431
13,53,69,66,12,4,20,11,39,0,686,22,5,3,75,5,73,24,8,88,86,584
3,3,35,7,4,1,4,1,3,0,113,4,0,0,26,2,21,7,1,25,5,83
14,17,37,28,2,62,9,11,39,0,467,12,4,72,61,8,13,37,0,71,8,400
9,14,59,17,12,111,2,16,29,18,531,17,1,97,64,13,30,31,2,67,0,496
10,12,29,17,3,71,8,12,27,9,624,17,2,72,35,7,12,20,6,46,0,605
7,1,19,13,0,21,0,3,9,0,478,11,2,32,7,5,11,14,1,29,43,396
3,28,24,21,2,58,4,5,14,0,576,13,1,52,41,3,10,14,2,47,36,516
8,22,40,30,6,94,12,11,16,0,820,24,2,89,48,4,12,25,2,54,37,762
5,9,21,19,0,47,4,6,26,0,427,13,2,55,35,3,10,17,2,55,0,372
9,11,27,20,3,98,7,3,21,0,557,23,0,89,41,9,17,26,3,37,4,507
2,1,7,20,1,12,2,3,6,1,109,6,0,13,16,7,0,7,1,12,0,102
1,1,14,10,5,17,3,1,6,39,186,13,0,17,15,2,15,12,2,12,0,195
3,13,23,14,3,50,9,4,13,8,329,24,0,50,44,3,8,12,2,21,0,305
5,23,51,21,3,77,7,6,34,0,1279,36,1,84,41,3,11,29,12,48,33,1208
6,22,28,28,7,48,9,5,20,0,467,10,3,55,47,3,23,17,3,32,31,416
2,19,41,20,12,97,7,12,29,0,596,17,2,83,40,3,10,32,5,60,25,558
17,19,44,25,59,5,11,34,38,28,532,37,17,4,63,18,29,50,58,48,0,488
27,18,60,20,24,3,11,14,42,0,634,9,4,12,57,35,73,41,5,43,39,535
12,46,76,27,17,4,20,14,49,0,691,31,11,3,114,18,97,46,11,61,7,557
28,49,87,41,28,6,17,18,43,0,681,20,11,2,79,25,109,57,1,36,29,629
7,4,34,8,6,0,5,6,6,11,216,8,6,1,40,12,27,13,2,17,0,177
16,16,109,48,26,15,23,16,44,0,928,49,4,86,78,20,53,37,2,53,29,830
18,34,24,26,3,40,9,2,22,0,423,20,1,31,35,10,7,15,2,33,37,410
7,7,41,28,5,32,3,8,10,5,680,17,0,54,51,1,12,23,2,32,0,634
2,22,25,18,3,7,1,0,2,3,133,14,1,0,42,0,11,3,1,11,0,133
13,45,75,58,15,16,16,29,18,0,918,22,16,1,101,19,23,66,12,67,31,845
8,28,47,27,8,7,24,13,19,20,418,22,7,8,38,10,34,34,2,32,0,432
8,55,82,32,34,2,23,2,37,0,896,36,8,2,104,48,38,35,3,33,30,834
8,31,41,18,11,5,9,1,20,0,505,12,5,3,51,28,17,22,3,18,32,458
3,9,13,4,7,2,3,35,3,0,833,4,0,0,23,11,12,20,1,12,65,764
9,9,14,3,17,2,2,37,7,0,339,5,3,3,38,20,12,26,4,16,51,261
0,0,5,3,5,1,0,4,1,0,14,7,0,0,4,9,0,1,0,2,3,7
4,19,58,15,25,1,5,52,17,0,451,13,9,2,67,29,25,72,3,22,12,393
22,18,81,11,21,4,12,66,18,0,375,16,6,5,91,34,36,67,11,30,24,308
16,28,38,30,10,1,4,48,23,0,393,5,4,1,74,19,12,45,5,38,40,348
14,25,49,35,17,2,11,57,18,0,528,21,4,2,87,17,12,38,3,28,78,466
27,22,51,27,30,2,14,73,13,9,543,14,7,4,81,41,38,80,8,44,0,494
16,19,44,20,20,5,12,56,14,0,455,19,12,4,61,38,22,46,2,36,47,374
14,17,50,20,7,1,7,71,16,0,567,28,14,1,81,14,23,68,5,26,64,446
8,17,36,17,3,0,10,41,7,0,435,10,8,3,60,8,15,30,2,21,58,359
21,20,59,26,15,2,10,75,19,0,495,8,8,3,85,29,18,44,1,36,61,449
9,19,48,16,13,3,8,76,21,0,617,24,5,2,75,25,27,66,5,21,27,553
22,18,52,17,19,0,9,83,14,0,502,18,7,0,66,36,34,62,10,41,28,434
15,23,32,7,22,1,6,35,16,0,495,12,1,1,46,25,34,51,6,25,46,405
14,17,22,14,15,2,5,44,14,0,388,14,2,1,43,15,19,45,5,14,32,345
1,6,2,5,4,1,1,0,3,0,228,7,0,1,18,0,3,3,1,9,6,203
2,18,15,22,3,2,1,11,4,0,260,5,71,1,0,12,5,15,1,5,6,217
9,17,27,20,2,3,15,3,10,3,176,11,10,2,28,5,19,9,1,23,0,177
9,76,15,14,18,0,11,4,10,1,259,8,2,0,32,4,19,18,1,73,0,260
13,138,86,53,116,2,36,4,16,0,1104,36,7,6,100,5,129,50,5,112,8,1110
27,84,96,51,24,6,49,18,31,0,1132,46,14,3,149,24,113,50,10,84,20,1005
4,6,22,18,10,0,2,11,2,0,241,7,43,1,28,4,5,11,2,10,12,193
14,17,62,24,17,7,12,34,15,15,548,21,53,2,58,29,20,57,9,26,0,490
33,49,64,19,46,20,19,21,55,16,389,20,11,18,98,42,51,54,54,39,0,344
32,48,100,51,68,7,18,23,70,0,677,32,16,14,123,29,97,55,53,69,47,559
22,42,98,22,60,11,20,16,68,0,673,21,12,17,137,27,62,56,40,55,69,536
26,62,103,47,52,14,23,20,54,0,543,31,9,17,115,18,50,39,54,72,62,477
23,48,82,39,42,4,21,17,85,0,712,19,25,7,113,21,51,51,47,47,24,668
28,43,84,33,60,7,14,12,62,0,524,26,17,9,102,44,63,40,48,52,14,452
26,48,90,33,89,4,22,14,89,0,586,19,22,15,108,27,53,65,39,61,101,491
12,30,86,38,54,11,27,32,87,55,689,27,16,22,130,46,70,61,49,61,0,639
19,35,87,26,75,12,11,18,47,0,490,21,18,15,87,19,62,50,53,38,7,450
22,18,75,35,71,8,19,24,74,36,523,20,10,14,91,31,65,51,50,35,0,538
22,44,61,39,25,3,13,15,55,0,361,18,14,4,93,22,31,20,24,56,43,313
17,39,60,28,33,7,7,13,55,0,426,14,10,5,92,15,26,32,37,38,50,366
17,49,58,32,43,5,14,18,58,0,429,19,8,14,81,17,43,39,34,44,26,398
11,23,53,12,34,7,10,15,61,0,435,19,11,6,65,13,53,40,26,24,34,370
9,12,31,10,31,2,13,3,30,0,395,22,7,6,36,9,32,16,28,23,15,342
26,35,39,33,49,3,14,23,60,0,342,9,7,5,65,11,48,42,41,36,47,313
34,30,61,14,67,12,16,26,93,0,417,20,13,15,52,34,82,52,51,28,40,383
20,20,22,9,49,8,7,14,51,0,291,8,9,6,44,20,57,29,24,22,25,247
9,40,41,15,37,0,8,7,30,0,319,12,8,2,53,8,25,28,15,24,31,300
16,49,62,33,43,9,7,15,50,38,475,14,7,5,84,30,48,36,22,40,0,511
32,50,72,43,55,5,9,38,72,0,450,24,11,8,91,31,61,57,28,39,46,430
12,36,66,23,30,6,7,9,77,0,428,16,7,8,60,19,38,45,35,40,57,369
35,39,100,43,59,14,28,21,82,0,713,42,19,11,101,56,54,58,51,57,42,643
25,46,79,38,44,10,24,18,67,0,668,27,12,7,90,25,60,46,47,47,55,603
47,29,57,25,43,12,10,11,64,0,559,16,9,9,67,25,52,46,64,38,50,481
7,6,21,17,23,1,8,7,21,0,259,10,2,3,22,12,15,19,9,15,26,237
10,14,39,20,29,5,3,20,31,0,317,10,6,5,42,14,22,42,29,19,16,283
10,11,24,12,17,1,4,15,18,0,216,11,1,5,27,13,9,24,14,15,21,188
26,32,56,14,55,8,18,19,62,0,383,10,6,6,56,21,61,61,27,26,38,361
35,19,41,20,42,10,18,17,53,0,2448,24,9,10,57,40,52,53,24,32,118,2284
32,12,42,21,54,1,4,22,62,0,434,9,14,5,38,20,62,41,38,34,30,393
6,11,27,18,32,3,9,0,20,0,214,8,6,2,21,22,20,21,20,9,12,199
33,27,40,25,52,4,7,13,42,0,441,30,5,10,45,22,37,38,20,44,19,414
38,30,53,26,53,3,11,14,63,0,351,24,11,6,77,20,38,32,37,36,29,332
15,22,25,9,60,8,12,13,30,0,188,13,2,6,21,22,54,20,26,18,17,183
53,18,44,21,60,5,4,15,37,0,294,20,6,9,41,25,52,34,62,34,7,261
12,8,8,4,19,1,2,1,25,0,188,2,0,0,8,6,29,13,13,9,15,173
21,34,63,25,33,5,9,14,45,0,492,14,18,8,81,14,43,41,20,38,17,447
40,52,97,25,67,10,7,14,66,0,388,11,14,9,94,32,83,21,60,32,39,371
15,36,67,21,54,4,12,9,46,0,477,13,17,5,76,21,59,37,40,40,20,413
28,70,99,37,60,3,6,12,76,0,625,28,11,4,116,37,67,51,48,61,50,543
19,35,63,35,59,12,18,17,64,11,581,26,23,13,76,28,48,50,41,43,0,566
23,36,53,19,44,11,16,13,53,0,613,14,10,4,60,32,59,42,44,28,18,570
18,20,44,13,13,8,3,7,41,6,508,18,10,6,55,8,34,28,35,37,0,450
24,29,41,16,31,7,5,16,51,0,303,20,7,13,57,26,35,33,39,22,8,263
27,30,87,22,62,6,19,19,89,0,477,26,12,12,92,30,70,51,45,45,10,445
16,20,36,13,6,23,10,5,62,0,614,18,19,5,47,25,20,36,25,19,73,518
7,23,57,28,70,58,8,7,42,0,489,28,5,65,70,51,23,24,9,19,11,484
28,50,54,48,21,304,11,3,35,0,1088,37,21,224,120,33,25,38,13,67,67,997
3,16,23,15,15,16,12,4,19,3,352,22,14,25,36,4,8,13,13,25,0,318
23,40,76,42,28,94,28,16,88,47,1129,40,27,9,80,21,48,45,306,71,0,964
13,12,79,24,16,4,11,4,23,19,274,8,38,10,87,8,14,22,4,30,0,258
12,31,32,34,29,2,14,3,40,0,516,20,8,24,51,9,24,28,9,22,51,467
12,41,30,24,27,5,13,2,13,0,503,9,2,17,66,15,21,19,15,32,50,424
10,16,28,6,45,4,3,7,23,9,567,8,7,8,25,14,18,28,24,15,0,571
22,43,23,9,60,13,4,16,47,26,336,21,47,16,45,31,72,45,32,26,0,264
13,10,40,22,19,4,7,6,80,0,453,16,81,2,53,12,22,19,41,26,3,379
8,27,46,20,15,9,11,9,76,0,598,17,46,11,49,15,17,27,52,25,50,510
11,27,42,8,22,5,15,4,23,0,508,12,8,9,42,16,29,13,11,26,18,481
8,8,27,7,11,2,10,7,9,7,293,9,9,6,34,5,7,14,7,13,0,285
0,6,9,7,5,8,9,2,5,11,174,7,3,9,17,4,4,10,2,20,0,160
14,21,34,7,15,7,20,3,21,0,294,15,5,12,50,21,11,14,14,29,1,264
7,26,40,25,15,11,15,1,17,0,482,19,2,6,65,7,8,17,5,32,44,434
8,16,41,18,18,4,19,12,28,5,367,9,9,12,61,16,24,25,11,29,0,340
4,11,34,5,12,6,15,1,27,0,302,14,5,3,28,11,18,24,14,20,2,278
1,32,44,14,23,6,13,5,34,0,494,7,8,13,66,16,27,17,13,18,6,475
21,14,48,21,25,4,26,5,38,0,931,12,13,4,55,27,28,22,11,37,76,848
2,20,20,5,6,6,16,0,25,0,339,7,2,3,52,4,13,9,3,32,30,284
1,16,53,7,25,2,16,3,30,0,435,18,6,9,55,14,25,12,9,36,24,380
19,52,91,48,122,27,16,12,64,0,963,29,142,41,68,33,43,45,26,62,72,853
17,57,50,22,77,13,18,7,57,0,488,15,80,28,59,15,41,37,23,47,17,444
10,19,27,9,45,7,3,5,21,58,209,19,35,7,30,28,17,27,11,19,0,220
17,46,75,23,79,9,15,6,45,0,546,11,107,20,105,18,20,43,17,32,29,459
39,99,50,36,40,9,22,14,68,4,626,44,38,53,73,42,46,47,22,53,0,589
26,81,56,44,28,6,21,20,71,0,813,30,24,49,95,39,31,50,23,42,55,728
27,78,55,24,17,12,15,10,55,0,437,22,23,24,80,23,24,34,17,29,48,406
22,56,49,18,20,3,14,5,44,0,443,22,17,29,53,27,13,29,15,19,36,414
30,70,49,28,16,4,21,12,52,0,525,20,19,17,100,19,7,21,20,42,46,496
26,55,69,40,14,9,14,16,65,0,530,21,38,35,81,43,12,42,9,35,49,473
23,35,32,25,14,8,16,8,34,0,490,28,6,20,49,17,18,27,11,18,10,481
31,64,58,26,22,8,19,9,70,0,677,34,21,32,80,42,28,36,19,43,48,601
41,89,63,36,16,10,16,12,54,0,642,20,14,37,93,50,31,38,26,36,0,634
27,77,65,40,30,2,18,6,51,0,712,33,21,33,86,37,13,49,11,55,61,629
46,60,68,41,47,12,29,22,76,24,632,27,22,36,93,63,49,51,27,70,0,619
6,10,17,20,46,8,4,1,9,0,267,7,1,6,23,41,3,8,3,21,12,263
15,12,38,8,25,4,8,5,63,0,351,9,60,2,35,14,29,40,9,21,24,286
11,14,2,7,5,1,9,1,28,0,169,7,56,1,3,10,7,8,0,8,0,147
2,17,21,11,10,3,7,5,10,0,395,11,5,11,46,10,3,2,2,14,16,361
2,4,12,3,10,0,0,3,43,6,165,3,45,1,18,6,9,11,9,11,0,135
26,30,43,18,32,6,9,8,194,21,387,23,160,5,51,28,43,22,38,27,0,377
15,8,32,9,18,16,9,5,35,0,358,15,8,8,49,15,18,11,20,32,16,313
4,12,17,8,7,3,9,8,25,13,292,6,36,3,26,9,10,8,7,19,0,274
3,1,10,4,0,4,0,2,6,5,51,1,5,2,5,1,0,1,0,5,0,66
11,6,30,14,37,15,10,14,16,13,293,17,9,20,48,3,35,21,8,22,0,276
19,17,16,22,19,2,8,5,79,5,322,9,29,8,42,29,22,32,17,25,0,301
15,29,55,55,17,2,6,9,26,0,559,13,2,4,85,21,9,20,5,49,19,546
13,23,36,61,20,7,11,16,14,0,695,8,8,3,64,23,16,23,4,48,20,679
5,20,25,33,4,2,8,8,9,0,608,13,2,3,50,14,6,15,6,29,32,552
24,21,40,26,20,19,9,9,47,21,549,11,2,35,53,34,14,18,23,38,0,557
9,25,51,38,16,14,5,4,29,0,776,10,1,23,72,21,15,20,15,33,43,714
13,61,93,61,13,20,13,8,53,0,947,31,3,34,99,20,14,37,23,69,67,885
7,22,19,24,7,41,2,9,17,1,306,15,3,37,36,8,10,27,10,29,0,280
5,1,20,18,12,1,1,18,9,9,205,1,34,0,29,6,8,20,0,11,0,190
0,6,14,23,62,2,4,0,14,0,284,9,51,3,25,4,0,5,0,10,15,287
0,17,14,9,0,1,1,3,27,0,109,6,33,3,17,0,5,5,2,7,4,99
8,11,9,11,3,0,4,3,62,18,215,10,55,6,26,10,3,13,3,8,0,210
12,27,41,35,59,42,11,8,24,0,793,37,1,71,81,53,11,21,4,36,56,681
9,32,33,18,18,10,8,5,34,18,254,12,10,11,56,16,38,23,15,40,0,218
28,19,63,18,12,0,16,11,30,6,765,15,2,10,61,19,58,30,16,43,0,714
38,39,76,36,25,8,14,9,41,0,1402,15,9,15,93,28,64,28,27,51,50,1308
35,51,72,33,24,4,17,18,32,0,619,23,8,13,90,32,60,42,27,56,50,504
32,57,95,41,10,6,12,11,43,21,684,20,8,10,112,29,47,26,16,37,0,707
24,39,66,43,6,10,15,9,28,0,561,8,8,1,75,25,30,22,17,36,99,480
19,44,83,38,3,5,24,5,37,100,646,23,4,6,85,27,37,19,12,49,0,742
20,47,60,35,11,5,18,12,40,3,731,22,8,4,83,17,41,30,21,44,0,712
13,33,43,14,11,1,9,6,25,0,819,22,7,4,46,8,23,28,9,30,53,744
46,36,50,28,8,5,11,4,37,0,635,15,5,11,71,33,39,27,18,50,15,576
51,63,76,33,23,11,19,20,43,0,571,29,10,7,91,46,70,45,28,49,23,512
34,48,68,27,17,7,22,13,37,0,452,31,14,6,63,25,44,28,17,48,26,423
33,47,72,41,13,7,10,4,34,0,451,23,1,10,68,24,56,20,19,51,51,389
42,49,104,36,7,13,16,14,41,0,492,25,7,9,102,39,48,32,20,56,21,455
29,49,89,81,23,17,21,9,47,0,831,32,11,19,120,28,69,43,18,62,43,751
15,52,68,56,15,3,19,4,61,0,794,21,8,11,118,22,49,31,24,52,38,713
5,6,24,8,6,18,3,1,20,8,242,1,5,7,29,7,22,23,18,32,0,197
9,46,65,28,37,3,23,4,25,0,1049,36,29,2,122,21,27,32,5,52,44,919
21,36,47,38,6,1,25,9,19,0,526,24,5,6,57,15,44,20,2,50,5,500
3,3,4,7,5,1,5,0,24,0,182,5,17,0,10,4,15,5,5,9,7,157
8,17,12,10,8,4,8,2,31,28,164,15,1,15,28,10,19,5,6,13,0,180
23,24,52,22,6,11,14,5,25,24,312,26,8,7,71,14,29,17,5,57,0,284
14,30,34,14,7,3,17,12,23,0,388,6,2,1,52,8,38,11,2,30,38,354
11,37,35,35,7,2,11,4,13,0,841,22,2,2,74,6,7,16,4,46,11,806
20,66,47,31,4,1,16,4,30,0,665,25,3,4,73,7,15,22,10,60,33,632
32,36,46,28,8,6,17,8,33,0,968,20,7,4,60,19,32,20,5,55,56,904
18,24,90,30,6,3,6,11,27,127,859,26,2,57,101,24,36,46,14,39,0,856
4,37,15,3,7,0,6,3,11,0,166,3,2,0,25,3,14,12,3,24,11,155
15,27,56,20,12,60,19,2,28,0,709,15,1,138,66,12,11,19,2,27,31,626
14,27,55,18,9,50,13,6,21,0,822,19,5,106,64,12,9,29,8,16,48,719
6,32,69,24,11,70,21,13,42,0,795,29,6,146,95,10,15,23,3,26,21,709
6,28,37,20,2,44,17,6,17,0,1001,24,3,126,39,10,20,6,4,38,28,880
14,32,72,28,17,95,17,6,44,0,742,15,10,161,82,22,21,9,7,36,71,633
7,23,44,16,10,39,24,6,24,0,716,23,2,109,42,9,6,16,8,22,35,637
20,53,64,34,16,126,25,15,39,0,955,23,5,234,112,18,28,35,5,47,12,828
7,40,50,21,10,100,17,6,28,0,1234,19,3,171,58,16,16,27,10,26,105,1062
12,30,58,14,18,111,7,8,33,0,680,19,0,198,77,22,20,22,20,33,52,508
12,33,49,31,12,87,23,5,22,0,654,19,6,152,70,29,10,10,8,38,36,550
5,3,15,6,6,32,4,3,7,14,147,6,0,44,21,3,8,11,1,4,0,144
3,7,32,9,44,6,9,3,19,20,265,9,43,10,42,8,31,5,5,22,0,242
19,16,49,25,7,9,18,4,41,21,554,16,9,2,64,22,40,21,18,48,0,523
19,38,57,17,16,4,7,9,26,0,457,19,8,3,115,10,35,27,13,30,25,365
10,17,36,22,1,14,17,2,32,0,339,10,3,5,68,6,19,11,13,37,23,295
20,21,69,25,5,18,11,1,41,0,503,28,1,7,67,11,23,26,22,49,40,440
6,22,36,22,6,17,8,5,24,29,431,14,2,11,52,6,25,21,20,42,0,413
14,16,48,13,7,22,13,2,33,0,796,25,1,3,62,10,27,19,8,48,38,723
4,26,56,33,6,14,19,4,49,0,574,20,5,9,82,7,28,17,28,41,52,496
8,22,59,25,11,16,8,2,40,0,631,24,2,9,71,5,21,10,15,40,54,571
17,20,69,33,15,26,16,8,50,0,564,14,4,4,86,10,51,20,23,65,23,518
1,1,6,3,4,0,1,0,1,10,108,5,0,0,9,5,4,0,0,8,0,104
36,55,88,42,15,3,15,7,36,0,670,29,9,7,105,29,43,24,8,81,20,612
15,53,60,37,10,1,8,9,34,0,525,14,2,8,94,16,35,25,1,42,27,488
15,33,67,23,10,4,14,7,35,0,872,33,4,6,92,14,37,34,3,58,20,779
31,75,108,39,19,7,26,10,36,0,713,35,7,6,118,22,44,25,6,67,53,681
6,9,36,15,25,0,10,5,20,0,369,11,2,7,59,6,36,9,1,16,41,307
34,58,90,21,63,19,32,21,71,43,867,27,10,18,110,46,112,95,25,69,0,807
52,37,66,25,94,9,24,28,49,0,827,34,14,23,75,47,94,83,15,52,25,749
30,52,58,38,10,66,17,13,49,52,693,17,12,15,98,23,74,39,56,60,0,684
0,7,9,1,2,0,1,2,11,0,151,0,4,2,7,2,3,10,4,6,5,141
4,26,55,12,13,11,13,0,16,0,371,22,5,18,63,5,25,18,13,30,7,315
3,14,13,7,5,5,5,0,9,0,155,1,0,13,17,2,1,13,5,10,35,119
3,20,15,14,3,9,5,0,20,41,670,32,1,25,42,4,14,11,7,27,0,637
10,21,39,11,9,18,14,4,21,0,472,19,4,19,47,7,17,10,6,23,29,438
1,21,46,23,1,4,4,0,10,0,311,3,3,8,53,3,6,7,57,22,12,247
9,21,81,32,8,5,11,5,29,0,779,24,2,1,72,4,15,13,67,38,43,701
2,2,5,5,12,0,1,0,3,0,36,2,0,1,6,1,3,1,0,19,4,29
6,6,7,8,2,2,2,1,7,0,205,1,0,2,9,4,2,7,0,26,31,164
3,56,73,66,2,17,12,5,19,0,687,18,3,3,40,4,3,12,1,192,31,633
10,96,67,102,19,23,21,9,25,0,959,20,1,3,57,15,14,29,6,278,64,844
3,10,6,7,34,2,8,0,3,0,200,10,10,0,15,5,2,1,3,10,21,196
29,32,83,24,9,12,20,6,26,0,447,27,11,12,90,31,19,23,17,44,3,411
4,7,24,13,4,26,11,2,17,5,269,13,3,5,44,1,19,15,7,23,0,252
7,36,26,8,4,3,3,1,22,0,158,8,8,5,25,3,9,6,5,38,6,155
8,34,67,16,6,70,10,1,17,24,671,26,7,71,74,5,21,15,3,35,0,667
0,4,4,6,11,1,1,2,9,0,288,4,2,7,9,3,0,5,0,13,10,273
0,4,11,9,9,0,0,0,0,2,115,2,9,0,11,2,2,0,2,3,0,119
2,13,9,15,4,0,1,1,4,7,76,1,33,0,8,5,10,4,2,3,0,66
4,4,4,2,3,2,1,3,3,1,101,9,3,2,9,6,8,3,0,22,0,66
0,5,9,4,3,1,0,2,3,2,61,0,1,0,9,2,1,2,0,10,0,65
7,3,21,4,19,3,11,6,20,0,161,5,4,2,23,15,17,27,6,29,8,119
10,16,22,2,10,0,11,2,63,13,115,10,38,6,26,18,7,17,5,8,0,129
3,11,28,4,7,1,2,2,18,33,100,4,8,5,47,2,18,13,5,10,0,97
