A2,A3,A7,A8,A9,A997,A998,A999,B1114,B1129,B112,B768,B210,B659,B720,B1451,B997,B998,B999
6,0,48,4,4,5,0,107,7,3,4,8,1,2,0,0,6,5,138
7,2,48,6,8,0,0,63,4,4,0,16,0,4,2,12,4,2,86
22,17,87,16,44,18,0,101,4,43,1,38,10,12,18,7,19,20,133
6,2,45,5,13,4,0,74,7,12,3,13,4,0,2,0,10,8,90
18,11,83,15,36,5,11,134,6,13,5,29,13,10,13,12,25,0,187
8,4,29,3,16,4,8,27,9,5,2,12,10,5,5,7,4,0,40
27,24,112,28,51,18,3,174,18,0,7,32,14,12,23,8,88,0,235
111,66,368,95,253,66,0,622,39,105,43,131,59,75,94,71,91,9,864
63,44,94,53,147,41,54,232,17,13,10,57,52,69,59,70,42,0,339
23,6,53,13,54,7,0,97,5,12,37,21,10,14,11,7,7,0,129
57,36,150,38,159,38,34,202,11,77,8,76,31,46,54,47,41,0,323
18,18,87,26,37,9,10,75,5,5,6,29,5,24,9,33,17,0,147
13,5,84,16,30,8,9,103,10,35,5,19,3,6,12,5,10,0,163
11,5,32,8,25,13,13,49,8,14,3,17,24,7,5,3,7,0,68
27,11,68,24,62,11,14,119,11,32,2,45,7,13,27,19,21,0,159
40,25,96,17,79,23,14,177,2,193,1,25,16,23,7,44,15,0,145
40,20,157,21,88,14,14,214,13,5,15,64,14,53,22,9,29,0,344
21,10,66,10,42,23,22,84,9,3,4,27,25,61,11,7,8,0,123
88,37,332,68,159,31,1,638,34,13,11,125,39,92,36,29,101,0,874
52,37,224,60,157,34,0,508,28,23,7,117,36,83,40,26,74,6,632
5,5,34,8,13,12,2,67,0,2,4,11,2,6,6,2,8,0,105
31,15,147,30,49,6,31,197,9,1,83,30,0,17,7,2,23,0,334
5,3,36,14,16,7,0,79,5,0,23,4,1,3,12,0,4,0,108
13,8,56,16,32,10,31,74,8,1,3,21,5,41,9,2,15,0,135
7,7,57,12,43,9,0,91,9,57,1,19,4,6,11,0,4,4,111
10,9,55,6,20,6,9,93,6,12,0,14,5,10,6,3,6,0,146
16,8,109,24,38,4,22,120,12,15,1,33,6,25,13,0,26,0,210
6,3,68,6,11,1,22,71,12,3,0,14,1,17,3,0,16,0,122
17,12,100,14,47,11,19,186,6,20,2,27,4,20,17,4,18,0,288
26,15,113,14,70,24,5,208,13,9,1,54,11,21,40,9,20,0,297
33,28,93,22,86,20,51,259,19,9,0,52,31,29,46,13,21,0,372
50,42,199,34,125,21,0,338,19,12,4,102,38,28,60,10,35,25,476
3,5,40,4,15,2,0,36,1,4,1,8,2,1,2,0,19,3,64
17,21,71,13,43,12,0,98,4,6,0,34,16,22,19,1,19,12,142
0,6,21,6,15,1,11,42,1,7,1,6,4,1,10,2,12,0,58
28,32,85,18,62,8,0,149,7,11,2,48,9,20,27,4,18,10,226
4,5,30,1,6,4,0,42,4,1,0,26,0,4,11,0,3,2,41
10,2,48,7,19,5,3,95,5,12,0,7,10,16,7,5,12,0,115
5,7,35,5,16,5,5,40,3,7,1,13,3,10,5,0,7,0,69
11,9,47,12,42,9,40,82,9,2,6,18,8,20,18,22,9,0,140
14,16,85,9,21,7,9,89,8,2,2,34,2,42,6,2,13,0,139
4,5,86,9,22,0,9,82,10,1,0,24,1,23,8,2,11,0,137
18,10,83,18,57,14,7,240,13,3,0,18,5,53,17,3,17,0,318
33,33,215,38,94,16,0,326,12,6,2,86,9,55,16,6,39,20,504
23,34,219,27,92,19,0,290,21,1,0,73,6,61,20,9,42,14,457
42,25,133,35,113,34,6,348,17,7,2,40,16,83,19,6,48,0,498
59,34,286,48,115,16,27,473,42,9,0,110,12,111,35,8,65,0,666
22,18,165,30,75,27,0,210,18,3,4,80,16,73,12,13,22,3,303
0,0,47,2,4,3,0,80,5,3,2,11,1,2,1,1,7,7,96
30,17,129,25,73,19,4,738,9,3,3,36,8,65,14,5,29,0,863
48,48,137,38,110,23,0,275,17,6,2,54,23,97,45,7,42,16,370
35,34,129,41,111,26,0,406,24,6,1,29,12,79,59,4,37,18,513
38,27,148,31,89,26,0,1270,16,5,1,35,25,64,36,4,30,20,1393
38,24,175,36,120,21,0,453,21,10,1,60,8,88,30,2,29,11,607
34,24,195,30,78,9,0,355,11,6,1,61,8,62,15,4,33,15,509
22,18,119,20,70,10,0,289,18,5,0,45,8,45,19,5,24,1,378
21,18,158,25,78,23,39,328,15,7,0,54,5,92,38,3,29,0,447
31,24,156,34,105,21,0,291,14,5,3,69,13,75,24,6,45,40,368
43,36,179,24,74,18,2,349,14,2,6,46,10,98,31,9,39,0,470
43,28,246,39,85,17,2,426,13,3,3,82,11,99,31,2,59,0,583
34,21,161,26,89,23,0,249,16,1,1,57,12,76,16,3,28,38,355
17,11,160,15,71,21,0,421,13,4,0,42,10,51,14,3,22,10,547
29,31,132,27,64,22,16,282,21,5,6,32,10,93,30,3,31,0,372
24,30,165,40,91,18,6,403,16,5,2,57,17,88,34,3,43,0,512
58,52,265,44,157,46,0,465,28,6,6,82,18,157,43,8,43,70,626
70,51,296,80,200,47,25,735,46,8,6,79,22,168,72,7,74,0,1022
58,40,275,61,131,23,0,693,34,8,4,101,24,129,43,12,28,132,766
50,56,200,52,153,17,40,294,17,10,3,63,32,181,33,20,56,0,447
33,25,197,30,100,17,0,289,17,0,1,46,17,71,19,6,60,23,431
38,27,225,34,100,23,0,345,23,5,1,59,11,72,18,1,50,24,528
38,31,285,39,86,25,0,422,22,5,3,75,5,73,24,8,88,39,584
10,9,53,7,21,6,1,62,4,0,0,26,2,21,7,1,25,0,83
30,19,190,27,89,23,21,279,12,4,72,61,8,13,37,0,71,0,400
40,37,185,48,97,31,4,376,17,1,97,64,13,30,31,2,67,0,496
35,10,151,30,72,13,6,505,17,2,72,35,7,12,20,6,46,0,605
13,15,80,9,45,13,0,360,11,2,32,7,5,11,14,1,29,27,396
26,15,145,23,59,11,0,436,13,1,52,41,3,10,14,2,47,16,516
47,12,236,32,90,17,0,605,24,2,89,48,4,12,25,2,54,17,762
24,23,123,16,64,8,7,299,13,2,55,35,3,10,17,2,55,0,372
36,21,165,58,74,15,6,377,23,0,89,41,9,17,26,3,37,0,507
2,3,53,8,16,5,1,76,6,0,13,16,7,0,7,1,12,0,102
6,9,57,12,37,6,33,123,13,0,17,15,2,15,12,2,12,0,195
17,9,145,16,50,12,8,212,24,0,50,44,3,8,12,2,21,0,305
22,22,241,38,101,25,36,988,36,1,84,41,3,11,29,12,48,0,1208
30,20,191,32,60,17,0,288,10,3,55,47,3,23,17,3,32,29,416
42,25,205,41,84,11,0,416,17,2,83,40,3,10,32,5,60,14,558
40,35,284,33,89,23,13,438,24,14,0,114,24,33,28,6,70,0,642
57,43,184,44,138,31,30,285,37,17,4,63,18,29,50,58,48,0,488
69,39,200,47,188,41,0,401,9,4,12,57,35,73,41,5,43,171,535
42,35,191,47,120,36,0,364,22,7,2,67,18,97,57,1,49,10,505
37,26,273,39,156,22,0,404,31,11,3,114,18,97,46,11,61,8,557
79,38,212,48,172,24,0,411,20,11,2,79,25,109,57,1,36,15,629
20,8,82,12,44,7,18,112,8,6,1,40,12,27,13,2,17,0,177
24,20,94,19,60,19,0,182,16,6,4,43,11,51,33,3,17,20,214
52,45,314,47,129,35,0,591,49,4,86,78,20,53,37,2,53,1,830
14,7,71,6,33,7,0,156,5,0,30,15,1,10,7,0,13,14,199
23,17,136,26,43,23,0,321,20,1,31,35,10,7,15,2,33,25,410
38,14,164,45,57,13,25,470,17,0,54,51,1,12,23,2,32,0,634
3,3,102,4,23,4,2,75,14,1,0,42,0,11,3,1,11,0,133
58,52,303,65,141,32,0,566,22,16,1,101,19,23,66,12,67,45,845
23,16,168,24,68,15,29,276,22,7,8,38,10,34,34,2,32,0,432
24,15,142,33,69,18,14,279,14,10,1,52,12,59,18,3,26,0,399
72,36,290,44,113,13,0,595,36,8,2,104,48,38,35,3,33,22,834
45,19,132,30,68,11,0,328,12,5,3,51,28,17,22,3,18,16,458
23,21,48,15,44,6,0,724,4,0,0,23,11,12,20,1,12,34,764
29,34,61,27,73,12,0,225,5,3,3,38,20,12,26,4,16,73,261
4,1,5,2,8,1,1,8,7,0,0,4,9,0,1,0,2,0,7
48,33,120,31,121,26,0,256,13,9,2,67,29,25,72,3,22,0,393
39,37,145,37,135,19,0,201,16,6,5,91,34,36,67,11,30,9,308
40,33,143,27,98,20,0,221,5,4,1,74,19,12,45,5,38,31,348
35,36,174,21,125,20,0,328,21,4,2,87,17,12,38,3,28,61,466
48,34,187,36,133,27,9,337,14,7,4,81,41,38,80,8,44,0,494
28,55,143,21,127,20,0,234,19,12,4,61,38,22,46,2,36,14,374
45,30,152,26,101,14,0,355,28,14,1,81,14,23,68,5,26,17,446
36,14,138,30,78,15,0,239,10,8,3,60,8,15,30,2,21,34,359
47,38,182,30,94,14,0,295,8,8,3,85,29,18,44,1,36,19,449
49,30,131,36,138,16,8,395,24,5,2,75,25,27,66,5,21,0,553
43,44,153,37,111,35,0,285,18,7,0,66,36,34,62,10,41,0,434
39,30,125,26,109,27,0,248,12,3,3,44,23,31,44,7,30,58,349
35,35,92,28,90,16,0,323,12,1,1,46,25,34,51,6,25,13,405
23,30,68,25,84,22,14,237,14,2,1,43,15,19,45,5,14,0,345
3,0,74,6,8,2,0,152,7,0,1,18,0,3,3,1,9,0,203
15,16,68,19,25,7,0,190,5,71,1,0,12,5,15,1,5,8,217
12,9,77,14,31,10,5,127,11,10,2,28,5,19,9,1,23,0,177
11,8,108,16,53,9,1,211,8,2,0,32,4,19,18,1,73,0,260
61,45,362,57,150,27,1,857,36,7,6,100,5,129,50,5,112,0,1110
68,42,369,63,196,31,0,733,46,14,3,149,24,113,50,10,84,4,1005
18,6,102,17,22,3,4,132,7,43,1,28,4,5,11,2,10,0,193
60,30,151,48,91,28,21,336,21,53,2,58,29,20,57,9,26,0,490
68,53,172,43,116,32,17,230,20,11,18,98,42,51,54,54,39,0,344
22,9,66,12,52,8,11,74,8,10,6,22,8,21,19,19,9,0,132
69,52,274,60,184,29,0,387,32,16,14,123,29,97,55,53,69,8,559
68,37,256,41,155,35,0,404,21,12,17,137,27,62,56,40,55,33,536
63,42,259,37,181,25,0,304,31,9,17,115,18,50,39,54,72,29,477
64,38,250,36,149,41,0,491,19,25,7,113,21,51,51,47,47,20,668
59,49,190,46,160,33,0,326,26,17,9,102,44,63,40,48,52,10,452
67,44,199,44,170,33,2,341,19,22,15,108,27,53,65,39,61,0,491
85,51,246,57,178,39,4,461,27,16,22,130,46,70,61,49,61,0,639
68,47,176,40,128,33,0,330,21,18,15,87,19,62,50,53,38,9,450
53,36,191,37,144,41,30,373,20,10,14,91,31,65,51,50,35,0,538
27,29,195,35,99,21,0,220,18,14,4,93,22,31,20,24,56,31,313
40,30,175,33,128,21,0,221,14,10,5,92,15,26,32,37,38,13,366
53,34,171,37,128,21,0,281,21,10,2,83,17,42,31,34,41,27,417
44,40,176,32,120,27,0,264,19,8,14,81,17,43,39,34,44,6,398
41,21,151,35,104,11,0,270,19,11,6,65,13,53,40,26,24,6,370
36,13,94,22,57,16,0,314,22,7,6,36,9,32,16,28,23,31,342
43,33,124,47,105,21,0,224,9,7,5,65,11,48,42,41,36,20,313
46,47,158,63,164,17,0,253,20,13,15,52,34,82,52,51,28,18,383
44,41,93,29,108,21,0,145,8,9,6,44,20,57,29,24,22,15,247
26,21,127,21,76,13,0,206,12,8,2,53,8,25,28,15,24,15,300
43,44,157,36,120,16,4,377,14,7,5,84,30,48,36,22,40,0,511
57,38,204,34,135,44,0,278,24,11,8,91,31,61,57,28,39,10,430
38,27,168,27,108,20,0,276,16,7,8,60,19,38,45,35,40,27,369
68,49,285,73,159,27,0,440,42,19,11,101,56,54,58,51,57,9,643
59,43,265,47,135,32,0,398,27,12,7,90,25,60,46,47,47,15,603
62,40,241,44,185,28,0,400,40,15,15,106,28,51,39,35,75,16,580
66,33,169,50,135,27,0,351,16,9,9,67,25,52,46,64,38,24,481
33,9,56,12,55,15,0,181,10,2,3,22,12,15,19,9,15,17,237
28,22,92,23,81,15,5,206,10,6,5,42,14,22,42,29,19,0,283
20,11,59,17,40,15,0,147,11,1,5,27,13,9,24,14,15,2,188
43,46,119,43,126,22,0,242,10,6,6,56,21,61,61,27,26,6,361
64,43,146,31,132,32,6,2131,24,9,10,57,40,52,53,24,32,0,2284
41,36,96,37,112,29,0,275,18,2,8,35,28,55,32,25,30,18,375
55,40,116,48,127,25,0,261,9,14,5,38,20,62,41,38,34,18,393
17,16,72,21,51,15,0,150,8,6,2,21,22,20,21,20,9,14,199
42,30,150,22,109,33,0,284,30,5,10,45,22,37,38,20,44,5,414
35,47,165,27,121,29,4,185,24,11,6,77,20,38,32,37,36,0,332
26,38,67,33,75,21,3,102,13,2,6,21,22,54,20,26,18,0,183
41,30,122,29,120,36,0,172,20,6,9,41,25,52,34,62,34,6,261
23,18,30,7,57,12,0,129,2,0,0,8,6,29,13,13,9,23,173
35,24,194,31,103,16,0,329,14,18,8,81,14,43,41,20,38,8,447
50,54,170,36,173,31,0,221,11,14,9,94,32,83,21,60,32,8,371
70,38,163,25,117,24,0,285,13,17,5,76,21,59,37,40,40,1,413
61,48,267,44,179,20,0,359,28,11,4,116,37,67,51,48,61,12,543
51,45,172,52,141,36,23,394,26,23,13,76,28,48,50,41,43,0,566
46,32,149,43,134,25,0,434,14,10,4,60,32,59,42,44,28,0,570
35,27,111,26,76,26,22,358,18,10,6,55,8,34,28,35,37,0,450
38,15,113,30,110,25,3,181,20,7,13,57,26,35,33,39,22,0,263
57,59,201,54,130,38,0,290,26,12,12,92,30,70,51,45,45,1,445
53,38,158,49,123,33,0,395,18,19,5,47,25,20,36,25,19,117,518
38,24,210,35,109,20,10,332,28,5,65,70,51,23,24,9,19,0,484
59,44,397,63,181,60,0,786,37,21,224,120,33,25,38,13,67,15,997
32,14,112,26,35,15,0,245,22,14,25,36,4,8,13,13,25,1,318
20,16,61,21,53,25,0,136,9,17,2,11,31,9,9,6,13,40,185
131,40,336,71,194,45,38,756,40,27,9,80,21,48,45,306,71,0,964
33,15,152,24,61,15,13,166,8,38,10,87,8,14,22,4,30,0,258
25,14,172,16,62,18,0,351,9,2,17,66,15,21,19,15,32,38,424
37,42,59,39,104,21,0,433,8,7,8,25,14,18,28,24,15,17,571
55,45,99,31,129,20,27,193,21,47,16,45,31,72,45,32,26,0,264
14,10,89,21,48,12,0,147,1,0,12,30,13,4,7,10,12,10,242
37,26,165,20,102,18,5,278,16,81,2,53,12,22,19,41,26,0,379
64,28,171,51,95,19,0,346,17,46,11,49,15,17,27,52,25,5,510
4,9,22,11,22,5,0,44,0,8,7,12,1,12,6,1,15,0,55
41,24,121,39,93,21,0,317,12,8,9,42,16,29,13,11,26,9,481
24,10,84,23,48,7,0,198,9,9,6,34,5,7,14,7,13,5,285
1,2,19,4,12,4,0,61,0,0,0,6,3,5,4,2,4,6,73
25,5,50,10,17,9,19,101,7,3,9,17,4,4,10,2,20,0,160
24,13,110,35,60,16,0,180,15,5,12,50,21,11,14,14,29,3,264
19,18,167,19,64,10,0,320,19,2,6,65,7,8,17,5,32,22,434
39,17,135,28,63,15,13,226,9,9,12,61,16,24,25,11,29,0,340
18,10,92,21,57,19,0,200,14,5,3,28,11,18,24,14,20,2,278
25,22,139,33,92,17,0,338,7,8,13,66,16,27,17,13,18,6,475
53,26,121,86,37,20,0,767,12,13,4,55,27,28,22,11,37,53,848
14,10,92,23,57,8,0,221,7,2,3,52,4,13,9,3,32,16,284
35,22,125,19,72,20,9,262,18,6,9,55,14,25,12,9,36,0,380
71,57,299,80,193,39,0,641,29,142,41,68,33,43,45,26,62,38,853
61,22,199,37,136,28,18,288,15,80,28,59,15,41,37,23,47,0,444
32,21,75,20,65,18,36,146,19,35,7,30,28,17,27,11,19,0,220
40,35,209,38,173,22,0,324,11,107,20,105,18,20,43,17,32,9,459
70,43,247,46,142,44,0,427,44,38,53,73,42,46,47,22,53,12,589
67,27,290,46,176,26,0,508,30,24,49,95,39,31,50,23,42,29,728
34,23,186,43,132,16,0,284,22,23,24,80,23,24,34,17,29,36,406
43,31,158,23,78,18,0,301,22,17,29,53,27,13,29,15,19,14,414
56,24,233,29,86,15,0,338,20,19,17,100,19,7,21,20,42,20,496
42,17,198,60,133,19,0,337,21,38,35,81,43,12,42,9,35,17,473
36,25,191,30,121,19,0,298,29,16,24,76,28,36,28,15,24,1,443
61,42,230,43,116,26,0,428,34,21,32,80,42,28,36,19,43,10,601
51,33,233,46,133,27,11,445,20,14,37,93,50,31,38,26,36,0,634
54,41,219,48,114,30,0,495,33,21,33,86,37,13,49,11,55,34,629
65,45,245,55,176,47,36,388,27,22,36,93,63,49,51,27,70,0,619
66,37,192,49,128,34,0,573,22,30,18,79,64,29,48,17,49,7,716
91,47,222,67,167,49,18,1205,34,51,56,74,86,35,72,25,51,0,1382
14,7,101,22,39,7,0,205,7,1,6,23,41,3,8,3,21,19,263
54,40,114,34,119,25,0,218,9,60,2,35,14,29,40,9,21,99,286
22,3,55,12,36,18,0,108,7,56,1,3,10,7,8,0,8,7,147
24,12,125,15,43,3,5,238,11,5,11,46,10,3,2,2,14,0,361
20,6,38,2,31,8,11,132,3,45,1,18,6,9,11,9,11,0,135
60,36,157,39,144,23,23,292,23,160,5,51,28,43,22,38,27,0,377
39,19,102,24,69,14,0,234,15,8,8,49,15,18,11,20,32,12,313
11,11,100,16,56,11,8,185,6,36,3,26,9,10,8,7,19,0,274
6,4,22,7,10,1,0,37,1,5,2,5,1,0,1,0,5,1,66
34,13,104,35,63,10,9,191,17,9,20,48,3,35,21,8,22,0,276
30,26,95,30,62,37,0,244,9,29,8,42,29,22,32,17,25,10,301
22,5,117,12,49,9,0,264,13,0,15,28,4,4,15,3,16,51,329
44,27,223,21,73,15,0,382,13,2,4,85,21,9,20,5,49,31,546
42,33,192,33,81,24,0,478,8,8,3,64,23,16,23,4,48,7,679
12,14,154,22,52,14,6,416,13,2,3,50,14,6,15,6,29,0,552
43,33,176,53,102,31,0,354,11,2,35,53,34,14,18,23,38,7,557
44,20,226,42,96,11,0,498,10,1,23,72,21,15,20,15,33,13,714
44,26,325,30,123,44,0,660,31,3,34,99,20,14,37,23,69,37,885
40,15,129,23,46,10,0,192,15,3,37,36,8,10,27,10,29,0,280
10,11,77,19,35,7,7,133,1,34,0,29,6,8,20,0,11,0,190
22,17,147,25,59,11,0,156,30,78,4,38,5,13,10,7,9,14,229
15,2,118,6,21,5,9,218,9,51,3,25,4,0,5,0,10,0,287
9,7,60,10,20,3,0,68,6,33,3,17,0,5,5,2,7,0,99
17,14,66,28,43,4,20,152,10,55,6,26,10,3,13,3,8,0,210
46,32,255,38,100,21,0,557,37,1,71,81,53,11,21,4,36,53,681
36,29,249,38,105,25,0,453,36,10,86,78,30,15,15,6,40,42,577
32,19,135,12,75,11,28,127,12,10,11,56,16,38,23,15,40,0,218
44,13,150,29,85,11,29,607,15,2,10,61,19,58,30,16,43,0,714
55,37,202,47,126,30,0,1178,15,9,15,93,28,64,28,27,51,37,1308
51,33,238,50,126,38,0,364,23,8,13,90,32,60,42,27,56,45,504
50,29,306,44,141,32,2,531,29,10,5,113,23,57,35,29,52,0,782
48,35,258,44,104,22,19,482,20,8,10,112,29,47,26,16,37,0,707
27,17,206,32,93,18,0,328,8,8,1,75,25,30,22,17,36,19,480
77,43,218,52,168,36,0,535,25,12,7,94,41,51,39,31,66,45,718
37,24,356,43,102,34,139,576,36,10,1,103,15,54,21,22,78,0,971
76,46,322,91,175,48,0,696,30,10,8,132,27,100,70,62,100,15,900
52,16,297,36,71,16,3,604,30,5,15,96,14,38,27,27,76,0,767
50,18,224,51,92,35,0,544,22,4,5,85,16,32,23,20,61,19,727
31,27,266,36,109,28,0,521,23,4,6,85,27,37,19,12,49,14,742
45,27,210,44,108,17,9,522,22,8,4,83,17,41,30,21,44,0,712
35,19,153,16,58,19,0,664,22,7,4,46,8,23,28,9,30,43,744
44,23,143,30,75,30,17,483,15,5,11,71,33,39,27,18,50,0,576
52,37,229,48,155,28,0,383,29,10,7,91,46,70,45,28,49,45,512
49,23,176,32,100,24,6,289,31,14,6,63,25,44,28,17,48,0,423
36,27,176,34,102,15,0,298,23,1,10,68,24,56,20,19,51,27,389
43,24,211,38,127,29,0,340,25,7,9,102,39,48,32,20,56,19,455
57,30,281,49,137,37,0,573,32,11,19,120,28,69,43,18,62,11,751
52,24,257,64,129,28,0,528,21,8,11,118,22,49,31,24,52,33,713
20,18,81,24,54,16,0,152,1,5,7,29,7,22,23,18,32,24,197
56,22,284,48,105,19,0,716,36,29,2,122,21,27,32,5,52,5,919
46,18,189,40,71,14,4,341,24,5,6,57,15,44,20,2,50,0,500
11,8,44,12,23,11,0,121,5,17,0,10,4,15,5,5,9,3,157
23,9,77,9,26,11,21,116,15,1,15,28,10,19,5,6,13,0,180
52,17,120,29,71,21,15,193,26,8,7,71,14,29,17,5,57,0,284
27,10,134,16,56,13,0,280,6,2,1,52,8,38,11,2,30,32,354
32,14,175,26,46,12,7,673,22,2,2,74,6,7,16,4,46,0,806
42,19,201,25,84,20,0,479,25,3,4,73,7,15,22,10,60,19,632
42,22,189,27,91,35,0,722,20,7,4,60,19,32,20,5,55,2,904
35,16,176,30,85,13,172,674,26,2,57,101,24,36,46,14,39,0,856
12,10,62,11,33,7,0,110,3,2,0,25,3,14,12,3,24,4,155
48,23,203,25,98,34,0,507,15,1,138,66,12,11,19,2,27,21,626
36,12,205,39,99,27,0,570,19,5,106,64,12,9,29,8,16,1,719
47,10,271,35,144,25,2,528,29,6,146,95,10,15,23,3,26,0,709
74,19,197,22,82,20,0,764,24,3,126,39,10,20,6,4,38,28,880
64,24,267,49,116,23,0,504,15,10,161,82,22,21,9,7,36,51,633
38,17,167,33,70,16,0,554,23,2,109,42,9,6,16,8,22,21,637
75,35,325,52,166,28,0,655,23,5,234,112,18,28,35,5,47,1,828
54,19,203,48,131,27,0,980,19,3,171,58,16,16,27,10,26,54,1062
68,28,191,42,140,27,0,448,19,0,198,77,22,20,22,20,33,25,508
56,24,230,23,110,26,0,441,19,6,152,70,29,10,10,8,38,18,550
23,7,61,7,34,4,11,95,6,0,44,21,3,8,11,1,4,0,144
13,16,112,29,60,8,16,163,9,43,10,42,8,31,5,5,22,0,242
24,3,110,15,40,8,0,172,17,10,2,36,7,11,13,4,14,17,241
37,24,191,44,77,23,9,358,16,9,2,64,22,40,21,18,48,0,523
50,18,139,30,76,15,0,332,19,8,3,115,10,35,27,13,30,35,365
17,4,138,26,48,12,0,224,10,3,5,68,6,19,11,13,37,2,295
32,17,107,13,64,11,0,180,10,0,3,41,9,29,12,8,32,4,276
37,15,201,19,95,20,0,305,28,1,7,67,11,23,26,22,49,18,440
52,16,123,28,58,22,8,299,14,2,11,52,6,25,21,20,42,0,413
44,11,168,31,58,24,0,614,25,1,3,62,10,27,19,8,48,24,723
35,17,204,49,63,20,0,383,20,5,9,82,7,28,17,28,41,38,496
22,17,158,30,81,12,0,467,24,2,9,71,5,21,10,15,40,19,571
37,33,204,57,112,31,0,342,14,4,4,86,10,51,20,23,65,21,518
45,27,242,35,120,26,0,453,29,9,7,105,29,43,24,8,81,1,612
41,25,258,34,92,17,0,275,14,2,8,94,16,35,25,1,42,17,488
37,28,226,36,102,27,0,609,33,4,6,92,14,37,34,3,58,5,779
56,24,268,41,103,41,0,501,35,7,6,118,22,44,25,6,67,23,681
12,14,140,17,33,12,0,254,11,2,7,59,6,36,9,1,16,28,307
66,55,260,65,212,47,55,559,27,10,18,110,46,112,95,25,69,0,807
55,57,208,59,175,61,0,583,34,14,23,75,47,94,83,15,52,12,749
60,24,275,48,156,27,48,440,17,12,15,98,23,74,39,56,60,0,684
3,2,33,2,9,2,0,128,0,4,2,7,2,3,10,4,6,0,141
15,8,163,28,58,22,2,218,22,5,18,63,5,25,18,13,30,0,315
14,3,30,13,25,4,0,105,1,0,13,17,2,1,13,5,10,13,119
36,11,156,10,50,12,6,519,32,1,25,42,4,14,11,7,27,0,637
40,17,129,20,66,13,13,292,19,4,19,47,7,17,10,6,23,0,438
20,17,112,25,45,6,0,198,3,3,8,53,3,6,7,57,22,14,247
33,18,178,42,62,24,14,566,24,2,1,72,4,15,13,67,38,0,701
3,2,21,1,8,5,0,28,2,0,1,6,1,3,1,0,19,6,29
3,3,44,9,11,2,0,151,1,0,2,9,4,2,7,0,26,8,164
25,14,241,22,36,15,0,584,18,3,3,40,4,3,12,1,192,28,633
54,29,302,57,102,23,0,752,20,1,3,57,15,14,29,6,278,52,844
9,5,60,5,7,5,0,168,10,10,0,15,5,2,1,3,10,7,196
47,24,198,22,126,14,0,261,27,11,12,90,31,19,23,17,44,7,411
26,11,98,20,40,13,7,167,13,3,5,44,1,19,15,7,23,0,252
13,5,84,14,32,13,0,104,8,8,5,25,3,9,6,5,38,3,155
48,15,221,22,66,14,23,515,26,7,71,74,5,21,15,3,35,0,667
8,3,42,5,9,4,5,240,4,2,7,9,3,0,5,0,13,0,273
1,0,52,0,18,3,0,83,2,9,0,11,2,2,0,2,3,7,119
6,1,36,1,17,3,9,59,1,33,0,8,5,10,4,2,3,0,66
13,5,31,4,12,5,3,55,9,3,2,9,6,8,3,0,22,0,66
2,1,30,4,14,3,0,36,0,1,0,9,2,1,2,0,10,0,65
10,14,54,22,46,11,0,118,5,4,2,23,15,17,27,6,29,28,119
23,4,87,13,37,12,5,83,10,38,6,26,18,7,17,5,8,0,129
12,10,58,14,26,5,22,62,4,8,5,47,2,18,13,5,10,0,97
