A53,A47,A659,A720,A1114,A768,A1,A997,A998,A999,B1114,B1350,B53,B768,B1450,B997,B998,B999
26,5,17,11,24,44,10,18,13,560,29,48,25,69,33,32,0,492
10,1,7,9,13,17,7,4,2,200,10,18,5,19,6,13,0,199
0,1,0,7,0,9,0,5,1,57,1,4,0,11,0,5,0,59
1,1,1,6,8,9,1,9,8,94,4,6,2,19,4,6,0,97
1,7,2,0,7,4,0,1,4,72,2,3,3,18,5,3,0,64
0,8,0,3,3,1,0,11,0,58,0,5,1,6,1,11,4,56
10,7,3,7,22,27,12,18,0,362,8,7,10,29,11,13,55,335
35,22,21,22,9,61,19,34,5,690,15,45,39,108,60,70,0,581
41,17,27,44,29,74,26,46,24,514,17,95,59,121,97,75,0,378
22,1,31,35,20,40,14,16,0,582,20,80,27,54,59,45,0,476
46,12,30,31,27,60,11,25,0,460,16,50,39,91,73,47,21,365
22,25,19,27,46,84,12,29,0,553,28,53,21,99,44,63,37,472
15,11,17,25,25,31,9,24,0,542,22,52,12,36,45,34,19,479
23,11,21,33,19,71,9,33,0,463,22,44,19,92,53,44,9,400
14,13,18,33,35,53,11,24,0,668,31,60,17,58,57,49,19,578
29,23,20,38,31,72,24,48,0,822,31,75,39,69,72,91,21,709
10,8,16,12,17,25,4,20,10,254,18,34,13,39,35,15,0,222
42,9,21,44,12,39,18,27,13,540,19,78,50,70,60,58,0,430
17,3,9,8,14,30,3,19,9,266,13,24,21,42,22,38,0,218
35,35,38,31,42,49,18,31,20,608,35,80,58,87,86,109,0,452
31,14,38,53,21,50,17,38,69,763,38,111,55,92,97,89,0,612
47,19,33,48,35,94,18,56,0,542,15,81,43,113,84,81,28,447
79,7,57,58,11,59,29,59,10,434,10,104,66,80,134,56,0,353
31,26,26,20,33,62,18,49,0,704,30,67,24,99,76,54,20,599
62,27,62,66,50,109,36,63,153,972,44,186,73,150,198,102,0,847
32,2,24,33,15,28,12,38,0,463,19,73,41,62,71,44,7,330
23,15,19,23,23,47,21,35,0,562,29,53,20,72,58,54,1,481
26,22,19,32,30,74,8,38,0,534,24,72,21,99,52,68,0,447
25,8,26,34,19,59,17,31,0,650,30,76,26,72,59,65,29,512
48,24,44,64,37,62,23,69,48,892,49,133,66,101,110,96,0,756
21,7,28,48,14,16,20,24,0,318,8,50,17,27,76,33,25,260
17,6,41,63,12,10,47,35,0,332,15,63,27,22,106,27,26,277
26,13,19,32,48,57,13,26,0,575,42,72,23,79,60,57,18,458
30,30,35,76,58,87,27,81,0,1051,36,136,38,109,113,128,37,878
29,21,19,19,23,70,7,47,0,738,15,59,22,116,55,63,20,623
20,18,30,25,28,74,16,53,5,628,33,57,27,116,74,48,0,542
25,16,34,36,22,73,21,41,0,584,16,63,17,110,92,46,18,490
31,16,16,26,22,70,13,48,27,735,25,71,28,106,58,75,0,641
20,21,14,19,20,66,22,43,0,524,17,51,16,111,43,55,9,447
24,20,11,34,21,63,7,32,9,515,22,51,20,66,47,55,0,475
25,2,10,14,0,12,4,11,2,206,2,26,18,24,30,19,0,167
56,22,29,47,36,101,23,61,9,653,44,104,48,137,101,70,0,533
49,5,34,42,22,40,27,23,0,511,13,69,45,50,102,45,7,422
20,1,51,41,10,16,33,10,0,280,4,46,11,15,81,27,15,263
32,6,37,67,38,36,14,36,0,3653,39,90,32,32,57,59,10,3600
20,5,19,30,34,18,15,29,0,507,20,49,17,24,50,41,33,443
51,13,38,37,26,56,33,39,16,652,13,86,55,94,115,55,0,543
61,37,33,44,23,65,24,51,11,628,24,92,48,102,122,71,0,518
9,23,17,23,23,78,9,40,0,570,27,44,21,108,33,55,11,493
43,13,69,61,38,61,11,37,28,533,26,121,56,82,135,62,0,412
22,9,31,43,17,23,36,32,0,365,14,62,30,33,60,39,12,328
46,12,35,32,30,71,20,41,12,597,23,90,45,102,76,56,0,504
29,11,18,21,23,67,13,39,14,550,16,69,23,98,52,52,0,475
40,15,28,24,21,54,8,38,0,462,14,51,38,86,72,59,9,361
33,25,18,37,34,99,25,48,0,664,26,85,38,118,85,68,3,560
61,12,48,70,23,74,31,40,31,747,21,141,68,98,127,51,0,631
22,27,19,27,17,52,11,29,0,455,20,54,17,72,47,51,16,382
21,9,11,20,13,43,16,19,0,408,14,50,20,59,35,40,4,338
19,8,25,35,9,55,30,39,0,325,7,49,20,64,76,39,15,275
32,15,44,55,23,62,35,42,0,451,15,84,25,83,121,44,7,380
24,13,30,44,20,37,26,31,0,454,17,55,26,50,94,43,9,385
50,10,40,56,14,55,29,27,27,542,14,103,58,62,122,65,0,426
60,8,69,70,22,55,36,45,0,483,19,97,51,52,131,39,84,375
41,13,46,37,33,66,7,45,0,616,22,89,40,107,90,59,12,485
29,5,49,33,29,37,27,30,0,482,16,82,28,55,99,27,17,397
38,8,30,27,23,47,19,18,61,538,20,80,36,56,103,39,0,475
24,9,21,34,23,51,25,31,0,398,12,59,21,67,68,53,11,325
44,13,51,65,21,60,30,37,0,534,13,100,35,84,116,81,21,405
43,8,46,50,31,43,20,39,6,548,27,98,53,76,117,65,0,398
34,20,50,46,37,58,23,58,8,736,25,113,45,103,124,67,0,593
37,21,40,54,25,60,15,60,0,1233,30,135,39,81,111,64,17,1068
32,13,41,47,18,67,21,49,0,673,22,80,25,72,99,59,4,600
28,14,40,52,31,44,27,32,0,618,16,100,30,62,96,47,28,507
16,8,20,36,28,75,17,28,0,617,27,70,20,119,59,48,5,497
35,17,25,36,18,71,23,37,35,781,27,109,48,105,89,59,0,641
42,30,43,59,34,84,34,50,12,948,33,139,42,133,129,104,0,756
20,5,13,16,16,40,2,10,0,259,12,46,14,59,32,21,4,193
40,19,31,31,41,57,10,32,0,603,26,106,48,65,82,62,3,472
4,6,20,16,15,24,15,16,13,171,14,25,7,33,42,34,0,145
19,17,22,16,18,54,21,35,9,365,23,43,31,67,65,45,0,302
40,12,24,37,12,50,38,44,0,362,14,81,40,60,79,45,8,292
42,11,38,53,28,62,23,54,17,715,31,96,66,116,123,69,0,542
33,12,18,44,18,61,7,24,17,736,12,80,29,99,72,50,0,628
6,3,15,16,19,29,6,20,6,256,8,32,9,41,22,32,0,232
25,12,13,30,13,40,25,28,7,356,18,51,29,61,56,29,0,305
30,8,27,14,20,56,23,21,0,478,26,59,23,70,78,46,8,367
39,13,30,55,26,42,52,31,0,548,38,88,33,55,123,51,1,447
51,21,18,45,28,65,15,43,13,758,36,112,45,63,82,81,0,638
20,24,27,46,26,68,18,41,0,732,31,92,24,98,67,78,68,544
23,13,26,37,43,61,12,42,7,585,28,73,32,99,87,58,0,472
63,23,47,62,36,63,30,61,0,587,28,110,59,105,125,76,10,459
32,9,34,50,13,43,15,32,0,505,16,65,45,60,93,41,18,395
23,20,27,29,22,31,23,37,0,466,17,66,26,55,71,38,11,394
29,13,38,29,27,34,10,26,0,400,22,64,28,48,70,27,15,332
24,18,24,28,20,84,19,37,0,567,20,60,24,101,61,60,5,490
41,8,15,20,14,47,11,37,0,297,18,45,19,56,49,38,1,264
24,10,26,26,23,45,23,21,0,417,23,48,20,63,66,34,6,355
46,13,33,68,22,47,20,35,0,616,15,106,39,57,104,64,1,514
37,15,44,29,24,59,20,32,6,338,19,66,29,64,72,40,0,314
50,20,45,34,25,40,18,38,1,699,23,107,47,67,95,77,0,554
52,23,16,37,27,65,28,73,0,717,51,92,45,122,88,83,31,526
37,17,30,34,22,64,15,33,0,619,32,61,37,65,102,62,11,501
47,27,40,38,52,92,37,54,0,1409,41,120,57,142,140,102,6,1188
0,1,0,7,8,4,4,3,0,73,0,7,2,5,2,7,3,74
1,5,2,5,4,6,3,11,10,127,10,14,4,16,7,18,0,105
8,5,4,14,1,15,4,8,7,174,4,27,2,28,9,20,0,150
2,0,2,2,3,8,0,5,0,55,3,5,0,8,1,9,8,43
5,3,0,5,1,5,4,2,1,85,1,10,5,8,18,10,0,59
1,4,0,6,1,12,9,4,0,78,3,9,0,9,7,7,6,74
6,2,2,5,2,5,4,4,0,115,1,10,1,12,13,11,1,96
11,8,21,23,14,28,14,32,0,359,16,56,16,54,30,45,2,291
69,45,39,79,56,132,40,84,7,1509,30,172,88,212,157,160,0,1241
1,6,2,7,3,5,0,7,6,118,3,13,2,10,3,10,0,114
5,2,2,6,3,1,0,6,0,61,2,7,3,6,2,9,4,53
3,0,1,2,0,7,2,11,2,28,1,2,2,4,8,6,0,33
15,8,13,11,13,25,24,51,1,348,11,34,14,34,72,60,0,284
2,1,3,2,1,2,4,15,0,61,2,3,1,8,17,14,1,45
2,3,1,0,1,7,9,2,1,86,5,9,0,24,5,5,0,64
1,5,4,2,0,9,2,11,0,35,1,8,1,9,6,14,0,30
5,3,4,8,7,8,6,7,5,58,4,15,5,7,7,14,0,59
1,3,2,1,3,7,0,7,0,41,2,5,3,7,8,10,0,30
28,15,18,27,14,48,7,29,4,445,19,42,45,51,44,57,0,377
2,2,6,4,9,8,0,8,4,102,11,15,17,12,3,6,0,81
19,15,18,18,18,43,0,51,0,634,15,59,43,69,23,53,9,545
12,14,12,18,19,36,8,28,0,476,12,41,24,39,13,39,8,447
1,5,11,7,7,11,7,9,4,125,3,16,3,24,22,27,0,92
6,2,2,2,5,22,5,11,3,155,8,14,4,28,20,6,0,133
104,15,77,88,36,106,58,79,15,1144,50,197,117,144,185,95,0,934
1,3,3,8,2,18,3,6,0,79,1,6,1,24,3,8,5,75
11,14,7,5,4,12,14,7,0,146,7,15,1,44,17,19,0,117
3,12,4,10,13,18,17,11,0,239,5,17,0,27,31,30,11,206
20,16,10,24,20,34,14,30,31,587,23,67,11,78,43,66,0,498
13,20,17,45,29,83,44,58,0,970,33,55,17,129,172,69,18,786
28,42,27,41,35,72,22,53,12,895,45,98,35,132,82,96,0,739
2,4,4,14,8,10,3,13,0,160,3,14,3,19,12,16,7,144
19,30,13,26,37,65,6,38,0,989,40,56,33,122,39,85,3,845
10,11,10,14,3,32,4,24,1,481,13,27,12,49,26,32,0,431
35,43,20,48,33,95,34,57,11,1094,32,100,35,173,107,75,0,948
54,14,37,67,36,82,27,49,9,998,46,122,49,125,149,89,0,793
9,4,12,17,19,21,20,25,0,350,22,27,22,48,27,24,10,297
30,20,34,52,41,76,18,54,23,639,30,89,52,131,79,69,0,537
28,17,35,29,26,101,20,29,0,695,33,90,24,138,66,50,4,575
16,11,9,15,26,36,40,25,0,401,18,40,12,60,72,44,1,332
12,18,12,23,4,30,9,14,0,351,14,35,11,45,26,27,4,311
23,15,14,28,19,50,40,46,7,440,13,72,22,71,80,43,0,381
12,3,13,13,11,20,4,20,0,300,4,25,16,29,17,42,7,256
28,25,10,40,37,68,27,28,0,979,32,62,37,82,39,82,18,890
2,3,1,3,5,7,9,3,2,78,4,2,1,12,20,6,0,68
4,6,2,5,12,11,2,8,0,106,5,21,5,15,5,20,1,84
31,19,27,36,25,84,36,43,0,808,19,90,33,96,64,100,16,691
19,17,16,20,35,64,14,49,0,720,18,51,31,87,44,92,7,624
19,19,5,17,12,56,7,27,0,512,9,44,21,69,25,68,15,423
11,5,6,17,6,28,14,10,0,226,2,36,8,43,31,12,1,190
3,8,0,1,0,15,16,9,7,125,2,12,2,19,24,31,0,94
2,5,1,4,2,15,4,9,0,138,3,17,4,16,9,16,12,103
4,7,6,15,1,15,15,14,0,220,1,36,6,30,40,21,7,156
3,6,9,9,3,7,4,8,0,135,7,21,4,12,14,19,3,104
33,10,19,38,47,67,17,59,0,927,31,84,42,106,67,97,4,786
9,4,0,13,9,36,9,17,0,292,10,23,11,59,31,21,3,231
5,3,4,2,8,5,4,6,0,39,1,5,6,4,8,8,0,44
7,6,2,11,8,18,6,5,0,155,10,13,6,14,15,13,0,147
4,11,2,7,12,27,6,19,2,156,8,19,7,43,18,26,0,125
0,7,2,2,3,5,9,2,0,87,3,6,0,8,19,12,2,67
11,29,6,9,9,19,11,12,19,339,14,23,14,49,24,37,0,303
7,5,2,0,4,3,4,0,0,53,4,6,7,8,7,4,2,40
6,1,0,1,1,1,0,2,0,47,1,6,4,2,2,4,2,38
18,13,21,20,10,39,12,17,18,409,15,46,14,40,57,36,0,369
9,9,9,18,21,28,8,26,4,557,23,39,11,55,24,53,0,484
9,16,5,8,16,50,6,13,0,371,10,28,5,82,13,32,9,315
26,21,19,28,8,37,17,37,0,631,13,52,19,76,49,45,11,559
39,20,14,40,24,51,26,29,18,707,28,82,29,96,89,78,0,566
5,9,0,5,6,12,2,9,0,149,5,5,10,14,10,22,1,130
9,4,5,16,15,22,11,11,0,330,6,32,8,31,21,26,43,256
1,2,2,4,2,6,0,5,0,81,3,18,1,11,3,2,6,59
2,5,12,16,7,23,11,13,0,181,9,55,5,39,11,20,5,126
18,29,27,27,16,64,27,20,0,589,18,132,14,103,60,53,15,422
4,4,0,1,1,5,6,1,4,76,1,15,1,7,8,7,0,63
27,11,21,35,18,34,15,30,19,526,11,71,36,47,65,53,0,453
17,16,14,28,33,31,23,41,0,667,21,61,32,64,74,64,7,547
14,14,18,32,23,39,34,17,0,852,10,65,46,75,58,50,27,712
25,10,12,33,28,56,17,43,0,584,12,108,27,75,48,67,5,466
0,13,1,10,18,14,1,14,2,178,10,26,3,33,9,27,0,143
4,5,4,4,5,13,14,10,0,122,0,26,8,25,16,5,6,95
26,38,39,35,28,54,37,34,0,814,23,138,36,77,80,69,16,666
12,8,0,2,3,15,6,13,0,140,2,5,14,19,9,16,3,131
4,20,10,5,7,18,6,16,0,234,6,18,11,39,15,43,4,184
33,15,31,38,30,80,36,61,0,710,44,69,28,107,88,76,26,596
5,4,3,5,16,18,17,7,0,289,20,23,8,29,29,18,8,229
15,9,16,43,36,40,20,36,5,864,44,88,15,84,45,46,0,762
24,22,22,49,30,76,36,48,16,642,28,95,27,110,62,72,0,571
9,11,3,8,8,30,1,17,3,358,11,35,9,61,28,22,0,282
35,35,25,32,46,94,17,82,0,953,42,59,74,144,64,98,12,826
43,8,25,36,28,83,13,43,0,722,21,70,77,113,41,44,19,616
18,27,25,25,36,52,10,45,0,669,35,52,42,93,32,56,13,584
22,11,18,19,29,76,4,40,0,723,28,50,32,97,20,32,29,654
35,15,31,29,44,85,36,46,12,802,22,76,82,96,83,44,0,732
6,5,1,1,6,10,0,3,1,83,8,4,11,11,5,5,0,72
32,26,27,48,37,63,24,33,13,889,38,90,55,95,56,85,0,773
49,28,30,60,52,93,26,70,0,964,43,106,120,117,71,81,26,808
62,19,19,42,25,69,26,50,61,1595,45,103,107,116,73,82,0,1442
27,24,21,16,25,57,32,33,0,474,26,38,31,68,49,63,21,413
5,3,1,4,3,16,1,6,2,106,3,7,3,19,1,12,0,102
3,0,1,2,5,5,3,3,0,55,5,9,2,7,5,2,6,41
0,8,1,3,6,5,0,6,0,50,2,3,1,11,1,8,2,51
7,14,3,3,8,24,2,7,2,191,6,11,21,38,12,7,0,166
36,17,21,21,26,65,21,29,0,860,22,51,106,109,44,43,10,711
29,7,13,12,10,33,13,16,0,435,7,38,26,52,38,30,1,376
10,5,11,11,8,13,21,10,5,203,12,24,11,36,39,11,0,164
6,1,6,11,2,10,6,9,8,118,5,17,7,16,29,11,0,92
8,4,7,4,4,7,3,11,6,122,1,21,16,19,6,10,0,103
7,7,12,8,6,11,8,8,2,97,6,30,12,16,11,7,0,84
28,23,16,38,28,69,44,48,0,872,31,93,55,103,61,80,4,739
5,0,1,4,4,10,0,2,22,92,5,19,7,14,11,12,0,72
3,2,5,7,5,4,3,0,0,74,5,7,0,9,13,11,7,51
0,3,2,2,3,14,3,4,0,41,6,0,0,14,5,1,1,45
0,5,2,7,2,16,9,4,4,62,2,7,0,18,13,5,0,66
13,17,20,31,16,54,12,41,18,642,13,61,19,91,57,59,0,564
3,2,0,2,9,6,5,2,7,62,4,10,6,7,5,6,0,60
25,14,10,31,24,83,12,38,0,937,21,75,46,120,46,58,4,804
3,3,2,8,0,9,1,7,0,79,1,7,17,11,6,6,5,59
0,7,1,3,0,7,0,3,3,71,5,6,2,7,1,5,0,69
4,4,1,1,3,12,2,13,20,141,7,2,19,24,8,17,0,124
22,16,11,32,21,69,10,52,4,633,29,61,83,98,22,53,0,524
70,19,40,43,19,76,20,38,2,681,23,106,138,93,73,51,0,524
28,10,11,21,15,29,5,17,17,773,10,48,78,35,14,39,0,702
3,7,8,11,4,6,4,5,1,123,6,21,9,20,10,7,0,99
15,4,5,16,7,15,25,8,0,251,5,22,29,22,33,17,7,211
12,9,7,10,10,28,2,7,5,156,3,16,39,35,5,12,0,136
4,2,1,5,0,5,1,2,0,76,0,3,10,6,1,5,0,71
7,6,7,1,2,8,8,6,0,111,2,5,12,8,10,13,1,105
20,23,23,32,26,53,21,47,0,740,22,63,72,95,37,63,23,610
34,11,9,16,9,35,5,23,0,414,8,31,80,68,11,36,7,315
11,22,10,23,16,51,11,35,15,518,20,38,52,86,31,64,0,421
11,14,8,25,8,34,11,14,0,306,6,35,38,57,24,30,1,240
25,20,9,31,24,53,6,33,0,599,20,64,73,71,22,50,9,491
18,20,9,17,22,48,6,31,0,577,15,42,57,87,20,53,4,470
19,15,6,24,23,59,3,38,0,769,34,48,73,67,14,52,31,637
67,19,38,51,27,79,50,64,21,943,19,112,82,122,187,75,0,762
46,21,37,50,29,67,33,40,22,953,17,90,62,106,148,83,0,792
1,3,19,9,6,18,3,10,8,150,7,16,14,20,26,21,0,123
2,6,8,21,8,21,13,18,8,165,16,34,2,47,23,21,0,127
54,20,45,76,47,108,36,53,42,1310,55,147,57,165,170,117,0,1080
31,8,28,26,17,63,17,36,0,827,31,74,28,94,90,69,7,660
7,7,4,13,12,12,35,12,0,267,7,30,15,14,47,30,5,221
9,9,4,8,4,18,1,6,6,141,8,21,15,23,10,18,0,111
15,16,9,28,10,35,6,13,6,269,0,42,26,59,26,42,0,212
18,16,10,34,28,48,35,33,1,607,25,51,40,83,71,63,0,497
41,23,8,33,34,85,29,30,0,616,32,59,67,112,69,54,2,504
19,13,4,28,24,76,6,24,0,696,29,52,19,88,33,57,20,592
13,8,11,9,19,34,2,20,0,544,14,17,23,76,21,23,8,478
32,22,8,26,23,57,18,23,8,455,23,46,50,73,37,36,0,407
25,16,9,21,24,58,7,26,16,411,36,48,46,68,26,29,0,360
8,15,6,16,14,41,2,16,5,364,8,19,18,53,11,46,0,332
12,11,6,11,15,26,6,19,11,488,14,27,22,32,23,34,0,453
3,5,2,3,6,20,15,4,10,179,5,10,2,15,17,16,0,182
8,11,4,9,14,36,18,13,7,344,13,17,23,59,33,32,0,287
38,13,10,30,29,72,6,35,0,423,22,46,46,94,35,55,0,358
5,7,3,15,6,15,3,4,9,128,4,17,19,16,10,24,0,105
27,9,11,27,18,42,7,27,0,454,25,55,41,54,29,28,4,386
22,13,4,15,38,40,7,22,0,2281,34,37,41,66,27,40,56,2141
32,19,12,26,30,72,8,36,0,756,35,39,73,90,42,42,6,664
35,28,16,20,32,47,9,35,0,590,26,52,47,73,40,64,22,488
52,19,29,40,43,83,22,37,0,738,37,65,77,98,77,70,11,628
29,16,15,30,26,70,10,44,0,592,26,60,48,103,34,59,29,473
30,21,8,16,27,57,4,15,24,435,23,26,35,78,33,43,0,399
14,22,6,19,19,70,9,28,0,459,18,25,24,74,24,29,16,436
10,12,9,16,23,61,8,24,0,492,22,33,17,76,16,37,15,439
14,25,17,17,28,69,2,28,0,617,34,43,40,86,27,54,22,511
29,27,12,21,22,50,8,17,0,458,26,26,38,72,25,33,22,402
19,22,16,20,37,66,8,33,0,685,33,51,42,101,30,48,24,577
26,16,10,18,24,66,9,22,0,496,30,27,44,76,30,28,13,439
10,12,11,12,14,62,11,12,0,388,21,23,13,73,30,32,4,336
23,12,6,21,18,51,4,11,0,345,12,27,32,66,21,34,3,296
31,23,15,27,39,71,21,31,0,555,35,51,47,108,50,68,5,449
25,25,8,12,35,54,15,24,0,477,27,33,35,88,39,59,0,394
14,10,5,11,10,30,4,22,12,409,20,25,23,54,19,22,0,364
32,21,16,15,44,85,12,46,4,741,30,59,59,124,39,71,0,634
32,16,19,28,23,64,6,30,0,617,35,52,40,107,32,58,12,499
33,31,5,22,40,81,15,22,0,726,28,53,45,137,33,67,9,603
30,21,12,18,29,62,6,31,5,591,29,34,55,79,35,55,0,518
9,28,9,13,38,80,12,23,0,548,40,37,19,93,42,59,23,447
21,20,8,21,38,77,9,21,3,536,39,33,33,100,37,44,0,468
22,28,16,16,28,63,9,23,0,553,27,46,32,94,43,54,19,443
19,26,25,20,31,73,11,42,0,530,29,48,29,99,37,61,8,466
53,13,16,15,27,34,17,36,12,447,27,41,74,59,42,44,0,383
25,13,15,24,7,55,8,25,0,317,10,52,56,54,30,26,2,259
2,8,4,14,15,30,6,14,0,343,19,25,25,38,20,30,12,267
9,17,4,11,9,33,3,10,0,495,15,16,13,49,19,20,3,456
17,17,5,22,22,64,4,23,0,451,16,27,21,80,21,41,15,404
12,11,8,23,26,48,12,27,0,458,25,25,19,61,29,29,29,408
20,21,4,15,23,48,4,14,6,492,32,25,23,73,11,37,0,446
22,10,12,8,25,33,13,24,0,404,16,29,29,47,31,34,8,357
3,9,1,2,4,11,2,7,0,116,9,10,9,23,6,15,1,82
15,15,10,15,10,31,12,25,0,299,7,30,16,57,40,39,11,232
11,22,10,12,12,50,8,30,6,395,17,30,27,82,45,47,0,308
9,11,6,6,5,14,5,15,9,209,7,16,19,30,17,29,0,171
26,10,10,34,35,57,8,24,0,644,20,49,52,72,24,45,22,564
1,4,2,0,6,10,0,7,0,90,5,3,5,11,3,10,1,82
0,0,0,3,3,4,1,8,0,62,5,3,2,4,6,3,4,54
1,0,3,1,15,15,2,5,0,159,5,7,4,20,11,13,3,138
23,19,13,18,34,52,29,35,8,831,23,42,21,74,59,49,0,794
25,16,6,17,18,47,9,23,0,398,14,39,20,72,30,41,3,340
11,10,3,3,3,11,7,7,0,100,2,11,9,8,22,15,0,88
18,16,12,29,18,49,21,27,3,603,15,38,29,71,45,39,0,559
8,7,3,3,1,14,5,4,2,105,2,4,6,17,12,14,0,97
21,21,10,18,22,64,15,30,5,476,18,51,23,98,43,47,0,402
6,13,5,30,24,37,31,37,0,581,21,53,10,69,66,37,13,495
10,9,4,7,9,34,5,9,1,228,9,11,9,58,18,14,0,197
3,6,5,12,14,30,10,17,0,221,7,18,7,37,22,23,1,203
6,4,19,27,9,30,16,11,0,326,11,51,6,50,45,19,10,256
3,0,2,3,4,13,0,9,3,59,2,4,2,21,2,11,0,54
3,3,3,5,6,21,16,8,0,141,6,19,9,14,19,18,6,115
9,3,4,19,15,21,29,31,2,322,19,33,10,39,52,26,0,276
7,4,11,9,5,5,3,10,6,130,5,36,10,10,13,10,0,106
1,5,10,5,8,13,7,8,0,187,8,16,5,20,13,14,8,160
4,11,5,7,15,25,10,11,2,209,18,16,5,38,17,18,0,187
11,17,18,14,20,27,27,13,2,304,11,22,17,35,52,23,0,293
13,12,2,8,22,18,13,21,0,344,19,11,14,38,30,56,10,275
16,19,13,32,37,69,28,24,19,988,51,43,26,105,59,53,0,908
16,14,19,20,9,28,16,15,0,431,22,28,17,49,47,43,7,355
36,15,9,21,31,54,17,21,15,588,31,41,53,68,48,54,0,512
7,15,4,10,9,25,7,25,7,147,12,13,9,32,23,30,0,137
6,6,0,11,6,11,20,10,3,170,5,11,9,27,34,18,0,139
40,14,23,40,34,50,43,37,0,514,25,64,51,83,86,48,0,438
22,8,19,22,46,61,22,44,0,828,32,64,18,70,49,65,21,753
19,32,9,36,28,76,21,29,0,603,22,71,26,100,53,59,9,513
1,2,1,1,9,12,0,4,5,69,8,3,3,12,1,8,0,69
6,4,2,8,5,11,7,9,0,173,13,14,5,20,16,18,1,138
3,4,2,1,2,3,0,5,0,106,3,9,6,6,3,13,5,81
46,29,18,35,39,95,52,38,0,902,43,65,43,106,94,82,1,820
26,31,14,26,38,48,14,38,0,642,25,66,23,98,24,66,22,553
15,13,8,16,34,54,13,25,0,448,28,46,18,74,36,43,16,365
14,5,3,8,20,47,3,20,5,387,18,23,15,49,21,23,0,363
26,21,18,17,26,49,10,29,0,674,29,49,24,72,46,56,43,551
15,28,20,30,27,54,15,40,0,661,17,72,13,86,31,54,24,593
30,20,27,30,21,50,15,30,0,631,23,51,36,71,53,45,7,568
5,13,8,11,15,19,19,19,13,339,12,41,10,38,25,33,0,302
18,14,10,13,21,53,13,23,0,472,13,38,11,89,28,36,19,403
35,17,31,19,19,58,22,49,0,521,17,39,36,92,62,57,5,463
29,7,15,23,19,27,17,23,25,916,20,42,24,37,32,25,0,921
15,32,10,34,42,42,10,34,0,809,23,61,14,65,26,65,10,764
24,18,22,20,17,40,13,22,0,601,23,40,21,82,38,47,5,521
67,22,28,49,29,66,16,23,0,640,17,100,43,87,66,71,26,530
6,6,1,5,8,0,37,6,0,101,7,13,6,14,54,8,4,64
10,2,5,9,3,7,5,7,3,114,4,11,5,12,31,9,0,93
42,18,14,43,19,58,75,54,12,735,10,87,26,92,169,51,0,635
17,12,16,15,9,36,50,22,3,207,6,38,13,42,59,25,0,204
13,3,13,9,7,10,7,16,5,125,8,34,9,23,7,13,0,114
2,7,0,2,11,3,0,2,4,89,7,4,1,6,1,9,0,92
8,0,0,2,4,5,3,9,0,95,3,2,6,8,4,2,7,94
22,7,7,15,20,46,11,41,0,710,38,41,39,64,29,38,11,619
12,14,14,6,23,30,20,30,0,829,29,19,16,41,28,51,6,788
12,19,9,20,26,70,15,32,0,580,23,29,21,93,16,46,4,551
20,14,8,13,15,37,9,33,0,431,15,26,18,52,23,22,13,411
19,15,15,16,22,24,10,42,2,622,16,35,26,43,22,31,0,614
14,12,5,7,18,35,17,20,0,495,24,18,18,69,22,31,15,426
18,12,14,23,29,54,33,28,0,714,19,38,18,90,92,35,62,571
5,13,4,11,12,12,1,6,0,111,8,16,5,10,9,14,1,112
16,14,4,15,22,45,5,22,2,310,21,39,17,40,9,28,0,301
9,6,7,4,7,16,4,22,0,192,5,13,4,36,20,21,4,164
6,0,3,2,1,4,0,1,3,33,2,9,4,4,4,6,0,24
3,1,1,2,2,2,2,4,0,74,0,4,3,3,10,5,3,63
7,0,2,2,11,13,9,2,8,123,13,6,2,16,15,18,0,107
5,7,4,0,10,25,15,9,0,178,11,7,5,25,15,22,4,164
8,5,3,4,19,30,11,24,5,277,8,15,11,55,21,33,0,243
16,6,12,15,31,31,16,17,0,383,24,31,20,34,40,41,11,326
15,21,10,15,29,40,10,18,15,521,16,29,10,55,32,54,0,498
23,13,12,30,14,65,35,35,0,684,18,35,36,63,81,85,16,577
19,13,20,13,43,36,16,31,0,525,20,33,19,60,57,78,4,445
28,13,23,12,27,70,20,56,0,665,32,39,41,74,74,103,7,544
17,25,12,19,32,59,15,25,0,615,24,37,23,73,47,61,19,535
22,7,5,17,26,32,9,18,16,918,23,33,26,31,33,45,0,879
4,16,6,7,5,11,11,13,1,157,9,13,2,17,22,14,0,154
6,3,4,5,5,13,5,7,4,160,9,12,7,19,14,14,0,137
5,7,16,4,13,22,9,18,0,499,11,25,9,52,18,20,0,458
1,6,6,6,5,18,26,10,0,226,16,20,2,35,43,12,0,176
12,10,10,11,9,30,9,8,2,251,13,19,8,32,18,31,0,231
8,13,8,13,8,22,9,11,2,113,8,13,7,18,33,13,0,115
2,0,2,2,4,11,6,8,0,121,6,6,2,25,22,5,1,89
0,0,1,2,0,4,3,2,0,79,4,2,2,7,9,4,2,61
23,5,11,17,22,25,20,29,10,508,23,44,30,45,36,38,0,454
6,4,0,1,0,11,5,6,0,37,1,4,4,19,6,6,0,30
21,21,16,28,32,84,37,51,0,714,40,56,34,104,89,65,2,614
9,7,8,10,2,17,22,17,6,229,7,27,13,25,37,15,0,203
16,10,6,11,5,32,21,24,4,270,3,28,10,39,42,27,0,250
18,15,18,11,13,26,19,23,0,441,26,42,12,34,53,37,6,374
10,5,1,7,10,7,4,4,2,120,9,9,10,10,8,10,0,114
10,8,6,9,17,19,9,8,3,306,10,21,12,34,21,18,0,279
1,5,0,5,9,4,3,9,0,199,11,6,1,15,10,9,11,172
3,5,0,2,3,9,1,0,0,51,0,4,4,12,2,4,1,47
2,1,0,0,4,10,0,2,4,97,4,7,1,12,1,1,0,94
1,8,0,2,1,5,5,5,0,72,1,11,1,15,5,3,6,57
3,2,3,0,3,2,2,3,2,58,0,4,2,9,3,2,0,58
16,19,20,9,6,34,14,24,0,479,2,30,25,39,21,34,6,464
9,22,13,28,18,40,23,27,9,475,13,52,19,80,49,45,0,406
3,13,0,0,5,8,12,4,9,68,3,1,1,14,19,21,0,63
2,10,1,4,8,20,3,19,7,150,5,11,5,18,13,26,0,146
0,3,6,3,8,14,1,11,0,79,5,9,0,27,5,7,2,70
5,10,0,3,3,21,1,19,12,132,4,3,8,35,16,17,0,123
1,3,2,3,12,10,3,6,0,84,10,10,2,11,11,5,2,73
5,5,3,7,3,15,11,12,2,85,4,11,5,30,25,10,0,63
26,20,24,21,30,60,20,35,0,692,28,34,31,87,68,40,3,637
11,5,5,6,3,15,0,6,3,174,1,4,20,27,21,9,0,146
8,8,10,10,8,23,7,7,0,250,7,34,11,28,19,16,2,214
29,29,18,19,59,111,44,59,0,866,51,44,27,122,132,76,12,770
5,2,3,1,6,13,10,13,4,155,5,26,8,21,9,15,0,128
4,10,9,7,12,19,7,19,3,303,14,23,7,33,22,27,0,267
21,4,11,18,10,38,18,18,15,360,10,43,19,51,38,16,0,336
6,2,3,5,7,12,3,9,2,88,2,9,5,30,10,10,0,71
6,6,5,18,9,33,18,23,0,369,20,23,7,45,41,23,6,322
5,10,16,8,17,28,19,21,6,373,23,25,14,31,34,29,0,347
12,9,15,36,29,34,38,16,15,488,16,61,25,56,72,29,0,433
5,5,2,14,11,31,10,11,0,183,11,9,10,44,25,19,5,149
14,7,22,23,28,28,21,20,0,173,17,38,16,35,27,19,29,155
26,6,12,20,30,43,23,46,0,783,22,44,35,80,75,46,0,687
27,13,18,31,30,49,34,50,0,795,30,48,50,100,82,46,15,676
16,20,32,14,15,59,23,19,0,623,12,73,18,125,46,29,8,510
18,10,24,8,16,48,21,32,0,661,10,59,16,92,47,46,13,555
15,12,12,18,16,44,9,17,0,212,13,32,19,59,21,18,0,193
8,8,15,17,8,22,47,17,0,311,8,42,4,43,70,32,8,246
24,17,30,15,13,38,7,20,10,548,16,34,24,61,70,64,0,453
17,15,13,17,11,32,42,22,0,563,16,52,15,44,61,45,3,496
0,5,3,1,2,14,31,13,0,122,2,9,3,20,36,12,9,100
2,4,2,11,15,17,7,8,0,120,9,7,9,23,14,9,1,114
15,14,7,17,18,42,8,24,7,305,9,32,18,79,15,46,0,258
49,11,40,22,24,54,13,24,0,460,19,70,72,82,36,28,6,384
8,11,29,24,28,46,11,18,1,501,21,45,17,85,29,26,0,454
14,18,31,23,30,54,6,26,0,574,20,59,30,71,31,54,14,497
0,6,1,0,0,14,5,8,0,78,0,1,1,16,6,10,13,65
27,14,17,35,34,43,9,39,1,653,27,84,38,77,45,59,0,542
18,19,17,27,23,48,9,38,0,698,29,73,30,61,26,45,3,630
5,22,17,8,32,53,10,39,0,503,29,47,17,87,26,43,3,437
14,16,40,15,20,55,5,19,0,361,14,45,25,70,30,24,21,316
41,22,43,25,28,63,12,46,0,541,31,75,73,90,35,56,12,449
31,18,31,27,21,47,17,33,3,418,25,52,39,80,29,50,0,371
27,14,27,30,9,40,23,22,0,427,15,51,41,64,55,30,20,343
25,15,31,19,23,58,17,41,1,486,19,67,35,89,37,30,0,439
17,8,33,13,33,47,5,30,1,522,29,51,35,70,37,21,0,466
11,14,14,19,32,42,4,30,0,583,33,60,17,80,21,28,11,499
10,4,14,16,25,20,10,22,0,471,18,47,16,27,21,31,17,415
48,17,44,28,37,71,23,42,0,458,24,71,63,108,76,33,23,370
19,15,23,13,47,57,9,24,0,538,38,61,24,93,23,38,1,467
29,9,19,32,23,46,20,25,5,304,17,61,29,51,48,27,0,279
33,14,30,17,36,67,13,26,0,580,34,59,41,73,37,33,23,516
23,9,40,20,31,28,22,41,0,536,20,57,46,54,53,32,30,458
30,12,36,30,32,57,12,31,14,549,34,74,40,93,39,45,0,478
22,11,20,14,38,53,7,24,0,552,33,47,23,86,22,33,9,488
34,8,42,25,32,41,10,26,0,1395,29,85,43,63,51,36,29,1277
15,6,18,19,38,38,7,18,2,529,27,39,19,71,19,32,0,483
21,14,20,18,33,51,8,23,0,511,26,40,26,72,38,35,2,460
7,21,19,18,31,59,9,18,0,449,17,35,14,72,27,41,23,402
20,17,32,16,20,56,14,24,0,570,23,80,14,92,28,45,20,467
13,27,15,12,17,54,7,28,0,450,14,38,15,92,19,26,18,401
14,11,16,11,28,60,5,15,0,414,22,29,14,82,20,20,24,363
12,21,23,13,20,48,8,28,0,445,19,34,29,73,25,45,2,391
15,1,7,5,4,27,0,15,0,261,5,32,17,35,16,7,12,211
4,7,9,11,10,20,17,28,10,427,15,39,14,49,35,16,0,375
18,12,8,9,24,54,4,42,0,457,26,31,26,81,50,35,14,365
15,17,5,18,21,49,2,25,0,523,26,38,11,83,23,28,15,451
3,8,11,9,7,8,6,3,0,163,7,16,2,12,5,12,11,153
45,16,45,22,34,61,31,26,0,552,24,63,81,97,43,43,4,477
18,10,37,22,21,48,29,34,3,635,18,59,58,80,47,33,0,562
41,15,32,21,23,68,29,23,4,566,19,64,88,86,45,31,0,489
3,0,3,8,1,8,0,4,0,85,2,12,5,7,3,4,1,78
9,17,10,5,18,28,3,13,0,299,17,22,13,45,14,25,3,263
7,17,12,15,26,29,3,24,1,436,17,29,10,70,24,32,0,388
2,14,7,7,19,18,15,16,0,306,17,36,2,41,24,36,1,247
12,14,16,11,20,31,18,19,0,465,25,39,15,70,28,44,6,379
7,6,8,13,11,9,5,12,0,160,2,17,13,14,11,13,6,155
10,20,28,11,10,23,13,28,6,385,8,38,11,46,36,51,0,344
9,7,9,3,11,31,18,16,0,222,6,34,1,43,25,19,5,193
12,11,19,17,6,17,3,21,0,375,6,32,6,34,11,19,24,349
6,6,12,4,8,27,10,23,30,309,12,16,9,45,15,24,0,314
20,32,24,37,31,49,65,38,11,556,22,88,32,90,95,52,0,484
12,22,7,19,12,70,4,12,0,685,14,33,7,130,14,45,20,580
10,15,11,18,30,57,19,31,0,879,27,29,15,104,22,40,43,790
8,4,3,13,12,27,6,10,0,592,14,31,6,64,13,22,10,515
14,2,10,3,3,9,21,6,7,213,2,17,44,24,27,11,0,163
5,13,13,9,8,31,20,6,5,218,8,23,4,49,36,26,0,182
11,18,31,11,23,44,2,15,0,534,23,35,14,69,23,38,4,483
2,4,3,4,13,9,3,6,4,115,4,12,3,15,4,3,0,122
1,13,1,13,13,8,1,8,0,185,12,5,3,37,3,18,8,157
14,17,6,22,39,67,15,44,0,724,40,33,16,131,36,45,16,631
19,29,10,19,28,67,17,39,12,815,22,48,35,142,34,40,0,734
12,13,21,16,10,17,13,21,0,433,10,55,21,43,39,22,8,358
18,5,10,18,29,28,2,8,0,456,26,44,16,54,21,22,13,378
34,17,30,30,38,92,9,42,1,778,32,82,34,136,96,37,0,654
12,14,12,8,27,41,7,28,0,606,25,34,10,78,54,30,32,492
22,22,24,23,37,67,16,39,19,770,38,86,34,83,88,56,0,654
19,12,25,21,23,81,6,39,0,651,30,55,28,97,63,35,10,559
17,21,20,25,19,65,8,35,1,777,22,61,23,94,61,53,0,674
9,12,21,27,15,31,10,16,0,377,22,48,16,46,35,25,18,308
24,12,24,34,30,67,10,29,0,1240,25,73,33,94,75,33,19,1118
26,26,19,23,44,85,11,28,0,860,36,61,37,129,63,46,34,716
33,12,27,35,25,35,18,33,0,436,17,49,30,55,58,48,2,395
13,13,18,14,24,26,12,16,0,203,15,23,15,20,16,14,51,185
0,1,3,2,1,6,2,3,0,78,0,4,1,11,1,2,2,75
2,10,14,8,10,35,36,11,17,295,9,31,6,41,64,16,0,271
0,2,3,5,3,3,1,5,0,109,2,4,0,5,2,12,4,102
1,2,2,0,4,6,6,1,0,83,4,1,2,6,8,7,1,76
7,12,15,13,15,40,5,17,0,627,19,28,7,74,17,13,15,578
4,8,7,6,11,26,7,31,0,342,11,15,5,38,7,59,14,293
5,5,1,5,5,9,2,11,0,57,1,10,10,17,3,14,5,40
9,13,6,3,7,30,1,22,2,329,4,37,18,43,14,28,0,278
17,13,44,1,16,46,6,18,0,432,20,49,20,84,37,32,7,344
0,1,14,10,1,17,13,3,0,197,4,18,10,20,18,10,6,170
7,16,18,12,6,41,26,23,2,370,7,36,9,62,48,37,0,322
6,22,38,27,23,67,41,41,0,761,18,88,15,110,64,53,3,675
1,4,1,4,8,12,1,5,0,130,3,10,1,18,1,11,7,115
11,8,12,6,6,21,3,12,0,357,6,40,27,47,20,23,6,267
9,7,14,20,17,26,3,19,0,471,9,27,19,41,15,38,0,437
30,15,16,20,27,52,8,44,0,843,26,62,40,94,33,54,36,710
8,3,9,17,19,17,1,19,6,389,14,38,14,44,11,26,0,341
5,3,5,5,2,10,4,6,0,121,3,21,2,11,8,5,2,109
26,16,13,24,18,32,15,30,0,394,21,30,32,41,19,25,42,358
39,33,28,45,36,75,15,39,0,1023,35,99,53,113,55,57,40,881
5,15,4,13,6,18,3,16,12,222,11,30,12,26,9,30,0,196
0,2,2,12,4,10,0,5,6,79,3,10,4,10,3,9,0,81
26,17,13,14,18,63,20,21,8,549,14,58,26,92,37,44,0,478
7,12,7,9,5,7,3,7,3,96,4,25,8,8,12,22,0,77
13,25,18,38,18,59,18,31,0,566,14,66,28,86,38,51,17,486
24,15,13,26,15,39,22,29,0,455,12,44,22,61,47,40,6,406
8,5,9,8,21,19,7,14,0,320,12,26,15,43,15,13,13,274
34,21,26,24,26,65,9,30,0,744,27,47,29,100,23,67,38,648
1,2,2,4,3,18,2,8,0,125,3,27,3,27,4,10,0,91
10,8,19,13,20,39,13,13,2,409,10,42,6,55,31,31,0,371
6,7,4,1,8,6,0,16,0,73,6,13,4,9,5,17,7,60
1,1,3,5,2,8,1,2,0,60,2,12,1,10,1,5,1,51
3,1,0,3,2,18,2,6,0,66,2,3,5,22,1,3,1,64
2,1,2,4,4,12,0,8,0,98,1,8,4,19,2,17,0,80
8,9,5,11,12,15,1,8,9,244,7,19,9,33,4,17,0,233
4,5,4,2,14,15,2,8,0,265,15,16,7,23,12,15,57,174
17,57,33,25,52,108,37,61,65,1363,58,100,27,181,88,120,0,1244
1,5,10,10,0,24,8,9,2,133,4,8,7,36,17,9,0,121
3,4,4,13,10,12,6,6,0,114,4,16,3,12,13,16,2,106
5,6,9,6,5,11,8,15,9,220,7,26,6,16,14,20,0,205
15,25,17,25,23,67,13,28,0,660,19,61,19,120,26,47,14,567
28,29,25,29,27,84,19,33,9,660,21,64,32,104,41,53,0,628
29,15,22,43,29,69,14,57,33,1261,14,102,29,111,40,54,0,1222
12,20,15,20,18,55,10,42,0,629,15,51,14,101,30,50,14,546
17,41,22,36,26,71,10,46,0,752,26,86,36,104,44,76,22,627
45,31,30,35,47,109,23,68,9,796,29,99,49,152,66,80,0,718
2,6,0,0,2,2,8,2,0,107,0,3,2,3,10,5,8,98
4,6,2,1,3,10,0,5,7,81,7,17,1,18,5,8,0,63
8,4,1,3,2,2,0,3,3,101,3,13,6,11,5,5,0,84
5,6,5,6,0,9,19,2,0,93,2,11,7,18,27,8,5,67
0,3,1,3,4,2,4,9,1,143,3,16,3,16,10,8,0,114
24,13,27,30,36,48,44,35,0,631,19,108,22,90,72,41,12,524
2,2,7,5,4,15,1,6,0,119,9,8,3,19,7,9,1,105
47,17,82,46,33,57,24,45,29,942,43,150,60,107,91,43,0,828
55,16,49,36,40,57,22,37,10,948,40,121,67,134,70,53,0,785
8,4,3,5,6,10,12,7,0,132,3,14,6,21,9,6,6,122
8,11,10,16,23,29,26,33,11,533,33,56,13,62,50,40,0,446
1,1,6,2,3,6,2,7,3,79,5,5,1,12,8,5,0,74
2,5,0,6,0,11,2,10,0,68,4,12,7,21,4,5,0,51
7,6,11,3,5,8,7,4,6,95,0,18,9,14,5,5,0,101
22,32,12,24,62,64,20,60,0,425,17,31,24,69,15,54,8,503
9,10,3,5,15,18,2,4,6,209,10,10,9,42,10,21,0,179
3,3,1,0,5,5,0,5,5,43,6,5,2,11,4,2,0,40
3,4,2,0,4,4,0,8,3,48,6,5,2,8,2,7,0,46
11,2,0,2,2,4,2,4,0,86,1,0,13,13,7,6,3,70
9,13,5,6,8,24,7,11,0,176,4,16,4,30,11,38,0,156
0,0,2,0,0,9,1,1,0,73,1,2,7,13,1,0,2,60
9,14,8,5,22,26,14,19,2,364,17,14,15,46,55,30,0,306
12,24,12,22,31,41,21,28,17,629,40,65,25,59,57,44,0,547
0,7,6,2,5,10,4,6,0,134,8,15,4,18,3,8,5,113
29,23,58,31,20,70,68,49,0,935,24,144,18,124,92,55,35,791
34,23,46,38,25,66,65,40,0,859,36,125,28,144,97,62,5,699
3,8,13,17,16,26,58,11,20,236,12,38,9,46,77,18,0,208
16,19,28,11,31,76,3,40,17,654,18,69,24,143,25,50,0,566
22,3,25,12,26,74,11,19,0,609,25,59,17,128,33,26,17,496
15,16,32,17,14,74,19,43,0,696,16,56,31,119,40,33,6,625
3,1,3,3,0,10,2,0,2,43,2,5,1,8,7,1,0,43
0,6,2,0,1,12,1,4,0,80,2,11,4,12,4,9,8,56
3,2,23,8,9,13,6,11,8,273,4,30,4,26,22,32,0,238
5,19,29,16,11,40,42,16,4,470,24,93,14,62,49,30,0,380
0,1,0,2,0,2,2,1,4,40,0,3,0,1,5,2,0,41
5,3,9,3,2,4,9,6,3,132,2,15,7,9,15,9,0,119
8,10,13,5,7,13,14,10,4,256,9,17,4,38,26,18,0,228
6,8,25,12,21,22,19,23,0,418,14,45,15,55,29,34,7,355
24,26,20,13,19,45,36,21,6,704,23,51,22,90,57,35,0,636
3,2,1,3,8,12,1,8,0,51,8,6,1,17,3,4,6,44
29,13,19,20,23,54,7,31,0,686,19,46,22,81,16,30,14,654
6,9,8,11,5,20,8,13,0,421,10,12,13,40,31,16,9,370
0,0,1,0,1,0,2,1,2,27,1,0,0,2,2,2,0,27
6,4,2,0,4,3,3,1,0,37,5,7,1,7,2,3,6,29
4,0,1,3,3,0,3,7,1,46,2,7,0,8,7,3,0,41
25,16,8,32,25,62,17,42,0,1039,23,46,19,122,43,64,17,932
3,1,0,5,1,3,1,7,0,24,1,1,0,5,2,7,5,24
18,12,49,9,31,50,13,21,20,705,21,53,21,111,36,41,0,645
9,18,6,11,16,37,12,22,0,423,11,23,7,51,31,22,3,406
6,8,6,7,6,22,34,20,2,235,7,26,9,44,50,36,0,174
0,1,6,0,1,0,3,3,1,57,0,5,7,3,5,1,0,51
6,3,1,0,3,14,1,4,0,161,2,1,67,14,1,5,6,97
6,1,1,4,6,6,4,1,0,56,6,2,12,8,8,2,3,44
17,11,14,6,17,21,23,10,0,516,14,17,137,31,34,18,6,378
29,15,15,16,13,53,25,30,0,461,11,18,182,31,32,37,10,336
9,7,7,10,8,33,15,10,0,317,10,22,10,42,16,11,8,297
23,23,19,35,17,52,9,35,0,763,19,70,29,97,39,53,18,651
12,12,14,11,24,57,11,28,3,865,23,41,19,115,48,36,0,755
7,1,0,4,0,4,1,3,0,51,0,5,3,7,4,6,0,46
0,0,1,5,6,12,1,1,0,91,7,4,0,8,1,7,11,79
25,16,23,18,36,61,30,26,0,754,36,55,18,91,44,70,48,627
25,30,23,24,29,64,14,39,0,690,25,50,23,98,37,65,15,625
10,4,4,0,2,11,5,7,0,102,5,4,4,14,6,18,10,84
16,18,11,23,28,70,15,40,0,811,28,49,16,89,19,49,9,773
5,9,5,10,12,16,13,14,0,259,8,17,0,33,29,13,4,239
29,21,33,22,30,69,21,32,0,559,18,73,24,97,60,46,10,488
22,25,45,31,29,84,11,34,7,750,26,93,26,150,58,66,0,619
21,28,22,26,31,105,23,44,0,715,27,69,23,139,60,65,6,626
8,2,7,3,0,8,12,3,0,116,3,7,3,10,24,9,0,103
3,1,0,3,3,4,8,1,2,35,3,0,0,12,12,3,0,30
1,1,12,5,4,18,10,10,0,121,4,17,0,19,27,2,6,107
24,16,47,23,18,56,21,23,0,586,11,86,23,85,62,31,14,502
20,6,28,39,13,37,34,15,0,630,21,81,19,47,73,24,31,526
19,11,26,17,36,48,31,41,0,482,23,78,9,61,76,49,4,411
11,2,13,4,16,48,23,11,0,341,11,25,8,61,53,29,3,279
22,6,29,19,21,43,42,23,5,502,21,63,22,70,82,32,0,422
41,8,33,24,19,47,36,35,0,1057,17,81,39,63,81,44,15,960
38,32,77,32,44,88,58,60,0,766,35,129,50,134,130,75,12,630
13,14,21,23,13,64,16,35,0,623,22,44,18,99,55,40,14,530
20,23,26,31,28,55,16,41,72,718,23,87,15,79,60,52,0,714
14,7,19,26,11,46,21,25,0,518,19,58,16,91,41,34,14,414
3,15,1,1,3,8,0,12,0,126,4,9,0,20,5,16,10,105
8,25,15,23,23,47,6,43,0,664,22,50,19,87,25,69,15,567
0,11,3,0,6,7,5,3,1,154,12,3,2,24,4,4,0,141
3,2,4,1,2,9,10,5,0,69,4,11,4,13,13,5,3,52
3,7,6,3,12,28,3,16,7,330,30,18,2,33,6,24,0,302
2,10,5,6,3,5,3,6,2,80,4,12,1,7,5,19,0,74
8,15,20,20,13,34,19,24,0,334,12,58,9,58,38,36,0,276
36,13,24,26,17,48,25,41,0,561,18,69,49,88,92,53,13,409
59,16,60,60,27,61,35,56,25,675,44,137,64,103,140,75,0,511
3,1,0,0,2,4,0,6,0,25,1,4,0,5,3,4,3,21
2,4,2,3,8,7,6,12,8,123,8,7,9,17,8,10,0,116
17,29,11,19,37,68,28,26,2,340,31,41,24,101,50,33,0,297
1,4,11,18,2,11,6,10,0,169,9,18,3,12,22,12,0,156
5,11,2,4,2,9,3,8,0,104,4,6,8,22,13,23,0,72
2,0,4,0,2,4,19,19,11,38,0,6,5,7,31,5,0,45
1,2,1,3,5,9,10,5,0,90,1,7,0,14,12,14,4,74
23,6,13,26,15,29,20,32,18,443,16,65,22,54,45,62,0,361
38,9,40,35,25,33,12,33,2,434,21,72,44,35,71,121,0,297
6,1,1,7,2,12,6,11,0,125,3,23,5,18,16,10,4,92
2,0,5,22,4,9,16,14,2,99,6,30,2,16,33,12,0,74
1,2,4,5,4,12,28,3,0,129,5,18,2,18,32,5,3,105
22,7,18,19,18,43,20,31,11,315,11,54,35,56,53,44,0,251
30,22,13,25,30,69,26,24,15,873,28,53,42,111,98,64,0,731
20,12,20,40,34,37,33,19,0,733,33,96,22,83,60,57,5,592
12,15,13,16,23,31,19,35,25,585,32,69,23,61,57,57,0,475
17,11,1,13,9,22,33,10,0,260,13,15,13,30,99,19,8,179
32,25,18,19,37,70,40,71,0,847,31,81,30,141,89,84,14,689
2,5,2,3,7,12,13,9,0,98,2,15,5,12,20,8,1,88
9,2,8,18,11,17,15,26,17,291,8,31,17,46,30,31,0,251
14,15,11,20,13,45,25,18,0,388,12,53,16,59,52,46,18,293
7,5,2,1,6,17,11,6,0,134,5,14,4,26,12,21,1,106
8,8,4,7,12,10,24,10,8,199,11,34,13,28,23,21,0,160
4,1,7,3,4,5,1,3,0,113,4,9,3,11,5,8,3,98
9,5,5,8,2,31,4,6,12,188,5,19,15,36,12,13,0,170
8,1,6,5,1,12,14,7,5,111,4,16,7,11,23,17,0,92
15,5,10,19,21,32,9,26,0,432,26,43,26,44,23,28,6,373
9,10,4,12,28,31,2,20,4,249,10,37,16,66,14,25,0,201
19,10,12,22,7,10,13,19,3,230,13,32,17,26,37,29,0,191
0,0,2,3,4,0,18,2,5,57,2,7,8,5,22,6,0,41
1,3,2,2,2,5,2,10,0,118,0,8,4,27,3,7,2,94
4,4,6,3,4,3,1,16,0,155,1,11,4,31,4,27,1,117
23,24,14,21,9,51,26,25,4,640,13,49,37,140,49,44,0,505
7,15,19,18,24,38,14,24,0,472,13,104,17,68,19,24,2,384
5,2,3,6,4,9,17,2,0,141,6,19,8,16,26,11,6,97
17,10,22,27,11,26,33,48,10,322,12,63,26,38,86,36,0,265
17,34,30,31,20,57,27,35,0,926,26,86,32,98,73,66,9,787
3,8,3,8,7,7,3,7,13,116,6,14,6,18,11,9,0,111
10,21,11,10,11,24,15,29,4,250,5,36,15,47,34,40,0,208
11,13,10,27,12,31,7,12,3,371,14,43,9,49,34,21,0,327
6,9,3,7,14,23,11,6,0,108,8,12,6,23,12,13,7,106
9,7,3,9,9,21,12,7,0,207,3,11,7,20,31,31,18,163
7,8,11,5,31,29,32,15,0,193,15,21,7,38,43,19,0,188
2,2,3,6,8,7,1,6,2,96,2,5,5,6,9,9,0,97
1,2,2,3,3,9,3,14,1,159,4,8,3,13,17,10,0,142
17,4,8,9,16,24,5,11,14,296,20,25,16,35,31,15,0,262
13,11,2,8,29,23,9,17,6,336,19,14,12,54,19,21,0,315
3,4,4,7,6,6,4,12,1,152,5,19,6,11,12,11,0,135
9,5,4,13,17,17,7,27,0,399,11,25,12,36,13,30,13,358
1,7,3,6,4,21,0,3,6,131,8,9,5,24,7,10,0,119
5,3,1,2,2,13,14,0,4,88,4,14,4,21,9,12,0,68
5,2,1,4,2,5,4,5,1,25,2,5,2,5,5,5,0,30
3,16,7,4,9,15,3,5,15,200,9,17,2,34,13,20,0,182
1,1,0,0,2,2,0,3,3,54,3,1,0,9,3,5,0,45
2,0,1,2,0,10,1,3,0,17,0,3,1,7,3,8,1,13
17,8,19,20,17,31,3,31,3,367,15,61,19,40,33,29,0,319
3,0,4,8,5,9,3,11,2,181,8,11,3,18,6,7,0,173
4,2,1,4,1,3,5,2,0,93,5,5,3,8,4,6,2,82
7,3,7,4,12,7,5,10,0,139,8,11,18,12,9,5,14,117
5,3,9,16,8,30,9,4,0,229,5,34,4,45,18,12,5,190
6,3,9,3,11,13,7,8,2,111,7,10,3,28,15,5,0,105
8,5,12,7,4,30,14,7,0,179,8,28,8,45,12,9,3,153
15,19,201,18,52,66,7,25,8,716,46,194,27,151,33,62,0,614
12,1,4,5,6,2,6,6,5,82,5,12,13,6,20,10,0,63
7,3,4,1,7,10,5,5,0,116,7,3,6,24,6,8,3,101
6,14,7,7,12,35,0,23,0,510,18,23,10,64,13,30,18,438
6,10,28,13,9,29,23,19,8,401,15,68,18,54,41,24,0,326
7,36,4,9,10,27,11,16,9,483,11,19,6,46,31,49,0,450
6,4,10,9,6,17,1,11,0,108,2,12,9,24,7,7,8,103
8,0,6,6,8,8,1,7,0,124,6,14,10,6,4,12,1,115
5,0,14,6,3,21,2,7,12,105,5,9,9,28,18,10,0,96
44,16,52,57,37,69,31,60,0,861,43,123,44,132,120,78,0,687
14,11,16,22,12,30,7,25,5,404,11,45,16,67,44,37,0,326
14,2,6,15,13,55,17,27,10,394,15,17,22,63,45,38,0,353
3,8,5,3,5,18,9,13,0,163,6,17,8,29,10,14,8,135
4,8,0,3,8,16,16,16,0,264,1,12,7,34,26,15,3,237
35,12,21,42,47,78,29,35,0,852,49,90,94,135,66,48,0,669
42,20,22,36,21,69,43,49,15,753,27,93,41,107,118,63,0,621
15,12,24,20,16,39,47,27,8,482,18,47,8,72,98,31,0,416
1,4,3,4,1,4,26,7,2,163,2,10,3,21,44,13,0,122
14,10,8,7,9,20,21,23,0,246,4,22,8,33,48,33,3,207
11,4,13,24,11,27,7,16,0,401,23,53,17,45,24,19,4,329
3,0,2,6,3,3,11,4,4,94,5,9,3,10,9,8,0,86
4,3,2,7,10,19,3,9,5,188,7,10,6,25,25,9,0,168
1,9,4,8,11,12,16,18,8,279,11,18,10,29,33,18,0,247
6,11,2,9,4,23,5,6,7,191,3,7,4,25,21,28,0,176
3,3,0,2,1,9,2,5,0,109,1,9,5,10,3,6,6,94
4,9,1,2,8,15,8,8,3,147,7,6,2,17,22,21,0,130
5,10,10,2,11,14,12,14,0,106,6,11,5,28,20,23,1,90
5,2,0,2,8,10,12,5,4,133,5,13,4,17,22,8,0,112
0,2,2,1,7,8,5,4,4,84,6,2,4,11,13,8,0,73
10,4,18,15,10,22,52,17,0,308,13,44,17,52,65,12,2,251
21,2,12,4,4,8,3,4,0,95,3,30,12,11,11,8,5,73
11,12,22,18,57,39,28,20,3,887,44,88,18,98,72,35,0,742
11,17,22,21,23,66,7,45,0,663,28,73,19,120,47,35,102,451
6,7,2,3,2,1,0,5,1,123,3,8,3,8,2,9,0,117
13,8,12,13,9,29,9,9,12,410,12,43,23,49,18,17,0,362
51,8,63,34,31,61,18,39,0,621,32,104,47,101,59,45,16,522
42,21,25,34,13,59,12,39,7,689,22,113,54,105,45,40,0,562
5,22,1,1,14,26,2,18,0,371,13,14,9,47,10,34,11,322
10,7,13,11,19,19,25,15,2,239,15,25,6,43,48,15,0,208
1,6,10,6,0,11,15,5,0,91,3,13,6,13,23,9,5,73
0,11,6,2,8,14,9,6,7,213,11,13,2,26,19,15,0,190
14,9,11,10,11,21,2,10,0,238,9,21,24,29,18,15,9,201
7,10,4,4,7,16,14,16,0,145,3,11,4,30,28,16,1,130
19,16,16,13,36,48,25,29,6,485,25,37,46,54,55,56,0,420
2,5,9,2,6,8,9,10,0,137,9,5,8,11,12,5,0,138
1,1,3,0,2,0,4,0,3,20,3,4,2,2,6,1,0,16
4,6,9,2,13,36,21,5,0,177,9,18,5,61,21,13,4,142
2,1,3,2,7,10,1,6,0,80,4,6,3,12,0,4,4,79
11,8,10,3,1,10,5,2,1,124,0,13,15,21,14,10,0,102
45,16,27,41,50,65,28,42,51,630,40,113,83,103,81,59,0,516
31,16,27,33,58,102,14,38,0,776,58,58,49,154,75,60,2,639
25,15,15,23,52,66,22,27,2,551,44,51,43,113,58,37,0,452
16,17,14,23,44,27,21,31,29,662,40,70,41,63,38,35,0,597
65,9,15,37,31,41,30,39,32,781,45,101,77,66,100,49,0,642
19,11,21,29,27,48,30,34,0,576,22,53,35,83,49,43,17,493
14,20,6,30,24,54,3,17,0,645,25,43,28,60,24,50,13,570
10,13,9,11,11,21,7,13,0,252,17,24,6,26,20,17,19,218
50,22,19,32,37,76,15,39,0,632,27,64,71,114,53,74,1,518
22,18,12,29,26,43,11,21,0,483,35,50,26,67,33,49,3,402
10,10,8,7,15,34,7,25,9,344,15,18,13,47,24,30,0,322
12,35,10,27,19,35,13,33,0,513,15,33,19,68,45,47,18,452
13,14,7,14,27,61,10,38,0,432,27,28,28,93,26,49,13,352
28,4,10,19,31,24,6,28,12,1853,40,50,45,42,32,34,0,1772
27,14,1,15,29,53,13,27,0,555,21,33,25,81,21,51,2,500
59,24,18,24,33,71,23,34,16,567,42,62,55,106,58,58,0,488
26,22,11,33,24,55,17,20,0,509,28,62,25,80,38,49,15,420
34,7,13,34,26,66,15,35,0,726,25,70,52,106,46,45,24,588
30,20,14,22,39,48,8,33,0,582,32,46,42,99,30,56,12,479
22,31,16,21,34,32,9,34,11,581,51,52,24,65,38,66,0,495
21,16,16,23,32,39,4,32,0,768,29,53,28,89,27,56,10,659
14,12,9,24,28,52,14,37,0,730,18,46,20,84,44,59,2,647
24,17,8,14,24,38,10,22,0,465,15,36,25,47,30,43,9,417
10,11,7,14,30,45,5,23,0,505,21,28,19,61,20,38,9,454
24,11,10,24,43,31,16,21,21,658,39,56,31,73,64,37,0,559
16,18,21,22,40,40,9,37,0,692,33,47,21,72,33,59,40,590
16,14,15,23,41,36,7,41,4,587,42,49,19,66,30,51,0,527
20,16,18,24,42,60,11,31,0,613,35,57,26,107,40,51,12,507
30,9,23,30,23,40,10,40,1,733,28,76,50,94,45,43,0,603
32,7,22,23,23,37,15,22,7,398,12,55,45,52,38,46,0,338
22,16,11,32,27,56,17,33,31,824,39,65,47,103,48,66,0,701
30,12,11,16,27,52,19,33,0,624,15,54,36,73,32,46,44,524
22,18,5,22,26,44,9,46,0,388,24,47,27,108,31,36,1,306
18,12,17,28,32,39,27,35,0,461,21,66,26,51,50,37,21,397
28,11,18,26,24,70,21,21,4,573,33,89,49,94,50,37,0,444
22,25,7,20,29,72,9,39,5,524,34,46,29,110,30,62,0,441
37,22,19,44,19,42,21,34,0,636,23,86,42,57,64,40,15,547
59,9,20,26,27,47,19,35,0,586,26,53,79,72,67,54,6,471
32,18,21,22,36,69,12,22,4,534,45,71,49,90,36,58,0,421
25,2,14,30,31,33,9,21,0,547,24,43,38,58,37,25,2,485
30,13,15,21,34,41,13,23,5,674,42,51,48,51,45,37,0,595
17,4,12,22,17,33,6,19,6,468,16,30,23,70,34,31,0,400
20,13,13,22,38,46,23,31,0,499,24,30,28,76,41,45,12,449
24,14,8,19,30,59,17,28,1,504,27,48,30,92,42,45,0,420
23,33,8,15,29,42,18,24,12,654,40,47,33,105,30,65,0,538
1,6,1,8,6,7,6,9,0,92,14,8,1,22,11,13,2,65
2,8,4,1,5,20,2,19,6,231,7,8,1,42,24,23,0,193
2,7,2,7,6,13,3,8,3,193,13,13,13,22,14,14,0,155
5,11,1,12,7,12,23,16,1,274,13,22,7,33,50,27,0,210
4,9,4,2,2,3,4,2,0,76,3,2,3,12,6,20,0,60
0,2,0,4,3,2,1,3,5,47,2,4,0,10,0,8,0,43
16,13,6,14,12,36,14,18,2,491,14,48,13,63,38,42,0,404
6,3,0,2,4,1,5,4,0,98,7,3,7,12,4,1,1,88
14,13,19,14,23,42,26,24,11,922,23,63,33,101,48,46,0,794
6,2,4,5,2,14,11,4,0,128,2,11,6,18,26,8,1,104
7,13,4,13,12,20,13,11,6,234,8,24,5,39,25,19,0,213
7,8,4,11,3,8,12,4,8,203,1,11,5,29,20,13,0,189
14,8,12,10,7,30,10,17,0,326,12,28,22,56,15,35,6,260
18,26,11,17,15,54,28,47,0,610,23,56,17,97,50,96,2,485
18,21,2,3,15,21,8,17,1,325,13,32,19,50,11,46,0,260
2,2,8,4,5,3,1,4,0,103,8,14,9,11,9,4,0,77
0,3,4,4,3,2,0,5,1,77,0,7,1,6,7,4,0,74
28,21,16,14,21,51,9,18,0,662,29,54,24,121,32,48,2,530
13,21,5,10,11,37,17,18,3,280,14,23,18,72,42,29,0,217
5,5,15,15,3,13,5,14,0,197,4,31,6,40,17,16,1,157
2,13,9,9,26,27,31,11,16,485,31,23,8,31,47,22,0,467
11,17,4,8,22,25,4,13,8,341,18,14,11,45,10,36,0,319
8,11,7,11,12,23,11,18,0,319,17,22,2,43,22,39,1,274
4,7,4,12,7,22,12,13,4,299,13,26,5,56,23,23,0,238
0,4,4,2,3,13,14,10,0,156,2,12,2,24,21,12,10,123
2,3,3,4,12,11,2,8,4,241,3,24,4,25,13,19,0,202
0,2,0,1,2,2,1,5,2,56,2,0,0,4,3,14,0,48
8,4,0,16,14,35,40,25,0,512,11,33,9,70,53,62,7,409
4,0,2,1,1,4,0,8,2,133,9,9,1,15,5,7,0,109
0,0,0,3,9,13,9,3,0,128,7,6,4,25,8,9,2,104
5,2,3,5,8,10,2,4,11,126,12,11,7,16,3,9,0,118
25,16,8,16,20,31,16,33,17,455,28,45,30,56,46,42,0,390
1,6,0,2,2,2,0,3,1,56,2,2,1,5,3,7,0,53
6,8,2,10,5,15,14,17,11,284,6,15,10,28,51,24,0,238
17,22,10,10,9,24,8,17,0,264,13,17,10,49,36,20,7,229
3,4,2,3,11,18,16,13,2,167,6,9,5,20,22,25,0,152
3,7,3,5,8,8,15,13,0,232,8,16,1,15,26,16,7,205
7,24,5,13,17,35,16,18,0,541,20,26,11,66,37,40,6,470
5,13,3,10,8,14,11,16,5,153,7,16,8,20,22,47,0,118
3,5,1,3,6,4,3,6,1,69,4,7,3,8,5,12,0,62
2,8,2,4,6,5,2,10,0,77,8,6,2,8,3,12,5,72
2,10,3,3,4,7,7,11,0,101,8,10,2,9,10,17,7,85
3,2,1,4,9,14,8,2,0,84,1,13,1,18,12,6,3,73
27,29,20,20,6,46,52,26,0,637,7,84,23,70,88,53,1,537
24,29,16,16,45,43,38,26,13,683,32,73,21,82,85,64,0,576
37,15,16,25,39,50,29,38,2,713,36,74,46,71,67,115,0,555
25,16,19,36,25,80,29,54,0,1069,25,69,31,117,110,132,11,858
2,12,3,2,6,19,13,14,0,161,7,4,6,24,15,21,6,149
38,21,31,33,25,71,29,38,0,1020,28,84,90,114,76,80,12,822
6,11,9,19,18,20,9,20,5,368,17,42,5,33,37,29,0,322
2,3,0,1,4,7,6,6,0,48,1,4,1,20,3,8,0,40
12,7,10,13,12,26,45,8,0,281,17,24,9,48,55,29,3,229
14,0,6,9,5,28,8,6,0,239,9,21,4,39,29,10,11,192
7,2,4,0,6,7,9,2,0,46,3,7,2,5,13,6,2,45
2,10,1,8,1,14,21,10,0,90,5,7,1,18,30,25,0,71
16,2,6,12,2,33,24,15,2,251,5,18,20,49,45,20,0,206
1,2,1,3,1,2,11,2,0,95,2,3,1,9,26,3,2,72
0,4,0,3,2,7,0,5,0,44,5,3,2,6,2,4,7,36
0,1,0,3,5,6,2,8,0,45,2,2,0,10,10,7,3,36
4,3,5,2,2,8,3,11,0,182,5,7,6,15,14,7,4,162
15,8,8,8,11,20,21,20,7,191,9,21,10,34,31,31,0,173
2,16,11,8,15,23,4,26,0,316,14,43,3,44,13,26,6,272
41,27,21,38,47,89,28,36,24,947,49,83,78,164,67,82,0,775
2,7,1,7,10,8,0,6,0,105,2,16,2,14,0,27,6,79
3,10,0,7,2,10,1,5,0,65,2,10,1,11,3,20,6,50
8,9,2,7,10,15,10,7,0,247,10,25,10,42,11,26,11,180
36,15,10,17,20,37,31,32,6,742,22,47,34,58,43,78,0,664
12,20,6,9,20,31,8,38,0,505,32,19,14,68,26,66,6,418
14,18,28,7,28,54,27,35,0,936,42,72,30,80,61,78,6,778
5,9,2,3,8,18,8,13,0,198,2,10,4,20,18,31,1,178
3,11,1,6,4,8,1,6,7,171,0,6,2,16,11,13,0,170
19,3,9,11,15,16,24,15,8,266,25,32,25,40,52,20,0,192
8,2,2,5,1,13,27,4,0,80,1,16,8,14,42,8,0,53
2,4,3,2,2,12,0,5,2,103,3,11,1,25,11,11,0,73
27,15,12,40,39,64,26,34,21,994,44,77,37,131,80,72,0,831
5,9,0,17,3,12,15,8,0,212,4,19,4,28,21,16,1,188
36,24,16,36,41,53,26,44,9,751,48,53,73,116,72,46,0,628
6,4,7,2,8,10,8,13,0,168,7,16,1,26,26,12,0,138
9,10,3,11,15,34,31,30,0,454,15,39,7,62,43,32,7,392
17,9,16,11,19,24,41,14,4,416,25,66,14,80,71,28,0,287
5,1,2,0,2,9,3,4,0,89,4,4,6,10,6,4,6,75
9,1,4,2,7,6,7,8,2,129,6,14,7,9,18,10,0,111
8,5,1,4,10,7,7,13,7,174,7,20,9,34,21,17,0,128
26,23,10,12,27,43,19,24,0,586,22,46,24,76,67,55,9,471
37,13,14,14,19,25,20,22,0,474,10,52,30,66,59,33,14,374
10,2,4,10,11,7,4,7,0,194,6,15,9,18,13,11,2,175
17,17,4,21,14,39,55,27,0,624,28,42,23,60,103,56,2,504
7,1,0,2,0,7,13,6,0,73,1,10,2,12,12,8,0,64
27,18,12,18,27,51,33,46,0,692,28,45,27,92,64,72,21,575
2,5,2,12,4,9,3,9,0,139,5,21,3,17,15,10,1,113
6,14,9,7,15,34,52,21,7,542,18,31,11,53,82,31,0,481
2,2,4,1,7,3,9,3,4,131,3,22,2,13,19,4,0,103
0,2,3,4,1,5,0,10,0,58,3,10,0,21,4,9,0,36
1,7,0,4,1,17,1,10,0,41,0,6,1,20,3,10,2,40
11,7,4,4,9,20,16,12,1,333,12,14,19,36,24,22,0,290
3,7,7,9,13,14,9,8,3,141,11,17,8,35,18,12,0,113
1,8,1,1,13,10,9,7,0,223,9,9,0,15,11,22,0,207
20,9,22,28,17,34,9,14,12,303,12,43,27,39,47,38,0,262
47,21,18,34,36,83,31,47,0,985,28,85,54,158,84,83,1,809
0,2,3,1,3,6,1,2,2,51,4,7,0,6,1,8,0,45
6,3,2,4,3,2,0,5,1,102,6,14,2,13,13,7,0,73
6,9,5,5,5,22,4,14,0,244,10,5,10,43,20,22,5,199
5,3,4,3,2,9,16,4,4,73,0,6,6,10,16,9,0,76
0,9,2,8,19,37,14,17,7,239,11,25,6,45,28,27,0,210
6,4,1,2,4,3,8,3,0,15,2,3,4,3,10,8,0,16
2,4,2,13,3,8,24,7,0,104,5,12,1,10,24,15,2,98
6,7,2,8,6,8,45,22,0,168,5,21,9,26,55,27,1,128
10,6,1,2,3,8,3,14,1,163,3,7,7,18,8,16,0,152
3,11,11,6,27,21,8,15,0,290,36,11,9,42,14,18,13,249
1,5,3,3,7,9,9,5,0,199,6,7,3,25,20,10,1,169
12,3,8,11,14,9,3,11,0,488,25,38,17,34,29,20,6,390
16,2,4,17,20,16,14,10,4,436,11,32,24,51,37,53,0,331
13,7,3,6,16,24,7,21,0,268,22,17,6,41,9,33,10,227
12,6,7,12,13,20,12,6,0,327,14,21,14,39,24,21,5,277
9,1,5,4,4,15,4,5,1,95,1,4,25,8,9,4,0,92
10,4,6,5,11,10,7,12,5,192,8,24,9,40,20,15,0,146
4,7,4,8,8,26,13,13,0,161,10,13,2,41,27,17,5,129
7,6,3,10,7,10,4,9,2,185,10,25,4,21,22,7,0,154
8,20,6,13,8,14,9,18,7,305,10,30,22,41,30,30,0,245
19,18,15,18,18,50,17,40,0,497,16,60,31,88,51,58,7,381
6,10,7,10,21,33,7,14,0,373,21,29,8,54,18,31,14,306
13,12,7,10,6,17,47,23,0,284,20,20,21,46,72,29,2,209
16,9,10,14,12,17,10,11,9,291,8,21,19,51,48,31,0,221
7,2,3,9,16,19,10,9,5,217,8,22,3,28,20,17,0,199
8,12,7,10,16,27,14,18,8,321,14,33,9,50,16,43,0,276
0,4,2,5,8,5,0,1,0,86,3,6,2,8,1,5,8,78
5,12,2,8,16,14,6,14,0,278,9,13,5,19,14,20,2,273
0,2,0,1,7,4,0,2,0,62,1,1,2,4,0,9,5,56
22,18,4,20,18,59,4,24,0,686,14,48,24,94,14,70,8,583
15,24,4,13,21,41,3,29,0,714,23,37,9,60,8,56,9,662
8,10,4,15,14,15,1,11,12,385,9,20,8,22,11,30,0,375
1,1,0,0,1,4,0,2,3,23,1,2,1,5,1,2,0,23
2,1,0,1,1,1,2,0,0,84,4,3,1,1,3,3,4,73
3,0,0,1,1,6,0,10,0,93,1,0,3,13,2,5,6,84
1,4,3,3,7,11,4,4,0,81,7,3,1,21,3,8,2,73
11,17,6,10,19,37,8,31,0,559,21,38,8,69,18,43,4,497
18,13,4,14,18,30,3,30,10,559,19,47,19,43,20,38,0,513
10,18,3,10,15,28,3,32,0,776,17,24,12,60,15,47,19,701
1,0,1,4,1,2,0,4,4,20,1,0,0,5,3,5,0,23
6,5,5,3,9,23,1,9,0,184,5,13,2,34,4,5,13,169
8,8,8,9,16,34,12,19,3,439,15,26,14,49,23,27,0,402
