id,name,abbreviation,color,votes
53,Občanská demokratická strana,ODS,#004494,15674
47,Komunistická strana Čech a Moravy,KSČM,#8c0000,11786
659,STAROSTOVÉ (STAN) s regionálními partnery a TOP 09,STAN+TOP,#561,10120
720,Česká pirátská strana,Piráti,#000000,14136
1114,Svoboda a přímá demokracie - Tomio Okamura (SPD),SPD,#ea2329,13890
768,ANO 2011,ANO,#261060,36290
,,ostatní,#666,
,,migrace,#444,
,,nevoliči,#222,
