id,name,abbreviation,color,votes
53,Občanská demokratická strana,ODS,#004494,28752
7,Česká strana sociálně demokratická,ČSSD,#F07D00,20454
166,STAROSTOVÉ A NEZÁVISLÍ,STAN,#5d8c00,17168
47,Komunistická strana Čech a Moravy,KSČM,#8c0000,20669
720,Česká pirátská strana,Piráti,#000000,24859
768,ANO 2011,ANO,#261060,84750
1,Křesťanská a demokratická unie - Československá strana lidová,KDU-ČSL,#e6ac21,33631
1114,Svoboda a přímá demokracie - Tomio Okamura (SPD),SPD,#ea2329,38020
,,ostatní,#666,
,,migrace,#444,
,,nevoliči,#222,
