id,name,abbreviation,color,votes
53,Občanská demokratická strana,ODS,#004494,15738
1138,Koalice Svoboda a přímá demokracie - Tomio Okamura (SPD) a Strana Práv Občanů a SNK,SPD + SPO,#245,8749
7,Česká strana sociálně demokratická,ČSSD,#F07D00,20577
768,ANO 2011,ANO 2011,#261060,39500
721,TOP 09,TOP 09,#723769,12090
1142,Koalice pro Královéhradecký kraj - KDU-ČSL - Hradecký demokratický klub - Volba pro město,Koalice pro KHK,#835,15172
47,Komunistická strana Čech a Moravy,KSČM,#8c0000,14690
1153,STAROSTOVÉ A VÝCHODOČEŠI,STAN+VČ,#848,14407
1066,Otevřený kraj,Piráti+SZ,#252,8209
,,ostatní,#666,
,,migrace,#444,
,,nevoliči,#222,
