id,name,abbreviation,color,votes
2,Michal Horáček,Horáček,#794,19214
3,Pavel Fischer,Fischer,#163,32319
7,Miloš Zeman,Zeman,#874,115551
8,Marek Hilšer,Hilšer,#644,24638
9,Jiří Drahoš,Drahoš,#622,67161
,,ostatní,#666,
,,migrace,#444,
,,nevoliči,#222,
