id,name,abbreviation,color,votes
53,Občanská demokratická strana,ODS,#004494,15189
7,Česká strana sociálně demokratická,ČSSD,#F07D00,7317
659,STAROSTOVÉ (STAN) s regionálními partnery a TOP 09,STAN+TOP,#561,10694
720,Česká pirátská strana,Piráti,#000000,15466
1114,Svoboda a přímá demokracie - Tomio Okamura (SPD),SPD,#ea2329,14235
768,ANO 2011,ANO,#261060,28530
1,Křesťanská a demokratická unie - Československá strana lidová,KDU-ČSL,#e6ac21,20212
47,Komunistická strana Čech a Moravy,KSČM,#8c0000,8467
,,ostatní,#666,
,,migrace,#444,
,,nevoliči,#222,
