"","ČSSD + Zelení","SPD","Piráti","KDU+VPM+Nestr.","TOP 09+HDK+LES","ANO","ODS+STAN+VČ","ostatní","migrace","nevoliči"
"Zeman",5974.12714687738,4635.61209909082,2046.42012302648,1139.97018054801,1677.51663794584,27953.4036014344,1827.32145493538,10536.8302435893,784.359215640776,81673.4392969116
"Drahoš",6319.10214231477,2259.0933401992,18951.8888620412,10566.0912518124,8872.82153124434,5343.59492712284,33663.8316139801,2649.97978187461,3874.7502647864,44412.8462846242
"ostatní",0,0,0,0,0,0,0,0,0,0
"migrace",240.40926626562,216.349911527266,587.93949589114,259.607064591256,320.949588452854,263.831592492264,700.187044194455,457.610647769909,40.6246586491719,1908.49073016606
"nevoliči",2031.65563544069,2007.92336654965,1831.08295487393,1491.26346270156,1835.70458784699,2174.89421444895,1991.42923922739,1897.25820857982,1670.45902984814,113375.329300483
