"","SPD","Piráti","ČSSD","ANO","STAN+Z+PROPLZEŇ","KSČM","ODS+TOP 09","ostatní","migrace","nevoliči"
"ODS",673.130422764421,3244.89085762974,526.852318279194,2616.58791642938,2794.87627248807,312.29036536148,6981.58812168853,1635.75733098501,224.792170863638,456.234223510508
"KSČM",1166.00108393195,323.791101581532,297.832594496719,1034.62837888141,446.078651687035,4564.01488331472,477.671828113778,484.307757600502,137.863633023808,1249.81008736854
"STAN+TOP",412.036089032743,1266.67690820398,475.248613897313,980.831242245372,3582.34650759675,285.715279498904,3735.32455922761,1503.88441878754,177.667102008916,1386.26927950086
"Piráti",713.00808168488,5076.75243803703,405.75985965306,2001.48693803867,2140.76161910156,314.94415550948,2043.91085474055,1727.76290927536,171.642295663057,943.970848296364
"SPD",3277.62365042581,709.506774551265,391.770057743179,1661.7831538385,1403.55981597108,631.809888865211,613.997525185029,1583.3136372243,176.601138276328,1565.03435791929
"ANO",582.079680161675,2755.09614670175,1566.89668497576,15046.5292670748,2487.66375551645,527.01131445953,1156.27083522732,1739.95726430231,361.831085810358,2554.66396577004
"ostatní",784.972152564265,2870.12019741317,2525.30640891225,3739.96420026668,3157.58546851193,611.557797174714,3598.85792273503,5296.52679808519,326.390093854088,2304.71896048268
"migrace",292.830603094965,789.770514726115,241.167538765646,413.971905297234,334.568403107852,154.677780414477,363.686512041955,427.985412445011,41.6061435903493,1136.7351865164
"nevoliči",2853.69663084482,6348.28824488153,3687.372990709,11345.1210886991,9237.23113122439,2171.48874602068,17342.6246034542,3332.45984762554,3441.63286728003,266588.08384926
