"","ODS","ČSSD","KDU-ČSL","ANO 2011","KSČM","SPD + SPO","ostatní","migrace","nevoliči"
"KDU-ČSL",744.015163423359,829.315440703322,15910.2315279337,977.542451507485,551.720594206563,438.010523457391,958.765557484728,577.409948472602,7053.33040819258
"SPD",992.536516705255,2393.69535931923,502.73340554599,2972.16960558795,3063.28977087208,6103.84239476665,1436.91853256446,342.689089634231,5099.38733015204
"Piráti",3629.72125339163,1982.55427624012,2131.29778208897,7837.01423825077,1799.03678499512,1698.43913062363,7655.31389625033,503.136840840659,7239.33434674473
"ODS+TOP 09",6579.85060561802,1000.94594955937,2407.2739901134,7597.10703615494,678.631673787656,664.505231113763,9614.65918261969,968.011073356325,9758.75456765414
"ČSSD",430.13858720921,8216.49600014822,467.614879726487,1598.33732883485,867.38716671442,1481.70961735544,892.937024245232,229.565453739369,6449.86105785517
"ANO",1542.71560351078,9351.90940234699,2801.20159530495,36878.7903089786,8296.93070884885,1970.30718364243,14165.1744544452,822.259595875368,12471.0435944772
"KSČM",465.24166384879,952.667494093139,428.290775735491,1336.3037756909,9024.62331801315,564.567550138703,1047.99154479029,182.565157037117,3661.95560826713
"ostatní",1730.61452916847,1950.81855523861,1922.96838387741,6990.57208588904,1480.11687318737,2116.7781900574,14576.1298402078,914.020199102165,8671.79078539461
"migrace",218.418835454107,464.111194618741,234.877722463528,576.865633198075,304.548173460783,254.495268813925,534.691705038566,59.8237788510931,22655.5970133926
"nevoliči",2898.75250581698,19368.679368021,1678.34215208919,4342.62535957539,5760.75165227518,4388.00802269084,9358.13440704559,4172.07627147528,562219.61356279
