"","Zeman","Drahoš","ostatní","migrace","nevoliči"
"SPD",1820.48424031958,3009.05942546081,0,384.270185874509,1440.68589497529
"Piráti",1404.31221540508,7511.37964837701,0,389.269937925451,1089.69815603484
"SLK",12887.6742220242,24105.7965645604,0,494.027971352234,1560.61371166254
"ODS",1588.48201517014,6199.44467167087,0,93.5870968686543,1223.23825407765
"ANO",13000.3676405073,4303.0525124262,0,404.6444139393,1541.11535270583
"ostatní",2334.21137549481,14444.3052213535,0,355.145568465671,1424.42209649613
"migrace",1660.11797919022,1137.90521644052,0,26.4452093028251,1375.79653242389
"nevoliči",53479.0365207487,19859.198636989,0,1143.94668494235,86160.2648268145
