name,STAN,Piráti,ODS,TOP+Hlas+Zelení,ANO,ostatní,migrace,nevoliči,ČSSD,KDU-ČSL+TOP 09,JIH 12,SPD,STAN+Z+PROPLZEŇ,KSČM,ODS+TOP 09,SNK1,HNHRM,KDU-ČSL+ODS,TOP+STAN,KVC+VOK,UFO+ProMOST,JP+LES+ED+Z+TOP,SLK,ČSSD + Zelení,KDU+VPM+Nestr.,TOP 09+HDK+LES,ODS+STAN+VČ,KDU+SNKED+Nestr,ČSSD+SproK,STAN+SNK ED,ODS+STO,KDU-ČSL,TOP+Z+LES+MZH+I,STAN+SOL,ODS+Svobod.+SOM,PIRÁTI a STAN,KDU+Z+TOP+ProOl,Trikol+Souk+NEZ
ODS,8152.36611188383,41225.45849420661,52089.99613922474,3130.31773474672,24346.448078828056,21751.493238920037,2676.0229307409736,16265.768484736836,4800.068207414463,2149.52047708147,1291.37169359721,5051.078287898683,2772.8877782523305,1602.110532802402,20569.91705718941,219.61473429880297,108.75257143771401,1678.6310569846698,492.42700155379504,332.423669248565,226.605600282504,672.924676745279,1282.5255121980001,800.1428238581799,744.0378267921781,1745.72213946417,6837.606426173679,1448.2653173521499,590.017913763105,1475.27722374205,5545.93984001505,5529.2425105055,3349.63268161348,3177.92256264949,16191.0988603623,2863.20796067153,1787.14669530177,828.408971576331
STAN+TOP,22242.98562992909,28291.1747377393,12197.793613737733,5351.2021358640895,14309.186603505801,16270.530127424452,2365.5617174934173,20468.651158225024,3020.674951337911,2871.92591395431,1167.2981615153,4007.2753287270198,3554.1626461828796,1431.9102258130229,7985.277081011009,169.414659041308,98.8568084099379,678.074055934937,1416.05510985676,191.789794470801,229.314159933949,1192.09773945641,4005.2517423337895,1020.9949176729599,1046.27529854588,2343.9935818586,3170.37951720693,1113.5579962528,552.011065719437,2092.04276776431,1223.98542086505,5522.811556504754,5127.49806093237,1977.69827604124,6249.6119090149705,3055.27990499373,3722.9287462483503,1318.51156581551
Piráti,14281.572562256164,77726.57802136072,14963.490185407636,1630.43211261232,23222.263776774955,19624.84722391238,2743.323131571393,31365.3980165022,4559.9952577127615,1238.34938118638,536.61613633149,6292.62915859822,2123.9193263013103,1520.2801072655038,8021.982499358221,166.985546962334,115.67492053725799,311.27101090790404,867.7364846835491,151.730166399301,241.136819560406,785.8344047255589,2936.70029965226,1326.1991369801801,1414.56537080767,762.964190410966,2126.56268114467,496.277617329826,962.281429240694,1143.43150458832,1191.64761107064,6835.593141370262,961.452557515939,3207.9329488361604,6767.89773030522,4945.46017047012,1528.5986238933701,1061.04846342114
SPD,3995.92511808989,16040.04714546938,4593.719994980089,884.712410423404,31486.250058750564,27963.01572027189,2288.1323543214735,33872.60129731742,6463.251425535414,681.358489341761,431.856680861185,34335.20578680558,1392.5174069647198,3164.3719144138267,3287.3613945850093,127.325864447733,136.88608466622,199.729848339107,135.35317771673598,113.35297542476201,245.236225335621,308.669477945723,1492.0580131049899,777.027701026222,931.2125824711039,373.37765809052297,1185.15425102844,604.591917354954,545.580062178414,533.74376780116,814.985127700524,2588.6474446397433,720.813812194066,722.053247449849,1002.05806991454,1484.1782725947699,804.220006075098,422.856945431441
ANO,8213.467852647502,26300.506702123486,6783.737067162802,874.3578135071041,209122.4770461624,52378.90414292908,4087.132203456097,54910.502779737,12769.563370925709,970.800102000303,682.806416365798,12487.099544058688,2468.0922343414,5173.6638554054225,6120.93211054874,184.37008550306498,217.467604837018,348.04803214262705,794.550089990518,274.83201879584,397.5924405295,410.803672878339,2408.80994260957,993.4955168036349,516.014492021665,697.067946089701,2456.59886913096,745.076442178494,733.310933565446,934.0311134296519,785.308638884252,4870.646562291809,949.400750897204,2681.26344570325,1156.41739708833,4442.94088220068,1488.20828667069,1010.9960568728501
KSČM,2331.720358053578,10442.548897525343,4210.661197053611,689.387172444996,24772.779162457515,30958.523657141886,1877.0346416340647,21074.801840960634,5519.970637082278,433.33505872284104,293.97985204170396,10391.70807997406,442.569158992185,18367.89069133788,1763.8949038969472,74.7080738457255,84.15105622833079,167.117637562125,213.486760094306,79.7930275330103,227.12356711340598,268.692388525387,596.955473281122,366.058457060597,371.446986750427,569.862724490436,1389.3064019814099,338.503580291369,461.154125725116,712.974412171331,401.77096280611704,1686.1805562657669,342.634196526171,982.278984923049,564.5038693959369,508.971637684518,939.4147519712599,268.391391797954
ostatní,16562.712699237705,31477.48777003198,9918.212653234526,2014.7029315372301,54566.52269026793,58486.52767767511,3348.244318368202,59103.86120115028,15139.831591229608,1700.23213789813,581.071749795761,12177.104369263434,3132.74338496187,2984.4374464172242,6640.65474531156,175.322673614844,204.51719284403,535.5179752056299,486.599650773488,204.66612542356998,385.48706777764704,693.892629525202,4465.15879731099,2342.5384036519,415.971658071383,519.2462981270851,1436.35841550881,1280.97922185306,2004.86522622746,1090.30646361511,964.436402488837,4408.801239195077,675.681887454822,2001.1232952979,2048.51504984788,4494.94673146475,1318.56697705364,896.584008860334
migrace,2739.4108934600117,5410.983708689366,4238.949810169854,1168.26516442984,6038.482030207837,5986.36563159972,562.9742552776296,17797.314910573143,1506.292429469283,630.806678977557,373.48767033851,2568.0197687160767,331.936209520031,765.7358152119452,1058.504883682147,94.42139182493759,59.591901744329604,49.3281496469967,190.213551043332,92.47331255306601,222.63439767271703,208.69522160825198,416.515453559218,131.356682491805,77.4102925701215,192.641382223881,362.285146888077,322.83947871710603,213.065710175913,276.44417694831003,158.492611076569,1510.770328207064,377.50204112548795,501.914422268265,456.030537283358,611.4378652278859,813.888172287213,105.31152486396499
nevoliči,78451.96220392683,70394.39211608785,73283.24525976396,8677.29685063703,174270.76909959206,125167.5101653127,50957.42265892796,4147720.9655430913,43026.7786454598,5980.49584969321,7121.457725554351,29524.000953709794,9164.55785925078,11093.044390899391,35939.06390349793,3029.76874669496,4658.62546351937,1805.68475533567,6886.203113704039,3689.5060103938,7962.541222328409,5469.04566894225,21823.6059656874,6771.9549915938505,5018.18755106124,5298.37007305836,20066.162701481,6611.74051671801,14866.079248728502,7833.98683457635,8127.29699879784,53057.42139413817,10689.446777916,20792.3146564025,10518.7470820416,12580.347932005801,14301.847338093,4954.86520545025
KDU-ČSL,2482.013583765869,6986.105007457078,1784.0406038948101,,10465.540468566924,5881.613797931573,1404.3823601631264,11715.12176267142,3150.330017361472,3609.51000984781,283.310832140552,2536.351290946091,,674.9511879339091,2981.138405059435,,,,,,,,,465.921205227062,3254.9132500945398,528.585860893357,786.519470169125,5670.20107981499,843.985840113271,439.960984926817,597.926278662581,50475.42367411597,437.322932314443,938.7428742255321,528.145868487993,996.2981354516929,7041.67039705562,377.74715613547204
ČSSD,272.310125779223,1822.2663290546511,591.219704601925,,1512.668097503687,1462.848510818153,228.47191312339208,1566.552390513225,3030.9399287346005,,,705.707731437888,,255.24908275406602,,,,,,,,,,,,,,,,395.00645411779504,838.944673724284,431.085206702133,,,,,,202.892905416486
