"","KDU-ČSL","SPD","Piráti","ODS+TOP 09","ČSSD","ANO","KSČM","ostatní","migrace","nevoliči"
"Horáček",383.012877995641,1856.11156787902,5815.09183400262,2925.9904137864,923.951977996687,5084.27619703012,1742.10620418729,2960.53115986967,281.255244697518,9969.74869652127
"Fischer",9847.62000726709,1018.53195571725,4600.82210862073,7475.71986118702,899.003110838681,4156.1262667379,968.709968437327,5321.28829006832,399.038313431638,6652.38816745698
"Zeman",2247.15834011197,5138.07641252094,2835.05323786035,2552.33766960265,6199.4232019288,50401.0335618504,5968.93438052506,4338.90492812929,1692.14034678661,176211.915163669
"Hilšer",554.256668105313,3962.38104278051,5703.18992272049,2241.41609429253,1120.85368928581,5357.87692237481,1124.66228001535,7100.51498784093,287.294877757786,8457.78604767032
"Drahoš",9947.18772593738,3024.60494335815,8328.16470480605,11855.0940594105,4748.04345601368,12946.6134855416,2573.0390581653,9861.42754827364,1794.46248492665,59449.4677698898
"ostatní",434.232061130143,2262.66680282888,2576.86830834217,6616.22937880457,800.950536871106,5434.52859493637,998.008423607992,4477.18930198877,249.163164679537,4082.54222318702
"migrace",295.995491430223,456.409695128529,926.257372544629,1211.87270083709,186.278621321227,390.169133574685,238.569831022539,1073.81723582232,67.7182000475157,5414.53241202877
"nevoliči",4629.93713575041,5499.9534356754,4166.18000999076,4929.75506282016,5914.80200616871,5702.07961276073,4266.05338412706,5690.16853433053,9877.63066097748,350960.801431384
