"","Horáček","Fischer","Zeman","Hilšer","Drahoš","ostatní","migrace","nevoliči"
"STAN",976.852201667534,1435.46922235374,2111.32187558832,559.428753134749,3000.20546893096,1291.38053119588,534.995202777431,8848.22984728016
"SPD",556.043221581743,1394.75349066111,3325.85703955159,2742.22105117385,2574.33196720758,1006.66002059076,320.319267127553,3667.34367669413
"Piráti",3911.84735254205,3103.38974310677,1239.18821547621,1751.47266024194,2035.18487718202,1689.31012768924,206.040909107473,3251.0235078985
"ODS",3013.76603735544,1756.61909382927,1283.29034744667,814.689658079562,5864.73004183775,2556.29403490504,325.082014684987,6302.9796043598
"UFO+ProMOST",405.739372450735,271.504871909186,1044.97901764839,330.978232388189,736.540484824721,250.971143263661,145.647630318421,6951.79529199513
"ANO",1779.65530850827,1390.51588432881,25082.8110661506,4111.38890089097,5918.81964256275,2012.57217359442,786.332374620463,4419.54538967411
"KSČM",1244.45709727622,1021.62609563939,2080.43888594927,1559.38201865386,1246.52788900653,633.349197431509,172.759433270085,3284.1191962008
"JP+LES+ED+Z+TOP",969.821275658789,757.468348427071,1201.68227545577,520.323881434188,1485.33652346245,346.700666108396,157.829589317335,4551.38781269151
"ostatní",4394.22464479447,2183.36002006562,2754.91977424596,1603.84864947168,5660.18380432375,1833.16561127706,434.262260214118,4494.54139620706
"migrace",298.921661406128,182.648075559206,866.688723639986,197.557156504219,526.947894762978,149.51854378151,50.1012076605304,6408.38801154034
"nevoliči",15105.6606149043,3710.9994915462,100935.092198394,12849.2750536046,33586.903089231,5157.71034399359,3456.15615791126,217204.597580589
