"","Piráti","STAN+SNK ED","ČSSD","ODS+STO","ANO","KSČM","KDU-ČSL","ostatní","migrace","nevoliči"
"ODS",2722.97976967033,1475.27722374205,1358.20755460581,5545.93984001505,1447.88507920898,311.548527594648,401.754970810703,1261.67625282304,206.181688414456,1004.78417041804
"KSČM",579.798902556654,712.974412171331,1161.97186161558,401.770962806117,1053.12813130131,3239.75975846701,383.124652176811,678.00979409513,156.117064312106,896.237675475711
"STAN+TOP",1494.57910123193,2092.04276776431,589.420720696944,1223.98542086505,743.789666214948,338.147025498139,769.738900812924,1393.62266815835,179.071534597205,1250.6307497506
"Piráti",4954.73248736742,1143.43150458832,1127.51251117077,1191.64761107064,1784.02128999366,286.177949645239,675.142139191485,1419.18157577606,220.260751844785,2777.83324469761
"SPD",998.182098096634,533.74376780116,666.765391851665,814.985127700524,1217.9014523758,563.779206815657,261.622584751335,2639.00267884834,185.250221322457,2142.357490446
"ANO",1533.08715577576,934.031113429652,2299.11711274343,785.308638884252,10618.1136036117,673.75733085183,587.429409800501,2270.52030244632,318.045958309154,4300.13547519702
"KDU-ČSL",794.700467643056,439.960984926817,739.97210886132,597.926278662581,1104.7588741088,335.294182871119,9319.43098728974,599.765847422197,215.41514105906,1279.38978836616
"ČSSD",789.043439937321,395.006454117795,1202.38660228717,838.944673724284,742.719226738043,255.249082754066,310.984991558663,604.4971687144,129.069351779947,797.889396496346
"ostatní",1131.97933508942,1090.30646361511,874.089953564871,964.436402488837,1260.21284578612,456.933090739002,395.107002553888,1956.96442106383,179.098765369593,3961.93006357802
"migrace",268.162673997173,276.44417694831,167.374843284947,158.492611076569,248.279551843151,81.3375025945363,133.052083727609,409.298465541836,32.6908147649525,720.625454498246
"nevoliči",5523.88412434181,7833.98683457635,8321.40035186673,8127.29699879784,8793.08278131754,1910.95676096105,5333.53796312407,10562.2027062195,3589.16572058136,225610.030152492
