"","KDU-ČSL","SPD","Piráti","ODS+TOP 09","ČSSD","ANO","KSČM","ostatní","migrace","nevoliči"
"Zeman",6465.0147711032,6979.33781921506,4205.46005367652,4947.41680402331,8766.78534066702,61555.5393073783,7770.49451425961,11585.1243163023,7041.03911953097,241209.851462336
"Drahoš",18854.4145914956,8939.79294766917,26572.015539601,30868.3768882946,8228.95409903505,23668.3119078999,5862.40446013283,24850.9521490952,1209.80322297876,65291.1627430178
"ostatní",0,0,0,0,0,0,0,0,0,0
"migrace",525.778148950092,846.597018875504,1040.87004332129,1165.53708818596,359.157171490644,666.791828583118,591.513440683729,1140.2796541286,77.6068124981247,5656.97649705762
"nevoliči",2490.48211555763,6496.72752332199,3286.46385663073,2950.55894450266,3502.41689909718,3880.24604889802,3658.80991256224,3420.98697715996,4281.1599671456,310224.787993638
