"","Trikol+Souk+NEZ","STAN","KDU-ČSL","SPD","Piráti","ODS","ČSSD","ANO","ostatní","migrace","nevoliči"
"ODS",828.408971576331,1474.77869799865,665.118901749347,483.866509154277,3388.39853886509,4979.07444951533,542.244802116523,1263.59201420314,298.230027510263,159.089003334328,967.889682515595
"ČSSD",202.892905416486,272.310125779223,120.10021514347,705.707731437888,1033.22288911733,591.219704601925,1828.55332644743,769.948870765644,858.351342103753,99.4025613434451,768.662994016879
"STAN+TOP",1318.51156581551,3385.99088690962,1072.44827225865,278.360976856131,1380.902721321,601.095430475492,258.283918562978,981.738035955922,242.239801481113,128.858153092853,948.192526741716
"Piráti",1061.04846342114,2638.50427397009,990.309218154007,808.419067751568,4152.37233896527,1457.02416876233,538.886812733715,1647.29118345809,661.00751568807,172.809421387174,1197.49682025672
"SPD",422.856945431441,391.557979952141,969.972174100336,3300.69719376028,1531.52203656317,423.214232296756,666.946074952179,2752.80014899298,1262.9619491248,140.577505839735,2242.27231617895
"ANO",1010.99605687285,1282.88159226748,985.91300167166,830.076750935765,3440.09919088075,1496.27679684991,1154.07963049795,12610.5934760898,1531.0374670722,266.055227057794,3662.20157458853
"KDU-ČSL",377.747156135472,1318.16366609189,9769.63617356551,397.860933847391,1197.06593042603,389.72952598851,391.998692482834,1307.15386819927,609.131845786225,177.114544402447,4092.3506941935
"KSČM",268.391391797954,549.056723092912,316.610847457342,1111.50425855863,906.496134802192,258.834376762108,1028.32430811776,928.505349845398,2263.38715519953,122.546355120267,636.244064735968
"ostatní",896.584008860334,1450.96097184874,871.286360052809,921.59014570891,1831.46366985274,1935.28491247503,619.183119374296,1616.58004440554,672.449176394615,187.907624269006,2519.44275003931
"migrace",105.311524863965,195.471273575136,236.249484142852,274.539908544802,216.115157165788,274.73468079645,208.930078914905,405.054373273163,76.2833477133232,28.4575049398618,256.918370529618
"nevoliči",4954.86520545025,11085.4671131374,19155.3195548289,2493.27195617957,6093.90674485153,6610.91059933796,8740.9436449754,11942.9915548898,2580.39523409561,3109.50150919779,261237.329237996
