"","KDU-ČSL","SPD","Piráti","TOP+Z+LES+MZH+I","ČSSD","ANO","STAN+SOL","ODS+Svobod.+SOM","ostatní","migrace","nevoliči"
"ODS",3047.85957395481,586.323069296844,4834.66482108096,3366.04223683346,738.695072878516,2970.47779392304,3193.49092513379,16270.4176263511,906.168963484811,317.94180184662,1410.91811521602
"KSČM",537.654136615068,2223.50100969588,620.51411138825,344.312731249996,1617.80130509441,3121.61452556827,987.091083077273,567.269324088206,6448.3633098251,218.0469919363,2554.83147146126
"STAN+TOP",2143.91768902555,802.947598392716,6518.49978394192,5152.61722191771,541.518047833437,891.659603043537,1987.38684555136,6280.22820682199,622.218618857341,246.021870402906,1364.98451421152
"Piráti",4296.3846140907,1363.08415364535,12952.3147572678,966.162628838252,769.737856898226,2211.47859629501,3223.64832955682,6801.0530646612,1266.2124518659,304.439473052158,2250.48407382854
"SPD",840.383873460863,8304.61465547406,1611.6710636215,724.345015516583,2298.47007150484,3656.81009237116,725.59052265642,1006.9670640625,3010.13325695103,250.248098033423,4115.76628634762
"ANO",2398.8840161413,1120.7763001278,4828.36231589878,954.05178148132,1615.71450356333,28883.6899245119,2694.39871895667,1162.08258397256,6296.2023947132,408.942613803836,4345.89484682927
"KDU-ČSL",21522.6734048771,751.689866587763,1228.04038543186,439.4653388076,671.615503477301,3065.49690960896,943.34169281138,530.733208538957,720.968921180293,269.271741463016,2339.70302721582
"ostatní",2286.79135975714,1539.89154818668,4846.60407057929,678.991993456651,3561.89310225305,9854.80375470769,2010.92662191231,2058.55054449001,6196.63117408044,396.794356294529,10347.1214742822
"migrace",442.069523249838,518.166957840578,581.257887268303,379.351390346227,384.513411984544,347.287662019326,504.373256776635,458.264590684086,451.889421003581,72.2814928906233,3427.54440593626
"nevoliči",17822.7814635747,5558.55236990036,11672.3800333356,10741.8134353516,8339.30429237257,16416.2718008539,20894.1743729554,10570.2774967152,7229.4082333785,6603.69104288848,552452.345458674
