"","STAN","ODS+TOP 09","KDU+SNKED+Nestr","Piráti","ČSSD+SproK","ANO","ostatní","migrace","nevoliči"
"ODS",481.092720728922,5179.55195137138,580.667766597059,1373.09149179281,379.92778072588,918.551107622191,783.669196606512,129.178510010882,1037.58868453122
"ČSSD",489.110598849602,873.065842576085,718.025183808169,1340.45623985066,8725.47731159517,4015.89414117364,858.673590671361,314.129489039719,5281.1656720181
"ANO 2011",796.315027543603,1485.09691183789,630.706112168505,1729.73271477842,622.04456684257,7618.69865914502,4424.31532752548,296.537324333239,4460.43217984526
"STAN",2921.67704035576,447.435105490478,493.849770350516,1043.4680337845,224.733480631612,685.55350690358,734.4277005786,114.412958727333,967.61532426087
"KSČM",273.783885797153,494.831044366935,358.710579995985,571.942042394831,832.543782874122,2280.72379129465,1967.73455139469,143.853731197979,3402.99350633141
"Koalice pro PaK",584.156991036257,1164.48870677039,10462.1628024655,1636.85586752804,748.153323355828,1245.24732127884,885.205386824485,272.503248719354,2656.67149404701
"ostatní",1091.80576934036,2781.84801743365,1336.37480399195,4278.7324417383,973.620765062109,3122.33126559911,7559.17797669455,386.006914268168,6276.021023742
"migrace",304.188750293593,482.906655856687,311.194207244135,549.812156760787,116.643209196539,447.880170978944,681.817750295895,40.7838421139213,1709.5385861449
"nevoliči",3920.29422650607,5431.64066197674,3602.58655710957,3829.59972536217,9039.74737128311,5519.00868989747,4975.36335405787,5431.30130368902,173791.842721016
