"","SPD","Piráti","SLK","ODS","ANO","ostatní","migrace","nevoliči"
"Horáček",556.981799394746,1062.92997067591,3379.27662487651,544.951369855797,2314.20304070485,3513.72079651218,169.444658535702,6345.4917394443
"Fischer",659.956244881679,1712.98570476644,3182.97248863752,1344.14752328835,870.64767989423,3013.13497075128,157.519570021405,1802.63581775908
"Zeman",1359.74579980487,1245.69784106491,11297.7814832065,1079.06563246765,9656.97381646377,1856.64213770681,918.951569781164,32687.1417195044
"Hilšer",567.468876454434,1854.10248580498,3766.78510481843,373.163910177602,1967.8911350401,2454.67011732314,172.726653477038,4592.19171690427
"Drahoš",1512.60438347393,2342.547609561,13887.026459641,3605.8436191227,2233.16353138513,4283.93432438629,2063.77343179822,10595.1066406317
"ostatní",488.11497976389,942.615777816792,1283.80875321697,1061.81984842533,392.225163208698,1801.7792431295,109.7280837312,4565.90815070762
"migrace",246.509056575661,179.800099270407,432.084951751379,113.32453293008,229.183381977321,157.360663057756,29.9163927027503,1752.82092173465
"nevoliči",1233.8800106469,1061.2992856097,1660.56444120107,975.846598418825,1436.39008723884,1372.5927553357,1074.01158835302,97690.4152331959
