"","ODS","ČSSD","KSČM","Piráti","TOP 09","ANO","KDU-ČSL","SPD","ostatní","migrace","nevoliči"
"STAN",1926.13532105462,542.531528187404,521.087629541839,862.177794432475,1135.68864035916,1160.22040341456,516.896824568424,752.834781906433,1921.1044819957,673.014184510245,4359.0416132575
"Piráti",3164.69318577232,1218.22161601506,929.896435193792,6645.01845995692,2568.30902629354,1753.06239606367,833.73354086798,860.822474606879,2882.00139034753,884.844887971348,3314.43708725362
"ODS",17864.2711212314,580.417967490802,534.880485139418,1105.68846207372,2064.52553972273,1029.65686955389,814.464693655024,724.968063975913,2866.46054089524,962.61322779497,5450.81779466112
"ČSSD",927.341057800452,3950.83279239991,1026.7990129623,1336.07686904691,750.983256561868,1500.45967599048,1097.61782816442,816.389507461817,1349.26927682475,365.019483959219,4005.64204700193
"ANO",803.234782933039,964.66789353362,3199.85879169408,1568.09257710377,697.41894174261,19908.6965681608,715.636251757951,2087.59745460619,1582.26749619839,217.734626695236,3701.02707627782
"KDU-ČSL+TOP 09",993.733052260232,467.840788355413,482.596570821083,947.406977096255,2680.84169109103,1057.81693619566,6853.98544454936,608.929821419241,1701.01138394608,816.570705525446,3720.40520782562
"JIH 12",790.864932568753,528.937688575278,422.854622227317,1040.38111003755,1079.85043089882,1000.90441443481,408.613058115396,447.832011742886,733.767678289777,311.217124441366,5925.24053776392
"ostatní",2060.93832399563,863.984153362509,6895.76907983954,1460.24181119959,471.587119771966,4819.10985620219,910.934008799909,7734.9305442234,3746.10815023537,722.074332628139,5960.07150024791
"migrace",419.254372470585,275.416330544501,290.091867747659,387.529296466409,202.613712987671,676.173793813862,215.979876522219,270.715408660794,393.921481772361,53.1302585989594,6517.89482664873
"nevoliči",8337.7759930582,13137.4363793291,14466.823958514,17050.5295066543,4643.0329032517,56017.7097053337,4231.01288741932,16039.0569041418,17750.2283077336,1608.25889450616,151419.860526494
