"","Trikol+Souk+NEZ","STAN","KDU-ČSL","SPD","Piráti","ODS","ČSSD","ANO","ostatní","migrace","nevoliči"
"ODS",1240.09255790915,2659.52593352424,1145.4262303279,870.474697201875,1956.43734040152,10024.0310650453,764.66476182729,1541.7471746693,525.982327634223,308.919173317993,7488.69873814125
"ČSSD",430.339588896762,608.879805428145,431.358865360415,876.827452978473,991.710971902026,300.505193591601,1679.76130786701,878.196617611748,460.96111750259,215.493543113986,13463.9655357472
"STAN",922.652503767055,8121.72783417406,630.890598075513,466.61299262455,1352.23377499729,555.227084614959,472.139090577169,779.370207176452,281.433477703368,201.525871383599,3294.18656490598
"KSČM",355.132492484461,363.346182437776,366.722959925421,900.222154490146,645.594818997106,272.121603621396,414.141840658665,768.991205858582,4443.85550551867,234.79744039888,11791.0737956089
"Piráti",607.508193733667,1849.74729989953,1115.35609168615,464.090353956246,6946.78783945419,1053.82156171092,522.752390108202,3146.00067504031,629.649545373451,224.359575196952,8135.92647384036
"ANO",1488.76527446134,1593.48292768602,4641.332576742,1307.6197827987,1846.63359546255,1358.83669168335,3142.24411195649,19853.523618422,1079.97497174576,1012.39198254238,46907.1944664994
"KDU-ČSL",707.430801054241,1577.42745480671,17165.2938204159,493.278797326553,822.481994796594,465.540374781842,483.176751728758,437.961780136109,451.093391502,283.114524329973,10604.2003091213
"SPD",442.17802034302,580.490852816154,862.107884833338,3312.78531761882,2256.47577950848,548.883253342753,616.383640769931,3072.6314326526,709.581551261637,309.130711287131,25169.3515555662
"ostatní",1703.97849428858,1225.91465567921,948.13960303015,778.385108307265,4978.59729005048,844.421184019507,488.200389221066,2673.83811764205,593.180740553958,258.300092720848,11674.0443244869
"migrace",255.309781491643,569.847982136974,233.051198884883,220.700041580769,463.561400764073,519.876063903867,156.811589453073,184.857578927629,131.240558731279,28.2684452155355,1001.47535891027
"nevoliči",3308.17440473064,4987.8712901273,7836.6035709812,2018.7587615035,3107.66694061823,3256.72185093836,7378.44811263059,3249.02055995102,1927.14350180266,5405.95826329396,139838.632743422
