"","ODS","STAN+TOP","Piráti","SPD","ANO","KDU-ČSL","KSČM","ostatní","migrace","nevoliči"
"ČSSD + Zelení",800.14282385818,1020.99491767296,1326.19913698018,777.027701026222,993.495516803635,465.921205227062,366.058457060597,2342.5384036519,131.356682491805,6771.95499159385
"SPD",637.083895228386,375.235112562468,455.434395027371,2074.38192431017,1000.32932139002,492.141374868497,939.635547508537,709.40259585152,126.497630981997,2565.18826020427
"Piráti",2702.12504978066,2999.69209959187,6520.03077003921,1448.3779726926,1982.27098551059,1038.31165228625,702.852647020465,2536.1842670174,430.894482731228,3945.50979524727
"KDU+VPM+Nestr.",744.037826792178,1046.27529854588,1414.56537080767,931.212582471104,516.014492021665,3254.91325009454,371.446986750427,415.971658071383,77.4102925701215,5018.18755106124
"TOP 09+HDK+LES",1745.72213946417,2343.9935818586,762.964190410966,373.377658090523,697.067946089701,528.585860893357,569.862724490436,519.246298127085,192.641382223881,5298.37007305836
"ANO",2525.92920445252,964.671778984486,2224.79892145098,1824.60546245094,16173.9607760509,832.447222984186,892.810544856859,3281.38692081799,362.44729027069,8042.24764776283
"ODS+STAN+VČ",6837.60642617368,3170.37951720693,2126.56268114467,1185.15425102844,2456.59886913096,786.519470169125,1389.30640198141,1436.35841550881,362.285146888077,20066.162701481
"ostatní",922.363664670953,796.037611832999,801.847498149061,1314.5046561073,1162.2009294444,443.177316319034,2437.3314359296,4032.34562921523,263.765823981642,3870.79328940213
"migrace",257.313091072451,209.359166349418,221.68293651962,130.081088286442,305.895254075608,126.057694974401,98.4276444240378,214.073243034995,25.9254503362038,3535.29562914642
"nevoliči",907.348274748188,1068.17821014066,2112.89395995262,685.961484666183,4092.00753302879,595.560390791566,454.833604076051,3493.70525101724,716.437489578135,237429.218317823
