"","ODS","ČSSD","KSČM","Piráti","ANO","SPD","ostatní","migrace","nevoliči"
"SPD",557.183215042271,698.969201239028,423.034261276768,582.617723017686,1315.87283503783,3717.38319529888,976.863796710285,230.049743822126,2157.99927613958
"Piráti",4993.76015959754,997.005554328326,584.262707257488,6623.67602435291,1658.76898951867,776.475199424788,3590.26716929941,467.892592517908,3298.86695431715
"ČSSD",513.200972872112,2585.93535701187,777.261864028931,519.808539358589,1233.81090659957,449.648293734157,1063.55965477644,177.514053980833,2664.42361235474
"ANO",1776.28722074864,2320.59199843282,2378.78688157746,1396.29903694908,24246.9814352741,1482.56907323068,1294.29139543862,674.377137062091,2836.34402395784
"STAN+Z+PROPLZEŇ",2711.09282134503,783.129406791299,727.147232805415,1845.4909546186,1270.76760345032,691.477778487748,12792.0820910781,616.524274232422,3769.61811053326
"KSČM",412.281619462688,369.137518266535,4253.61150161313,363.233930360093,773.959692419476,457.080251606773,826.925624329272,128.927694033615,1978.10787553884
"ODS+TOP 09",16111.7494471467,823.793488991596,548.780235731133,3021.27579296451,1284.94310872843,528.892358331664,8705.10425864264,883.002717315749,3829.67659900567
"ostatní",888.554939512476,865.935752393142,452.024357444089,1222.30465303293,1261.54463362961,1865.81411695671,7730.40289908206,430.719914612143,2748.92192194244
"migrace",294.074870625704,285.817660095093,295.865607682408,271.025671727628,619.983698698229,297.265575471567,720.053807038615,53.3257758591449,6552.19003535586
"nevoliči",3765.57011836639,11460.3078493191,12602.0797813913,10704.2226417518,48690.0346948788,17838.551839948,14570.4572837971,2141.05896657308,150786.436889397
