"","Zeman","Drahoš","ostatní","migrace","nevoliči"
"ČSSD + Zelení",5974.12714687738,6319.10214231477,0,240.40926626562,2031.65563544069
"SPD",4635.61209909082,2259.0933401992,0,216.349911527266,2007.92336654965
"Piráti",2046.42012302648,18951.8888620412,0,587.93949589114,1831.08295487393
"KDU+VPM+Nestr.",1139.97018054801,10566.0912518124,0,259.607064591256,1491.26346270156
"TOP 09+HDK+LES",1677.51663794584,8872.82153124434,0,320.949588452854,1835.70458784699
"ANO",27953.4036014344,5343.59492712284,0,263.831592492264,2174.89421444895
"ODS+STAN+VČ",1827.32145493538,33663.8316139801,0,700.187044194455,1991.42923922739
"ostatní",10536.8302435893,2649.97978187461,0,457.610647769909,1897.25820857982
"migrace",784.359215640776,3874.7502647864,0,40.6246586491719,1670.45902984814
"nevoliči",81673.4392969116,44412.8462846242,0,1908.49073016606,113375.329300483
