"","ODS","KSČM","STAN+TOP","Piráti","SPD","ANO","KDU-ČSL","ČSSD","ostatní","migrace","nevoliči"
"Piráti",2722.97976967033,579.798902556654,1494.57910123193,4954.73248736742,998.182098096634,1533.08715577576,794.700467643056,789.043439937321,1131.97933508942,268.162673997173,5523.88412434181
"STAN+SNK ED",1475.27722374205,712.974412171331,2092.04276776431,1143.43150458832,533.74376780116,934.031113429652,439.960984926817,395.006454117795,1090.30646361511,276.44417694831,7833.98683457635
"ČSSD",1358.20755460581,1161.97186161558,589.420720696944,1127.51251117077,666.765391851665,2299.11711274343,739.97210886132,1202.38660228717,874.089953564871,167.374843284947,8321.40035186673
"ODS+STO",5545.93984001505,401.770962806117,1223.98542086505,1191.64761107064,814.985127700524,785.308638884252,597.926278662581,838.944673724284,964.436402488837,158.492611076569,8127.29699879784
"ANO",1447.88507920898,1053.12813130131,743.789666214948,1784.02128999366,1217.9014523758,10618.1136036117,1104.7588741088,742.719226738043,1260.21284578612,248.279551843151,8793.08278131754
"KSČM",311.548527594648,3239.75975846701,338.147025498139,286.177949645239,563.779206815657,673.75733085183,335.294182871119,255.249082754066,456.933090739002,81.3375025945363,1910.95676096105
"KDU-ČSL",401.754970810703,383.124652176811,769.738900812924,675.142139191485,261.622584751335,587.429409800501,9319.43098728974,310.984991558663,395.107002553888,133.052083727609,5333.53796312407
"ostatní",1261.67625282304,678.00979409513,1393.62266815835,1419.18157577606,2639.00267884834,2270.52030244632,599.765847422197,604.4971687144,1956.96442106383,409.298465541836,10562.2027062195
"migrace",206.181688414456,156.117064312106,179.071534597205,220.260751844785,185.250221322457,318.045958309154,215.41514105906,129.069351779947,179.098765369593,32.6908147649525,3589.16572058136
"nevoliči",1004.78417041804,896.237675475711,1250.6307497506,2777.83324469761,2142.357490446,4300.13547519702,1279.38978836616,797.889396496346,3961.93006357802,720.625454498246,225610.030152492
