"","Zeman","Drahoš","ostatní","migrace","nevoliči"
"STAN",8819.23497487628,7577.56511441491,0,563.423326856827,1866.39767810016
"SPD",5406.4198945127,7063.27404186037,0,507.990535230235,2664.00832162127
"Piráti",2961.25920098822,12368.6753556172,0,193.159102624142,1793.35383705922
"ODS",4818.09746273306,14854.3764964132,0,292.381409157537,1965.88375872426
"UFO+ProMOST",7051.66233280909,1202.29095232363,0,196.012392973932,1599.15620565118
"ANO",28992.8741692802,13631.2778289949,0,422.648084091206,2569.79745315776
"KSČM",5084.87732211336,4109.14904970616,0,248.76826604768,1849.34896425291
"JP+LES+ED+Z+TOP",3997.41556606069,3945.53176949175,0,226.800800950851,1832.45602295349
"ostatní",5907.2469122077,15144.0449506944,0,561.183524321401,1789.2125375503
"migrace",5337.96879482834,708.654915158212,0,46.0356875760834,1707.56552633785
"nevoliči",126016.56183499,42565.4204910789,0,3941.88301679958,219967.654116809
