"","Horáček","Fischer","Zeman","Hilšer","Drahoš","ostatní","migrace","nevoliči"
"ČSSD + Zelení",1805.97611647866,875.289442405821,1944.39325684665,1510.9900497699,5561.41192718166,1208.97953073042,253.165717597752,1894.66176502074
"SPD",861.114383838521,1109.92654944004,1466.29999726053,924.432298771818,2166.89790181528,1066.26059579825,151.673442329374,1700.01963796226
"Piráti",5321.48846567978,3678.80733376002,1564.0713520611,3962.2428091709,4843.16986762327,2160.98292932077,432.285685798349,2167.45508097428
"KDU+VPM+Nestr.",417.584537557942,3525.53930299416,1286.03817812944,560.51525499525,5896.91958473106,508.399824688616,271.58841039114,1412.97014297696
"TOP 09+HDK+LES",1623.3581926075,974.548490374802,1596.49676790983,702.58683672333,5748.64821869626,688.337466224097,219.048623037905,1583.54291734698
"ANO",3424.67181762012,1902.70599330837,19662.681579627,2757.07887804875,3987.05398720188,2173.5303086696,337.196930550254,2778.10829231013
"ODS+STAN+VČ",3764.55364819251,2805.09447050418,2272.12308125197,3257.84634107024,21274.7161538219,2882.03145917455,956.411884927893,2217.15340312338
"ostatní",2001.85887165298,1098.91042738751,4762.40198554104,2005.18255827363,2828.10871419402,1483.27705603726,438.926928706109,1474.49049672997
"migrace",234.535483158798,265.123783137985,1196.55237663354,251.773970301667,3863.07716947429,212.685101490063,38.9016396754925,1216.62417359796
"nevoliči",8518.03997732355,7862.71118804946,62429.989767307,10738.0415300366,15279.6057001132,4934.01222120177,1407.52244633942,138522.569317213
