"","STAN","Piráti","ODS","ČSSD","ANO","KDU-ČSL+TOP 09","JIH 12","ostatní","migrace","nevoliči"
"ODS",2049.59287100248,2517.79332284593,5791.40678059445,996.375206621295,1741.66217590277,2149.52047708147,1291.37169359721,2259.44047969613,251.31553567003,1874.98836058143
"KSČM",329.350601390006,1166.94223887246,1138.83634579505,602.664292630555,1882.05582786142,433.335058722841,293.979852041704,3187.88653224534,182.083947644925,2090.73194597733
"STAN+TOP",2023.89302909398,3652.17328132717,2038.57862881372,731.128766180781,1386.545033572,2871.92591395431,1167.2981615153,1174.15245573288,225.352218668395,1128.48012683777
"Piráti",832.983262810325,5829.39322637339,2084.73350864992,1109.36613950973,2024.73501461448,1238.34938118638,536.61613633149,1985.60484023524,264.157480107423,4005.933079578
"SPD",670.121420723399,1643.90458995602,846.233786694982,1242.43150419058,2106.89509841001,681.358489341761,431.856680861185,2061.54944719936,207.355102456698,3584.9960689469
"ANO",794.560691415294,1208.42773186771,1216.65131891258,1901.45529441342,12442.3514702732,970.800102000303,682.806416365798,4591.26473494953,378.962293526,7029.48629401318
"KDU-ČSL",768.942324053427,1083.88206459273,1050.58322593238,734.778875092954,648.528457577329,3609.51000984781,283.310832140552,789.547818230117,145.720112056492,478.999198720986
"ostatní",1278.83266612107,2404.85721865224,1204.6540670392,3592.2308728626,3958.71636700817,1700.23213789813,581.071749795761,4130.60068763846,291.19270300474,2965.07042854367
"migrace",208.412086486002,544.738739942597,594.228747850401,217.358712544412,452.624585421717,630.806678977557,373.48767033851,547.589890594336,40.6744340340074,716.850873925601
"nevoliči",5478.77768516046,5129.10222469562,18207.7629687749,6068.64006196851,8939.52788077537,5980.49584969321,7121.45772555435,15141.572548505,3737.73207065628,283999.694978906
