"","ČSSD + Zelení","SPD","Piráti","KDU+VPM+Nestr.","TOP 09+HDK+LES","ANO","ODS+STAN+VČ","ostatní","migrace","nevoliči"
"ODS",597.740625541985,541.35450345738,3539.98865043997,485.263255738436,1076.26541617141,2516.45347726827,14344.4262617628,908.585573732992,305.505015141961,5085.41722074476
"ČSSD",2326.23732160045,517.296471378941,433.835345496869,284.902987266494,325.993214407492,1750.87649063704,831.155876468907,572.672977632725,173.749346616784,9512.27996849428
"STAN",380.376754651124,344.405567900646,1048.63181104058,286.91658760192,305.837384374953,1231.58677028137,4361.95266898772,810.645321564847,163.947822011836,4235.699311585
"KSČM",498.965967333928,824.158509247424,630.610778987353,298.94777031016,239.852532315232,2637.72435905623,550.638863862993,4984.84919666729,195.575591289131,7403.67643093027
"Piráti",693.872352686819,601.061200500767,6890.18289426534,415.524067956401,1421.48059462731,673.953049621074,3007.39070817619,1382.79119875212,230.030452926433,11839.7134804875
"TOP 09",850.455940038084,262.495993020667,1971.0917279932,788.200245762595,1928.69740928073,868.553831159415,1772.89280294086,471.61815291756,182.796994555535,3906.19690233136
"ANO",2159.88937457693,1111.4369415743,1569.3585787438,844.73107935709,1076.15303602569,19171.2664002151,3092.05281400371,1159.51583047277,628.255973132359,51033.3399718982
"KDU-ČSL",1309.24241440336,477.642934266118,854.163949835654,6386.08843973211,896.263878504695,1003.215725673,1070.81251464341,575.518747657536,201.145259982356,2257.90613530176
"SPD",397.789450158637,1995.94069013617,907.802583404109,359.932428791161,438.411406267356,1326.30798596548,1168.32800158628,1221.2669710314,252.821735448922,18253.3987472105
"ostatní",758.307993472488,479.271585870136,2038.50444226869,306.59589273135,298.5227310481,1318.15860815253,1113.5090204288,728.28088393558,179.953901771947,8740.89494032039
"migrace",194.698806554382,154.284521199787,611.432497678316,160.181841301212,270.490759330496,361.216399266761,692.084412070276,302.259722020153,39.6753347195701,1403.67570585905
"nevoliči",4532.16214097002,1922.10602751556,3069.90879196435,2979.02829960808,4439.72509476512,3180.01153319343,6340.09584166007,2522.79555067995,5250.51633400004,119317.650385643
