"","Trikol+Souk+NEZ","STAN","KDU-ČSL","SPD","Piráti","ODS","ČSSD","ANO","ostatní","migrace","nevoliči"
"ODS",1223.98577879218,2624.98303066274,1130.54901235815,859.168651064171,1931.02641127605,9893.83525571104,754.733014121256,1521.72239422994,519.150675338107,304.906817258039,7391.43275934031
"ČSSD",424.750179735775,600.971450142673,425.756217461115,865.438894907749,978.830264352877,296.60212140089,1657.94394900739,866.790276326228,454.973984644019,212.694633566522,13289.0905898896
"STAN",910.66875305013,8016.23984020226,622.696358504147,460.552451129176,1334.67046442867,548.015590638468,466.006774085216,769.247459727257,277.778115986552,198.908379103665,3251.40045589126
"KSČM",350.519900805538,358.626908326989,361.95982698428,888.529737415227,637.209595585896,268.587187956588,408.762813820675,759.003264703172,4386.13707264958,231.747804719982,11637.9269841338
"Piráti",599.617653446322,1825.72210033545,1100.86943575794,458.06257742149,6856.5603990999,1040.13413893355,515.962689430909,3105.13925896976,621.471425051907,221.445510357656,8030.25406270436
"ANO",1469.42864246574,1572.78618422182,4581.04923890145,1290.63593520104,1822.6488378391,1341.18761999963,3101.43148751157,19595.6587376306,1065.9478588413,999.242662406073,46297.9465394394
"KDU-ČSL",698.242429121476,1556.93924574072,16942.3446588553,486.871910533345,811.799295563069,459.493764842269,476.901074026383,432.273371146524,445.234424304988,279.437328560104,10466.4690478523
"SPD",436.43484927194,572.951223708552,850.910509937853,3269.75764115022,2227.16784057155,541.754155384531,608.377822905871,3032.72296333879,700.365244592626,305.115607694082,24842.4427426414
"ostatní",1681.84659368767,1209.99202438096,935.824816475985,768.275155685193,4913.93343383123,833.453530511751,481.859462663728,2639.10932285917,585.476290508186,254.945195932851,11522.4175349082
"migrace",251.993723967823,562.446586555657,230.02424403426,217.833508112621,457.540494468297,513.123722011244,154.774862744092,182.456580572388,129.535957992253,27.9012842321372,988.467827904479
"nevoliči",3265.20661649775,4923.08697977758,7734.8188760082,1992.53837879529,3067.30341721636,3214.42234743443,7282.61410958121,3206.82108365236,1902.11305184772,5335.74368527145,138022.357050731
