"","ČSSD + Zelení","SPD","Piráti","KDU+VPM+Nestr.","TOP 09+HDK+LES","ANO","ODS+STAN+VČ","ostatní","migrace","nevoliči"
"ODS",453.169648527731,595.125169156438,2636.8489167444,442.385281391726,684.01215266732,1184.60659245088,6126.85151744998,818.601748119217,258.225426667718,1971.17354682459
"SPD + SPO",487.742845898892,1058.83409859365,832.501180516656,313.215945571743,240.725127001691,1452.42188953358,485.094142360198,1247.69647527665,139.087956408657,2237.68033883828
"ČSSD",3178.41960884159,754.030528041597,933.710500023913,457.253007623841,404.378219152543,3752.02576108332,654.937189026745,1509.71004180141,270.39392575783,7845.14121864723
"ANO 2011",1684.75957180186,809.470439115806,5055.90189945981,700.262022185123,504.620615782951,17132.8662933012,4859.43228224056,2018.32180555791,355.739871257725,4991.62519929705
"TOP 09",568.030089520923,414.154061274585,2035.86312173612,549.873253543014,3387.31871503465,1328.2231738451,1887.03217596775,293.018470804421,160.942541639253,989.544396634174
"Koalice pro KHK",1134.61013673948,517.989750981632,1690.50841564555,6781.01422686987,808.430266789586,788.7672809042,700.32387449016,403.227762217162,231.131094996978,1689.99719036539
"KSČM",544.631186329173,1117.62971554916,1137.96694257197,288.771647237437,394.452987944125,2302.09403274179,996.964554582373,4017.16927324183,194.474196964685,3146.84546283746
"STAN+VČ",391.225139620337,524.422578729781,1458.36138966666,316.985254686789,305.348941058582,1602.46298316901,4404.33157417235,733.482653033296,164.808418308185,3902.57106755501
"Piráti+SZ",609.865694806757,293.100490728505,2165.44473374404,309.394489771406,610.842130364483,994.379759114479,1187.89886229776,327.957398169261,157.764936768933,1278.35150423438
"ostatní",585.704290247229,502.133435308683,933.985940165666,364.365657748647,488.457685959188,829.551029612615,842.767296744633,767.449492282168,128.722233689773,2354.8629382414
"migrace",227.639174771168,146.03902026263,513.81695372921,169.214740956984,295.357123955444,361.918276262252,665.760774356913,286.459294762038,39.0467381929966,1915.74790275037
"nevoliči",4933.93120129141,2430.42434445609,4276.00370428644,2937.19542479594,4710.66596963562,4388.48339798269,16039.9087189273,3222.05263488956,7970.54634949777,212607.788254238
