"","Horáček","Fischer","Zeman","Hilšer","Drahoš","ostatní","migrace","nevoliči"
"SPD",1017.56118769876,1180.1162089879,4908.25208933416,866.22970953411,2149.86117313229,1347.69381214121,307.682739360258,2974.92624416829
"PIRÁTI a STAN",5253.24228709889,6424.89770554087,1725.65828940241,3125.69267947222,13080.3157857882,2115.76887978995,534.560705762886,3982.27988420001
"ODS",1427.35744642647,1140.9596904814,1261.70893339164,1217.31943124458,6586.62025341519,1909.57927182764,384.697547871665,4931.93225749735
"ANO",3091.65507334724,2694.77293889512,30431.0118264586,1922.53983249645,4585.00264958943,2725.94880154057,430.428869453957,4349.12698842021
"KDU+Z+TOP+ProOl",1021.42633631593,13738.2411595905,1431.47347252642,1177.66646635112,8765.17364460454,1490.13174011491,852.860054127565,5534.32409510482
"ostatní",1176.08808442501,1041.4406934907,9703.71048567963,3757.2941486806,9054.01663365474,1892.36172223251,583.340180352555,4110.46673036711
"migrace",293.856126388503,423.101087508262,873.944934714997,294.302467643502,619.582575117034,240.261536179291,46.6931339994825,6183.45269397235
"nevoliči",9836.81345829921,5291.47051550528,87479.2399684921,12434.9552645774,24058.4272846986,6437.25423617393,1967.73676907163,172343.49110627
