"","SPD","PIRÁTI a STAN","ODS","ANO","KDU+Z+TOP+ProOl","ostatní","migrace","nevoliči"
"ODS",574.389898844895,2363.02866049988,5056.38773463722,1180.42760750268,1063.11499686243,803.71306260254,200.599413586953,869.230436537249
"ČSSD",933.916831557469,2214.0795549786,665.153246145394,7142.29913015303,1228.74136493637,7475.93891154825,357.884592900594,2822.31442739234
"ANO 2011",2551.9235467709,5321.37888597825,3188.56830539521,14644.5001100852,3986.95499061664,5529.74176069295,623.934952695922,3328.39705924278
"KSČM",1402.51710669824,1433.0838264122,352.707754557625,3878.91444090727,579.180150096489,4556.24532372689,252.641958889467,6595.39549153923
"STAN+ProOl",1030.59095341842,5046.11115853112,643.731842475142,2764.35707326803,1307.80885358707,991.8555981056,285.864965163768,3996.73690402868
"Koalice pro OlK",483.062433838689,1290.38476212647,412.722273653756,2395.79037207706,11215.7283651827,1247.62115120774,194.345650344163,1560.75307514997
"SPD + SPO",2589.22254168322,1102.07745448415,1081.49636193718,1627.54482289446,1436.41721543181,1421.86225120935,206.858644379999,2624.7202460057
"ostatní",1467.71471485474,8773.26947484133,1326.88035782978,2462.98320043456,4581.48176071497,3404.83212483489,456.512686386308,1894.92590625812
"migrace",299.05558932754,429.68080728162,418.681122481127,404.844789805238,788.703382155951,589.545230215372,37.2338196670072,1972.78178585194
"nevoliči",3078.59782631724,7601.08307847515,5298.535947349,12672.5222590979,7112.33748854261,4731.76932250561,10743.6080203041,289081.448799292
