"","Piráti","STAN+SNK ED","ČSSD","ODS+STO","ANO","KSČM","KDU-ČSL","ostatní","migrace","nevoliči"
"ODS",2752.70177161965,1491.38024184312,1373.03272812903,5606.47515378116,1463.68910523443,314.94915731934,406.140226315937,1275.44776316018,208.43221286316,1015.75163973399
"KSČM",586.127551892925,720.756705343102,1174.65507370576,406.156392867961,1064.62328698336,3275.12254262319,387.306553116975,685.410439757729,157.821120927396,906.020332781598
"STAN+TOP",1510.89280413014,2114.87793529443,595.854394573136,1237.34552638993,751.908315554676,341.837984447948,778.140792507185,1408.834406461,181.02614496914,1264.28169567242
"Piráti",5008.81462572489,1155.91234406676,1139.81959087374,1204.65474135257,1803.49432642582,289.301653196749,682.511483687037,1434.67229591709,222.664952775181,2808.15398598016
"SPD",1009.07750414991,539.56971387822,674.043302064989,823.880893223276,1231.19514987029,569.932997185533,264.478260383075,2667.80804994902,187.272273597905,2165.74185569779
"ANO",1549.82118367416,944.226295517783,2324.21254829085,793.880478144947,10734.012956497,681.111559819669,593.841348022611,2295.30359669146,321.517509107339,4347.07252423417
"KDU-ČSL",803.374821052327,444.763268585798,748.049088612324,604.452792821044,1116.81759219974,338.954002333568,9421.15489616929,606.312440931549,217.766450941633,1293.35464635273
"ČSSD",797.656045481121,399.318047883586,1215.51095133122,848.101963655537,750.826191964443,258.035190025109,314.379470147256,611.095405773306,130.478175880636,806.598557857791
"ostatní",1144.33517128727,1102.20743004824,883.630862973421,974.963465875079,1273.9683826712,461.920629157365,399.419693830885,1978.32517481804,181.053672972187,4005.17551636631
"migrace",271.089736330892,279.461633948048,169.201781359843,160.222597376078,250.989584949549,82.2253216806695,134.50438033883,413.766060169673,33.0476431450203,728.491260701397
"nevoliči",5584.17869448157,7919.49675079451,8412.23050794579,8216.00846846486,8889.06146851819,1931.81532965369,5391.75485753602,10677.4917777433,3628.34235778292,228072.619787079
