"","STAN","ODS+TOP 09","KDU+SNKED+Nestr","Piráti","ČSSD+SproK","ANO","ostatní","migrace","nevoliči"
"ODS",437.565526989919,9745.4851765715,1843.31708649409,946.691325802978,712.716529202276,849.723559070948,1332.2724215562,260.196769152994,5933.91749421571
"ČSSD",238.165812356437,294.819361504257,634.177064853382,418.241427576937,1384.97510228246,1293.01067516099,986.003664235221,176.144319248187,10475.1354233306
"STAN",2942.09986396055,469.041681736094,934.674907240211,631.744915102037,612.585157804431,820.855380399316,1510.68415803988,160.838731958941,3055.09078504633
"KSČM",352.94015258367,280.042816441928,358.47764073934,443.549665976478,476.835143331954,1658.20051826584,3601.86072223479,194.260612431976,9528.79378350062
"Piráti",534.337650581476,1029.85236714385,513.412621270207,4975.44426150866,828.464829575292,1121.2453728622,2249.5185065982,219.917827819574,10348.5626774409
"ANO",795.641927592552,1021.94680328513,1039.5065876147,1187.80618766331,2076.99484133581,13687.399108007,2775.83712482865,552.551055512762,41778.8177297915
"KDU-ČSL",352.624639980401,470.237557341242,7187.6725094236,738.040100218596,1466.87817329385,578.114260257478,362.891951847242,171.0645807513,3868.61352302326
"SPD",372.028294916184,360.025509391832,455.627411531408,1128.6249492727,1113.96719030933,1222.78608540638,4214.95323732528,207.109572860623,13071.1094438527
"ostatní",458.308068991481,1237.19994309774,491.854062223291,2719.98162209246,693.089395356191,1184.0488360124,1054.38880203604,217.13578921356,13156.4674903486
"migrace",208.558032581995,373.763352408408,382.761390077235,604.222019013617,180.939549714851,218.193674168891,744.62419332175,38.8582595518954,1450.48526568611
"nevoliči",4215.49805581983,3287.32216294254,4738.66503598815,2682.10151440268,12010.3365476637,3410.43884834899,4193.42057343659,3645.29220398167,87478.2834636847
