"","ODS","KSČM","STAN+TOP","Piráti","SPD","ANO","KDU-ČSL","ostatní","migrace","nevoliči"
"KDU-ČSL",3047.85957395481,537.654136615068,2143.91768902555,4296.3846140907,840.383873460863,2398.8840161413,21522.6734048771,2286.79135975714,442.069523249838,17822.7814635747
"SPD",586.323069296844,2223.50100969588,802.947598392716,1363.08415364535,8304.61465547406,1120.7763001278,751.689866587763,1539.89154818668,518.166957840578,5558.55236990036
"Piráti",4834.66482108096,620.51411138825,6518.49978394192,12952.3147572678,1611.6710636215,4828.36231589878,1228.04038543186,4846.60407057929,581.257887268303,11672.3800333356
"TOP+Z+LES+MZH+I",3366.04223683346,344.312731249996,5152.61722191771,966.162628838252,724.345015516583,954.05178148132,439.4653388076,678.991993456651,379.351390346227,10741.8134353516
"ČSSD",738.695072878516,1617.80130509441,541.518047833437,769.737856898226,2298.47007150484,1615.71450356333,671.615503477301,3561.89310225305,384.513411984544,8339.30429237257
"ANO",2970.47779392304,3121.61452556827,891.659603043537,2211.47859629501,3656.81009237116,28883.6899245119,3065.49690960896,9854.80375470769,347.287662019326,16416.2718008539
"STAN+SOL",3193.49092513379,987.091083077273,1987.38684555136,3223.64832955682,725.59052265642,2694.39871895667,943.34169281138,2010.92662191231,504.373256776635,20894.1743729554
"ODS+Svobod.+SOM",16270.4176263511,567.269324088206,6280.22820682199,6801.0530646612,1006.9670640625,1162.08258397256,530.733208538957,2058.55054449001,458.264590684086,10570.2774967152
"ostatní",906.168963484811,6448.3633098251,622.218618857341,1266.2124518659,3010.13325695103,6296.2023947132,720.968921180293,6196.63117408044,451.889421003581,7229.4082333785
"migrace",317.94180184662,218.0469919363,246.021870402906,304.439473052158,250.248098033423,408.942613803836,269.271741463016,396.794356294529,72.2814928906233,6603.69104288848
"nevoliči",1410.91811521602,2554.83147146126,1364.98451421152,2250.48407382854,4115.76628634762,4345.89484682927,2339.70302721582,10347.1214742822,3427.54440593626,552452.345458674
