"","ČSSD + Zelení","SPD","Piráti","KDU+VPM+Nestr.","TOP 09+HDK+LES","ANO","ODS+STAN+VČ","ostatní","migrace","nevoliči"
"Horáček",0.0645609837715064,0.0307835697566194,0.190235367643119,0.0149280316093421,0.0580326622107425,0.122426968785841,0.134577243170754,0.0715635034961777,0.00838429776778086,0.304507371788117
"Fischer",0.0363210880624078,0.0460576101937319,0.152656114264175,0.146296090513292,0.040439950289699,0.0789548560643817,0.116400448069517,0.0456004842194068,0.0110015999374168,0.326271758385971
"Zeman",0.0198041606773476,0.0149346541110907,0.0159304812737772,0.0130986397053153,0.0162607427284685,0.200269623431001,0.0231421758028515,0.048506326484968,0.0121872030991011,0.635865992686079
"Hilšer",0.0566535781378091,0.0346609810432299,0.148561688162354,0.0210161508351052,0.0263430313515054,0.103374859201372,0.12215080587255,0.0751830012136917,0.00944009942469445,0.402615804757688
"Drahoš",0.0778368417618609,0.0303276382519606,0.0677844136611267,0.0825325659399113,0.0804573780187543,0.0558023204109427,0.297758327646973,0.0395818639860427,0.0540671560192463,0.213851494303182
"ostatní",0.0698085732324201,0.0615677346014752,0.124778899262553,0.0293558869203375,0.0397457981695459,0.125503406690415,0.166413490933444,0.0856469876936526,0.0122808063374271,0.28489841615873
"migrace",0.0561751388092828,0.0336549385808705,0.0959202084524415,0.0602629645019925,0.0486048700507223,0.0748208902827087,0.212218980138681,0.0973938390282934,0.00863191521117273,0.312316254943835
"nevoliči",0.0122261803330062,0.0109701620875592,0.0139865052290175,0.0091178426102882,0.0102185422379741,0.0179270271842066,0.0143072066122727,0.00951483111399953,0.00785082953512843,0.893880873056547
