"","STAN","ODS+TOP 09","KDU+SNKED+Nestr","Piráti","ČSSD+SproK","ANO","ostatní","migrace","nevoliči"
"ODS",0.0198335504584839,0.441734003411085,0.0835521086349392,0.0429107162716568,0.032305331139248,0.0385154543607007,0.0603879662987945,0.011793949549982,0.26896691987511
"ČSSD",0.0149783480608006,0.0185413135830971,0.0398836622081379,0.0263033792033846,0.0871016664074498,0.0813179849251718,0.0620101849464322,0.0110777902862212,0.658785670379305
"STAN",0.264158862593852,0.0421132942067175,0.0839205573597413,0.0567217381935345,0.0550014635837881,0.0737011772769773,0.135638022969474,0.0144410381903613,0.274303845625554
"KSČM",0.0208902613876483,0.0165755230522212,0.0212180211343252,0.0262533701332157,0.0282235124286681,0.098147637796737,0.213191419050998,0.011498139107498,0.564002115908689
"Piráti",0.0244875863957369,0.047195998237904,0.0235286356975493,0.228014292233163,0.0379668250365243,0.0513843501555701,0.10309076801754,0.0100783779747399,0.474253166251272
"ANO",0.0122563895289309,0.0157424812148946,0.0160129792232617,0.0182974461450593,0.0319948672162334,0.210846222764148,0.0427601159402324,0.00851171957651583,0.643577778390724
"KDU-ČSL",0.0232048864200537,0.0309445451944411,0.472993390975139,0.0485676120079683,0.0965296736076967,0.0380435007259668,0.0238805391643502,0.0112571094494379,0.254578742454946
"SPD",0.0167987177250756,0.0162567390404069,0.0205735864145693,0.0509623923755081,0.0503005299347408,0.0552141828124115,0.190323721678678,0.00935191032561226,0.590218219692997
"ostatní",0.0216055924824704,0.0583241701345696,0.0231870201470129,0.128225572410401,0.0326736709282463,0.0558185167599633,0.0497060739624339,0.0102362312438251,0.620223151931077
"migrace",0.0496282476414248,0.0889403298591291,0.0910814933338078,0.14378002908241,0.0430561828293339,0.0519211346663851,0.177189981169579,0.00924667011901375,0.345155931298916
"nevoliči",0.033546494397991,0.0261601673309505,0.0377098027276439,0.0213438844559624,0.0955770071244474,0.0271399170882977,0.0333708040930058,0.0290088556276487,0.696143067154053
