"","Trikol+Souk+NEZ","STAN","KDU-ČSL","SPD","Piráti","ODS","ČSSD","ANO","ostatní","migrace","nevoliči"
"Horáček",0.0321385544905562,0.0848768614183182,0.0534275863847824,0.0458008172837284,0.226237157541514,0.0775553491264157,0.0348718545828803,0.270550748155819,0.0325301417894301,0.00915726431165593,0.1328536649149
"Fischer",0.0323547458585577,0.0981650444844146,0.359420042942835,0.0240916639705543,0.0883842314620959,0.0314737910080724,0.0258035869773205,0.0620101605446645,0.0239869411209952,0.0112066902503431,0.243103101380146
"Zeman",0.0232842549894244,0.0309557097778056,0.0654250370152964,0.0216144029215801,0.0246201634668513,0.0295282954706304,0.0564009941429885,0.12804571548329,0.0237008572477924,0.0218498550885117,0.57457471439583
"Hilšer",0.0471929522595505,0.0326167838291215,0.0528643151298992,0.0536398840885218,0.123547745115342,0.0391845121695799,0.0261297356503955,0.105310492582529,0.0576678346677278,0.00800362763132295,0.45384211687601
"Drahoš",0.0314420107818907,0.119954504192869,0.0715996891212762,0.0227302223332154,0.0664499768877997,0.0834038140398343,0.0278806954787902,0.0768945679419259,0.0214544784757895,0.0131221732255091,0.4650678675211
"ostatní",0.0323987717973468,0.10285069004727,0.0544897223612595,0.0897002376091347,0.132947347511941,0.140027163873177,0.0241654605661966,0.0601716656096356,0.0578558767436807,0.0109258645401496,0.294467199340208
"migrace",0.0675859940809185,0.110922151974899,0.130148541049703,0.0813650417063215,0.110999887821253,0.0771213853221154,0.0854018200012641,0.03825272266049,0.0642643154891446,0.00811090021867183,0.225827239675219
"nevoliči",0.0130923451646127,0.0157873186302791,0.0204812398935863,0.011811067911957,0.0173187566859718,0.0151232939652425,0.0227301841830269,0.0184027177884285,0.0127610376542955,0.0131663632778808,0.839325674844719
