"","ČSSD + Zelení","SPD","Piráti","KDU+VPM+Nestr.","TOP 09+HDK+LES","ANO","ODS+STAN+VČ","ostatní","migrace","nevoliči"
"ODS",0.044256489073581,0.0352375796013223,0.149456527229023,0.0411532803518529,0.0965571776525717,0.139711005215871,0.378193048873782,0.051016613822201,0.0142321766364497,0.0501861015433454
"STAN+TOP",0.0729552159324188,0.0268124338217215,0.214343069753256,0.0747616261441768,0.167490116697597,0.0689306447285045,0.226539543206263,0.0568808863358177,0.0149597641712702,0.076326699208975
"Piráti",0.0738131365025406,0.0253484112835837,0.362889635357123,0.078731394023486,0.0424647991112338,0.123827094966825,0.118359496012013,0.0446289529111508,0.0123383528139419,0.117598727018103
"SPD",0.0723174031490302,0.193061217389388,0.134799484786774,0.0866672779555638,0.0347499871514386,0.169814703699392,0.110301444404384,0.122339992552957,0.0121065523034137,0.0638419366076597
"ANO",0.0338155504557725,0.0340481522741875,0.067470444902668,0.0175635559453836,0.0237260620741754,0.550512183942081,0.0836151161264985,0.0395577670001106,0.0104117393822317,0.139279427896891
"KDU-ČSL",0.0544069406699073,0.0574687442496375,0.121246596697141,0.380085452425986,0.0617244702536375,0.0972072233751577,0.0918441094097965,0.0517510722515146,0.0147201145912969,0.0695452760759245
"KSČM",0.0445187618224443,0.114275221163678,0.0854785048274375,0.0451740961418888,0.0693047310169896,0.108580526504458,0.168962633194863,0.296419808327345,0.0119704292424874,0.0553152877584077
"ostatní",0.12341352698896,0.037373934306765,0.133615502310903,0.021914914765113,0.0273558021195828,0.172875515160079,0.0756726369146681,0.21243877810676,0.0112781647104384,0.18406122461673
"migrace",0.048837622908722,0.0470310568412142,0.160203971826019,0.0287806802522535,0.0716229049272147,0.134755718176975,0.134695434244502,0.0980665437301022,0.00963892619119177,0.266367140901806
"nevoliči",0.0228363395188771,0.00865031000834741,0.0133050206876989,0.0169222971546161,0.0178671267064256,0.027120011578219,0.0676669742874646,0.0130530622063945,0.0119216993301056,0.800657158521851
