"","Piráti","STAN+SNK ED","ČSSD","ODS+STO","ANO","KSČM","KDU-ČSL","ostatní","migrace","nevoliči"
"Horáček",0.122600269689239,0.056405458543961,0.0251936896091356,0.179320503516537,0.138527332947572,0.0244419253089491,0.0218983359871621,0.131681952341419,0.0111844628107408,0.288746069245284
"Fischer",0.104350877339739,0.0572759884579163,0.053745421020949,0.048639501166185,0.055451018606474,0.0249360613921262,0.28973535308678,0.0561986577996245,0.0164498550358987,0.293217266094307
"Zeman",0.0280121160971291,0.0288265462102092,0.0612563262306091,0.0251391590108706,0.129234921247736,0.0210609237665281,0.0269639280704584,0.0478818561099664,0.0223521836507895,0.609272039605704
"Hilšer",0.179299487413751,0.0675202593323803,0.0522032811513442,0.0481087195322056,0.0813821185540491,0.0257534743115028,0.0211806830676863,0.113647968948773,0.0104672336054739,0.400436774082834
"Drahoš",0.0545782848608938,0.0955744613484101,0.0788660759190054,0.124560008402522,0.0602900419979993,0.0305390438622689,0.053693826440416,0.106350991390835,0.0335929396629737,0.361954326114676
"ostatní",0.119530345153772,0.0636052101717962,0.0570136257527403,0.116758699947483,0.11866366726227,0.0479103778648114,0.030201667240759,0.115151047232745,0.0149866306229729,0.316178728750649
"migrace",0.116247643964923,0.112987112924162,0.0775417107386529,0.0722042202233168,0.0753037586219075,0.0303766361785231,0.0470579847818259,0.122255690236825,0.0106429318920794,0.335382310437784
"nevoliči",0.0136056222143154,0.0109059914324222,0.0136062447658068,0.0119585354019943,0.0154636088338674,0.0100961461051812,0.00888447597421281,0.0159923622550638,0.0072234547125644,0.892263558304572
