"","Trikol+Souk+NEZ","STAN","KDU-ČSL","SPD","Piráti","ODS","ČSSD","ANO","ostatní","migrace","nevoliči"
"Zeman",0.0160399757193909,0.0207812517224782,0.0373156200971489,0.0249853879404568,0.0215141990795912,0.0149197242434176,0.0501692393976147,0.144362438821205,0.0328660966324498,0.0144153907683016,0.622630675577945
"Drahoš",0.0381754775193555,0.124324477544703,0.184193349331476,0.0189257615976737,0.126021809026693,0.0965172322089181,0.0320150925678291,0.0599227675653893,0.0132638388458748,0.0188130024759616,0.287827191316126
"ostatní",NA,NA,NA,NA,NA,NA,NA,NA,NA,NA,NA
"migrace",0.097718741621168,0.105299636941816,0.0701931650809976,0.0822144198556414,0.100387587282304,0.0827223846934597,0.0758314366705626,0.103560214125523,0.0903805709941988,0.00666136758233378,0.185030475151995
"nevoliči",0.0166880332265666,0.0114916898230505,0.00937621737733166,0.027278578969504,0.0172940072544477,0.0130116785159079,0.0145470371508273,0.01300130243739,0.0197334284124931,0.00634737175733695,0.851230655075144
