"","SPD","PIRÁTI a STAN","ODS","ANO","KDU+Z+TOP+ProOl","ostatní","migrace","nevoliči"
"Horáček",0.0440159697075336,0.227236018993809,0.0617422547982726,0.133733673905495,0.044183161878879,0.0508732625843502,0.0127111396482612,0.425504518483398
"Fischer",0.0369536937212432,0.20118671381058,0.0357275619377298,0.084383057425869,0.430193867530623,0.032611263300163,0.0132488206515817,0.16569502162221
"Zeman",0.0356147885885728,0.0125215563574532,0.00915509148780353,0.220810592652894,0.0103869206728326,0.0704111343879812,0.00634143550930593,0.634758480343157
"Hilšer",0.0349342518766781,0.126056326805623,0.0490933792242531,0.0775342729672709,0.0474942114192258,0.151528236355888,0.0118689493322916,0.50149037201877
"Drahoš",0.031203082383377,0.189847686988028,0.095598198136623,0.0665467227331228,0.127217719337066,0.131409986119606,0.00899262072188326,0.349183983580293
"ostatní",0.0742163011256791,0.11651351284707,0.105158834287551,0.150115579136548,0.0820602312965974,0.10421067912509,0.0132309893815349,0.35449387279993
"migrace",0.0602354618951172,0.10465166518459,0.0753127540860739,0.0842656361499525,0.166965554840949,0.114201288244431,0.00914117736873189,0.385226462230155
"nevoliči",0.0145537216582764,0.019481825175872,0.0241276466782317,0.0212764883734661,0.0270746249943976,0.0201089317076812,0.0302502455553659,0.843126515856709
