"","SPD","Piráti","SLK","ODS","ANO","ostatní","migrace","nevoliči"
"Zeman",0.0206463364781065,0.0159264781740043,0.146160704122009,0.0180151706058527,0.147438774091164,0.026472579329239,0.0188276029160783,0.606512354283547
"Drahoš",0.0373470786398411,0.0932278319424277,0.299190196230431,0.0769446909945221,0.0534075330028873,0.179276154679844,0.0141231626213502,0.246483351888696
"ostatní",NA,NA,NA,NA,NA,NA,NA,NA
"migrace",0.116752000131567,0.118271064252509,0.150099476609279,0.0284343702623091,0.122942258874352,0.107903129049336,0.00803479216837046,0.347562908652277
"nevoliči",0.0150359895898597,0.0113728399697494,0.0162876388282769,0.0127665563454033,0.0160841405339471,0.0148662493949449,0.0143587595404656,0.899227825797353
